EESchema Schematic File Version 4
LIBS:TestBoard-COB-cache
EELAYER 26 0
EELAYER END
$Descr A4 11693 8268
encoding utf-8
Sheet 8 11
Title "Clock Generation"
Date "2019-10-16"
Rev ""
Comp "KIP, Uni-Heidelberg"
Comment1 ""
Comment2 ""
Comment3 ""
Comment4 ""
$EndDescr
$Comp
L KLauS-ASIC:Si514_Si510 U22
U 1 1 5DA690EA
P 3000 3150
F 0 "U22" H 3000 3687 60  0000 C CNN
F 1 "Si514_Si510" H 3000 3581 60  0000 C CNN
F 2 "KLauS-Custom:SI514" H 3000 3150 60  0001 C CNN
F 3 "" H 3000 3150 60  0000 C CNN
	1    3000 3150
	1    0    0    -1  
$EndComp
Wire Wire Line
	2250 3000 2500 3000
Wire Wire Line
	2250 3150 2500 3150
$Comp
L KLauS-ASIC:SN65LVDS104 U21
U 1 1 5DA69230
P 5200 3050
F 0 "U21" H 5200 3687 60  0000 C CNN
F 1 "SN65LVDS104" H 5200 3581 60  0000 C CNN
F 2 "KLauS-Custom:TSSOP-16" H 5200 3000 60  0001 C CNN
F 3 "" H 5200 3000 60  0000 C CNN
	1    5200 3050
	1    0    0    -1  
$EndComp
Wire Wire Line
	3750 3200 3750 3150
Wire Wire Line
	4700 3000 4600 3000
Wire Wire Line
	4600 3000 4600 2900
Wire Wire Line
	4600 2700 4700 2700
Wire Wire Line
	4700 2800 4600 2800
Connection ~ 4600 2800
Wire Wire Line
	4600 2800 4600 2700
Wire Wire Line
	4700 2900 4600 2900
Connection ~ 4600 2900
Wire Wire Line
	4600 2900 4600 2800
Wire Wire Line
	4600 3100 4600 3400
Wire Wire Line
	4600 3400 4700 3400
Connection ~ 4600 3100
Wire Wire Line
	4600 3100 4700 3100
Wire Wire Line
	4350 3100 4600 3100
$Comp
L Device:C C73
U 1 1 5DA697BA
P 4350 2900
F 0 "C73" H 4465 2946 50  0000 L CNN
F 1 "100n" H 4465 2855 50  0000 L CNN
F 2 "Capacitor_SMD:C_0603_1608Metric" H 4388 2750 50  0001 C CNN
F 3 "" H 4350 2900 50  0000 C CNN
	1    4350 2900
	1    0    0    -1  
$EndComp
Wire Wire Line
	4350 3050 4350 3100
Wire Wire Line
	4600 2700 4350 2700
Wire Wire Line
	4350 2700 4350 2750
Connection ~ 4600 2700
Connection ~ 4350 2700
Wire Wire Line
	4350 2700 4050 2700
Wire Wire Line
	3600 2700 3600 3000
Wire Wire Line
	3600 3000 3500 3000
$Comp
L Device:C C72
U 1 1 5DA69D74
P 3800 2900
F 0 "C72" H 3915 2946 50  0000 L CNN
F 1 "100n" H 3915 2855 50  0000 L CNN
F 2 "Capacitor_SMD:C_0603_1608Metric" H 3838 2750 50  0001 C CNN
F 3 "" H 3800 2900 50  0000 C CNN
	1    3800 2900
	1    0    0    -1  
$EndComp
Wire Wire Line
	3800 2750 3800 2700
Connection ~ 3800 2700
Wire Wire Line
	3800 2700 3600 2700
Wire Wire Line
	3800 3050 3800 3100
Wire Wire Line
	3800 3100 4350 3100
Connection ~ 4350 3100
$Comp
L power:+3.3V #PWR0166
U 1 1 5DA6A3A3
P 4050 2700
F 0 "#PWR0166" H 4050 2550 50  0001 C CNN
F 1 "+3.3V" H 4065 2873 50  0000 C CNN
F 2 "" H 4050 2700 50  0000 C CNN
F 3 "" H 4050 2700 50  0000 C CNN
	1    4050 2700
	1    0    0    -1  
$EndComp
Connection ~ 4050 2700
Wire Wire Line
	4050 2700 3800 2700
$Comp
L power:GNDD #PWR0168
U 1 1 5DA6A3DA
P 4600 3400
F 0 "#PWR0168" H 4600 3150 50  0001 C CNN
F 1 "GNDD" H 4605 3227 50  0000 C CNN
F 2 "" H 4600 3400 50  0000 C CNN
F 3 "" H 4600 3400 50  0000 C CNN
	1    4600 3400
	1    0    0    -1  
$EndComp
Connection ~ 4600 3400
$Comp
L power:GNDD #PWR0167
U 1 1 5DA6A408
P 2500 3300
F 0 "#PWR0167" H 2500 3050 50  0001 C CNN
F 1 "GNDD" H 2505 3127 50  0000 C CNN
F 2 "" H 2500 3300 50  0000 C CNN
F 3 "" H 2500 3300 50  0000 C CNN
	1    2500 3300
	1    0    0    -1  
$EndComp
Text HLabel 2250 3000 0    50   Input ~ 0
osc_sda
Text HLabel 2250 3150 0    50   Input ~ 0
osc_scl
NoConn ~ 5700 3300
NoConn ~ 5700 3400
Wire Wire Line
	6000 3200 5700 3200
Wire Wire Line
	6000 3100 5700 3100
Wire Wire Line
	6000 3000 5700 3000
Wire Wire Line
	6000 2900 5700 2900
Wire Wire Line
	6000 2800 5700 2800
Wire Wire Line
	6000 2700 5700 2700
Text HLabel 6000 2700 2    50   Output ~ 0
FPGA_clk_P
Text HLabel 6000 2800 2    50   Output ~ 0
FPGA_clk_N
Text HLabel 6000 2900 2    50   Output ~ 0
sys_clk_P
Text HLabel 6000 3000 2    50   Output ~ 0
sys_clk_N
Text HLabel 6000 3100 2    50   Output ~ 0
ext_clk_P
Text HLabel 6000 3200 2    50   Output ~ 0
ext_clk_N
$Comp
L Device:R R59
U 1 1 5DA6C590
P 3850 4000
F 0 "R59" H 3920 4046 50  0000 L CNN
F 1 "100" H 3920 3955 50  0000 L CNN
F 2 "Resistor_SMD:R_0603_1608Metric" V 3780 4000 50  0001 C CNN
F 3 "" H 3850 4000 50  0000 C CNN
	1    3850 4000
	1    0    0    -1  
$EndComp
Wire Wire Line
	3650 3750 3850 3750
Wire Wire Line
	3850 3750 3850 3850
Wire Wire Line
	3650 4250 3850 4250
Wire Wire Line
	3850 4250 3850 4150
Text HLabel 3650 3750 0    50   Input ~ 0
i_clk_P
Text HLabel 3650 4250 0    50   Input ~ 0
i_clk_N
$Comp
L Device:R R61
U 1 1 5DA6D292
P 5000 4000
F 0 "R61" H 5070 4046 50  0000 L CNN
F 1 "100" H 5070 3955 50  0000 L CNN
F 2 "Resistor_SMD:R_0603_1608Metric" V 4930 4000 50  0001 C CNN
F 3 "" H 5000 4000 50  0000 C CNN
	1    5000 4000
	1    0    0    -1  
$EndComp
Wire Wire Line
	5000 3750 5000 3850
Wire Wire Line
	4800 3750 5000 3750
Wire Wire Line
	4800 4250 5000 4250
Wire Wire Line
	5000 4250 5000 4150
Text Label 4800 3750 0    50   ~ 0
ext_clk_P
Text Label 4800 4250 0    50   ~ 0
ext_clk_N
Text Label 3550 3300 0    50   ~ 0
i_clk_N
Text Label 3550 3150 0    50   ~ 0
i_clk_P
Wire Wire Line
	3500 3150 3750 3150
Wire Wire Line
	3750 3200 4700 3200
Wire Wire Line
	3500 3300 4700 3300
$Comp
L Connector:Conn_01x02_Male J1
U 1 1 606435D3
P 4250 4050
F 0 "J1" H 4223 3930 50  0000 R CNN
F 1 "Conn_01x02_Male" H 4223 4021 50  0000 R CNN
F 2 "Connector_PinHeader_2.54mm:PinHeader_1x02_P2.54mm_Vertical" H 4250 4050 50  0001 C CNN
F 3 "~" H 4250 4050 50  0001 C CNN
	1    4250 4050
	-1   0    0    1   
$EndComp
Wire Wire Line
	4050 4050 4050 4250
Wire Wire Line
	4050 4250 3850 4250
Connection ~ 3850 4250
Wire Wire Line
	4050 3950 4050 3750
Wire Wire Line
	4050 3750 3850 3750
Connection ~ 3850 3750
$EndSCHEMATC
