EESchema Schematic File Version 4
LIBS:TestBoard-COB-cache
EELAYER 26 0
EELAYER END
$Descr A4 11693 8268
encoding utf-8
Sheet 7 11
Title "CMOS to LVDS converter"
Date "2019-10-15"
Rev ""
Comp "KIP, Uni-Heidelberg"
Comment1 ""
Comment2 ""
Comment3 ""
Comment4 ""
$EndDescr
$Comp
L KLauS-ASIC:ADN4661 U18
U 1 1 5DA5BD8C
P 3600 2100
F 0 "U18" H 3600 2747 60  0000 C CNN
F 1 "ADN4661" H 3600 2641 60  0000 C CNN
F 2 "KLauS-Custom:SOIC-8_3.9x4.9mm_Pitch1.27mm" H 3600 2100 60  0001 C CNN
F 3 "" H 3600 2100 60  0001 C CNN
	1    3600 2100
	1    0    0    -1  
$EndComp
Wire Wire Line
	3000 1650 3000 1700
Wire Wire Line
	3000 1700 3100 1700
Wire Wire Line
	4300 1700 4100 1700
Wire Wire Line
	4300 1800 4100 1800
Wire Wire Line
	3100 2000 2700 2000
$Comp
L power:GNDD #PWR0157
U 1 1 5DA5C03A
P 2700 2000
F 0 "#PWR0157" H 2700 1750 50  0001 C CNN
F 1 "GNDD" H 2705 1827 50  0000 C CNN
F 2 "" H 2700 2000 50  0000 C CNN
F 3 "" H 2700 2000 50  0000 C CNN
	1    2700 2000
	1    0    0    -1  
$EndComp
$Comp
L Device:C C69
U 1 1 5DA5C7CC
P 2000 1850
F 0 "C69" H 2115 1896 50  0000 L CNN
F 1 "100n" H 2115 1805 50  0000 L CNN
F 2 "Capacitor_SMD:C_0603_1608Metric" H 2038 1700 50  0001 C CNN
F 3 "" H 2000 1850 50  0000 C CNN
	1    2000 1850
	1    0    0    -1  
$EndComp
$Comp
L power:GNDD #PWR0156
U 1 1 5DA5C832
P 2000 2000
F 0 "#PWR0156" H 2000 1750 50  0001 C CNN
F 1 "GNDD" H 2005 1827 50  0000 C CNN
F 2 "" H 2000 2000 50  0000 C CNN
F 3 "" H 2000 2000 50  0000 C CNN
	1    2000 2000
	1    0    0    -1  
$EndComp
$Comp
L KLauS-ASIC:ADN4661 U19
U 1 1 5DA5CACA
P 3600 3100
F 0 "U19" H 3600 3747 60  0000 C CNN
F 1 "ADN4661" H 3600 3641 60  0000 C CNN
F 2 "KLauS-Custom:SOIC-8_3.9x4.9mm_Pitch1.27mm" H 3600 3100 60  0001 C CNN
F 3 "" H 3600 3100 60  0001 C CNN
	1    3600 3100
	1    0    0    -1  
$EndComp
Wire Wire Line
	3000 2650 3000 2700
Wire Wire Line
	3000 2700 3100 2700
Wire Wire Line
	4300 2700 4100 2700
Wire Wire Line
	4300 2800 4100 2800
Wire Wire Line
	3100 3000 2700 3000
$Comp
L power:GNDD #PWR0161
U 1 1 5DA5CAE2
P 2700 3000
F 0 "#PWR0161" H 2700 2750 50  0001 C CNN
F 1 "GNDD" H 2705 2827 50  0000 C CNN
F 2 "" H 2700 3000 50  0000 C CNN
F 3 "" H 2700 3000 50  0000 C CNN
	1    2700 3000
	1    0    0    -1  
$EndComp
$Comp
L Device:C C70
U 1 1 5DA5CAEF
P 2000 2850
F 0 "C70" H 2115 2896 50  0000 L CNN
F 1 "100n" H 2115 2805 50  0000 L CNN
F 2 "Capacitor_SMD:C_0603_1608Metric" H 2038 2700 50  0001 C CNN
F 3 "" H 2000 2850 50  0000 C CNN
	1    2000 2850
	1    0    0    -1  
$EndComp
$Comp
L power:GNDD #PWR0160
U 1 1 5DA5CAF5
P 2000 3000
F 0 "#PWR0160" H 2000 2750 50  0001 C CNN
F 1 "GNDD" H 2005 2827 50  0000 C CNN
F 2 "" H 2000 3000 50  0000 C CNN
F 3 "" H 2000 3000 50  0000 C CNN
	1    2000 3000
	1    0    0    -1  
$EndComp
$Comp
L KLauS-ASIC:ADN4661 U20
U 1 1 5DA5CCE1
P 3600 4250
F 0 "U20" H 3600 4897 60  0000 C CNN
F 1 "ADN4661" H 3600 4791 60  0000 C CNN
F 2 "KLauS-Custom:SOIC-8_3.9x4.9mm_Pitch1.27mm" H 3600 4250 60  0001 C CNN
F 3 "" H 3600 4250 60  0001 C CNN
	1    3600 4250
	1    0    0    -1  
$EndComp
Wire Wire Line
	3000 3800 3000 3850
Wire Wire Line
	3000 3850 3100 3850
Wire Wire Line
	4300 3850 4100 3850
Wire Wire Line
	4300 3950 4100 3950
$Comp
L Connector:Conn_Coaxial P28
U 1 1 5DA5CCF1
P 2700 3950
F 0 "P28" H 2850 4000 50  0000 C CNN
F 1 "T0trg" H 2850 3900 50  0000 C CNN
F 2 "KLauS-Custom:BNC_SMA" H 2700 3950 50  0001 C CNN
F 3 "" H 2700 3950 50  0000 C CNN
	1    2700 3950
	-1   0    0    -1  
$EndComp
Wire Wire Line
	3100 4150 2700 4150
Wire Wire Line
	2850 3950 2900 3950
$Comp
L power:GNDD #PWR0165
U 1 1 5DA5CCF9
P 2700 4150
F 0 "#PWR0165" H 2700 3900 50  0001 C CNN
F 1 "GNDD" H 2705 3977 50  0000 C CNN
F 2 "" H 2700 4150 50  0000 C CNN
F 3 "" H 2700 4150 50  0000 C CNN
	1    2700 4150
	1    0    0    -1  
$EndComp
$Comp
L Device:C C71
U 1 1 5DA5CD06
P 2000 4000
F 0 "C71" H 2115 4046 50  0000 L CNN
F 1 "100n" H 2115 3955 50  0000 L CNN
F 2 "Capacitor_SMD:C_0603_1608Metric" H 2038 3850 50  0001 C CNN
F 3 "" H 2000 4000 50  0000 C CNN
	1    2000 4000
	1    0    0    -1  
$EndComp
$Comp
L power:GNDD #PWR0164
U 1 1 5DA5CD0C
P 2000 4150
F 0 "#PWR0164" H 2000 3900 50  0001 C CNN
F 1 "GNDD" H 2005 3977 50  0000 C CNN
F 2 "" H 2000 4150 50  0000 C CNN
F 3 "" H 2000 4150 50  0000 C CNN
	1    2000 4150
	1    0    0    -1  
$EndComp
Text Label 4300 1800 0    50   ~ 0
FE_etrig_N
Text Label 4300 1700 0    50   ~ 0
FE_etrig_P
Text Label 4300 2800 0    50   ~ 0
FIFO_etrig_N
Text Label 4300 2700 0    50   ~ 0
FIFO_etrig_P
Text Label 4300 3950 0    50   ~ 0
T0_etrig_N
Text Label 4300 3850 0    50   ~ 0
T0_etrig_P
Text Label 2850 3950 0    50   ~ 0
T0_etrig
Text Label 2850 2800 0    50   ~ 0
FIFO_etrig
Text Label 2850 1800 0    50   ~ 0
FE_etrig
Text HLabel 5050 1650 2    50   Output ~ 0
FE_etrig_P
Text HLabel 5050 1800 2    50   Output ~ 0
FE_etrig_N
Text HLabel 5050 2700 2    50   Output ~ 0
FIFO_etrig_P
Text HLabel 5050 2800 2    50   Output ~ 0
FIFO_etrig_N
Text HLabel 5050 3850 2    50   Output ~ 0
T0_etrig_P
Text HLabel 5050 3950 2    50   Output ~ 0
T0_etrig_N
$Comp
L power:+3.3V #PWR0162
U 1 1 5DC64EBA
P 3000 3800
F 0 "#PWR0162" H 3000 3650 50  0001 C CNN
F 1 "+3.3V" H 3015 3973 50  0000 C CNN
F 2 "" H 3000 3800 50  0000 C CNN
F 3 "" H 3000 3800 50  0000 C CNN
	1    3000 3800
	1    0    0    -1  
$EndComp
$Comp
L power:+3.3V #PWR0163
U 1 1 5DC64EF7
P 2000 3850
F 0 "#PWR0163" H 2000 3700 50  0001 C CNN
F 1 "+3.3V" H 2015 4023 50  0000 C CNN
F 2 "" H 2000 3850 50  0000 C CNN
F 3 "" H 2000 3850 50  0000 C CNN
	1    2000 3850
	1    0    0    -1  
$EndComp
$Comp
L power:+3.3V #PWR0158
U 1 1 5DC64FA4
P 3000 2650
F 0 "#PWR0158" H 3000 2500 50  0001 C CNN
F 1 "+3.3V" H 3015 2823 50  0000 C CNN
F 2 "" H 3000 2650 50  0000 C CNN
F 3 "" H 3000 2650 50  0000 C CNN
	1    3000 2650
	1    0    0    -1  
$EndComp
$Comp
L power:+3.3V #PWR0159
U 1 1 5DC64FC1
P 2000 2700
F 0 "#PWR0159" H 2000 2550 50  0001 C CNN
F 1 "+3.3V" H 2015 2873 50  0000 C CNN
F 2 "" H 2000 2700 50  0000 C CNN
F 3 "" H 2000 2700 50  0000 C CNN
	1    2000 2700
	1    0    0    -1  
$EndComp
$Comp
L power:+3.3V #PWR0155
U 1 1 5DC64FDE
P 2000 1700
F 0 "#PWR0155" H 2000 1550 50  0001 C CNN
F 1 "+3.3V" H 2015 1873 50  0000 C CNN
F 2 "" H 2000 1700 50  0000 C CNN
F 3 "" H 2000 1700 50  0000 C CNN
	1    2000 1700
	1    0    0    -1  
$EndComp
$Comp
L power:+3.3V #PWR0154
U 1 1 5DC64FFB
P 3000 1650
F 0 "#PWR0154" H 3000 1500 50  0001 C CNN
F 1 "+3.3V" H 3015 1823 50  0000 C CNN
F 2 "" H 3000 1650 50  0000 C CNN
F 3 "" H 3000 1650 50  0000 C CNN
	1    3000 1650
	1    0    0    -1  
$EndComp
Wire Wire Line
	2900 3950 3100 3950
Connection ~ 2900 3950
Connection ~ 2700 4150
Connection ~ 2700 2000
Wire Wire Line
	2900 1800 3100 1800
Wire Wire Line
	2850 1800 2900 1800
Connection ~ 2900 1800
$Comp
L Connector:Conn_Coaxial P26
U 1 1 5DA5BEBA
P 2700 1800
F 0 "P26" H 2850 1850 50  0000 C CNN
F 1 "FEtrg" H 2850 1750 50  0000 C CNN
F 2 "KLauS-Custom:BNC_SMA" H 2700 1800 50  0001 C CNN
F 3 "" H 2700 1800 50  0000 C CNN
	1    2700 1800
	-1   0    0    -1  
$EndComp
Wire Wire Line
	2850 2800 2900 2800
$Comp
L Connector:Conn_Coaxial P27
U 1 1 605F6F13
P 2700 2800
F 0 "P27" H 2850 2850 50  0000 C CNN
F 1 "FOtrg" H 2850 2750 50  0000 C CNN
F 2 "KLauS-Custom:BNC_SMA" H 2700 2800 50  0001 C CNN
F 3 "" H 2700 2800 50  0000 C CNN
	1    2700 2800
	-1   0    0    -1  
$EndComp
Connection ~ 2900 2800
Wire Wire Line
	2900 2800 3100 2800
Connection ~ 2700 3000
$EndSCHEMATC
