EESchema Schematic File Version 4
LIBS:TestBoard-COB-cache
EELAYER 26 0
EELAYER END
$Descr A4 11693 8268
encoding utf-8
Sheet 6 11
Title "Power supply generation and monitoring"
Date "2019-10-15"
Rev ""
Comp "KIP, Uni-Heidelberg"
Comment1 ""
Comment2 ""
Comment3 ""
Comment4 ""
$EndDescr
$Comp
L Device:C C67
U 1 1 5DA62299
P 3250 7300
F 0 "C67" H 3300 7400 50  0000 L CNN
F 1 "47u" H 3300 7200 50  0000 L CNN
F 2 "Capacitor_SMD:C_1206_3216Metric" H 3288 7150 50  0001 C CNN
F 3 "" H 3250 7300 50  0000 C CNN
	1    3250 7300
	1    0    0    -1  
$EndComp
$Comp
L Device:C C68
U 1 1 5DA6229F
P 3550 7300
F 0 "C68" H 3600 7400 50  0000 L CNN
F 1 "10u" H 3600 7200 50  0000 L CNN
F 2 "Capacitor_SMD:C_0603_1608Metric" H 3588 7150 50  0001 C CNN
F 3 "" H 3550 7300 50  0000 C CNN
	1    3550 7300
	1    0    0    -1  
$EndComp
Wire Wire Line
	3250 7450 3250 7550
Wire Wire Line
	3250 7550 3550 7550
Wire Wire Line
	3550 7550 3550 7450
$Comp
L power:GNDA #PWR0105
U 1 1 5DA622A8
P 3250 7550
F 0 "#PWR0105" H 3250 7300 50  0001 C CNN
F 1 "GNDA" H 3255 7377 50  0000 C CNN
F 2 "" H 3250 7550 50  0000 C CNN
F 3 "" H 3250 7550 50  0000 C CNN
	1    3250 7550
	1    0    0    -1  
$EndComp
Connection ~ 3250 7550
Wire Wire Line
	3250 7050 3250 7150
Wire Wire Line
	3550 7050 3550 7150
$Comp
L Device:C C137
U 1 1 5DA622CB
P 3850 7300
F 0 "C137" H 3900 7400 50  0000 L CNN
F 1 "1u" H 3900 7200 50  0000 L CNN
F 2 "Capacitor_SMD:C_0603_1608Metric" H 3888 7150 50  0001 C CNN
F 3 "" H 3850 7300 50  0000 C CNN
	1    3850 7300
	1    0    0    -1  
$EndComp
Wire Wire Line
	3850 7050 3850 7150
Wire Wire Line
	3850 7450 3850 7550
Wire Wire Line
	3850 7550 3550 7550
Connection ~ 3550 7550
Wire Wire Line
	7450 2050 7550 2050
Text HLabel 7450 2050 0    50   Input ~ 0
EN_VD33
$Comp
L KLauS-ASIC:INA240 U13
U 1 1 5DA64B03
P 9300 3050
F 0 "U13" H 9300 3225 50  0000 C CNN
F 1 "INA240" H 9300 3134 50  0000 C CNN
F 2 "KLauS-Custom:TSSOP-8" H 9300 3050 50  0001 C CNN
F 3 "" H 9300 3050 50  0001 C CNN
	1    9300 3050
	1    0    0    -1  
$EndComp
Wire Wire Line
	9750 3200 9850 3200
Wire Wire Line
	9850 3200 9850 3300
Wire Wire Line
	9850 3400 9750 3400
Wire Wire Line
	9750 3300 9850 3300
$Comp
L Device:C C59
U 1 1 5DA64B0D
P 9300 3600
F 0 "C59" H 9350 3700 50  0000 L CNN
F 1 "100n" H 9350 3500 50  0000 L CNN
F 2 "Capacitor_SMD:C_0603_1608Metric" H 9338 3450 50  0001 C CNN
F 3 "" H 9300 3600 50  0000 C CNN
	1    9300 3600
	0    1    1    0   
$EndComp
Wire Wire Line
	9850 3400 9850 3600
Wire Wire Line
	9850 3600 9450 3600
Wire Wire Line
	8850 3400 8750 3400
Wire Wire Line
	8750 3400 8750 3600
Wire Wire Line
	8750 3600 9150 3600
Wire Wire Line
	8750 3100 8850 3100
Connection ~ 9850 3300
Wire Wire Line
	9950 3100 9750 3100
Wire Wire Line
	8850 3300 8750 3300
Wire Wire Line
	10100 3300 9850 3300
Text Notes 6900 1300 0    50   ~ 10
Power: \nVCCD33 for KLauS;\n+3.3V for others
$Comp
L power:GNDD #PWR0106
U 1 1 5DA693FC
P 8750 3100
F 0 "#PWR0106" H 8750 2850 50  0001 C CNN
F 1 "GNDD" V 8755 2972 50  0000 R CNN
F 2 "" H 8750 3100 50  0000 C CNN
F 3 "" H 8750 3100 50  0000 C CNN
	1    8750 3100
	0    1    1    0   
$EndComp
$Comp
L power:GNDD #PWR0107
U 1 1 5DA694AE
P 8750 3600
F 0 "#PWR0107" H 8750 3350 50  0001 C CNN
F 1 "GNDD" H 8755 3427 50  0000 C CNN
F 2 "" H 8750 3600 50  0000 C CNN
F 3 "" H 8750 3600 50  0000 C CNN
	1    8750 3600
	1    0    0    -1  
$EndComp
Connection ~ 8750 3600
$Comp
L power:GNDD #PWR0108
U 1 1 5DA6953C
P 10100 3300
F 0 "#PWR0108" H 10100 3050 50  0001 C CNN
F 1 "GNDD" H 10105 3127 50  0000 C CNN
F 2 "" H 10100 3300 50  0000 C CNN
F 3 "" H 10100 3300 50  0000 C CNN
	1    10100 3300
	1    0    0    -1  
$EndComp
$Comp
L power_special:VCCD33 #PWR0109
U 1 1 5DA6A0C7
P 8750 3300
F 0 "#PWR0109" H 8750 3150 50  0001 C CNN
F 1 "VCCD33" V 8768 3428 50  0000 L CNN
F 2 "" H 8750 3300 50  0000 C CNN
F 3 "" H 8750 3300 50  0000 C CNN
	1    8750 3300
	0    -1   -1   0   
$EndComp
$Comp
L Connector:Conn_01x04_Male P22
U 1 1 5DA72BD1
P 2150 7250
F 0 "P22" H 2150 7450 50  0000 L CNN
F 1 "CONN_01X04" H 2150 7000 50  0000 L CNN
F 2 "Connector-Custom:CONN_01X04_Power" H 2150 7250 50  0001 C CNN
F 3 "" H 2150 7250 50  0000 C CNN
	1    2150 7250
	-1   0    0    -1  
$EndComp
Wire Wire Line
	1450 7250 1950 7250
Wire Wire Line
	1450 7350 1950 7350
$Comp
L power:GNDD #PWR0110
U 1 1 5DA82289
P 1450 7350
F 0 "#PWR0110" H 1450 7100 50  0001 C CNN
F 1 "GNDD" V 1455 7222 50  0000 R CNN
F 2 "" H 1450 7350 50  0000 C CNN
F 3 "" H 1450 7350 50  0000 C CNN
	1    1450 7350
	0    1    1    0   
$EndComp
$Comp
L power:GNDA #PWR0111
U 1 1 5DA82376
P 1450 7250
F 0 "#PWR0111" H 1450 7000 50  0001 C CNN
F 1 "GNDA" V 1455 7123 50  0000 R CNN
F 2 "" H 1450 7250 50  0000 C CNN
F 3 "" H 1450 7250 50  0000 C CNN
	1    1450 7250
	0    1    1    0   
$EndComp
Wire Wire Line
	1050 7150 1350 7150
Wire Wire Line
	1050 7150 1050 7450
Wire Wire Line
	1050 7450 1950 7450
Wire Wire Line
	3250 7050 3550 7050
Connection ~ 3550 7050
Wire Wire Line
	3550 7050 3850 7050
$Comp
L power:+5V #PWR0112
U 1 1 5DA7A34F
P 1050 7150
F 0 "#PWR0112" H 1050 7000 50  0001 C CNN
F 1 "+5V" H 1065 7323 50  0000 C CNN
F 2 "" H 1050 7150 50  0000 C CNN
F 3 "" H 1050 7150 50  0000 C CNN
	1    1050 7150
	1    0    0    -1  
$EndComp
Connection ~ 1050 7150
$Comp
L power:+5V #PWR0113
U 1 1 5DA7ABC5
P 3250 7050
F 0 "#PWR0113" H 3250 6900 50  0001 C CNN
F 1 "+5V" H 3265 7223 50  0000 C CNN
F 2 "" H 3250 7050 50  0000 C CNN
F 3 "" H 3250 7050 50  0000 C CNN
	1    3250 7050
	1    0    0    -1  
$EndComp
Connection ~ 3250 7050
$Comp
L Device:R R46
U 1 1 5DAC47AF
P 7550 1900
F 0 "R46" H 7650 2000 50  0000 L CNN
F 1 "4k7(NC)" V 7450 1800 50  0000 L CNN
F 2 "Resistor_SMD:R_0402_1005Metric" V 7480 1900 50  0001 C CNN
F 3 "" H 7550 1900 50  0000 C CNN
	1    7550 1900
	1    0    0    -1  
$EndComp
Connection ~ 7550 2050
$Comp
L power:+5V #PWR0114
U 1 1 5DAC5177
P 6950 1600
F 0 "#PWR0114" H 6950 1450 50  0001 C CNN
F 1 "+5V" H 6965 1773 50  0000 C CNN
F 2 "" H 6950 1600 50  0000 C CNN
F 3 "" H 6950 1600 50  0000 C CNN
	1    6950 1600
	1    0    0    -1  
$EndComp
$Comp
L power:+3.3V #PWR0115
U 1 1 5DC70053
P 8750 3200
F 0 "#PWR0115" H 8750 3050 50  0001 C CNN
F 1 "+3.3V" V 8765 3328 50  0000 L CNN
F 2 "" H 8750 3200 50  0000 C CNN
F 3 "" H 8750 3200 50  0000 C CNN
	1    8750 3200
	0    -1   -1   0   
$EndComp
Wire Wire Line
	8750 3200 8850 3200
Connection ~ 9850 3600
$Comp
L power:+3.3V #PWR0116
U 1 1 5DAF665B
P 9850 3600
F 0 "#PWR0116" H 9850 3450 50  0001 C CNN
F 1 "+3.3V" V 9865 3728 50  0000 L CNN
F 2 "" H 9850 3600 50  0000 C CNN
F 3 "" H 9850 3600 50  0000 C CNN
	1    9850 3600
	0    1    1    0   
$EndComp
$Comp
L KLauS-ASIC:TP1 P21
U 1 1 5DAFE293
P 10150 3000
F 0 "P21" H 10277 2951 50  0000 L CNN
F 1 "TP1" H 10277 2860 50  0000 L CNN
F 2 "MountingHoles-Custom:TP1" H 10150 3000 50  0001 C CNN
F 3 "" H 10150 3000 50  0001 C CNN
	1    10150 3000
	1    0    0    -1  
$EndComp
$Comp
L tps7a92:TPS7A92 U?
U 1 1 60A5AE9D
P 8250 2000
AR Path="/5AD959B9/5AF65D27/5AD9EC30/5AE3B9A4/60A5AE9D" Ref="U?"  Part="1" 
AR Path="/5AD959B9/5AF65D27/5ADBB0CF/5AE3B9A4/60A5AE9D" Ref="U?"  Part="1" 
AR Path="/5AD959B9/5AF7A424/5AD9EC30/5AE3B9A4/60A5AE9D" Ref="U?"  Part="1" 
AR Path="/5AD959B9/5AF7A424/5ADBB0CF/5AE3B9A4/60A5AE9D" Ref="U?"  Part="1" 
AR Path="/5AD959B9/5AF7A48D/5AD9EC30/5AE3B9A4/60A5AE9D" Ref="U?"  Part="1" 
AR Path="/5AD959B9/5AF7A48D/5ADBB0CF/5AE3B9A4/60A5AE9D" Ref="U?"  Part="1" 
AR Path="/5AD959B9/5AF7E4E6/5AD9EC30/5AE3B9A4/60A5AE9D" Ref="U?"  Part="1" 
AR Path="/5AD959B9/5AF7E4E6/5ADBB0CF/5AE3B9A4/60A5AE9D" Ref="U?"  Part="1" 
AR Path="/5AD959B9/5AF7E54F/5AD9EC30/5AE3B9A4/60A5AE9D" Ref="U?"  Part="1" 
AR Path="/5AD959B9/5AF7E54F/5ADBB0CF/5AE3B9A4/60A5AE9D" Ref="U?"  Part="1" 
AR Path="/5AD959B9/5AF7E5B8/5AD9EC30/5AE3B9A4/60A5AE9D" Ref="U?"  Part="1" 
AR Path="/5AD959B9/5AF7E5B8/5ADBB0CF/5AE3B9A4/60A5AE9D" Ref="U?"  Part="1" 
AR Path="/5AD959B9/5AF703E3/5AD9EC30/5AE3B9A4/60A5AE9D" Ref="U?"  Part="1" 
AR Path="/5AD959B9/5AF703E3/5ADBB0CF/5AE3B9A4/60A5AE9D" Ref="U?"  Part="1" 
AR Path="/5DA57814/60A5AE9D" Ref="U11"  Part="1" 
F 0 "U11" H 8500 1500 60  0000 C CNN
F 1 "TPS7A92" H 8250 2300 60  0000 C CNN
F 2 "TPS7A92:Texas_R-PWSON-N10_ThermalVias" H 8250 1800 60  0001 C CNN
F 3 "" H 8250 1800 60  0000 C CNN
	1    8250 2000
	1    0    0    -1  
$EndComp
$Comp
L Device:R R48
U 1 1 60A5B12D
P 9000 2000
F 0 "R48" V 9100 2000 50  0000 C CNN
F 1 "3K57" V 9000 2000 50  0000 C CNN
F 2 "Resistor_SMD:R_0402_1005Metric" V 8930 2000 50  0001 C CNN
F 3 "" H 9000 2000 50  0000 C CNN
	1    9000 2000
	-1   0    0    1   
$EndComp
Wire Wire Line
	8750 1850 8750 1950
$Comp
L Device:C C49
U 1 1 60A8AA84
P 9500 2050
F 0 "C49" H 9550 2150 50  0000 L CNN
F 1 "100n" H 9550 1950 50  0000 L CNN
F 2 "Capacitor_SMD:C_0603_1608Metric" H 9538 1900 50  0001 C CNN
F 3 "" H 9500 2050 50  0000 C CNN
	1    9500 2050
	1    0    0    -1  
$EndComp
$Comp
L Device:C C50
U 1 1 60A8AA8A
P 9750 2050
F 0 "C50" H 9800 2150 50  0000 L CNN
F 1 "10u" H 9800 1950 50  0000 L CNN
F 2 "Capacitor_SMD:C_0603_1608Metric" H 9788 1900 50  0001 C CNN
F 3 "" H 9750 2050 50  0000 C CNN
	1    9750 2050
	1    0    0    -1  
$EndComp
Wire Wire Line
	9500 2200 9500 2300
Wire Wire Line
	9500 2300 9750 2300
Wire Wire Line
	9750 2300 9750 2200
Wire Wire Line
	9500 1800 9500 1900
Wire Wire Line
	9750 1800 9750 1900
$Comp
L Device:R R44
U 1 1 60A8AA95
P 9950 1800
F 0 "R44" V 10050 1800 50  0000 C CNN
F 1 "0" V 9950 1800 50  0000 C CNN
F 2 "Resistor_SMD:R_0603_1608Metric" V 9880 1800 50  0001 C CNN
F 3 "" H 9950 1800 50  0000 C CNN
	1    9950 1800
	0    1    1    0   
$EndComp
Wire Wire Line
	9750 1800 9500 1800
Wire Wire Line
	9800 1800 9750 1800
Connection ~ 9750 1800
$Comp
L Device:C C51
U 1 1 60A8AA9E
P 10150 2050
F 0 "C51" H 10200 2150 50  0000 L CNN
F 1 "100n" H 10200 1950 50  0000 L CNN
F 2 "Capacitor_SMD:C_0603_1608Metric" H 10188 1900 50  0001 C CNN
F 3 "" H 10150 2050 50  0000 C CNN
	1    10150 2050
	1    0    0    -1  
$EndComp
$Comp
L Device:C C52
U 1 1 60A8AAA4
P 10400 2050
F 0 "C52" H 10450 2150 50  0000 L CNN
F 1 "10u" H 10450 1950 50  0000 L CNN
F 2 "Capacitor_SMD:C_0603_1608Metric" H 10438 1900 50  0001 C CNN
F 3 "" H 10400 2050 50  0000 C CNN
	1    10400 2050
	1    0    0    -1  
$EndComp
Wire Wire Line
	10150 2200 10150 2300
Wire Wire Line
	10150 2300 10400 2300
Wire Wire Line
	10400 2300 10400 2200
Wire Wire Line
	10150 1800 10150 1900
Wire Wire Line
	10400 1800 10400 1900
Wire Wire Line
	10100 1800 10150 1800
Connection ~ 10150 1800
Wire Wire Line
	10150 1800 10400 1800
$Comp
L Device:C C53
U 1 1 60A8AAB2
P 10650 2050
F 0 "C53" H 10700 2150 50  0000 L CNN
F 1 "47u" H 10700 1950 50  0000 L CNN
F 2 "Capacitor_SMD:C_1206_3216Metric" H 10688 1900 50  0001 C CNN
F 3 "" H 10650 2050 50  0000 C CNN
	1    10650 2050
	1    0    0    -1  
$EndComp
Wire Wire Line
	10650 1800 10650 1900
Connection ~ 10400 1800
Wire Wire Line
	10650 2200 10650 2300
Wire Wire Line
	10650 2300 10400 2300
Connection ~ 10400 2300
$Comp
L power:GNDD #PWR0117
U 1 1 60A8AABE
P 9500 2300
F 0 "#PWR0117" H 9500 2050 50  0001 C CNN
F 1 "GNDD" H 9505 2127 50  0000 C CNN
F 2 "" H 9500 2300 50  0000 C CNN
F 3 "" H 9500 2300 50  0000 C CNN
	1    9500 2300
	1    0    0    -1  
$EndComp
Connection ~ 9500 2300
$Comp
L power:GNDD #PWR0118
U 1 1 60A8AAC5
P 10150 2300
F 0 "#PWR0118" H 10150 2050 50  0001 C CNN
F 1 "GNDD" H 10155 2127 50  0000 C CNN
F 2 "" H 10150 2300 50  0000 C CNN
F 3 "" H 10150 2300 50  0000 C CNN
	1    10150 2300
	1    0    0    -1  
$EndComp
Connection ~ 10150 2300
$Comp
L power_special:VCCD33 #PWR0119
U 1 1 60A8AACC
P 10650 1800
F 0 "#PWR0119" H 10650 1650 50  0001 C CNN
F 1 "VCCD33" H 10667 1973 50  0000 C CNN
F 2 "" H 10650 1800 50  0000 C CNN
F 3 "" H 10650 1800 50  0000 C CNN
	1    10650 1800
	1    0    0    -1  
$EndComp
Connection ~ 10650 1800
$Comp
L power:+3.3V #PWR0120
U 1 1 60A8AAD3
P 9350 1800
F 0 "#PWR0120" H 9350 1650 50  0001 C CNN
F 1 "+3.3V" V 9365 1928 50  0000 L CNN
F 2 "" H 9350 1800 50  0000 C CNN
F 3 "" H 9350 1800 50  0000 C CNN
	1    9350 1800
	1    0    0    -1  
$EndComp
Connection ~ 9500 1800
$Comp
L Device:R R50
U 1 1 60A9CFC4
P 9000 2350
F 0 "R50" V 9100 2350 50  0000 C CNN
F 1 "1K15" V 9000 2350 50  0000 C CNN
F 2 "Resistor_SMD:R_0402_1005Metric" V 8930 2350 50  0001 C CNN
F 3 "" H 9000 2350 50  0000 C CNN
	1    9000 2350
	-1   0    0    1   
$EndComp
Wire Wire Line
	8750 2250 8750 2350
Wire Wire Line
	8750 2350 8750 2500
Connection ~ 8750 2350
$Comp
L power:GNDD #PWR0121
U 1 1 60AC233F
P 8750 2500
F 0 "#PWR0121" H 8750 2250 50  0001 C CNN
F 1 "GNDD" H 8755 2327 50  0000 C CNN
F 2 "" H 8750 2500 50  0000 C CNN
F 3 "" H 8750 2500 50  0000 C CNN
	1    8750 2500
	1    0    0    -1  
$EndComp
$Comp
L power:GNDD #PWR0122
U 1 1 60AC23E2
P 9000 2500
F 0 "#PWR0122" H 9000 2250 50  0001 C CNN
F 1 "GNDD" H 9005 2327 50  0000 C CNN
F 2 "" H 9000 2500 50  0000 C CNN
F 3 "" H 9000 2500 50  0000 C CNN
	1    9000 2500
	1    0    0    -1  
$EndComp
Wire Wire Line
	9000 2200 8850 2200
Wire Wire Line
	8850 2200 8850 2100
Wire Wire Line
	8850 2100 8750 2100
Connection ~ 9000 2200
$Comp
L Device:C C48
U 1 1 60AFA57A
P 9150 2000
F 0 "C48" H 9200 2100 50  0000 L CNN
F 1 "100n" H 9200 1900 50  0000 L CNN
F 2 "Capacitor_SMD:C_0402_1005Metric" H 9188 1850 50  0001 C CNN
F 3 "" H 9150 2000 50  0000 C CNN
	1    9150 2000
	1    0    0    -1  
$EndComp
Wire Wire Line
	9000 2200 9000 2150
Wire Wire Line
	9150 2150 9000 2150
Connection ~ 9000 2150
Wire Wire Line
	8750 1850 8750 1800
Wire Wire Line
	9150 1800 9150 1850
Connection ~ 8750 1850
Wire Wire Line
	9000 1850 9000 1800
Connection ~ 9000 1800
Wire Wire Line
	9000 1800 9150 1800
Connection ~ 9150 1800
Connection ~ 9350 1800
Wire Wire Line
	9350 1800 9500 1800
$Comp
L Device:C C56
U 1 1 60B94B90
P 6950 2300
F 0 "C56" H 7000 2400 50  0000 L CNN
F 1 "22u" H 7000 2200 50  0000 L CNN
F 2 "Capacitor_SMD:C_0603_1608Metric" H 6988 2150 50  0001 C CNN
F 3 "" H 6950 2300 50  0000 C CNN
	1    6950 2300
	1    0    0    -1  
$EndComp
$Comp
L Device:C C57
U 1 1 60B94C6C
P 7350 2300
F 0 "C57" H 7400 2400 50  0000 L CNN
F 1 "100n" H 7400 2200 50  0000 L CNN
F 2 "Capacitor_SMD:C_0402_1005Metric" H 7388 2150 50  0001 C CNN
F 3 "" H 7350 2300 50  0000 C CNN
	1    7350 2300
	1    0    0    -1  
$EndComp
Wire Wire Line
	7750 1950 7700 1950
Wire Wire Line
	7700 1950 7700 1850
Wire Wire Line
	7700 1850 7750 1850
Wire Wire Line
	7700 1850 7700 1700
Connection ~ 7700 1850
Wire Wire Line
	7700 1700 7550 1700
Wire Wire Line
	7550 1700 7550 1750
Wire Wire Line
	6950 1700 6950 1600
Wire Wire Line
	7550 2050 7750 2050
NoConn ~ 7750 2350
$Comp
L power:GNDD #PWR0123
U 1 1 60C0F79A
P 7350 2600
F 0 "#PWR0123" H 7350 2350 50  0001 C CNN
F 1 "GNDD" H 7355 2427 50  0000 C CNN
F 2 "" H 7350 2600 50  0000 C CNN
F 3 "" H 7350 2600 50  0000 C CNN
	1    7350 2600
	1    0    0    -1  
$EndComp
Wire Wire Line
	7350 2600 7350 2500
Wire Wire Line
	7750 2150 7350 2150
Wire Wire Line
	7750 2250 7650 2250
Wire Wire Line
	7650 2250 7650 2500
Wire Wire Line
	7650 2500 7350 2500
Connection ~ 7350 2500
Wire Wire Line
	7350 2500 7350 2450
$Comp
L power:GNDD #PWR0124
U 1 1 60C4F1EE
P 6950 2600
F 0 "#PWR0124" H 6950 2350 50  0001 C CNN
F 1 "GNDD" H 6955 2427 50  0000 C CNN
F 2 "" H 6950 2600 50  0000 C CNN
F 3 "" H 6950 2600 50  0000 C CNN
	1    6950 2600
	1    0    0    -1  
$EndComp
Wire Wire Line
	6950 2600 6950 2450
Wire Wire Line
	6950 2150 6950 1700
Wire Wire Line
	6950 1700 7550 1700
Connection ~ 7550 1700
Connection ~ 6950 1700
Wire Wire Line
	9150 1800 9350 1800
Wire Wire Line
	8750 1800 9000 1800
Wire Wire Line
	7500 5100 7600 5100
Text HLabel 7500 5100 0    50   Input ~ 0
EN_VD18
$Comp
L KLauS-ASIC:INA240 U17
U 1 1 60E4B046
P 9350 6100
F 0 "U17" H 9350 6275 50  0000 C CNN
F 1 "INA240" H 9350 6184 50  0000 C CNN
F 2 "KLauS-Custom:TSSOP-8" H 9350 6100 50  0001 C CNN
F 3 "" H 9350 6100 50  0001 C CNN
	1    9350 6100
	1    0    0    -1  
$EndComp
Wire Wire Line
	9800 6250 9900 6250
Wire Wire Line
	9900 6250 9900 6350
Wire Wire Line
	9900 6450 9800 6450
Wire Wire Line
	9800 6350 9900 6350
$Comp
L Device:C C148
U 1 1 60E4B050
P 9350 6650
F 0 "C148" H 9400 6750 50  0000 L CNN
F 1 "100n" H 9400 6550 50  0000 L CNN
F 2 "Capacitor_SMD:C_0603_1608Metric" H 9388 6500 50  0001 C CNN
F 3 "" H 9350 6650 50  0000 C CNN
	1    9350 6650
	0    1    1    0   
$EndComp
Wire Wire Line
	9900 6450 9900 6650
Wire Wire Line
	9900 6650 9500 6650
Wire Wire Line
	8900 6450 8800 6450
Wire Wire Line
	8800 6450 8800 6650
Wire Wire Line
	8800 6650 9200 6650
Connection ~ 9900 6350
Wire Wire Line
	10000 6150 9800 6150
Wire Wire Line
	10150 6350 9900 6350
$Comp
L power:GNDD #PWR0125
U 1 1 60E4B067
P 8800 6650
F 0 "#PWR0125" H 8800 6400 50  0001 C CNN
F 1 "GNDD" H 8805 6477 50  0000 C CNN
F 2 "" H 8800 6650 50  0000 C CNN
F 3 "" H 8800 6650 50  0000 C CNN
	1    8800 6650
	1    0    0    -1  
$EndComp
Connection ~ 8800 6650
$Comp
L power:GNDD #PWR0126
U 1 1 60E4B06E
P 10150 6350
F 0 "#PWR0126" H 10150 6100 50  0001 C CNN
F 1 "GNDD" H 10155 6177 50  0000 C CNN
F 2 "" H 10150 6350 50  0000 C CNN
F 3 "" H 10150 6350 50  0000 C CNN
	1    10150 6350
	1    0    0    -1  
$EndComp
$Comp
L Device:R R54
U 1 1 60E4B07A
P 7600 4950
F 0 "R54" H 7700 5050 50  0000 L CNN
F 1 "4k7(NC)" V 7500 4850 50  0000 L CNN
F 2 "Resistor_SMD:R_0402_1005Metric" V 7530 4950 50  0001 C CNN
F 3 "" H 7600 4950 50  0000 C CNN
	1    7600 4950
	1    0    0    -1  
$EndComp
Connection ~ 7600 5100
$Comp
L power:+5V #PWR0127
U 1 1 60E4B081
P 7000 4650
F 0 "#PWR0127" H 7000 4500 50  0001 C CNN
F 1 "+5V" H 7015 4823 50  0000 C CNN
F 2 "" H 7000 4650 50  0000 C CNN
F 3 "" H 7000 4650 50  0000 C CNN
	1    7000 4650
	1    0    0    -1  
$EndComp
Connection ~ 9900 6650
$Comp
L power:+3.3V #PWR0128
U 1 1 60E4B08F
P 9900 6650
F 0 "#PWR0128" H 9900 6500 50  0001 C CNN
F 1 "+3.3V" V 9915 6778 50  0000 L CNN
F 2 "" H 9900 6650 50  0000 C CNN
F 3 "" H 9900 6650 50  0000 C CNN
	1    9900 6650
	0    1    1    0   
$EndComp
$Comp
L KLauS-ASIC:TP1 P24
U 1 1 60E4B095
P 10200 6050
F 0 "P24" H 10327 6001 50  0000 L CNN
F 1 "TP1" H 10327 5910 50  0000 L CNN
F 2 "MountingHoles-Custom:TP1" H 10200 6050 50  0001 C CNN
F 3 "" H 10200 6050 50  0001 C CNN
	1    10200 6050
	1    0    0    -1  
$EndComp
$Comp
L tps7a92:TPS7A92 U?
U 1 1 60E4B09B
P 8300 5050
AR Path="/5AD959B9/5AF65D27/5AD9EC30/5AE3B9A4/60E4B09B" Ref="U?"  Part="1" 
AR Path="/5AD959B9/5AF65D27/5ADBB0CF/5AE3B9A4/60E4B09B" Ref="U?"  Part="1" 
AR Path="/5AD959B9/5AF7A424/5AD9EC30/5AE3B9A4/60E4B09B" Ref="U?"  Part="1" 
AR Path="/5AD959B9/5AF7A424/5ADBB0CF/5AE3B9A4/60E4B09B" Ref="U?"  Part="1" 
AR Path="/5AD959B9/5AF7A48D/5AD9EC30/5AE3B9A4/60E4B09B" Ref="U?"  Part="1" 
AR Path="/5AD959B9/5AF7A48D/5ADBB0CF/5AE3B9A4/60E4B09B" Ref="U?"  Part="1" 
AR Path="/5AD959B9/5AF7E4E6/5AD9EC30/5AE3B9A4/60E4B09B" Ref="U?"  Part="1" 
AR Path="/5AD959B9/5AF7E4E6/5ADBB0CF/5AE3B9A4/60E4B09B" Ref="U?"  Part="1" 
AR Path="/5AD959B9/5AF7E54F/5AD9EC30/5AE3B9A4/60E4B09B" Ref="U?"  Part="1" 
AR Path="/5AD959B9/5AF7E54F/5ADBB0CF/5AE3B9A4/60E4B09B" Ref="U?"  Part="1" 
AR Path="/5AD959B9/5AF7E5B8/5AD9EC30/5AE3B9A4/60E4B09B" Ref="U?"  Part="1" 
AR Path="/5AD959B9/5AF7E5B8/5ADBB0CF/5AE3B9A4/60E4B09B" Ref="U?"  Part="1" 
AR Path="/5AD959B9/5AF703E3/5AD9EC30/5AE3B9A4/60E4B09B" Ref="U?"  Part="1" 
AR Path="/5AD959B9/5AF703E3/5ADBB0CF/5AE3B9A4/60E4B09B" Ref="U?"  Part="1" 
AR Path="/5DA57814/60E4B09B" Ref="U15"  Part="1" 
F 0 "U15" H 8550 4550 60  0000 C CNN
F 1 "TPS7A92" H 8300 5350 60  0000 C CNN
F 2 "TPS7A92:Texas_R-PWSON-N10_ThermalVias" H 8300 4850 60  0001 C CNN
F 3 "" H 8300 4850 60  0000 C CNN
	1    8300 5050
	1    0    0    -1  
$EndComp
$Comp
L Device:R R56
U 1 1 60E4B0A1
P 9050 5050
F 0 "R56" V 9150 5050 50  0000 C CNN
F 1 "1k87" V 9050 5050 50  0000 C CNN
F 2 "Resistor_SMD:R_0402_1005Metric" V 8980 5050 50  0001 C CNN
F 3 "" H 9050 5050 50  0000 C CNN
	1    9050 5050
	-1   0    0    1   
$EndComp
Wire Wire Line
	8800 4900 8800 5000
$Comp
L Device:C C138
U 1 1 60E4B0A8
P 9550 5100
F 0 "C138" H 9600 5200 50  0000 L CNN
F 1 "100n" H 9600 5000 50  0000 L CNN
F 2 "Capacitor_SMD:C_0603_1608Metric" H 9588 4950 50  0001 C CNN
F 3 "" H 9550 5100 50  0000 C CNN
	1    9550 5100
	1    0    0    -1  
$EndComp
$Comp
L Device:C C139
U 1 1 60E4B0AE
P 9800 5100
F 0 "C139" H 9850 5200 50  0000 L CNN
F 1 "10u" H 9850 5000 50  0000 L CNN
F 2 "Capacitor_SMD:C_0603_1608Metric" H 9838 4950 50  0001 C CNN
F 3 "" H 9800 5100 50  0000 C CNN
	1    9800 5100
	1    0    0    -1  
$EndComp
Wire Wire Line
	9550 5250 9550 5350
Wire Wire Line
	9550 5350 9800 5350
Wire Wire Line
	9800 5350 9800 5250
Wire Wire Line
	9550 4850 9550 4950
Wire Wire Line
	9800 4850 9800 4950
$Comp
L Device:R R52
U 1 1 60E4B0B9
P 10000 4850
F 0 "R52" V 10100 4850 50  0000 C CNN
F 1 "0" V 10000 4850 50  0000 C CNN
F 2 "Resistor_SMD:R_0603_1608Metric" V 9930 4850 50  0001 C CNN
F 3 "" H 10000 4850 50  0000 C CNN
	1    10000 4850
	0    1    1    0   
$EndComp
Wire Wire Line
	9800 4850 9550 4850
Wire Wire Line
	9850 4850 9800 4850
Connection ~ 9800 4850
$Comp
L Device:C C140
U 1 1 60E4B0C2
P 10200 5100
F 0 "C140" H 10250 5200 50  0000 L CNN
F 1 "100n" H 10250 5000 50  0000 L CNN
F 2 "Capacitor_SMD:C_0603_1608Metric" H 10238 4950 50  0001 C CNN
F 3 "" H 10200 5100 50  0000 C CNN
	1    10200 5100
	1    0    0    -1  
$EndComp
$Comp
L Device:C C141
U 1 1 60E4B0C8
P 10450 5100
F 0 "C141" H 10500 5200 50  0000 L CNN
F 1 "10u" H 10500 5000 50  0000 L CNN
F 2 "Capacitor_SMD:C_0603_1608Metric" H 10488 4950 50  0001 C CNN
F 3 "" H 10450 5100 50  0000 C CNN
	1    10450 5100
	1    0    0    -1  
$EndComp
Wire Wire Line
	10200 5250 10200 5350
Wire Wire Line
	10200 5350 10450 5350
Wire Wire Line
	10450 5350 10450 5250
Wire Wire Line
	10200 4850 10200 4950
Wire Wire Line
	10450 4850 10450 4950
Wire Wire Line
	10150 4850 10200 4850
Connection ~ 10200 4850
Wire Wire Line
	10200 4850 10450 4850
$Comp
L Device:C C142
U 1 1 60E4B0D6
P 10700 5100
F 0 "C142" H 10750 5200 50  0000 L CNN
F 1 "47u" H 10750 5000 50  0000 L CNN
F 2 "Capacitor_SMD:C_1206_3216Metric" H 10738 4950 50  0001 C CNN
F 3 "" H 10700 5100 50  0000 C CNN
	1    10700 5100
	1    0    0    -1  
$EndComp
Wire Wire Line
	10700 4850 10700 4950
Connection ~ 10450 4850
Wire Wire Line
	10700 5250 10700 5350
Wire Wire Line
	10700 5350 10450 5350
Connection ~ 10450 5350
$Comp
L power:GNDD #PWR0129
U 1 1 60E4B0E2
P 9550 5350
F 0 "#PWR0129" H 9550 5100 50  0001 C CNN
F 1 "GNDD" H 9555 5177 50  0000 C CNN
F 2 "" H 9550 5350 50  0000 C CNN
F 3 "" H 9550 5350 50  0000 C CNN
	1    9550 5350
	1    0    0    -1  
$EndComp
Connection ~ 9550 5350
$Comp
L power:GNDD #PWR0130
U 1 1 60E4B0E9
P 10200 5350
F 0 "#PWR0130" H 10200 5100 50  0001 C CNN
F 1 "GNDD" H 10205 5177 50  0000 C CNN
F 2 "" H 10200 5350 50  0000 C CNN
F 3 "" H 10200 5350 50  0000 C CNN
	1    10200 5350
	1    0    0    -1  
$EndComp
Connection ~ 10200 5350
Connection ~ 9550 4850
$Comp
L Device:R R58
U 1 1 60E4B0FE
P 9050 5400
F 0 "R58" V 9150 5400 50  0000 C CNN
F 1 "1k5" V 9050 5400 50  0000 C CNN
F 2 "Resistor_SMD:R_0402_1005Metric" V 8980 5400 50  0001 C CNN
F 3 "" H 9050 5400 50  0000 C CNN
	1    9050 5400
	-1   0    0    1   
$EndComp
Wire Wire Line
	8800 5300 8800 5400
Wire Wire Line
	8800 5400 8800 5550
Connection ~ 8800 5400
$Comp
L power:GNDD #PWR0131
U 1 1 60E4B107
P 8800 5550
F 0 "#PWR0131" H 8800 5300 50  0001 C CNN
F 1 "GNDD" H 8805 5377 50  0000 C CNN
F 2 "" H 8800 5550 50  0000 C CNN
F 3 "" H 8800 5550 50  0000 C CNN
	1    8800 5550
	1    0    0    -1  
$EndComp
$Comp
L power:GNDD #PWR0132
U 1 1 60E4B10D
P 9050 5550
F 0 "#PWR0132" H 9050 5300 50  0001 C CNN
F 1 "GNDD" H 9055 5377 50  0000 C CNN
F 2 "" H 9050 5550 50  0000 C CNN
F 3 "" H 9050 5550 50  0000 C CNN
	1    9050 5550
	1    0    0    -1  
$EndComp
Wire Wire Line
	9050 5250 8900 5250
Wire Wire Line
	8900 5250 8900 5150
Wire Wire Line
	8900 5150 8800 5150
Connection ~ 9050 5250
$Comp
L Device:C C66
U 1 1 60E4B117
P 9200 5050
F 0 "C66" H 9250 5150 50  0000 L CNN
F 1 "100n" H 9250 4950 50  0000 L CNN
F 2 "Capacitor_SMD:C_0402_1005Metric" H 9238 4900 50  0001 C CNN
F 3 "" H 9200 5050 50  0000 C CNN
	1    9200 5050
	1    0    0    -1  
$EndComp
Wire Wire Line
	9050 5250 9050 5200
Wire Wire Line
	9200 5200 9050 5200
Connection ~ 9050 5200
Wire Wire Line
	8800 4900 8800 4850
Wire Wire Line
	9200 4850 9200 4900
Connection ~ 8800 4900
Wire Wire Line
	9050 4900 9050 4850
Connection ~ 9050 4850
Wire Wire Line
	9050 4850 9200 4850
Connection ~ 9200 4850
$Comp
L Device:C C145
U 1 1 60E4B129
P 7000 5350
F 0 "C145" H 7050 5450 50  0000 L CNN
F 1 "22u" H 7050 5250 50  0000 L CNN
F 2 "Capacitor_SMD:C_0603_1608Metric" H 7038 5200 50  0001 C CNN
F 3 "" H 7000 5350 50  0000 C CNN
	1    7000 5350
	1    0    0    -1  
$EndComp
$Comp
L Device:C C146
U 1 1 60E4B12F
P 7400 5350
F 0 "C146" H 7450 5450 50  0000 L CNN
F 1 "100n" H 7450 5250 50  0000 L CNN
F 2 "Capacitor_SMD:C_0402_1005Metric" H 7438 5200 50  0001 C CNN
F 3 "" H 7400 5350 50  0000 C CNN
	1    7400 5350
	1    0    0    -1  
$EndComp
Wire Wire Line
	7800 5000 7750 5000
Wire Wire Line
	7750 5000 7750 4900
Wire Wire Line
	7750 4900 7800 4900
Wire Wire Line
	7750 4900 7750 4750
Connection ~ 7750 4900
Wire Wire Line
	7750 4750 7600 4750
Wire Wire Line
	7600 4750 7600 4800
Wire Wire Line
	7000 4750 7000 4650
Wire Wire Line
	7600 5100 7800 5100
NoConn ~ 7800 5400
$Comp
L power:GNDD #PWR0133
U 1 1 60E4B13F
P 7400 5650
F 0 "#PWR0133" H 7400 5400 50  0001 C CNN
F 1 "GNDD" H 7405 5477 50  0000 C CNN
F 2 "" H 7400 5650 50  0000 C CNN
F 3 "" H 7400 5650 50  0000 C CNN
	1    7400 5650
	1    0    0    -1  
$EndComp
Wire Wire Line
	7400 5650 7400 5550
Wire Wire Line
	7800 5200 7400 5200
Wire Wire Line
	7800 5300 7700 5300
Wire Wire Line
	7700 5300 7700 5550
Wire Wire Line
	7700 5550 7400 5550
Connection ~ 7400 5550
Wire Wire Line
	7400 5550 7400 5500
$Comp
L power:GNDD #PWR0134
U 1 1 60E4B14C
P 7000 5650
F 0 "#PWR0134" H 7000 5400 50  0001 C CNN
F 1 "GNDD" H 7005 5477 50  0000 C CNN
F 2 "" H 7000 5650 50  0000 C CNN
F 3 "" H 7000 5650 50  0000 C CNN
	1    7000 5650
	1    0    0    -1  
$EndComp
Wire Wire Line
	7000 5650 7000 5500
Wire Wire Line
	7000 5200 7000 4750
Wire Wire Line
	7000 4750 7600 4750
Connection ~ 7600 4750
Connection ~ 7000 4750
Wire Wire Line
	8800 4850 9050 4850
Text Notes 6950 4200 0    50   ~ 10
Power: VCCD18 for KLauS
Wire Wire Line
	8800 6150 8900 6150
Wire Wire Line
	8700 6250 8900 6250
Text Label 8700 6250 0    50   ~ 0
VD18
Wire Wire Line
	8900 6350 8800 6350
$Comp
L power:GNDD #PWR0135
U 1 1 60E60295
P 8800 6150
F 0 "#PWR0135" H 8800 5900 50  0001 C CNN
F 1 "GNDD" V 8805 6022 50  0000 R CNN
F 2 "" H 8800 6150 50  0000 C CNN
F 3 "" H 8800 6150 50  0000 C CNN
	1    8800 6150
	0    1    1    0   
$EndComp
$Comp
L power_special:VCCD18 #PWR0136
U 1 1 60E6029B
P 8800 6350
F 0 "#PWR0136" H 8800 6200 50  0001 C CNN
F 1 "VCCD18" V 8818 6478 50  0000 L CNN
F 2 "" H 8800 6350 50  0000 C CNN
F 3 "" H 8800 6350 50  0000 C CNN
	1    8800 6350
	0    -1   -1   0   
$EndComp
Text Label 9300 4850 0    50   ~ 0
VD18
Wire Wire Line
	9200 4850 9550 4850
$Comp
L power_special:VCCD18 #PWR0137
U 1 1 60E9E27B
P 10700 4850
F 0 "#PWR0137" H 10700 4700 50  0001 C CNN
F 1 "VCCD18" V 10718 4978 50  0000 L CNN
F 2 "" H 10700 4850 50  0000 C CNN
F 3 "" H 10700 4850 50  0000 C CNN
	1    10700 4850
	1    0    0    -1  
$EndComp
Connection ~ 10700 4850
Wire Wire Line
	2300 1900 2400 1900
Text HLabel 2300 1900 0    50   Input ~ 0
EN_VA33
$Comp
L KLauS-ASIC:INA240 U12
U 1 1 60ED8605
P 4150 2900
F 0 "U12" H 4150 3075 50  0000 C CNN
F 1 "INA240" H 4150 2984 50  0000 C CNN
F 2 "KLauS-Custom:TSSOP-8" H 4150 2900 50  0001 C CNN
F 3 "" H 4150 2900 50  0001 C CNN
	1    4150 2900
	1    0    0    -1  
$EndComp
Wire Wire Line
	4600 3050 4700 3050
Wire Wire Line
	4700 3050 4700 3150
Wire Wire Line
	4700 3250 4600 3250
Wire Wire Line
	4600 3150 4700 3150
$Comp
L Device:C C58
U 1 1 60ED860F
P 4150 3450
F 0 "C58" H 4200 3550 50  0000 L CNN
F 1 "100n" H 4200 3350 50  0000 L CNN
F 2 "Capacitor_SMD:C_0603_1608Metric" H 4188 3300 50  0001 C CNN
F 3 "" H 4150 3450 50  0000 C CNN
	1    4150 3450
	0    1    1    0   
$EndComp
Wire Wire Line
	4700 3250 4700 3450
Wire Wire Line
	4700 3450 4300 3450
Wire Wire Line
	3700 3250 3600 3250
Wire Wire Line
	3600 3250 3600 3450
Wire Wire Line
	3600 3450 4000 3450
Wire Wire Line
	3600 2950 3700 2950
Connection ~ 4700 3150
Wire Wire Line
	4800 2950 4600 2950
Wire Wire Line
	3700 3150 3600 3150
Wire Wire Line
	4950 3150 4700 3150
$Comp
L Device:R R45
U 1 1 60ED8639
P 2400 1750
F 0 "R45" H 2500 1850 50  0000 L CNN
F 1 "4k7(NC)" V 2300 1650 50  0000 L CNN
F 2 "Resistor_SMD:R_0402_1005Metric" V 2330 1750 50  0001 C CNN
F 3 "" H 2400 1750 50  0000 C CNN
	1    2400 1750
	1    0    0    -1  
$EndComp
Connection ~ 2400 1900
$Comp
L power:+5V #PWR0138
U 1 1 60ED8640
P 1800 1450
F 0 "#PWR0138" H 1800 1300 50  0001 C CNN
F 1 "+5V" H 1815 1623 50  0000 C CNN
F 2 "" H 1800 1450 50  0000 C CNN
F 3 "" H 1800 1450 50  0000 C CNN
	1    1800 1450
	1    0    0    -1  
$EndComp
$Comp
L KLauS-ASIC:TP1 P6
U 1 1 60ED8654
P 5000 2850
F 0 "P6" H 5127 2801 50  0000 L CNN
F 1 "TP1" H 5127 2710 50  0000 L CNN
F 2 "MountingHoles-Custom:TP1" H 5000 2850 50  0001 C CNN
F 3 "" H 5000 2850 50  0001 C CNN
	1    5000 2850
	1    0    0    -1  
$EndComp
$Comp
L tps7a92:TPS7A92 U?
U 1 1 60ED865A
P 3100 1850
AR Path="/5AD959B9/5AF65D27/5AD9EC30/5AE3B9A4/60ED865A" Ref="U?"  Part="1" 
AR Path="/5AD959B9/5AF65D27/5ADBB0CF/5AE3B9A4/60ED865A" Ref="U?"  Part="1" 
AR Path="/5AD959B9/5AF7A424/5AD9EC30/5AE3B9A4/60ED865A" Ref="U?"  Part="1" 
AR Path="/5AD959B9/5AF7A424/5ADBB0CF/5AE3B9A4/60ED865A" Ref="U?"  Part="1" 
AR Path="/5AD959B9/5AF7A48D/5AD9EC30/5AE3B9A4/60ED865A" Ref="U?"  Part="1" 
AR Path="/5AD959B9/5AF7A48D/5ADBB0CF/5AE3B9A4/60ED865A" Ref="U?"  Part="1" 
AR Path="/5AD959B9/5AF7E4E6/5AD9EC30/5AE3B9A4/60ED865A" Ref="U?"  Part="1" 
AR Path="/5AD959B9/5AF7E4E6/5ADBB0CF/5AE3B9A4/60ED865A" Ref="U?"  Part="1" 
AR Path="/5AD959B9/5AF7E54F/5AD9EC30/5AE3B9A4/60ED865A" Ref="U?"  Part="1" 
AR Path="/5AD959B9/5AF7E54F/5ADBB0CF/5AE3B9A4/60ED865A" Ref="U?"  Part="1" 
AR Path="/5AD959B9/5AF7E5B8/5AD9EC30/5AE3B9A4/60ED865A" Ref="U?"  Part="1" 
AR Path="/5AD959B9/5AF7E5B8/5ADBB0CF/5AE3B9A4/60ED865A" Ref="U?"  Part="1" 
AR Path="/5AD959B9/5AF703E3/5AD9EC30/5AE3B9A4/60ED865A" Ref="U?"  Part="1" 
AR Path="/5AD959B9/5AF703E3/5ADBB0CF/5AE3B9A4/60ED865A" Ref="U?"  Part="1" 
AR Path="/5DA57814/60ED865A" Ref="U10"  Part="1" 
F 0 "U10" H 3350 1350 60  0000 C CNN
F 1 "TPS7A92" H 3100 2150 60  0000 C CNN
F 2 "TPS7A92:Texas_R-PWSON-N10_ThermalVias" H 3100 1650 60  0001 C CNN
F 3 "" H 3100 1650 60  0000 C CNN
	1    3100 1850
	1    0    0    -1  
$EndComp
$Comp
L Device:R R47
U 1 1 60ED8660
P 3850 1850
F 0 "R47" V 3950 1850 50  0000 C CNN
F 1 "3K57" V 3850 1850 50  0000 C CNN
F 2 "Resistor_SMD:R_0402_1005Metric" V 3780 1850 50  0001 C CNN
F 3 "" H 3850 1850 50  0000 C CNN
	1    3850 1850
	-1   0    0    1   
$EndComp
Wire Wire Line
	3600 1700 3600 1800
$Comp
L Device:C C43
U 1 1 60ED8667
P 4350 1900
F 0 "C43" H 4400 2000 50  0000 L CNN
F 1 "100n" H 4400 1800 50  0000 L CNN
F 2 "Capacitor_SMD:C_0603_1608Metric" H 4388 1750 50  0001 C CNN
F 3 "" H 4350 1900 50  0000 C CNN
	1    4350 1900
	1    0    0    -1  
$EndComp
$Comp
L Device:C C44
U 1 1 60ED866D
P 4600 1900
F 0 "C44" H 4650 2000 50  0000 L CNN
F 1 "10u" H 4650 1800 50  0000 L CNN
F 2 "Capacitor_SMD:C_0603_1608Metric" H 4638 1750 50  0001 C CNN
F 3 "" H 4600 1900 50  0000 C CNN
	1    4600 1900
	1    0    0    -1  
$EndComp
Wire Wire Line
	4350 2050 4350 2150
Wire Wire Line
	4350 2150 4600 2150
Wire Wire Line
	4600 2150 4600 2050
Wire Wire Line
	4350 1650 4350 1750
Wire Wire Line
	4600 1650 4600 1750
$Comp
L Device:R R43
U 1 1 60ED8678
P 4800 1650
F 0 "R43" V 4900 1650 50  0000 C CNN
F 1 "0" V 4800 1650 50  0000 C CNN
F 2 "Resistor_SMD:R_0603_1608Metric" V 4730 1650 50  0001 C CNN
F 3 "" H 4800 1650 50  0000 C CNN
	1    4800 1650
	0    1    1    0   
$EndComp
Wire Wire Line
	4600 1650 4350 1650
Wire Wire Line
	4650 1650 4600 1650
Connection ~ 4600 1650
$Comp
L Device:C C45
U 1 1 60ED8681
P 5000 1900
F 0 "C45" H 5050 2000 50  0000 L CNN
F 1 "100n" H 5050 1800 50  0000 L CNN
F 2 "Capacitor_SMD:C_0603_1608Metric" H 5038 1750 50  0001 C CNN
F 3 "" H 5000 1900 50  0000 C CNN
	1    5000 1900
	1    0    0    -1  
$EndComp
$Comp
L Device:C C46
U 1 1 60ED8687
P 5250 1900
F 0 "C46" H 5300 2000 50  0000 L CNN
F 1 "10u" H 5300 1800 50  0000 L CNN
F 2 "Capacitor_SMD:C_0603_1608Metric" H 5288 1750 50  0001 C CNN
F 3 "" H 5250 1900 50  0000 C CNN
	1    5250 1900
	1    0    0    -1  
$EndComp
Wire Wire Line
	5000 2050 5000 2150
Wire Wire Line
	5000 2150 5250 2150
Wire Wire Line
	5250 2150 5250 2050
Wire Wire Line
	5000 1650 5000 1750
Wire Wire Line
	5250 1650 5250 1750
Wire Wire Line
	4950 1650 5000 1650
Connection ~ 5000 1650
Wire Wire Line
	5000 1650 5250 1650
$Comp
L Device:C C47
U 1 1 60ED8695
P 5500 1900
F 0 "C47" H 5550 2000 50  0000 L CNN
F 1 "47u" H 5550 1800 50  0000 L CNN
F 2 "Capacitor_SMD:C_1206_3216Metric" H 5538 1750 50  0001 C CNN
F 3 "" H 5500 1900 50  0000 C CNN
	1    5500 1900
	1    0    0    -1  
$EndComp
Wire Wire Line
	5500 1650 5500 1750
Connection ~ 5250 1650
Wire Wire Line
	5500 2050 5500 2150
Wire Wire Line
	5500 2150 5250 2150
Connection ~ 5250 2150
Connection ~ 4350 1650
$Comp
L Device:R R49
U 1 1 60ED86BD
P 3850 2200
F 0 "R49" V 3950 2200 50  0000 C CNN
F 1 "1K15" V 3850 2200 50  0000 C CNN
F 2 "Resistor_SMD:R_0402_1005Metric" V 3780 2200 50  0001 C CNN
F 3 "" H 3850 2200 50  0000 C CNN
	1    3850 2200
	-1   0    0    1   
$EndComp
Wire Wire Line
	3600 2100 3600 2200
Wire Wire Line
	3600 2200 3600 2350
Connection ~ 3600 2200
Wire Wire Line
	3850 2050 3700 2050
Wire Wire Line
	3700 2050 3700 1950
Wire Wire Line
	3700 1950 3600 1950
Connection ~ 3850 2050
$Comp
L Device:C C42
U 1 1 60ED86D6
P 4000 1850
F 0 "C42" H 4050 1950 50  0000 L CNN
F 1 "100n" H 4050 1750 50  0000 L CNN
F 2 "Capacitor_SMD:C_0402_1005Metric" H 4038 1700 50  0001 C CNN
F 3 "" H 4000 1850 50  0000 C CNN
	1    4000 1850
	1    0    0    -1  
$EndComp
Wire Wire Line
	3850 2050 3850 2000
Wire Wire Line
	4000 2000 3850 2000
Connection ~ 3850 2000
Wire Wire Line
	3600 1700 3600 1650
Wire Wire Line
	4000 1650 4000 1700
Connection ~ 3600 1700
Wire Wire Line
	3850 1700 3850 1650
Connection ~ 3850 1650
Wire Wire Line
	3850 1650 4000 1650
Connection ~ 4000 1650
$Comp
L Device:C C54
U 1 1 60ED86E8
P 1800 2150
F 0 "C54" H 1850 2250 50  0000 L CNN
F 1 "22u" H 1850 2050 50  0000 L CNN
F 2 "Capacitor_SMD:C_0603_1608Metric" H 1838 2000 50  0001 C CNN
F 3 "" H 1800 2150 50  0000 C CNN
	1    1800 2150
	1    0    0    -1  
$EndComp
$Comp
L Device:C C55
U 1 1 60ED86EE
P 2200 2150
F 0 "C55" H 2250 2250 50  0000 L CNN
F 1 "100n" H 2250 2050 50  0000 L CNN
F 2 "Capacitor_SMD:C_0402_1005Metric" H 2238 2000 50  0001 C CNN
F 3 "" H 2200 2150 50  0000 C CNN
	1    2200 2150
	1    0    0    -1  
$EndComp
Wire Wire Line
	2600 1800 2550 1800
Wire Wire Line
	2550 1800 2550 1700
Wire Wire Line
	2550 1700 2600 1700
Wire Wire Line
	2550 1700 2550 1550
Connection ~ 2550 1700
Wire Wire Line
	2550 1550 2400 1550
Wire Wire Line
	2400 1550 2400 1600
Wire Wire Line
	1800 1550 1800 1450
Wire Wire Line
	2400 1900 2600 1900
NoConn ~ 2600 2200
Wire Wire Line
	2200 2450 2200 2350
Wire Wire Line
	2600 2000 2200 2000
Wire Wire Line
	2600 2100 2500 2100
Wire Wire Line
	2500 2100 2500 2350
Wire Wire Line
	2500 2350 2200 2350
Connection ~ 2200 2350
Wire Wire Line
	2200 2350 2200 2300
Wire Wire Line
	1800 2450 1800 2300
Wire Wire Line
	1800 2000 1800 1550
Wire Wire Line
	1800 1550 2400 1550
Connection ~ 2400 1550
Connection ~ 1800 1550
Wire Wire Line
	3600 1650 3850 1650
Text Notes 1650 1150 0    50   ~ 10
Power: \nVCCA33 for KLauS\n+3.3VA for others
$Comp
L power_special:VCCA33 #PWR0140
U 1 1 60EF21B9
P 5500 1650
F 0 "#PWR0140" H 5500 1500 50  0001 C CNN
F 1 "VCCA33" H 5517 1823 50  0000 C CNN
F 2 "" H 5500 1650 50  0000 C CNN
F 3 "" H 5500 1650 50  0000 C CNN
	1    5500 1650
	1    0    0    -1  
$EndComp
Connection ~ 5500 1650
$Comp
L power:+3.3VA #PWR0141
U 1 1 60EF2B41
P 4200 1650
F 0 "#PWR0141" H 4200 1500 50  0001 C CNN
F 1 "+3.3VA" V 4215 1777 50  0000 L CNN
F 2 "" H 4200 1650 50  0000 C CNN
F 3 "" H 4200 1650 50  0000 C CNN
	1    4200 1650
	1    0    0    -1  
$EndComp
Wire Wire Line
	4000 1650 4200 1650
Connection ~ 4200 1650
Wire Wire Line
	4200 1650 4350 1650
$Comp
L power:+3.3VA #PWR0142
U 1 1 60EF3520
P 3600 3050
F 0 "#PWR0142" H 3600 2900 50  0001 C CNN
F 1 "+3.3VA" V 3615 3177 50  0000 L CNN
F 2 "" H 3600 3050 50  0000 C CNN
F 3 "" H 3600 3050 50  0000 C CNN
	1    3600 3050
	0    -1   -1   0   
$EndComp
Wire Wire Line
	3600 3050 3700 3050
$Comp
L power_special:VCCA33 #PWR0143
U 1 1 60EF3A65
P 3600 3150
F 0 "#PWR0143" H 3600 3000 50  0001 C CNN
F 1 "VCCA33" H 3617 3323 50  0000 C CNN
F 2 "" H 3600 3150 50  0000 C CNN
F 3 "" H 3600 3150 50  0000 C CNN
	1    3600 3150
	0    -1   -1   0   
$EndComp
Wire Wire Line
	2300 4950 2400 4950
Text HLabel 2300 4950 0    50   Input ~ 0
EN_VA18
$Comp
L KLauS-ASIC:INA240 U16
U 1 1 60F562D1
P 4150 5950
F 0 "U16" H 4150 6125 50  0000 C CNN
F 1 "INA240" H 4150 6034 50  0000 C CNN
F 2 "KLauS-Custom:TSSOP-8" H 4150 5950 50  0001 C CNN
F 3 "" H 4150 5950 50  0001 C CNN
	1    4150 5950
	1    0    0    -1  
$EndComp
Wire Wire Line
	4600 6100 4700 6100
Wire Wire Line
	4700 6100 4700 6200
Wire Wire Line
	4700 6300 4600 6300
Wire Wire Line
	4600 6200 4700 6200
$Comp
L Device:C C147
U 1 1 60F562DB
P 4150 6500
F 0 "C147" H 4200 6600 50  0000 L CNN
F 1 "100n" H 4200 6400 50  0000 L CNN
F 2 "Capacitor_SMD:C_0603_1608Metric" H 4188 6350 50  0001 C CNN
F 3 "" H 4150 6500 50  0000 C CNN
	1    4150 6500
	0    1    1    0   
$EndComp
Wire Wire Line
	4700 6300 4700 6500
Wire Wire Line
	4700 6500 4300 6500
Wire Wire Line
	3700 6300 3600 6300
Wire Wire Line
	3600 6300 3600 6500
Wire Wire Line
	3600 6500 4000 6500
Connection ~ 4700 6200
Wire Wire Line
	4800 6000 4600 6000
Wire Wire Line
	4950 6200 4700 6200
$Comp
L Device:R R53
U 1 1 60F562F6
P 2400 4800
F 0 "R53" H 2500 4900 50  0000 L CNN
F 1 "4k7(NC)" V 2300 4700 50  0000 L CNN
F 2 "Resistor_SMD:R_0402_1005Metric" V 2330 4800 50  0001 C CNN
F 3 "" H 2400 4800 50  0000 C CNN
	1    2400 4800
	1    0    0    -1  
$EndComp
Connection ~ 2400 4950
$Comp
L power:+5V #PWR0144
U 1 1 60F562FD
P 1800 4500
F 0 "#PWR0144" H 1800 4350 50  0001 C CNN
F 1 "+5V" H 1815 4673 50  0000 C CNN
F 2 "" H 1800 4500 50  0000 C CNN
F 3 "" H 1800 4500 50  0000 C CNN
	1    1800 4500
	1    0    0    -1  
$EndComp
$Comp
L KLauS-ASIC:TP1 P23
U 1 1 60F5630A
P 5000 5900
F 0 "P23" H 5127 5851 50  0000 L CNN
F 1 "TP1" H 5127 5760 50  0000 L CNN
F 2 "MountingHoles-Custom:TP1" H 5000 5900 50  0001 C CNN
F 3 "" H 5000 5900 50  0001 C CNN
	1    5000 5900
	1    0    0    -1  
$EndComp
$Comp
L tps7a92:TPS7A92 U?
U 1 1 60F56310
P 3100 4900
AR Path="/5AD959B9/5AF65D27/5AD9EC30/5AE3B9A4/60F56310" Ref="U?"  Part="1" 
AR Path="/5AD959B9/5AF65D27/5ADBB0CF/5AE3B9A4/60F56310" Ref="U?"  Part="1" 
AR Path="/5AD959B9/5AF7A424/5AD9EC30/5AE3B9A4/60F56310" Ref="U?"  Part="1" 
AR Path="/5AD959B9/5AF7A424/5ADBB0CF/5AE3B9A4/60F56310" Ref="U?"  Part="1" 
AR Path="/5AD959B9/5AF7A48D/5AD9EC30/5AE3B9A4/60F56310" Ref="U?"  Part="1" 
AR Path="/5AD959B9/5AF7A48D/5ADBB0CF/5AE3B9A4/60F56310" Ref="U?"  Part="1" 
AR Path="/5AD959B9/5AF7E4E6/5AD9EC30/5AE3B9A4/60F56310" Ref="U?"  Part="1" 
AR Path="/5AD959B9/5AF7E4E6/5ADBB0CF/5AE3B9A4/60F56310" Ref="U?"  Part="1" 
AR Path="/5AD959B9/5AF7E54F/5AD9EC30/5AE3B9A4/60F56310" Ref="U?"  Part="1" 
AR Path="/5AD959B9/5AF7E54F/5ADBB0CF/5AE3B9A4/60F56310" Ref="U?"  Part="1" 
AR Path="/5AD959B9/5AF7E5B8/5AD9EC30/5AE3B9A4/60F56310" Ref="U?"  Part="1" 
AR Path="/5AD959B9/5AF7E5B8/5ADBB0CF/5AE3B9A4/60F56310" Ref="U?"  Part="1" 
AR Path="/5AD959B9/5AF703E3/5AD9EC30/5AE3B9A4/60F56310" Ref="U?"  Part="1" 
AR Path="/5AD959B9/5AF703E3/5ADBB0CF/5AE3B9A4/60F56310" Ref="U?"  Part="1" 
AR Path="/5DA57814/60F56310" Ref="U14"  Part="1" 
F 0 "U14" H 3350 4400 60  0000 C CNN
F 1 "TPS7A92" H 3100 5200 60  0000 C CNN
F 2 "TPS7A92:Texas_R-PWSON-N10_ThermalVias" H 3100 4700 60  0001 C CNN
F 3 "" H 3100 4700 60  0000 C CNN
	1    3100 4900
	1    0    0    -1  
$EndComp
$Comp
L Device:R R55
U 1 1 60F56316
P 3850 4900
F 0 "R55" V 3950 4900 50  0000 C CNN
F 1 "1k87" V 3850 4900 50  0000 C CNN
F 2 "Resistor_SMD:R_0402_1005Metric" V 3780 4900 50  0001 C CNN
F 3 "" H 3850 4900 50  0000 C CNN
	1    3850 4900
	-1   0    0    1   
$EndComp
Wire Wire Line
	3600 4750 3600 4850
$Comp
L Device:C C61
U 1 1 60F5631D
P 4350 4950
F 0 "C61" H 4400 5050 50  0000 L CNN
F 1 "100n" H 4400 4850 50  0000 L CNN
F 2 "Capacitor_SMD:C_0603_1608Metric" H 4388 4800 50  0001 C CNN
F 3 "" H 4350 4950 50  0000 C CNN
	1    4350 4950
	1    0    0    -1  
$EndComp
$Comp
L Device:C C62
U 1 1 60F56323
P 4600 4950
F 0 "C62" H 4650 5050 50  0000 L CNN
F 1 "10u" H 4650 4850 50  0000 L CNN
F 2 "Capacitor_SMD:C_0603_1608Metric" H 4638 4800 50  0001 C CNN
F 3 "" H 4600 4950 50  0000 C CNN
	1    4600 4950
	1    0    0    -1  
$EndComp
Wire Wire Line
	4350 5100 4350 5200
Wire Wire Line
	4350 5200 4600 5200
Wire Wire Line
	4600 5200 4600 5100
Wire Wire Line
	4350 4700 4350 4800
Wire Wire Line
	4600 4700 4600 4800
$Comp
L Device:R R51
U 1 1 60F5632E
P 4800 4700
F 0 "R51" V 4900 4700 50  0000 C CNN
F 1 "0" V 4800 4700 50  0000 C CNN
F 2 "Resistor_SMD:R_0603_1608Metric" V 4730 4700 50  0001 C CNN
F 3 "" H 4800 4700 50  0000 C CNN
	1    4800 4700
	0    1    1    0   
$EndComp
Wire Wire Line
	4600 4700 4350 4700
Wire Wire Line
	4650 4700 4600 4700
Connection ~ 4600 4700
$Comp
L Device:C C63
U 1 1 60F56337
P 5000 4950
F 0 "C63" H 5050 5050 50  0000 L CNN
F 1 "100n" H 5050 4850 50  0000 L CNN
F 2 "Capacitor_SMD:C_0603_1608Metric" H 5038 4800 50  0001 C CNN
F 3 "" H 5000 4950 50  0000 C CNN
	1    5000 4950
	1    0    0    -1  
$EndComp
$Comp
L Device:C C64
U 1 1 60F5633D
P 5250 4950
F 0 "C64" H 5300 5050 50  0000 L CNN
F 1 "10u" H 5300 4850 50  0000 L CNN
F 2 "Capacitor_SMD:C_0603_1608Metric" H 5288 4800 50  0001 C CNN
F 3 "" H 5250 4950 50  0000 C CNN
	1    5250 4950
	1    0    0    -1  
$EndComp
Wire Wire Line
	5000 5100 5000 5200
Wire Wire Line
	5000 5200 5100 5200
Wire Wire Line
	5250 5200 5250 5100
Wire Wire Line
	5000 4700 5000 4800
Wire Wire Line
	5250 4700 5250 4800
Wire Wire Line
	4950 4700 5000 4700
Connection ~ 5000 4700
Wire Wire Line
	5000 4700 5250 4700
$Comp
L Device:C C65
U 1 1 60F5634B
P 5500 4950
F 0 "C65" H 5550 5050 50  0000 L CNN
F 1 "47u" H 5550 4850 50  0000 L CNN
F 2 "Capacitor_SMD:C_1206_3216Metric" H 5538 4800 50  0001 C CNN
F 3 "" H 5500 4950 50  0000 C CNN
	1    5500 4950
	1    0    0    -1  
$EndComp
Wire Wire Line
	5250 4700 5500 4700
Wire Wire Line
	5500 4700 5500 4800
Connection ~ 5250 4700
Wire Wire Line
	5500 5100 5500 5200
Wire Wire Line
	5500 5200 5250 5200
Connection ~ 5250 5200
Connection ~ 4350 4700
$Comp
L Device:R R57
U 1 1 60F56366
P 3850 5250
F 0 "R57" V 3950 5250 50  0000 C CNN
F 1 "1k5" V 3850 5250 50  0000 C CNN
F 2 "Resistor_SMD:R_0402_1005Metric" V 3780 5250 50  0001 C CNN
F 3 "" H 3850 5250 50  0000 C CNN
	1    3850 5250
	-1   0    0    1   
$EndComp
Wire Wire Line
	3600 5150 3600 5250
Wire Wire Line
	3600 5250 3600 5400
Connection ~ 3600 5250
Wire Wire Line
	3850 5100 3700 5100
Wire Wire Line
	3700 5100 3700 5000
Wire Wire Line
	3700 5000 3600 5000
Connection ~ 3850 5100
$Comp
L Device:C C60
U 1 1 60F5637F
P 4000 4900
F 0 "C60" H 4050 5000 50  0000 L CNN
F 1 "100n" H 4050 4800 50  0000 L CNN
F 2 "Capacitor_SMD:C_0402_1005Metric" H 4038 4750 50  0001 C CNN
F 3 "" H 4000 4900 50  0000 C CNN
	1    4000 4900
	1    0    0    -1  
$EndComp
Wire Wire Line
	3850 5100 3850 5050
Wire Wire Line
	4000 5050 3850 5050
Connection ~ 3850 5050
Wire Wire Line
	3600 4750 3600 4700
Wire Wire Line
	4000 4700 4000 4750
Connection ~ 3600 4750
Wire Wire Line
	3850 4750 3850 4700
Connection ~ 3850 4700
Wire Wire Line
	3850 4700 4000 4700
Connection ~ 4000 4700
$Comp
L Device:C C143
U 1 1 60F5638F
P 1800 5200
F 0 "C143" H 1850 5300 50  0000 L CNN
F 1 "22u" H 1850 5100 50  0000 L CNN
F 2 "Capacitor_SMD:C_0603_1608Metric" H 1838 5050 50  0001 C CNN
F 3 "" H 1800 5200 50  0000 C CNN
	1    1800 5200
	1    0    0    -1  
$EndComp
$Comp
L Device:C C144
U 1 1 60F56395
P 2200 5200
F 0 "C144" H 2250 5300 50  0000 L CNN
F 1 "100n" H 2250 5100 50  0000 L CNN
F 2 "Capacitor_SMD:C_0402_1005Metric" H 2238 5050 50  0001 C CNN
F 3 "" H 2200 5200 50  0000 C CNN
	1    2200 5200
	1    0    0    -1  
$EndComp
Wire Wire Line
	2600 4850 2550 4850
Wire Wire Line
	2550 4850 2550 4750
Wire Wire Line
	2550 4750 2600 4750
Wire Wire Line
	2550 4750 2550 4600
Connection ~ 2550 4750
Wire Wire Line
	2550 4600 2400 4600
Wire Wire Line
	2400 4600 2400 4650
Wire Wire Line
	1800 4600 1800 4500
Wire Wire Line
	2400 4950 2600 4950
NoConn ~ 2600 5250
Wire Wire Line
	2200 5500 2200 5400
Wire Wire Line
	2600 5050 2200 5050
Wire Wire Line
	2600 5150 2500 5150
Wire Wire Line
	2500 5150 2500 5400
Wire Wire Line
	2500 5400 2200 5400
Connection ~ 2200 5400
Wire Wire Line
	2200 5400 2200 5350
Wire Wire Line
	1800 5500 1800 5350
Wire Wire Line
	1800 5050 1800 4600
Wire Wire Line
	1800 4600 2400 4600
Connection ~ 2400 4600
Connection ~ 1800 4600
Wire Wire Line
	3600 4700 3850 4700
Wire Wire Line
	3500 6100 3700 6100
Text Label 3500 6100 0    50   ~ 0
VA18
Wire Wire Line
	3700 6200 3600 6200
Text Label 4100 4700 0    50   ~ 0
VA18
Wire Wire Line
	4000 4700 4350 4700
Text Notes 1750 4200 0    50   ~ 10
Power: VCCA18 for KLauS
$Comp
L power:+3.3VA #PWR0145
U 1 1 60F75199
P 4700 6500
F 0 "#PWR0145" H 4700 6350 50  0001 C CNN
F 1 "+3.3VA" V 4715 6628 50  0000 L CNN
F 2 "" H 4700 6500 50  0000 C CNN
F 3 "" H 4700 6500 50  0000 C CNN
	1    4700 6500
	0    1    1    0   
$EndComp
Connection ~ 4700 6500
$Comp
L power_special:VCCA18 #PWR0146
U 1 1 60F75710
P 5500 4700
F 0 "#PWR0146" H 5500 4550 50  0001 C CNN
F 1 "VCCA18" H 5517 4873 50  0000 C CNN
F 2 "" H 5500 4700 50  0000 C CNN
F 3 "" H 5500 4700 50  0000 C CNN
	1    5500 4700
	1    0    0    -1  
$EndComp
Connection ~ 5500 4700
$Comp
L power_special:VCCA18 #PWR0147
U 1 1 60F759FF
P 3600 6200
F 0 "#PWR0147" H 3600 6050 50  0001 C CNN
F 1 "VCCA18" H 3617 6373 50  0000 C CNN
F 2 "" H 3600 6200 50  0000 C CNN
F 3 "" H 3600 6200 50  0000 C CNN
	1    3600 6200
	0    -1   -1   0   
$EndComp
$Comp
L power:GNDA #PWR0148
U 1 1 60F770D1
P 1800 5500
F 0 "#PWR0148" H 1800 5250 50  0001 C CNN
F 1 "GNDA" H 1805 5327 50  0000 C CNN
F 2 "" H 1800 5500 50  0000 C CNN
F 3 "" H 1800 5500 50  0000 C CNN
	1    1800 5500
	1    0    0    -1  
$EndComp
$Comp
L power:GNDA #PWR0149
U 1 1 60F77929
P 2200 5500
F 0 "#PWR0149" H 2200 5250 50  0001 C CNN
F 1 "GNDA" H 2205 5327 50  0000 C CNN
F 2 "" H 2200 5500 50  0000 C CNN
F 3 "" H 2200 5500 50  0000 C CNN
	1    2200 5500
	1    0    0    -1  
$EndComp
$Comp
L power:GNDA #PWR0150
U 1 1 60F779D6
P 3600 5400
F 0 "#PWR0150" H 3600 5150 50  0001 C CNN
F 1 "GNDA" H 3605 5227 50  0000 C CNN
F 2 "" H 3600 5400 50  0000 C CNN
F 3 "" H 3600 5400 50  0000 C CNN
	1    3600 5400
	1    0    0    -1  
$EndComp
$Comp
L power:GNDA #PWR0151
U 1 1 60F77A83
P 3850 5400
F 0 "#PWR0151" H 3850 5150 50  0001 C CNN
F 1 "GNDA" H 3855 5227 50  0000 C CNN
F 2 "" H 3850 5400 50  0000 C CNN
F 3 "" H 3850 5400 50  0000 C CNN
	1    3850 5400
	1    0    0    -1  
$EndComp
$Comp
L power:GNDA #PWR0152
U 1 1 60F77B30
P 4350 5200
F 0 "#PWR0152" H 4350 4950 50  0001 C CNN
F 1 "GNDA" H 4355 5027 50  0000 C CNN
F 2 "" H 4350 5200 50  0000 C CNN
F 3 "" H 4350 5200 50  0000 C CNN
	1    4350 5200
	1    0    0    -1  
$EndComp
Connection ~ 4350 5200
$Comp
L power:GNDA #PWR0153
U 1 1 60F77BDD
P 5100 5200
F 0 "#PWR0153" H 5100 4950 50  0001 C CNN
F 1 "GNDA" H 5105 5027 50  0000 C CNN
F 2 "" H 5100 5200 50  0000 C CNN
F 3 "" H 5100 5200 50  0000 C CNN
	1    5100 5200
	1    0    0    -1  
$EndComp
Connection ~ 5100 5200
Wire Wire Line
	5100 5200 5250 5200
$Comp
L power:GNDA #PWR0221
U 1 1 60F77C8C
P 3600 6500
F 0 "#PWR0221" H 3600 6250 50  0001 C CNN
F 1 "GNDA" H 3605 6327 50  0000 C CNN
F 2 "" H 3600 6500 50  0000 C CNN
F 3 "" H 3600 6500 50  0000 C CNN
	1    3600 6500
	1    0    0    -1  
$EndComp
Connection ~ 3600 6500
$Comp
L power:GNDA #PWR0241
U 1 1 60F77D39
P 4950 6200
F 0 "#PWR0241" H 4950 5950 50  0001 C CNN
F 1 "GNDA" H 4955 6027 50  0000 C CNN
F 2 "" H 4950 6200 50  0000 C CNN
F 3 "" H 4950 6200 50  0000 C CNN
	1    4950 6200
	1    0    0    -1  
$EndComp
$Comp
L power:GNDA #PWR0242
U 1 1 60F77DE6
P 3350 6000
F 0 "#PWR0242" H 3350 5750 50  0001 C CNN
F 1 "GNDA" H 3355 5827 50  0000 C CNN
F 2 "" H 3350 6000 50  0000 C CNN
F 3 "" H 3350 6000 50  0000 C CNN
	1    3350 6000
	0    1    1    0   
$EndComp
Wire Wire Line
	3350 6000 3700 6000
$Comp
L power:GNDA #PWR0243
U 1 1 60FCA183
P 1800 2450
F 0 "#PWR0243" H 1800 2200 50  0001 C CNN
F 1 "GNDA" H 1805 2277 50  0000 C CNN
F 2 "" H 1800 2450 50  0000 C CNN
F 3 "" H 1800 2450 50  0000 C CNN
	1    1800 2450
	1    0    0    -1  
$EndComp
$Comp
L power:GNDA #PWR0244
U 1 1 60FCA189
P 2200 2450
F 0 "#PWR0244" H 2200 2200 50  0001 C CNN
F 1 "GNDA" H 2205 2277 50  0000 C CNN
F 2 "" H 2200 2450 50  0000 C CNN
F 3 "" H 2200 2450 50  0000 C CNN
	1    2200 2450
	1    0    0    -1  
$EndComp
$Comp
L power:GNDA #PWR0254
U 1 1 60FFC437
P 3600 2350
F 0 "#PWR0254" H 3600 2100 50  0001 C CNN
F 1 "GNDA" H 3605 2177 50  0000 C CNN
F 2 "" H 3600 2350 50  0000 C CNN
F 3 "" H 3600 2350 50  0000 C CNN
	1    3600 2350
	1    0    0    -1  
$EndComp
$Comp
L power:GNDA #PWR0255
U 1 1 60FFC4CA
P 3850 2350
F 0 "#PWR0255" H 3850 2100 50  0001 C CNN
F 1 "GNDA" H 3855 2177 50  0000 C CNN
F 2 "" H 3850 2350 50  0000 C CNN
F 3 "" H 3850 2350 50  0000 C CNN
	1    3850 2350
	1    0    0    -1  
$EndComp
$Comp
L power:GNDA #PWR0256
U 1 1 60FFC55D
P 4350 2150
F 0 "#PWR0256" H 4350 1900 50  0001 C CNN
F 1 "GNDA" H 4355 1977 50  0000 C CNN
F 2 "" H 4350 2150 50  0000 C CNN
F 3 "" H 4350 2150 50  0000 C CNN
	1    4350 2150
	1    0    0    -1  
$EndComp
Connection ~ 4350 2150
$Comp
L power:GNDA #PWR0257
U 1 1 60FFC92C
P 5000 2150
F 0 "#PWR0257" H 5000 1900 50  0001 C CNN
F 1 "GNDA" H 5005 1977 50  0000 C CNN
F 2 "" H 5000 2150 50  0000 C CNN
F 3 "" H 5000 2150 50  0000 C CNN
	1    5000 2150
	1    0    0    -1  
$EndComp
Connection ~ 5000 2150
$Comp
L power:GNDA #PWR0258
U 1 1 60FFC9BF
P 3600 2950
F 0 "#PWR0258" H 3600 2700 50  0001 C CNN
F 1 "GNDA" H 3605 2777 50  0000 C CNN
F 2 "" H 3600 2950 50  0000 C CNN
F 3 "" H 3600 2950 50  0000 C CNN
	1    3600 2950
	0    1    1    0   
$EndComp
$Comp
L power:GNDA #PWR0259
U 1 1 60FFCC73
P 4950 3200
F 0 "#PWR0259" H 4950 2950 50  0001 C CNN
F 1 "GNDA" H 4955 3027 50  0000 C CNN
F 2 "" H 4950 3200 50  0000 C CNN
F 3 "" H 4950 3200 50  0000 C CNN
	1    4950 3200
	1    0    0    -1  
$EndComp
Wire Wire Line
	4950 3200 4950 3150
$Comp
L power:GNDA #PWR0260
U 1 1 61015F99
P 3600 3500
F 0 "#PWR0260" H 3600 3250 50  0001 C CNN
F 1 "GNDA" H 3605 3327 50  0000 C CNN
F 2 "" H 3600 3500 50  0000 C CNN
F 3 "" H 3600 3500 50  0000 C CNN
	1    3600 3500
	1    0    0    -1  
$EndComp
Wire Wire Line
	3600 3500 3600 3450
Connection ~ 3600 3450
Wire Wire Line
	10450 4850 10700 4850
Wire Wire Line
	10400 1800 10650 1800
Wire Wire Line
	5250 1650 5500 1650
$Comp
L power:PWR_FLAG #FLG0101
U 1 1 610C8CEA
P 1350 7150
F 0 "#FLG0101" H 1350 7225 50  0001 C CNN
F 1 "PWR_FLAG" H 1350 7324 50  0000 C CNN
F 2 "" H 1350 7150 50  0001 C CNN
F 3 "~" H 1350 7150 50  0001 C CNN
	1    1350 7150
	1    0    0    -1  
$EndComp
Wire Wire Line
	1350 7150 1950 7150
Connection ~ 1350 7150
$Comp
L power:+3.3VA #PWR0139
U 1 1 60B04D0A
P 4700 3450
F 0 "#PWR0139" H 4700 3300 50  0001 C CNN
F 1 "+3.3VA" V 4715 3578 50  0000 L CNN
F 2 "" H 4700 3450 50  0000 C CNN
F 3 "" H 4700 3450 50  0000 C CNN
	1    4700 3450
	0    1    1    0   
$EndComp
Connection ~ 4700 3450
$EndSCHEMATC
