EESchema Schematic File Version 4
LIBS:TestBoard-COB-cache
EELAYER 26 0
EELAYER END
$Descr A4 11693 8268
encoding utf-8
Sheet 11 11
Title "Power filter near the KLauS ASIC"
Date "2019-10-16"
Rev ""
Comp "KIP, Uni-Heidelberg"
Comment1 ""
Comment2 ""
Comment3 ""
Comment4 ""
$EndDescr
$Comp
L power:GNDA #PWR0229
U 1 1 598EFC7D
P 2350 2000
F 0 "#PWR0229" H 2350 1750 50  0001 C CNN
F 1 "GNDA" V 2355 1872 50  0000 R CNN
F 2 "" H 2350 2000 50  0000 C CNN
F 3 "" H 2350 2000 50  0000 C CNN
	1    2350 2000
	0    -1   -1   0   
$EndComp
$Comp
L Device:C C117
U 1 1 598F009E
P 1500 1850
F 0 "C117" H 1615 1896 50  0000 L CNN
F 1 "100n" H 1615 1805 50  0000 L CNN
F 2 "Capacitor_SMD:C_0402_1005Metric" H 1538 1700 50  0001 C CNN
F 3 "" H 1500 1850 50  0000 C CNN
	1    1500 1850
	1    0    0    -1  
$EndComp
$Comp
L Device:C C118
U 1 1 598F00A4
P 2050 1850
F 0 "C118" H 2165 1896 50  0000 L CNN
F 1 "1n" H 2165 1805 50  0000 L CNN
F 2 "Capacitor_SMD:C_0402_1005Metric" H 2088 1700 50  0001 C CNN
F 3 "" H 2050 1850 50  0000 C CNN
	1    2050 1850
	1    0    0    -1  
$EndComp
$Comp
L Device:C C116
U 1 1 598F0FF9
P 1000 1850
F 0 "C116" H 1115 1896 50  0000 L CNN
F 1 "1u" H 1115 1805 50  0000 L CNN
F 2 "Capacitor_SMD:C_0402_1005Metric" H 1038 1700 50  0001 C CNN
F 3 "" H 1000 1850 50  0000 C CNN
	1    1000 1850
	1    0    0    -1  
$EndComp
Text Notes 3050 2400 0    60   ~ 0
Analog: Filter capacitors close to the chip
Wire Wire Line
	1000 2000 1500 2000
Wire Wire Line
	1000 1700 1500 1700
$Comp
L power_special:VCCA33 #PWR0227
U 1 1 5DE285FB
P 2350 1700
F 0 "#PWR0227" H 2350 1550 50  0001 C CNN
F 1 "VCCA33" V 2367 1828 50  0000 L CNN
F 2 "" H 2350 1700 50  0000 C CNN
F 3 "" H 2350 1700 50  0000 C CNN
	1    2350 1700
	0    1    1    0   
$EndComp
$Comp
L power:GNDA #PWR0225
U 1 1 5DE2871B
P 2350 1300
F 0 "#PWR0225" H 2350 1050 50  0001 C CNN
F 1 "GNDA" V 2355 1172 50  0000 R CNN
F 2 "" H 2350 1300 50  0000 C CNN
F 3 "" H 2350 1300 50  0000 C CNN
	1    2350 1300
	0    -1   -1   0   
$EndComp
$Comp
L Device:C C111
U 1 1 5DE28721
P 1500 1150
F 0 "C111" H 1615 1196 50  0000 L CNN
F 1 "100n" H 1615 1105 50  0000 L CNN
F 2 "Capacitor_SMD:C_0402_1005Metric" H 1538 1000 50  0001 C CNN
F 3 "" H 1500 1150 50  0000 C CNN
	1    1500 1150
	1    0    0    -1  
$EndComp
$Comp
L Device:C C112
U 1 1 5DE28727
P 2050 1150
F 0 "C112" H 2165 1196 50  0000 L CNN
F 1 "1n" H 2165 1105 50  0000 L CNN
F 2 "Capacitor_SMD:C_0402_1005Metric" H 2088 1000 50  0001 C CNN
F 3 "" H 2050 1150 50  0000 C CNN
	1    2050 1150
	1    0    0    -1  
$EndComp
$Comp
L Device:C C110
U 1 1 5DE2872D
P 1000 1150
F 0 "C110" H 1115 1196 50  0000 L CNN
F 1 "1u" H 1115 1105 50  0000 L CNN
F 2 "Capacitor_SMD:C_0402_1005Metric" H 1038 1000 50  0001 C CNN
F 3 "" H 1000 1150 50  0000 C CNN
	1    1000 1150
	1    0    0    -1  
$EndComp
Wire Wire Line
	1000 1300 1500 1300
Wire Wire Line
	1000 1000 1500 1000
$Comp
L power_special:VCCA33 #PWR0223
U 1 1 5DE28735
P 2350 1000
F 0 "#PWR0223" H 2350 850 50  0001 C CNN
F 1 "VCCA33" V 2367 1128 50  0000 L CNN
F 2 "" H 2350 1000 50  0000 C CNN
F 3 "" H 2350 1000 50  0000 C CNN
	1    2350 1000
	0    1    1    0   
$EndComp
Connection ~ 1500 1000
Wire Wire Line
	1500 1000 2050 1000
Connection ~ 1500 1300
Wire Wire Line
	1500 1300 2050 1300
Connection ~ 2050 1000
Wire Wire Line
	2050 1000 2350 1000
Connection ~ 2050 1300
Wire Wire Line
	2050 1300 2350 1300
$Comp
L power:GNDA #PWR0230
U 1 1 5DE29441
P 4450 2000
F 0 "#PWR0230" H 4450 1750 50  0001 C CNN
F 1 "GNDA" V 4455 1872 50  0000 R CNN
F 2 "" H 4450 2000 50  0000 C CNN
F 3 "" H 4450 2000 50  0000 C CNN
	1    4450 2000
	0    -1   -1   0   
$EndComp
$Comp
L Device:C C120
U 1 1 5DE29447
P 3600 1850
F 0 "C120" H 3715 1896 50  0000 L CNN
F 1 "100n" H 3715 1805 50  0000 L CNN
F 2 "Capacitor_SMD:C_0402_1005Metric" H 3638 1700 50  0001 C CNN
F 3 "" H 3600 1850 50  0000 C CNN
	1    3600 1850
	1    0    0    -1  
$EndComp
$Comp
L Device:C C121
U 1 1 5DE2944D
P 4150 1850
F 0 "C121" H 4265 1896 50  0000 L CNN
F 1 "1n" H 4265 1805 50  0000 L CNN
F 2 "Capacitor_SMD:C_0402_1005Metric" H 4188 1700 50  0001 C CNN
F 3 "" H 4150 1850 50  0000 C CNN
	1    4150 1850
	1    0    0    -1  
$EndComp
$Comp
L Device:C C119
U 1 1 5DE29453
P 3100 1850
F 0 "C119" H 3215 1896 50  0000 L CNN
F 1 "1u" H 3215 1805 50  0000 L CNN
F 2 "Capacitor_SMD:C_0402_1005Metric" H 3138 1700 50  0001 C CNN
F 3 "" H 3100 1850 50  0000 C CNN
	1    3100 1850
	1    0    0    -1  
$EndComp
Wire Wire Line
	3100 2000 3600 2000
Wire Wire Line
	3100 1700 3600 1700
$Comp
L power:GNDA #PWR0226
U 1 1 5DE29461
P 4450 1300
F 0 "#PWR0226" H 4450 1050 50  0001 C CNN
F 1 "GNDA" V 4455 1172 50  0000 R CNN
F 2 "" H 4450 1300 50  0000 C CNN
F 3 "" H 4450 1300 50  0000 C CNN
	1    4450 1300
	0    -1   -1   0   
$EndComp
$Comp
L Device:C C114
U 1 1 5DE29467
P 3600 1150
F 0 "C114" H 3715 1196 50  0000 L CNN
F 1 "100n" H 3715 1105 50  0000 L CNN
F 2 "Capacitor_SMD:C_0402_1005Metric" H 3638 1000 50  0001 C CNN
F 3 "" H 3600 1150 50  0000 C CNN
	1    3600 1150
	1    0    0    -1  
$EndComp
$Comp
L Device:C C115
U 1 1 5DE2946D
P 4150 1150
F 0 "C115" H 4265 1196 50  0000 L CNN
F 1 "1n" H 4265 1105 50  0000 L CNN
F 2 "Capacitor_SMD:C_0402_1005Metric" H 4188 1000 50  0001 C CNN
F 3 "" H 4150 1150 50  0000 C CNN
	1    4150 1150
	1    0    0    -1  
$EndComp
$Comp
L Device:C C113
U 1 1 5DE29473
P 3100 1150
F 0 "C113" H 3215 1196 50  0000 L CNN
F 1 "1u" H 3215 1105 50  0000 L CNN
F 2 "Capacitor_SMD:C_0402_1005Metric" H 3138 1000 50  0001 C CNN
F 3 "" H 3100 1150 50  0000 C CNN
	1    3100 1150
	1    0    0    -1  
$EndComp
Wire Wire Line
	3100 1300 3600 1300
Wire Wire Line
	3100 1000 3600 1000
Connection ~ 3600 1000
Wire Wire Line
	3600 1000 4150 1000
Connection ~ 3600 1300
Wire Wire Line
	3600 1300 4150 1300
Connection ~ 4150 1000
Wire Wire Line
	4150 1000 4450 1000
Connection ~ 4150 1300
Wire Wire Line
	4150 1300 4450 1300
Connection ~ 3600 1700
Wire Wire Line
	3600 1700 4150 1700
Connection ~ 3600 2000
Wire Wire Line
	3600 2000 4150 2000
Connection ~ 4150 1700
Wire Wire Line
	4150 1700 4450 1700
Connection ~ 4150 2000
Wire Wire Line
	4150 2000 4450 2000
$Comp
L power_special:VCCA18 #PWR0224
U 1 1 5DE29DD7
P 4450 1000
F 0 "#PWR0224" H 4450 850 50  0001 C CNN
F 1 "VCCA18" V 4467 1128 50  0000 L CNN
F 2 "" H 4450 1000 50  0000 C CNN
F 3 "" H 4450 1000 50  0000 C CNN
	1    4450 1000
	0    1    1    0   
$EndComp
$Comp
L power_special:VCCA18 #PWR0228
U 1 1 5DE29E4C
P 4450 1700
F 0 "#PWR0228" H 4450 1550 50  0001 C CNN
F 1 "VCCA18" V 4467 1828 50  0000 L CNN
F 2 "" H 4450 1700 50  0000 C CNN
F 3 "" H 4450 1700 50  0000 C CNN
	1    4450 1700
	0    1    1    0   
$EndComp
Connection ~ 1500 1700
Wire Wire Line
	1500 1700 2050 1700
Connection ~ 1500 2000
Wire Wire Line
	1500 2000 2050 2000
Connection ~ 2050 1700
Wire Wire Line
	2050 1700 2350 1700
Connection ~ 2050 2000
Wire Wire Line
	2050 2000 2350 2000
$Comp
L Device:C C129
U 1 1 5DE2C25F
P 1500 4300
F 0 "C129" H 1615 4346 50  0000 L CNN
F 1 "100n" H 1615 4255 50  0000 L CNN
F 2 "Capacitor_SMD:C_0402_1005Metric" H 1538 4150 50  0001 C CNN
F 3 "" H 1500 4300 50  0000 C CNN
	1    1500 4300
	1    0    0    -1  
$EndComp
$Comp
L Device:C C130
U 1 1 5DE2C265
P 2050 4300
F 0 "C130" H 2165 4346 50  0000 L CNN
F 1 "1n" H 2165 4255 50  0000 L CNN
F 2 "Capacitor_SMD:C_0402_1005Metric" H 2088 4150 50  0001 C CNN
F 3 "" H 2050 4300 50  0000 C CNN
	1    2050 4300
	1    0    0    -1  
$EndComp
$Comp
L Device:C C128
U 1 1 5DE2C26B
P 1000 4300
F 0 "C128" H 1115 4346 50  0000 L CNN
F 1 "1u" H 1115 4255 50  0000 L CNN
F 2 "Capacitor_SMD:C_0402_1005Metric" H 1038 4150 50  0001 C CNN
F 3 "" H 1000 4300 50  0000 C CNN
	1    1000 4300
	1    0    0    -1  
$EndComp
Wire Wire Line
	1000 4450 1500 4450
Wire Wire Line
	1000 4150 1500 4150
$Comp
L Device:C C123
U 1 1 5DE2C27F
P 1500 3600
F 0 "C123" H 1615 3646 50  0000 L CNN
F 1 "100n" H 1615 3555 50  0000 L CNN
F 2 "Capacitor_SMD:C_0402_1005Metric" H 1538 3450 50  0001 C CNN
F 3 "" H 1500 3600 50  0000 C CNN
	1    1500 3600
	1    0    0    -1  
$EndComp
$Comp
L Device:C C124
U 1 1 5DE2C285
P 2050 3600
F 0 "C124" H 2165 3646 50  0000 L CNN
F 1 "1n" H 2165 3555 50  0000 L CNN
F 2 "Capacitor_SMD:C_0402_1005Metric" H 2088 3450 50  0001 C CNN
F 3 "" H 2050 3600 50  0000 C CNN
	1    2050 3600
	1    0    0    -1  
$EndComp
$Comp
L Device:C C122
U 1 1 5DE2C28B
P 1000 3600
F 0 "C122" H 1115 3646 50  0000 L CNN
F 1 "1u" H 1115 3555 50  0000 L CNN
F 2 "Capacitor_SMD:C_0402_1005Metric" H 1038 3450 50  0001 C CNN
F 3 "" H 1000 3600 50  0000 C CNN
	1    1000 3600
	1    0    0    -1  
$EndComp
Wire Wire Line
	1000 3750 1500 3750
Wire Wire Line
	1000 3450 1500 3450
Connection ~ 1500 3450
Wire Wire Line
	1500 3450 2050 3450
Connection ~ 1500 3750
Wire Wire Line
	1500 3750 2050 3750
Connection ~ 2050 3450
Wire Wire Line
	2050 3450 2350 3450
Connection ~ 2050 3750
Wire Wire Line
	2050 3750 2350 3750
$Comp
L Device:C C132
U 1 1 5DE2C2A7
P 3600 4300
F 0 "C132" H 3715 4346 50  0000 L CNN
F 1 "100n" H 3715 4255 50  0000 L CNN
F 2 "Capacitor_SMD:C_0402_1005Metric" H 3638 4150 50  0001 C CNN
F 3 "" H 3600 4300 50  0000 C CNN
	1    3600 4300
	1    0    0    -1  
$EndComp
$Comp
L Device:C C133
U 1 1 5DE2C2AD
P 4150 4300
F 0 "C133" H 4265 4346 50  0000 L CNN
F 1 "1n" H 4265 4255 50  0000 L CNN
F 2 "Capacitor_SMD:C_0402_1005Metric" H 4188 4150 50  0001 C CNN
F 3 "" H 4150 4300 50  0000 C CNN
	1    4150 4300
	1    0    0    -1  
$EndComp
$Comp
L Device:C C131
U 1 1 5DE2C2B3
P 3100 4300
F 0 "C131" H 3215 4346 50  0000 L CNN
F 1 "1u" H 3215 4255 50  0000 L CNN
F 2 "Capacitor_SMD:C_0402_1005Metric" H 3138 4150 50  0001 C CNN
F 3 "" H 3100 4300 50  0000 C CNN
	1    3100 4300
	1    0    0    -1  
$EndComp
Wire Wire Line
	3100 4450 3600 4450
Wire Wire Line
	3100 4150 3600 4150
$Comp
L Device:C C126
U 1 1 5DE2C2C1
P 3600 3600
F 0 "C126" H 3715 3646 50  0000 L CNN
F 1 "100n" H 3715 3555 50  0000 L CNN
F 2 "Capacitor_SMD:C_0402_1005Metric" H 3638 3450 50  0001 C CNN
F 3 "" H 3600 3600 50  0000 C CNN
	1    3600 3600
	1    0    0    -1  
$EndComp
$Comp
L Device:C C127
U 1 1 5DE2C2C7
P 4150 3600
F 0 "C127" H 4265 3646 50  0000 L CNN
F 1 "1n" H 4265 3555 50  0000 L CNN
F 2 "Capacitor_SMD:C_0402_1005Metric" H 4188 3450 50  0001 C CNN
F 3 "" H 4150 3600 50  0000 C CNN
	1    4150 3600
	1    0    0    -1  
$EndComp
$Comp
L Device:C C125
U 1 1 5DE2C2CD
P 3100 3600
F 0 "C125" H 3215 3646 50  0000 L CNN
F 1 "1u" H 3215 3555 50  0000 L CNN
F 2 "Capacitor_SMD:C_0402_1005Metric" H 3138 3450 50  0001 C CNN
F 3 "" H 3100 3600 50  0000 C CNN
	1    3100 3600
	1    0    0    -1  
$EndComp
Wire Wire Line
	3100 3750 3600 3750
Wire Wire Line
	3100 3450 3600 3450
Connection ~ 3600 3450
Wire Wire Line
	3600 3450 4150 3450
Connection ~ 3600 3750
Wire Wire Line
	3600 3750 4150 3750
Connection ~ 4150 3450
Wire Wire Line
	4150 3450 4450 3450
Connection ~ 4150 3750
Wire Wire Line
	4150 3750 4450 3750
Connection ~ 3600 4150
Wire Wire Line
	3600 4150 4150 4150
Connection ~ 3600 4450
Wire Wire Line
	3600 4450 4150 4450
Connection ~ 4150 4150
Wire Wire Line
	4150 4150 4450 4150
Connection ~ 4150 4450
Wire Wire Line
	4150 4450 4450 4450
Connection ~ 1500 4150
Wire Wire Line
	1500 4150 2050 4150
Connection ~ 1500 4450
Wire Wire Line
	1500 4450 2050 4450
Connection ~ 2050 4150
Wire Wire Line
	2050 4150 2350 4150
Connection ~ 2050 4450
Wire Wire Line
	2050 4450 2350 4450
$Comp
L power_special:VCCD18 #PWR0232
U 1 1 5DE2D574
P 4450 3450
F 0 "#PWR0232" H 4450 3300 50  0001 C CNN
F 1 "VCCD18" V 4467 3578 50  0000 L CNN
F 2 "" H 4450 3450 50  0000 C CNN
F 3 "" H 4450 3450 50  0000 C CNN
	1    4450 3450
	0    1    1    0   
$EndComp
$Comp
L power_special:VCCD33 #PWR0231
U 1 1 5DE2D63C
P 2350 3450
F 0 "#PWR0231" H 2350 3300 50  0001 C CNN
F 1 "VCCD33" V 2367 3578 50  0000 L CNN
F 2 "" H 2350 3450 50  0000 C CNN
F 3 "" H 2350 3450 50  0000 C CNN
	1    2350 3450
	0    1    1    0   
$EndComp
$Comp
L power_special:VCCD33 #PWR0235
U 1 1 5DE2D76E
P 2350 4150
F 0 "#PWR0235" H 2350 4000 50  0001 C CNN
F 1 "VCCD33" V 2367 4278 50  0000 L CNN
F 2 "" H 2350 4150 50  0000 C CNN
F 3 "" H 2350 4150 50  0000 C CNN
	1    2350 4150
	0    1    1    0   
$EndComp
$Comp
L power_special:VCCD18 #PWR0236
U 1 1 5DE2D7A9
P 4450 4150
F 0 "#PWR0236" H 4450 4000 50  0001 C CNN
F 1 "VCCD18" V 4467 4278 50  0000 L CNN
F 2 "" H 4450 4150 50  0000 C CNN
F 3 "" H 4450 4150 50  0000 C CNN
	1    4450 4150
	0    1    1    0   
$EndComp
$Comp
L power:GNDD #PWR0233
U 1 1 5DB00710
P 4450 4450
F 0 "#PWR0233" H 4450 4200 50  0001 C CNN
F 1 "GNDD" V 4455 4322 50  0000 R CNN
F 2 "" H 4450 4450 50  0000 C CNN
F 3 "" H 4450 4450 50  0000 C CNN
	1    4450 4450
	0    -1   -1   0   
$EndComp
$Comp
L power:GNDD #PWR0234
U 1 1 5DB0079A
P 4450 3750
F 0 "#PWR0234" H 4450 3500 50  0001 C CNN
F 1 "GNDD" V 4455 3622 50  0000 R CNN
F 2 "" H 4450 3750 50  0000 C CNN
F 3 "" H 4450 3750 50  0000 C CNN
	1    4450 3750
	0    -1   -1   0   
$EndComp
$Comp
L power:GNDD #PWR0237
U 1 1 5DB007D5
P 2350 3750
F 0 "#PWR0237" H 2350 3500 50  0001 C CNN
F 1 "GNDD" V 2355 3622 50  0000 R CNN
F 2 "" H 2350 3750 50  0000 C CNN
F 3 "" H 2350 3750 50  0000 C CNN
	1    2350 3750
	0    -1   -1   0   
$EndComp
$Comp
L power:GNDD #PWR0238
U 1 1 5DB00810
P 2350 4450
F 0 "#PWR0238" H 2350 4200 50  0001 C CNN
F 1 "GNDD" V 2355 4322 50  0000 R CNN
F 2 "" H 2350 4450 50  0000 C CNN
F 3 "" H 2350 4450 50  0000 C CNN
	1    2350 4450
	0    -1   -1   0   
$EndComp
$Comp
L Device:C C135
U 1 1 5DB03796
P 3600 4950
F 0 "C135" H 3715 4996 50  0000 L CNN
F 1 "100n" H 3715 4905 50  0000 L CNN
F 2 "Capacitor_SMD:C_0402_1005Metric" H 3638 4800 50  0001 C CNN
F 3 "" H 3600 4950 50  0000 C CNN
	1    3600 4950
	1    0    0    -1  
$EndComp
$Comp
L Device:C C136
U 1 1 5DB0379C
P 4150 4950
F 0 "C136" H 4265 4996 50  0000 L CNN
F 1 "1n" H 4265 4905 50  0000 L CNN
F 2 "Capacitor_SMD:C_0402_1005Metric" H 4188 4800 50  0001 C CNN
F 3 "" H 4150 4950 50  0000 C CNN
	1    4150 4950
	1    0    0    -1  
$EndComp
$Comp
L Device:C C134
U 1 1 5DB037A2
P 3100 4950
F 0 "C134" H 3215 4996 50  0000 L CNN
F 1 "1u" H 3215 4905 50  0000 L CNN
F 2 "Capacitor_SMD:C_0402_1005Metric" H 3138 4800 50  0001 C CNN
F 3 "" H 3100 4950 50  0000 C CNN
	1    3100 4950
	1    0    0    -1  
$EndComp
Wire Wire Line
	3100 5100 3600 5100
Wire Wire Line
	3100 4800 3600 4800
Connection ~ 3600 4800
Wire Wire Line
	3600 4800 4150 4800
Connection ~ 3600 5100
Wire Wire Line
	3600 5100 4150 5100
Connection ~ 4150 4800
Wire Wire Line
	4150 4800 4450 4800
Connection ~ 4150 5100
Wire Wire Line
	4150 5100 4450 5100
$Comp
L power_special:VCCD18 #PWR0245
U 1 1 5DB037B2
P 4450 4800
F 0 "#PWR0245" H 4450 4650 50  0001 C CNN
F 1 "VCCD18" V 4467 4928 50  0000 L CNN
F 2 "" H 4450 4800 50  0000 C CNN
F 3 "" H 4450 4800 50  0000 C CNN
	1    4450 4800
	0    1    1    0   
$EndComp
$Comp
L power:GNDD #PWR0246
U 1 1 5DB037B8
P 4450 5100
F 0 "#PWR0246" H 4450 4850 50  0001 C CNN
F 1 "GNDD" V 4455 4972 50  0000 R CNN
F 2 "" H 4450 5100 50  0000 C CNN
F 3 "" H 4450 5100 50  0000 C CNN
	1    4450 5100
	0    -1   -1   0   
$EndComp
$Comp
L KLauS-ASIC-BGA:KLauS-ASIC U1
U 3 1 60E73FAA
P 6050 1050
F 0 "U1" H 6050 1165 50  0000 C CNN
F 1 "KLauS-ASIC" H 6050 1074 50  0000 C CNN
F 2 "KLauS-BGA:KLauS-BGA" H 6050 1050 50  0001 C CNN
F 3 "" H 6050 1050 50  0001 C CNN
	3    6050 1050
	1    0    0    -1  
$EndComp
$Comp
L KLauS-ASIC-BGA:KLauS-ASIC U1
U 5 1 60E741D3
P 10100 1050
F 0 "U1" H 10100 1165 50  0000 C CNN
F 1 "KLauS-ASIC" H 10100 1074 50  0000 C CNN
F 2 "KLauS-BGA:KLauS-BGA" H 10100 1050 50  0001 C CNN
F 3 "" H 10100 1050 50  0001 C CNN
	5    10100 1050
	1    0    0    -1  
$EndComp
Wire Wire Line
	5400 1200 5300 1200
Wire Wire Line
	5400 1300 5300 1300
Wire Wire Line
	5400 1400 5300 1400
Wire Wire Line
	5400 1500 5300 1500
Wire Wire Line
	5400 1600 5300 1600
Wire Wire Line
	5400 1700 5300 1700
Wire Wire Line
	5400 1800 5300 1800
Wire Wire Line
	5400 1900 5300 1900
Wire Wire Line
	5400 2000 5300 2000
Wire Wire Line
	5400 2100 5300 2100
Wire Wire Line
	5400 2200 5300 2200
Wire Wire Line
	5400 2300 5300 2300
Wire Wire Line
	5400 2400 5300 2400
Wire Wire Line
	5400 2500 5300 2500
Wire Wire Line
	5400 2600 5300 2600
Wire Wire Line
	5400 2700 5300 2700
Wire Wire Line
	5400 2800 5300 2800
Wire Wire Line
	5400 2900 5300 2900
Wire Wire Line
	5400 3000 5300 3000
Wire Wire Line
	5400 3100 5300 3100
Wire Wire Line
	5400 3200 5300 3200
Wire Wire Line
	5400 3300 5300 3300
Wire Wire Line
	5400 3400 5300 3400
Wire Wire Line
	5400 3500 5300 3500
Wire Wire Line
	5400 3600 5300 3600
Wire Wire Line
	5400 3700 5300 3700
Wire Wire Line
	5400 3800 5300 3800
Wire Wire Line
	5400 3900 5300 3900
Wire Wire Line
	5400 4000 5300 4000
Wire Wire Line
	5400 4100 5300 4100
Wire Wire Line
	5400 4200 5300 4200
Wire Wire Line
	5400 4300 5300 4300
Wire Wire Line
	5400 4400 5300 4400
Wire Wire Line
	5400 4500 5300 4500
Wire Wire Line
	5400 4600 5300 4600
Wire Wire Line
	5400 4700 5300 4700
Wire Wire Line
	5400 4800 5300 4800
Wire Wire Line
	5400 4900 5300 4900
Wire Wire Line
	5400 5000 5300 5000
Wire Wire Line
	5400 5100 5300 5100
Wire Wire Line
	5400 5200 5300 5200
Wire Wire Line
	5400 5300 5300 5300
Wire Wire Line
	5400 5400 5300 5400
Wire Wire Line
	5400 5500 5300 5500
Wire Wire Line
	5400 5600 5300 5600
Wire Wire Line
	5400 5700 5300 5700
Wire Wire Line
	5400 5800 5300 5800
Wire Wire Line
	5400 5900 5300 5900
Wire Wire Line
	5400 6000 5300 6000
Wire Wire Line
	5400 6100 5300 6100
Wire Wire Line
	5400 6200 5300 6200
Wire Wire Line
	5400 6300 5300 6300
Wire Wire Line
	6800 1200 6700 1200
Wire Wire Line
	6800 1300 6700 1300
Wire Wire Line
	6800 1400 6700 1400
Wire Wire Line
	6800 1500 6700 1500
Wire Wire Line
	6800 1600 6700 1600
Wire Wire Line
	6800 1700 6700 1700
Wire Wire Line
	6800 1800 6700 1800
Wire Wire Line
	6800 1900 6700 1900
Wire Wire Line
	6800 2000 6700 2000
Wire Wire Line
	6800 2100 6700 2100
Wire Wire Line
	6800 2200 6700 2200
Wire Wire Line
	6800 2300 6700 2300
Wire Wire Line
	6800 2400 6700 2400
Wire Wire Line
	6800 2500 6700 2500
Wire Wire Line
	6800 2600 6700 2600
Wire Wire Line
	6800 2700 6700 2700
Wire Wire Line
	6800 2800 6700 2800
Wire Wire Line
	6800 2900 6700 2900
Wire Wire Line
	6800 3000 6700 3000
Wire Wire Line
	6800 3100 6700 3100
Wire Wire Line
	6800 3200 6700 3200
Wire Wire Line
	6800 3300 6700 3300
Wire Wire Line
	6800 3400 6700 3400
Wire Wire Line
	6800 3500 6700 3500
Wire Wire Line
	6800 3600 6700 3600
Wire Wire Line
	6800 3700 6700 3700
Wire Wire Line
	6800 3800 6700 3800
Wire Wire Line
	6800 3900 6700 3900
Wire Wire Line
	6800 4000 6700 4000
Wire Wire Line
	6800 4100 6700 4100
Wire Wire Line
	6800 4200 6700 4200
Wire Wire Line
	6800 4300 6700 4300
Wire Wire Line
	6800 4400 6700 4400
Wire Wire Line
	6800 4500 6700 4500
Wire Wire Line
	6800 4600 6700 4600
Wire Wire Line
	6800 4700 6700 4700
Wire Wire Line
	6800 4800 6700 4800
Wire Wire Line
	6800 4900 6700 4900
Wire Wire Line
	6800 5000 6700 5000
Wire Wire Line
	6800 5100 6700 5100
Wire Wire Line
	6800 5200 6700 5200
Wire Wire Line
	6800 5300 6700 5300
Wire Wire Line
	6800 5400 6700 5400
Wire Wire Line
	6800 5500 6700 5500
Wire Wire Line
	6800 5600 6700 5600
Wire Wire Line
	6800 5700 6700 5700
Wire Wire Line
	6800 5800 6700 5800
Wire Wire Line
	6800 5900 6700 5900
Wire Wire Line
	6800 6000 6700 6000
Wire Wire Line
	6800 6100 6700 6100
Wire Wire Line
	6800 6200 6700 6200
Wire Wire Line
	6800 6300 6700 6300
Wire Wire Line
	7650 1200 7550 1200
$Comp
L KLauS-ASIC-BGA:KLauS-ASIC U1
U 4 1 60E7408B
P 8300 1050
F 0 "U1" H 8300 1165 50  0000 C CNN
F 1 "KLauS-ASIC" H 8300 1074 50  0000 C CNN
F 2 "KLauS-BGA:KLauS-BGA" H 8300 1050 50  0001 C CNN
F 3 "" H 8300 1050 50  0001 C CNN
	4    8300 1050
	1    0    0    -1  
$EndComp
Wire Wire Line
	7650 1300 7550 1300
Wire Wire Line
	7650 1400 7550 1400
Wire Wire Line
	7650 1500 7550 1500
Wire Wire Line
	7650 1600 7550 1600
Wire Wire Line
	7650 1700 7550 1700
Wire Wire Line
	7650 1800 7550 1800
Wire Wire Line
	7650 1900 7550 1900
Wire Wire Line
	7650 2000 7550 2000
Wire Wire Line
	7650 2100 7550 2100
Wire Wire Line
	7650 2200 7550 2200
Wire Wire Line
	7650 2300 7550 2300
Wire Wire Line
	7650 2400 7550 2400
Wire Wire Line
	7650 2500 7550 2500
Wire Wire Line
	7650 2600 7550 2600
Wire Wire Line
	7650 2700 7550 2700
Wire Wire Line
	7650 2800 7550 2800
Wire Wire Line
	7650 2900 7550 2900
Wire Wire Line
	7650 3000 7550 3000
Wire Wire Line
	7650 3100 7550 3100
Wire Wire Line
	7650 3200 7550 3200
Wire Wire Line
	7650 3300 7550 3300
Wire Wire Line
	7650 3400 7550 3400
Wire Wire Line
	7650 3500 7550 3500
Wire Wire Line
	7650 3600 7550 3600
Wire Wire Line
	7650 3700 7550 3700
Wire Wire Line
	7650 3800 7550 3800
Wire Wire Line
	7650 3900 7550 3900
Wire Wire Line
	7650 4000 7550 4000
Wire Wire Line
	7650 4100 7550 4100
Wire Wire Line
	7650 4200 7550 4200
Wire Wire Line
	7650 4300 7550 4300
Wire Wire Line
	7650 4400 7550 4400
Wire Wire Line
	7650 4500 7550 4500
Wire Wire Line
	7650 4600 7550 4600
Wire Wire Line
	7650 4700 7550 4700
Wire Wire Line
	7650 4800 7550 4800
Wire Wire Line
	7650 4900 7550 4900
Wire Wire Line
	7650 5000 7550 5000
Wire Wire Line
	7650 5100 7550 5100
Wire Wire Line
	7650 5200 7550 5200
Wire Wire Line
	7650 5300 7550 5300
Wire Wire Line
	7650 5400 7550 5400
Wire Wire Line
	7650 5500 7550 5500
Wire Wire Line
	7650 5600 7550 5600
Wire Wire Line
	7650 5700 7550 5700
Wire Wire Line
	7650 5800 7550 5800
Wire Wire Line
	7650 5900 7550 5900
Wire Wire Line
	7650 6000 7550 6000
Wire Wire Line
	7650 6100 7550 6100
Wire Wire Line
	7650 6200 7550 6200
Wire Wire Line
	7650 6300 7550 6300
Wire Wire Line
	9450 1200 9350 1200
Wire Wire Line
	9450 1300 9350 1300
Wire Wire Line
	9450 1400 9350 1400
Wire Wire Line
	9450 1500 9350 1500
Wire Wire Line
	9450 1600 9350 1600
Wire Wire Line
	9450 1700 9350 1700
Wire Wire Line
	9450 1800 9350 1800
Wire Wire Line
	9450 1900 9350 1900
Wire Wire Line
	9450 2000 9350 2000
Wire Wire Line
	9450 2100 9350 2100
Wire Wire Line
	9450 2200 9350 2200
Wire Wire Line
	9450 2300 9350 2300
Wire Wire Line
	9450 2400 9350 2400
Wire Wire Line
	9450 2500 9350 2500
Wire Wire Line
	9450 2600 9350 2600
Wire Wire Line
	9450 2700 9350 2700
Wire Wire Line
	9450 2800 9350 2800
Wire Wire Line
	9450 2900 9350 2900
Wire Wire Line
	9450 3000 9350 3000
Wire Wire Line
	9450 3100 9350 3100
Wire Wire Line
	9450 3200 9350 3200
Wire Wire Line
	9450 3300 9350 3300
Wire Wire Line
	9450 3400 9350 3400
Wire Wire Line
	9450 3500 9350 3500
Wire Wire Line
	9450 3600 9350 3600
Wire Wire Line
	9450 3700 9350 3700
Wire Wire Line
	9450 3800 9350 3800
Wire Wire Line
	9450 3900 9350 3900
Wire Wire Line
	9450 4000 9350 4000
Wire Wire Line
	9450 4100 9350 4100
Wire Wire Line
	9450 4200 9350 4200
Wire Wire Line
	9450 4300 9350 4300
Wire Wire Line
	9450 4400 9350 4400
Wire Wire Line
	9450 4500 9350 4500
Wire Wire Line
	9450 4600 9350 4600
Wire Wire Line
	9450 4700 9350 4700
Wire Wire Line
	9450 4800 9350 4800
Wire Wire Line
	9450 4900 9350 4900
Wire Wire Line
	9450 5000 9350 5000
Wire Wire Line
	9450 5100 9350 5100
Wire Wire Line
	9450 5200 9350 5200
Wire Wire Line
	9450 5300 9350 5300
Wire Wire Line
	9450 5400 9350 5400
Wire Wire Line
	9450 5500 9350 5500
Wire Wire Line
	9450 5600 9350 5600
Wire Wire Line
	9450 5700 9350 5700
Wire Wire Line
	9450 5800 9350 5800
Wire Wire Line
	9450 5900 9350 5900
Wire Wire Line
	9450 6000 9350 6000
Wire Wire Line
	9450 6100 9350 6100
Wire Wire Line
	9450 6200 9350 6200
Wire Wire Line
	9450 6300 9350 6300
Wire Wire Line
	8950 1200 9050 1200
Wire Wire Line
	8950 1300 9050 1300
Wire Wire Line
	8950 1400 9050 1400
Wire Wire Line
	8950 1500 9050 1500
Wire Wire Line
	8950 1600 9050 1600
Wire Wire Line
	8950 1700 9050 1700
Wire Wire Line
	8950 1800 9050 1800
Wire Wire Line
	8950 1900 9050 1900
Wire Wire Line
	8950 2000 9050 2000
Wire Wire Line
	8950 2100 9050 2100
Wire Wire Line
	8950 2350 9050 2350
Wire Wire Line
	8950 2450 9050 2450
Wire Wire Line
	8950 2550 9050 2550
Wire Wire Line
	8950 2650 9050 2650
Wire Wire Line
	8950 2750 9050 2750
Wire Wire Line
	8950 2850 9050 2850
Wire Wire Line
	8950 2950 9050 2950
Wire Wire Line
	8950 3050 9050 3050
Wire Wire Line
	8950 3150 9050 3150
Wire Wire Line
	8950 3250 9050 3250
Wire Wire Line
	8950 3350 9050 3350
Wire Wire Line
	8950 3450 9050 3450
Wire Wire Line
	8950 3550 9050 3550
Wire Wire Line
	8950 3650 9050 3650
Wire Wire Line
	8950 3750 9050 3750
Wire Wire Line
	8950 3850 9050 3850
Wire Wire Line
	8950 3950 9050 3950
Wire Wire Line
	8950 4050 9050 4050
Wire Wire Line
	8950 4150 9050 4150
Wire Wire Line
	8950 4250 9050 4250
Wire Wire Line
	8950 4350 9050 4350
Wire Wire Line
	8950 4450 9050 4450
Wire Wire Line
	8950 4550 9050 4550
Wire Wire Line
	8950 4650 9050 4650
Wire Wire Line
	8950 4750 9050 4750
Wire Wire Line
	8950 4850 9050 4850
Wire Wire Line
	8950 4950 9050 4950
Wire Wire Line
	8950 5050 9050 5050
Wire Wire Line
	8950 5150 9050 5150
Wire Wire Line
	8950 5250 9050 5250
Wire Wire Line
	8950 5350 9050 5350
Wire Wire Line
	8950 5500 9050 5500
Wire Wire Line
	8950 5600 9050 5600
Wire Wire Line
	8950 5700 9050 5700
Wire Wire Line
	8950 5800 9050 5800
Wire Wire Line
	8950 5900 9050 5900
Wire Wire Line
	8950 6000 9050 6000
Wire Wire Line
	8950 6100 9050 6100
Wire Wire Line
	8950 6200 9050 6200
Wire Wire Line
	8950 6300 9050 6300
Wire Wire Line
	10750 1200 10850 1200
Wire Wire Line
	10750 1300 10850 1300
Wire Wire Line
	10750 1400 10850 1400
Wire Wire Line
	10750 1600 10850 1600
Wire Wire Line
	10750 1700 10850 1700
Wire Wire Line
	10750 1800 10850 1800
Wire Wire Line
	10750 1900 10850 1900
Wire Wire Line
	10750 2000 10850 2000
Wire Wire Line
	10750 2100 10850 2100
Wire Wire Line
	10750 2200 10850 2200
Wire Wire Line
	10750 2300 10850 2300
Wire Wire Line
	10750 2400 10850 2400
Wire Wire Line
	10750 2500 10850 2500
Wire Wire Line
	10750 2600 10850 2600
Wire Wire Line
	10750 2700 10850 2700
Wire Wire Line
	10750 2800 10850 2800
Wire Wire Line
	10750 2900 10850 2900
Wire Wire Line
	10750 3000 10850 3000
Wire Wire Line
	10750 3100 10850 3100
Wire Wire Line
	10750 3200 10850 3200
Wire Wire Line
	10750 3300 10850 3300
Wire Wire Line
	10750 3400 10850 3400
Wire Wire Line
	10750 3500 10850 3500
Wire Wire Line
	10750 3600 10850 3600
Wire Wire Line
	10750 3700 10850 3700
Wire Wire Line
	10750 3800 10850 3800
Wire Wire Line
	10750 3900 10850 3900
Wire Wire Line
	10750 4000 10850 4000
Wire Wire Line
	10750 4100 10850 4100
Wire Wire Line
	10750 4200 10850 4200
Wire Wire Line
	10750 4300 10850 4300
Wire Wire Line
	10750 4400 10850 4400
Wire Wire Line
	10750 4500 10850 4500
Wire Wire Line
	10750 4600 10850 4600
Wire Wire Line
	5300 1200 5300 1300
Connection ~ 5300 1300
Wire Wire Line
	5300 1300 5300 1400
Connection ~ 5300 1400
Wire Wire Line
	5300 1400 5300 1500
Connection ~ 5300 1500
Wire Wire Line
	5300 1500 5300 1600
Connection ~ 5300 1600
Wire Wire Line
	5300 1600 5300 1700
Connection ~ 5300 1700
Wire Wire Line
	5300 1700 5300 1800
Connection ~ 5300 1800
Wire Wire Line
	5300 1800 5300 1900
Connection ~ 5300 1900
Wire Wire Line
	5300 1900 5300 2000
Connection ~ 5300 2000
Wire Wire Line
	5300 2000 5300 2100
Connection ~ 5300 2100
Wire Wire Line
	5300 2100 5300 2200
Connection ~ 5300 2200
Wire Wire Line
	5300 2200 5300 2300
Connection ~ 5300 2300
Wire Wire Line
	5300 2300 5300 2400
Connection ~ 5300 2400
Wire Wire Line
	5300 2400 5300 2500
Connection ~ 5300 2500
Wire Wire Line
	5300 2500 5300 2600
Connection ~ 5300 2600
Wire Wire Line
	5300 2600 5300 2700
Connection ~ 5300 2700
Wire Wire Line
	5300 2700 5300 2800
Connection ~ 5300 2800
Wire Wire Line
	5300 2800 5300 2900
Connection ~ 5300 2900
Wire Wire Line
	5300 2900 5300 3000
Connection ~ 5300 3000
Wire Wire Line
	5300 3000 5300 3100
Connection ~ 5300 3100
Wire Wire Line
	5300 3100 5300 3200
Connection ~ 5300 3200
Wire Wire Line
	5300 3200 5300 3300
Connection ~ 5300 3300
Wire Wire Line
	5300 3300 5300 3400
Connection ~ 5300 3400
Wire Wire Line
	5300 3400 5300 3500
Connection ~ 5300 3500
Wire Wire Line
	5300 3500 5300 3600
Connection ~ 5300 3600
Wire Wire Line
	5300 3600 5300 3700
Connection ~ 5300 3700
Wire Wire Line
	5300 3700 5300 3800
Connection ~ 5300 3800
Wire Wire Line
	5300 3800 5300 3900
Connection ~ 5300 3900
Wire Wire Line
	5300 3900 5300 4000
Connection ~ 5300 4000
Wire Wire Line
	5300 4000 5300 4100
Connection ~ 5300 4100
Wire Wire Line
	5300 4100 5300 4200
Connection ~ 5300 4200
Wire Wire Line
	5300 4200 5300 4300
Connection ~ 5300 4300
Wire Wire Line
	5300 4300 5300 4400
Connection ~ 5300 4400
Wire Wire Line
	5300 4400 5300 4500
Connection ~ 5300 4500
Wire Wire Line
	5300 4500 5300 4600
Connection ~ 5300 4600
Wire Wire Line
	5300 4600 5300 4700
Connection ~ 5300 4700
Wire Wire Line
	5300 4700 5300 4800
Connection ~ 5300 4800
Wire Wire Line
	5300 4800 5300 4900
Connection ~ 5300 4900
Wire Wire Line
	5300 4900 5300 5000
Connection ~ 5300 5000
Wire Wire Line
	5300 5000 5300 5100
Connection ~ 5300 5100
Wire Wire Line
	5300 5100 5300 5200
Connection ~ 5300 5200
Wire Wire Line
	5300 5200 5300 5300
Connection ~ 5300 5300
Wire Wire Line
	5300 5300 5300 5400
Connection ~ 5300 5400
Wire Wire Line
	5300 5400 5300 5500
Connection ~ 5300 5500
Wire Wire Line
	5300 5500 5300 5600
Connection ~ 5300 5600
Wire Wire Line
	5300 5600 5300 5700
Connection ~ 5300 5700
Wire Wire Line
	5300 5700 5300 5800
Connection ~ 5300 5800
Wire Wire Line
	5300 5800 5300 5900
Connection ~ 5300 5900
Wire Wire Line
	5300 5900 5300 6000
Connection ~ 5300 6000
Wire Wire Line
	5300 6000 5300 6100
Connection ~ 5300 6100
Wire Wire Line
	5300 6100 5300 6200
Connection ~ 5300 6200
Wire Wire Line
	5300 6200 5300 6300
Wire Wire Line
	6800 6300 6800 6200
Connection ~ 6800 1300
Wire Wire Line
	6800 1300 6800 1200
Connection ~ 6800 1400
Wire Wire Line
	6800 1400 6800 1300
Connection ~ 6800 1500
Wire Wire Line
	6800 1500 6800 1400
Connection ~ 6800 1600
Wire Wire Line
	6800 1600 6800 1500
Connection ~ 6800 1700
Wire Wire Line
	6800 1700 6800 1600
Connection ~ 6800 1800
Wire Wire Line
	6800 1800 6800 1700
Connection ~ 6800 1900
Wire Wire Line
	6800 1900 6800 1800
Connection ~ 6800 2000
Wire Wire Line
	6800 2000 6800 1900
Connection ~ 6800 2100
Wire Wire Line
	6800 2100 6800 2000
Connection ~ 6800 2200
Wire Wire Line
	6800 2200 6800 2100
Connection ~ 6800 2300
Wire Wire Line
	6800 2300 6800 2200
Connection ~ 6800 2400
Wire Wire Line
	6800 2400 6800 2300
Connection ~ 6800 2500
Wire Wire Line
	6800 2500 6800 2400
Connection ~ 6800 2600
Wire Wire Line
	6800 2600 6800 2500
Connection ~ 6800 2700
Wire Wire Line
	6800 2700 6800 2600
Connection ~ 6800 2800
Wire Wire Line
	6800 2800 6800 2700
Connection ~ 6800 2900
Wire Wire Line
	6800 2900 6800 2800
Connection ~ 6800 3000
Wire Wire Line
	6800 3000 6800 2900
Connection ~ 6800 3100
Wire Wire Line
	6800 3100 6800 3000
Connection ~ 6800 3200
Wire Wire Line
	6800 3200 6800 3100
Connection ~ 6800 3300
Wire Wire Line
	6800 3300 6800 3200
Connection ~ 6800 3400
Wire Wire Line
	6800 3400 6800 3300
Connection ~ 6800 3500
Wire Wire Line
	6800 3500 6800 3400
Connection ~ 6800 3600
Wire Wire Line
	6800 3600 6800 3500
Connection ~ 6800 3700
Wire Wire Line
	6800 3700 6800 3600
Connection ~ 6800 3800
Wire Wire Line
	6800 3800 6800 3700
Connection ~ 6800 3900
Wire Wire Line
	6800 3900 6800 3800
Connection ~ 6800 4000
Wire Wire Line
	6800 4000 6800 3900
Connection ~ 6800 4100
Wire Wire Line
	6800 4100 6800 4000
Connection ~ 6800 4200
Wire Wire Line
	6800 4200 6800 4100
Connection ~ 6800 4300
Wire Wire Line
	6800 4300 6800 4200
Connection ~ 6800 4400
Wire Wire Line
	6800 4400 6800 4300
Connection ~ 6800 4500
Wire Wire Line
	6800 4500 6800 4400
Connection ~ 6800 4600
Wire Wire Line
	6800 4600 6800 4500
Connection ~ 6800 4700
Wire Wire Line
	6800 4700 6800 4600
Connection ~ 6800 4800
Wire Wire Line
	6800 4800 6800 4700
Connection ~ 6800 4900
Wire Wire Line
	6800 4900 6800 4800
Connection ~ 6800 5000
Wire Wire Line
	6800 5000 6800 4900
Connection ~ 6800 5100
Wire Wire Line
	6800 5100 6800 5000
Connection ~ 6800 5200
Wire Wire Line
	6800 5200 6800 5100
Connection ~ 6800 5300
Wire Wire Line
	6800 5300 6800 5200
Connection ~ 6800 5400
Wire Wire Line
	6800 5400 6800 5300
Connection ~ 6800 5500
Wire Wire Line
	6800 5500 6800 5400
Connection ~ 6800 5600
Wire Wire Line
	6800 5600 6800 5500
Connection ~ 6800 5700
Wire Wire Line
	6800 5700 6800 5600
Connection ~ 6800 5800
Wire Wire Line
	6800 5800 6800 5700
Connection ~ 6800 5900
Wire Wire Line
	6800 5900 6800 5800
Connection ~ 6800 6000
Wire Wire Line
	6800 6000 6800 5900
Connection ~ 6800 6100
Wire Wire Line
	6800 6100 6800 6000
Connection ~ 6800 6200
Wire Wire Line
	6800 6200 6800 6100
Wire Wire Line
	5300 6300 5300 6550
Connection ~ 5300 6300
$Comp
L power:GNDA #PWR0261
U 1 1 60FFA8BD
P 5300 6550
F 0 "#PWR0261" H 5300 6300 50  0001 C CNN
F 1 "GNDA" H 5305 6377 50  0000 C CNN
F 2 "" H 5300 6550 50  0001 C CNN
F 3 "" H 5300 6550 50  0001 C CNN
	1    5300 6550
	1    0    0    -1  
$EndComp
$Comp
L power:GNDA #PWR0262
U 1 1 60FFA90B
P 6800 6400
F 0 "#PWR0262" H 6800 6150 50  0001 C CNN
F 1 "GNDA" H 6805 6227 50  0000 C CNN
F 2 "" H 6800 6400 50  0001 C CNN
F 3 "" H 6800 6400 50  0001 C CNN
	1    6800 6400
	1    0    0    -1  
$EndComp
Wire Wire Line
	6800 6400 6800 6300
Connection ~ 6800 6300
Wire Wire Line
	7550 1200 7550 1300
Connection ~ 7550 1300
Wire Wire Line
	7550 1300 7550 1400
Connection ~ 7550 1400
Wire Wire Line
	7550 1400 7550 1500
Connection ~ 7550 1500
Wire Wire Line
	7550 1500 7550 1600
Connection ~ 7550 1600
Wire Wire Line
	7550 1600 7550 1700
Connection ~ 7550 1700
Wire Wire Line
	7550 1700 7550 1800
Connection ~ 7550 1800
Wire Wire Line
	7550 1800 7550 1900
Connection ~ 7550 1900
Wire Wire Line
	7550 1900 7550 2000
Connection ~ 7550 2000
Wire Wire Line
	7550 2000 7550 2100
Connection ~ 7550 2100
Wire Wire Line
	7550 2100 7550 2200
Connection ~ 7550 2200
Wire Wire Line
	7550 2200 7550 2300
Connection ~ 7550 2300
Wire Wire Line
	7550 2300 7550 2400
Connection ~ 7550 2400
Wire Wire Line
	7550 2400 7550 2500
Connection ~ 7550 2500
Wire Wire Line
	7550 2500 7550 2600
Connection ~ 7550 2600
Wire Wire Line
	7550 2600 7550 2700
Connection ~ 7550 2700
Wire Wire Line
	7550 2700 7550 2800
Connection ~ 7550 2800
Wire Wire Line
	7550 2800 7550 2900
Connection ~ 7550 2900
Wire Wire Line
	7550 2900 7550 3000
Connection ~ 7550 3000
Wire Wire Line
	7550 3000 7550 3100
Connection ~ 7550 3100
Wire Wire Line
	7550 3100 7550 3200
Connection ~ 7550 3200
Wire Wire Line
	7550 3200 7550 3300
Connection ~ 7550 3300
Wire Wire Line
	7550 3300 7550 3400
Connection ~ 7550 3400
Wire Wire Line
	7550 3400 7550 3500
Connection ~ 7550 3500
Wire Wire Line
	7550 3500 7550 3600
Connection ~ 7550 3600
Wire Wire Line
	7550 3600 7550 3700
Connection ~ 7550 3700
Wire Wire Line
	7550 3700 7550 3800
Connection ~ 7550 3800
Wire Wire Line
	7550 3800 7550 3900
Connection ~ 7550 3900
Wire Wire Line
	7550 3900 7550 4000
Connection ~ 7550 4000
Wire Wire Line
	7550 4000 7550 4100
Connection ~ 7550 4100
Wire Wire Line
	7550 4100 7550 4200
Connection ~ 7550 4200
Wire Wire Line
	7550 4200 7550 4300
Connection ~ 7550 4300
Wire Wire Line
	7550 4300 7550 4400
Connection ~ 7550 4400
Wire Wire Line
	7550 4400 7550 4500
Connection ~ 7550 4500
Wire Wire Line
	7550 4500 7550 4600
Connection ~ 7550 4600
Wire Wire Line
	7550 4600 7550 4700
Connection ~ 7550 4700
Wire Wire Line
	7550 4700 7550 4800
Connection ~ 7550 4800
Wire Wire Line
	7550 4800 7550 4900
Connection ~ 7550 4900
Wire Wire Line
	7550 4900 7550 5000
Connection ~ 7550 5000
Wire Wire Line
	7550 5000 7550 5100
Connection ~ 7550 5100
Wire Wire Line
	7550 5100 7550 5200
Connection ~ 7550 5200
Wire Wire Line
	7550 5200 7550 5300
Connection ~ 7550 5300
Wire Wire Line
	7550 5300 7550 5400
Connection ~ 7550 5400
Wire Wire Line
	7550 5400 7550 5500
Connection ~ 7550 5500
Wire Wire Line
	7550 5500 7550 5600
Connection ~ 7550 5600
Wire Wire Line
	7550 5600 7550 5700
Connection ~ 7550 5700
Wire Wire Line
	7550 5700 7550 5800
Connection ~ 7550 5800
Wire Wire Line
	7550 5800 7550 5900
Connection ~ 7550 5900
Wire Wire Line
	7550 5900 7550 6000
Connection ~ 7550 6000
Wire Wire Line
	7550 6000 7550 6100
Connection ~ 7550 6100
Wire Wire Line
	7550 6100 7550 6200
Connection ~ 7550 6200
Wire Wire Line
	7550 6200 7550 6300
Connection ~ 7550 6300
Wire Wire Line
	7550 6300 7550 6400
$Comp
L power:GNDD #PWR0263
U 1 1 6106010A
P 7550 6400
F 0 "#PWR0263" H 7550 6150 50  0001 C CNN
F 1 "GNDD" H 7554 6245 50  0000 C CNN
F 2 "" H 7550 6400 50  0001 C CNN
F 3 "" H 7550 6400 50  0001 C CNN
	1    7550 6400
	1    0    0    -1  
$EndComp
$Comp
L power:GNDD #PWR0264
U 1 1 61060158
P 9050 2100
F 0 "#PWR0264" H 9050 1850 50  0001 C CNN
F 1 "GNDD" V 9150 2050 50  0000 C CNN
F 2 "" H 9050 2100 50  0001 C CNN
F 3 "" H 9050 2100 50  0001 C CNN
	1    9050 2100
	1    0    0    -1  
$EndComp
Wire Wire Line
	9050 2100 9050 2000
Connection ~ 9050 2100
Connection ~ 9050 1300
Wire Wire Line
	9050 1300 9050 1200
Connection ~ 9050 1400
Wire Wire Line
	9050 1400 9050 1300
Connection ~ 9050 1500
Wire Wire Line
	9050 1500 9050 1400
Connection ~ 9050 1600
Wire Wire Line
	9050 1600 9050 1500
Connection ~ 9050 1700
Wire Wire Line
	9050 1700 9050 1600
Connection ~ 9050 1800
Wire Wire Line
	9050 1800 9050 1700
Connection ~ 9050 1900
Wire Wire Line
	9050 1900 9050 1800
Connection ~ 9050 2000
Wire Wire Line
	9050 2000 9050 1900
Wire Wire Line
	9350 1200 9350 1300
Connection ~ 9350 1300
Wire Wire Line
	9350 1300 9350 1400
Connection ~ 9350 1400
Wire Wire Line
	9350 1400 9350 1500
Connection ~ 9350 1500
Wire Wire Line
	9350 1500 9350 1600
Connection ~ 9350 1600
Wire Wire Line
	9350 1600 9350 1700
Connection ~ 9350 1700
Wire Wire Line
	9350 1700 9350 1800
Connection ~ 9350 1800
Wire Wire Line
	9350 1800 9350 1900
Connection ~ 9350 1900
Wire Wire Line
	9350 1900 9350 2000
Connection ~ 9350 2000
Wire Wire Line
	9350 2000 9350 2100
Connection ~ 9350 2100
Wire Wire Line
	9350 2100 9350 2200
Connection ~ 9350 2200
Wire Wire Line
	9350 2200 9350 2300
Connection ~ 9350 2300
Wire Wire Line
	9350 2300 9350 2400
Connection ~ 9350 2400
Wire Wire Line
	9350 2400 9350 2500
Connection ~ 9350 2500
Wire Wire Line
	9350 2500 9350 2600
Connection ~ 9350 2600
Wire Wire Line
	9350 2600 9350 2700
Connection ~ 9350 2700
Wire Wire Line
	9350 2700 9350 2800
Connection ~ 9350 2800
Wire Wire Line
	9350 2800 9350 2900
Connection ~ 9350 2900
Wire Wire Line
	9350 2900 9350 3000
Connection ~ 9350 3000
Wire Wire Line
	9350 3000 9350 3100
Connection ~ 9350 3100
Wire Wire Line
	9350 3100 9350 3200
Connection ~ 9350 3200
Wire Wire Line
	9350 3200 9350 3300
Connection ~ 9350 3300
Wire Wire Line
	9350 3300 9350 3400
Connection ~ 9350 3400
Wire Wire Line
	9350 3400 9350 3500
Connection ~ 9350 3500
Wire Wire Line
	9350 3500 9350 3600
Connection ~ 9350 3600
Wire Wire Line
	9350 3600 9350 3700
Connection ~ 9350 3700
Wire Wire Line
	9350 3700 9350 3800
Connection ~ 9350 3800
Wire Wire Line
	9350 3800 9350 3900
Connection ~ 9350 3900
Wire Wire Line
	9350 3900 9350 4000
Connection ~ 9350 4000
Wire Wire Line
	9350 4000 9350 4100
Connection ~ 9350 4100
Wire Wire Line
	9350 4100 9350 4200
Connection ~ 9350 4200
Wire Wire Line
	9350 4200 9350 4300
Connection ~ 9350 4300
Wire Wire Line
	9350 4300 9350 4400
Connection ~ 9350 4400
Wire Wire Line
	9350 4400 9350 4500
Connection ~ 9350 4500
Wire Wire Line
	9350 4500 9350 4600
Connection ~ 9350 4600
Wire Wire Line
	9350 4600 9350 4700
Connection ~ 9350 4700
Wire Wire Line
	9350 4700 9350 4800
Connection ~ 9350 4800
Wire Wire Line
	9350 4800 9350 4900
Connection ~ 9350 4900
Wire Wire Line
	9350 4900 9350 5000
Connection ~ 9350 5000
Wire Wire Line
	9350 5000 9350 5100
Connection ~ 9350 5100
Wire Wire Line
	9350 5100 9350 5200
Connection ~ 9350 5200
Wire Wire Line
	9350 5200 9350 5300
Connection ~ 9350 5300
Wire Wire Line
	9350 5300 9350 5400
Connection ~ 9350 5400
Wire Wire Line
	9350 5400 9350 5500
Connection ~ 9350 5500
Wire Wire Line
	9350 5500 9350 5600
Connection ~ 9350 5600
Wire Wire Line
	9350 5600 9350 5700
Connection ~ 9350 5700
Wire Wire Line
	9350 5700 9350 5800
Connection ~ 9350 5800
Wire Wire Line
	9350 5800 9350 5900
Connection ~ 9350 5900
Wire Wire Line
	9350 5900 9350 6000
Connection ~ 9350 6000
Wire Wire Line
	9350 6000 9350 6100
Connection ~ 9350 6100
Wire Wire Line
	9350 6100 9350 6200
Connection ~ 9350 6200
Wire Wire Line
	9350 6200 9350 6300
Wire Wire Line
	9050 6300 9050 6200
Connection ~ 9050 5600
Wire Wire Line
	9050 5600 9050 5500
Connection ~ 9050 5700
Wire Wire Line
	9050 5700 9050 5600
Connection ~ 9050 5800
Wire Wire Line
	9050 5800 9050 5700
Connection ~ 9050 5900
Wire Wire Line
	9050 5900 9050 5800
Connection ~ 9050 6000
Wire Wire Line
	9050 6000 9050 5900
Connection ~ 9050 6100
Wire Wire Line
	9050 6100 9050 6000
Connection ~ 9050 6200
Wire Wire Line
	9050 6200 9050 6100
Wire Wire Line
	9050 5350 9050 5250
Connection ~ 9050 2450
Wire Wire Line
	9050 2450 9050 2350
Connection ~ 9050 2550
Wire Wire Line
	9050 2550 9050 2500
Connection ~ 9050 2650
Wire Wire Line
	9050 2650 9050 2550
Connection ~ 9050 2750
Wire Wire Line
	9050 2750 9050 2650
Connection ~ 9050 2850
Wire Wire Line
	9050 2850 9050 2750
Connection ~ 9050 2950
Wire Wire Line
	9050 2950 9050 2850
Connection ~ 9050 3050
Wire Wire Line
	9050 3050 9050 2950
Connection ~ 9050 3150
Wire Wire Line
	9050 3150 9050 3050
Connection ~ 9050 3250
Wire Wire Line
	9050 3250 9050 3150
Connection ~ 9050 3350
Wire Wire Line
	9050 3350 9050 3250
Connection ~ 9050 3450
Wire Wire Line
	9050 3450 9050 3350
Connection ~ 9050 3550
Wire Wire Line
	9050 3550 9050 3450
Connection ~ 9050 3650
Wire Wire Line
	9050 3650 9050 3550
Connection ~ 9050 3750
Wire Wire Line
	9050 3750 9050 3650
Connection ~ 9050 3850
Wire Wire Line
	9050 3850 9050 3750
Connection ~ 9050 3950
Wire Wire Line
	9050 3950 9050 3850
Connection ~ 9050 4050
Wire Wire Line
	9050 4050 9050 3950
Connection ~ 9050 4150
Wire Wire Line
	9050 4150 9050 4050
Connection ~ 9050 4250
Wire Wire Line
	9050 4250 9050 4150
Connection ~ 9050 4350
Wire Wire Line
	9050 4350 9050 4250
Connection ~ 9050 4450
Wire Wire Line
	9050 4450 9050 4350
Connection ~ 9050 4550
Wire Wire Line
	9050 4550 9050 4450
Connection ~ 9050 4650
Wire Wire Line
	9050 4650 9050 4550
Connection ~ 9050 4750
Wire Wire Line
	9050 4750 9050 4650
Connection ~ 9050 4850
Wire Wire Line
	9050 4850 9050 4750
Connection ~ 9050 4950
Wire Wire Line
	9050 4950 9050 4850
Connection ~ 9050 5050
Wire Wire Line
	9050 5050 9050 4950
Connection ~ 9050 5150
Wire Wire Line
	9050 5150 9050 5050
Connection ~ 9050 5250
Wire Wire Line
	9050 5250 9050 5150
$Comp
L power_special:VCCD18 #PWR0265
U 1 1 6114F310
P 9150 2450
F 0 "#PWR0265" H 9150 2300 50  0001 C CNN
F 1 "VCCD18" V 9150 2200 50  0000 C CNN
F 2 "" H 9150 2450 50  0000 C CNN
F 3 "" H 9150 2450 50  0000 C CNN
	1    9150 2450
	1    0    0    -1  
$EndComp
Wire Wire Line
	9150 2450 9150 2500
Wire Wire Line
	9150 2500 9050 2500
Connection ~ 9050 2500
Wire Wire Line
	9050 2500 9050 2450
$Comp
L power_special:VCCA18 #PWR0266
U 1 1 6119857B
P 9350 1100
F 0 "#PWR0266" H 9350 950 50  0001 C CNN
F 1 "VCCA18" V 9250 1200 50  0000 C CNN
F 2 "" H 9350 1100 50  0000 C CNN
F 3 "" H 9350 1100 50  0000 C CNN
	1    9350 1100
	1    0    0    -1  
$EndComp
Wire Wire Line
	9350 1200 9350 1100
Connection ~ 9350 1200
$Comp
L power_special:VCCA18 #PWR0267
U 1 1 611E1B61
P 10850 1100
F 0 "#PWR0267" H 10850 950 50  0001 C CNN
F 1 "VCCA18" V 10950 1150 50  0000 C CNN
F 2 "" H 10850 1100 50  0000 C CNN
F 3 "" H 10850 1100 50  0000 C CNN
	1    10850 1100
	1    0    0    -1  
$EndComp
Wire Wire Line
	10850 1100 10850 1200
Connection ~ 10850 1200
Wire Wire Line
	10850 1200 10850 1300
Connection ~ 10850 1300
Wire Wire Line
	10850 1300 10850 1400
Wire Wire Line
	10850 1600 10850 1700
Connection ~ 10850 1700
Wire Wire Line
	10850 1700 10850 1800
Connection ~ 10850 1800
Wire Wire Line
	10850 1800 10850 1900
Connection ~ 10850 1900
Wire Wire Line
	10850 1900 10850 2000
Connection ~ 10850 2000
Wire Wire Line
	10850 2000 10850 2100
Connection ~ 10850 2100
Wire Wire Line
	10850 2100 10850 2200
Connection ~ 10850 2200
Wire Wire Line
	10850 2200 10850 2300
Connection ~ 10850 2300
Wire Wire Line
	10850 2300 10850 2400
Connection ~ 10850 2400
Wire Wire Line
	10850 2400 10850 2500
Connection ~ 10850 2500
Wire Wire Line
	10850 2500 10850 2600
Connection ~ 10850 2600
Wire Wire Line
	10850 2600 10850 2700
Connection ~ 10850 2700
Wire Wire Line
	10850 2700 10850 2800
Connection ~ 10850 2800
Wire Wire Line
	10850 2800 10850 2900
Connection ~ 10850 2900
Wire Wire Line
	10850 2900 10850 3000
Connection ~ 10850 3000
Wire Wire Line
	10850 3000 10850 3100
Connection ~ 10850 3100
Wire Wire Line
	10850 3100 10850 3200
Connection ~ 10850 3200
Wire Wire Line
	10850 3200 10850 3300
Connection ~ 10850 3300
Wire Wire Line
	10850 3300 10850 3400
Connection ~ 10850 3400
Wire Wire Line
	10850 3400 10850 3500
Connection ~ 10850 3500
Wire Wire Line
	10850 3500 10850 3600
Connection ~ 10850 3600
Wire Wire Line
	10850 3600 10850 3700
Connection ~ 10850 3700
Wire Wire Line
	10850 3700 10850 3800
Connection ~ 10850 3800
Wire Wire Line
	10850 3800 10850 3900
Connection ~ 10850 3900
Wire Wire Line
	10850 3900 10850 4000
Connection ~ 10850 4000
Wire Wire Line
	10850 4000 10850 4100
Connection ~ 10850 4100
Wire Wire Line
	10850 4100 10850 4200
Connection ~ 10850 4200
Wire Wire Line
	10850 4200 10850 4300
Connection ~ 10850 4300
Wire Wire Line
	10850 4300 10850 4400
Connection ~ 10850 4400
Wire Wire Line
	10850 4400 10850 4500
Connection ~ 10850 4500
Wire Wire Line
	10850 4500 10850 4600
$Comp
L power_special:VCCA33 #PWR0268
U 1 1 61272EF5
P 10850 1600
F 0 "#PWR0268" H 10850 1450 50  0001 C CNN
F 1 "VCCA33" V 10950 1650 50  0000 C CNN
F 2 "" H 10850 1600 50  0000 C CNN
F 3 "" H 10850 1600 50  0000 C CNN
	1    10850 1600
	1    0    0    -1  
$EndComp
Connection ~ 10850 1600
$Comp
L power_special:VCCD33 #PWR0269
U 1 1 61274712
P 9050 5500
F 0 "#PWR0269" H 9050 5350 50  0001 C CNN
F 1 "VCCD33" V 9150 5550 50  0000 C CNN
F 2 "" H 9050 5500 50  0000 C CNN
F 3 "" H 9050 5500 50  0000 C CNN
	1    9050 5500
	1    0    0    -1  
$EndComp
Connection ~ 9050 5500
$EndSCHEMATC
