EESchema Schematic File Version 4
LIBS:TestBoard-COB-cache
EELAYER 26 0
EELAYER END
$Descr A4 11693 8268
encoding utf-8
Sheet 3 11
Title "Reference generator"
Date ""
Rev ""
Comp "KIP, Uni-Heidelberg"
Comment1 ""
Comment2 ""
Comment3 ""
Comment4 ""
$EndDescr
$Comp
L Device:C C6
U 1 1 5E21B39C
P 2650 3600
F 0 "C6" H 2765 3646 50  0000 L CNN
F 1 "100n" H 2765 3555 50  0000 L CNN
F 2 "Capacitor_SMD:C_0603_1608Metric" H 2688 3450 50  0001 C CNN
F 3 "" H 2650 3600 50  0000 C CNN
	1    2650 3600
	1    0    0    -1  
$EndComp
$Comp
L Device:C C7
U 1 1 5E21B3C4
P 3200 3600
F 0 "C7" H 3315 3646 50  0000 L CNN
F 1 "330n" H 3315 3555 50  0000 L CNN
F 2 "Capacitor_SMD:C_0603_1608Metric" H 3238 3450 50  0001 C CNN
F 3 "" H 3200 3600 50  0000 C CNN
	1    3200 3600
	1    0    0    -1  
$EndComp
$Comp
L Device:R R17
U 1 1 5E21B41A
P 2950 3300
F 0 "R17" V 2743 3300 50  0000 C CNN
F 1 "5k1" V 2834 3300 50  0000 C CNN
F 2 "Resistor_SMD:R_0603_1608Metric" V 2880 3300 50  0001 C CNN
F 3 "" H 2950 3300 50  0000 C CNN
	1    2950 3300
	0    1    1    0   
$EndComp
$Comp
L Device:R R20
U 1 1 5E21B565
P 3850 3500
F 0 "R20" V 3900 3650 50  0000 C CNN
F 1 "5k1" V 3850 3500 50  0000 C CNN
F 2 "Resistor_SMD:R_0603_1608Metric" V 3780 3500 50  0001 C CNN
F 3 "" H 3850 3500 50  0000 C CNN
	1    3850 3500
	0    1    1    0   
$EndComp
$Comp
L Device:C C11
U 1 1 5E21B59D
P 4150 3750
F 0 "C11" H 3900 3800 50  0000 L CNN
F 1 "330n" H 3850 3700 50  0000 L CNN
F 2 "Capacitor_SMD:C_0603_1608Metric" H 4188 3600 50  0001 C CNN
F 3 "" H 4150 3750 50  0000 C CNN
	1    4150 3750
	1    0    0    -1  
$EndComp
$Comp
L Device:C C10
U 1 1 5E21B607
P 5850 3650
F 0 "C10" H 5965 3696 50  0000 L CNN
F 1 "6.8u" H 5965 3605 50  0000 L CNN
F 2 "Capacitor_SMD:C_0603_1608Metric" H 5888 3500 50  0001 C CNN
F 3 "" H 5850 3650 50  0000 C CNN
	1    5850 3650
	1    0    0    -1  
$EndComp
$Comp
L Device:C C5
U 1 1 5E21B659
P 6400 3400
F 0 "C5" V 6350 3250 50  0000 C CNN
F 1 "440p" V 6350 3550 50  0000 C CNN
F 2 "Capacitor_SMD:C_0603_1608Metric" H 6438 3250 50  0001 C CNN
F 3 "" H 6400 3400 50  0000 C CNN
	1    6400 3400
	0    1    1    0   
$EndComp
$Comp
L Device:R R21
U 1 1 5E21B6B4
P 6400 3550
F 0 "R21" V 6450 3400 50  0000 C CNN
F 1 "2k" V 6400 3550 50  0000 C CNN
F 2 "Resistor_SMD:R_0603_1608Metric" V 6330 3550 50  0001 C CNN
F 3 "" H 6400 3550 50  0000 C CNN
	1    6400 3550
	0    1    1    0   
$EndComp
$Comp
L Device:R R16
U 1 1 5E21B7E1
P 6400 2750
F 0 "R16" V 6450 2900 50  0000 C CNN
F 1 "4k" V 6400 2750 50  0000 C CNN
F 2 "Resistor_SMD:R_0603_1608Metric" V 6330 2750 50  0001 C CNN
F 3 "" H 6400 2750 50  0000 C CNN
	1    6400 2750
	0    1    1    0   
$EndComp
$Comp
L Device:C C2
U 1 1 5E21B821
P 5850 3000
F 0 "C2" H 5965 3046 50  0000 L CNN
F 1 "12u" H 5965 2955 50  0000 L CNN
F 2 "Capacitor_SMD:C_0603_1608Metric" H 5888 2850 50  0001 C CNN
F 3 "" H 5850 3000 50  0000 C CNN
	1    5850 3000
	1    0    0    -1  
$EndComp
$Comp
L power:GNDA #PWR040
U 1 1 5E21B8D4
P 5850 3150
F 0 "#PWR040" H 5850 2900 50  0001 C CNN
F 1 "GNDA" H 5855 2977 50  0000 C CNN
F 2 "" H 5850 3150 50  0000 C CNN
F 3 "" H 5850 3150 50  0000 C CNN
	1    5850 3150
	1    0    0    -1  
$EndComp
$Comp
L power:GNDA #PWR049
U 1 1 5E21B91D
P 5850 3800
F 0 "#PWR049" H 5850 3550 50  0001 C CNN
F 1 "GNDA" H 5855 3627 50  0000 C CNN
F 2 "" H 5850 3800 50  0000 C CNN
F 3 "" H 5850 3800 50  0000 C CNN
	1    5850 3800
	1    0    0    -1  
$EndComp
$Comp
L power:GNDA #PWR043
U 1 1 5E21B966
P 5400 3500
F 0 "#PWR043" H 5400 3250 50  0001 C CNN
F 1 "GNDA" H 5405 3327 50  0000 C CNN
F 2 "" H 5400 3500 50  0000 C CNN
F 3 "" H 5400 3500 50  0000 C CNN
	1    5400 3500
	1    0    0    -1  
$EndComp
$Comp
L power:GNDA #PWR050
U 1 1 5E21B9AF
P 4150 3900
F 0 "#PWR050" H 4150 3650 50  0001 C CNN
F 1 "GNDA" H 4155 3727 50  0000 C CNN
F 2 "" H 4150 3900 50  0000 C CNN
F 3 "" H 4150 3900 50  0000 C CNN
	1    4150 3900
	1    0    0    -1  
$EndComp
$Comp
L power:GNDA #PWR046
U 1 1 5E21B9F8
P 3200 3750
F 0 "#PWR046" H 3200 3500 50  0001 C CNN
F 1 "GNDA" H 3205 3577 50  0000 C CNN
F 2 "" H 3200 3750 50  0000 C CNN
F 3 "" H 3200 3750 50  0000 C CNN
	1    3200 3750
	1    0    0    -1  
$EndComp
$Comp
L power:GNDA #PWR045
U 1 1 5E21BA41
P 2650 3750
F 0 "#PWR045" H 2650 3500 50  0001 C CNN
F 1 "GNDA" H 2655 3577 50  0000 C CNN
F 2 "" H 2650 3750 50  0000 C CNN
F 3 "" H 2650 3750 50  0000 C CNN
	1    2650 3750
	1    0    0    -1  
$EndComp
Wire Wire Line
	2650 3300 2650 3450
Connection ~ 2650 3300
Wire Wire Line
	2650 3300 2800 3300
Wire Wire Line
	3100 3300 3200 3300
Wire Wire Line
	3200 3300 3200 3450
Wire Wire Line
	3200 3300 3550 3300
Connection ~ 3200 3300
Wire Wire Line
	3550 3300 3550 3500
Wire Wire Line
	3550 3500 3700 3500
Connection ~ 3550 3300
Wire Wire Line
	3550 3300 4500 3300
Wire Wire Line
	4000 3500 4150 3500
Wire Wire Line
	4150 3500 4150 3600
Connection ~ 4150 3500
Wire Wire Line
	4150 3500 4500 3500
$Comp
L Device:C C1
U 1 1 5E21BF00
P 4950 2600
F 0 "C1" V 4900 2700 50  0000 C CNN
F 1 "820p" V 4900 2450 50  0000 C CNN
F 2 "Capacitor_SMD:C_0603_1608Metric" H 4988 2450 50  0001 C CNN
F 3 "" H 4950 2600 50  0000 C CNN
	1    4950 2600
	0    1    1    0   
$EndComp
$Comp
L Device:R R15
U 1 1 5E21BF4E
P 4950 2750
F 0 "R15" V 5000 2900 50  0000 C CNN
F 1 "1k" V 4950 2750 50  0000 C CNN
F 2 "Resistor_SMD:R_0603_1608Metric" V 4880 2750 50  0001 C CNN
F 3 "" H 4950 2750 50  0000 C CNN
	1    4950 2750
	0    1    1    0   
$EndComp
Wire Wire Line
	6250 2750 5850 2750
Wire Wire Line
	5100 2600 5250 2600
Wire Wire Line
	5250 2600 5250 2750
Connection ~ 5250 2750
Wire Wire Line
	5250 2750 5100 2750
Wire Wire Line
	5400 3300 5600 3300
Wire Wire Line
	5600 3300 5600 2750
Connection ~ 5600 2750
Wire Wire Line
	5600 2750 5250 2750
Wire Wire Line
	5850 2850 5850 2750
Connection ~ 5850 2750
Wire Wire Line
	5850 2750 5600 2750
Wire Wire Line
	6150 3400 6150 3550
Wire Wire Line
	6150 3550 6250 3550
Connection ~ 6150 3400
Wire Wire Line
	6150 3400 6250 3400
Wire Wire Line
	5400 3400 5850 3400
Wire Wire Line
	5850 3500 5850 3400
Connection ~ 5850 3400
Wire Wire Line
	5850 3400 6150 3400
Wire Wire Line
	4500 3400 4400 3400
Wire Wire Line
	4400 3400 4400 4050
Wire Wire Line
	4400 4050 6650 4050
Wire Wire Line
	6650 4050 6650 3550
Wire Wire Line
	6650 2750 6550 2750
Wire Wire Line
	6550 3400 6650 3400
Connection ~ 6650 3400
Wire Wire Line
	6650 3400 6650 2750
Wire Wire Line
	6550 3550 6650 3550
Connection ~ 6650 3550
Wire Wire Line
	6650 3550 6650 3400
$Comp
L Device:R R14
U 1 1 5E21DDA0
P 4150 2750
F 0 "R14" V 4200 2900 50  0000 C CNN
F 1 "2k" V 4150 2750 50  0000 C CNN
F 2 "Resistor_SMD:R_0603_1608Metric" V 4080 2750 50  0001 C CNN
F 3 "" H 4150 2750 50  0000 C CNN
	1    4150 2750
	0    1    1    0   
$EndComp
Wire Wire Line
	4800 2750 4650 2750
Wire Wire Line
	4800 2600 4650 2600
Wire Wire Line
	4650 2600 4650 2750
Connection ~ 4650 2750
Wire Wire Line
	4650 2750 4400 2750
Wire Wire Line
	4400 2750 4400 3200
Wire Wire Line
	4400 3200 4500 3200
Connection ~ 4400 2750
Wire Wire Line
	4400 2750 4300 2750
$Comp
L power:GNDA #PWR039
U 1 1 5E21F13E
P 4000 2750
F 0 "#PWR039" H 4000 2500 50  0001 C CNN
F 1 "GNDA" V 4005 2623 50  0000 R CNN
F 2 "" H 4000 2750 50  0000 C CNN
F 3 "" H 4000 2750 50  0000 C CNN
	1    4000 2750
	0    1    1    0   
$EndComp
Text Label 5700 2750 0    50   ~ 0
adc_1p8
Text Label 5450 3400 0    50   ~ 0
adc_0p9
$Comp
L Device:C C9
U 1 1 5E21FABF
P 9800 3600
F 0 "C9" H 9915 3646 50  0000 L CNN
F 1 "1n" H 9915 3555 50  0000 L CNN
F 2 "Capacitor_SMD:C_0402_1005Metric" H 9838 3450 50  0001 C CNN
F 3 "" H 9800 3600 50  0000 C CNN
	1    9800 3600
	1    0    0    -1  
$EndComp
$Comp
L Device:R R19
U 1 1 5E21FBD3
P 9400 3400
F 0 "R19" V 9450 3250 50  0000 C CNN
F 1 "0(DNP)" V 9300 3400 50  0000 C CNN
F 2 "Resistor_SMD:R_0603_1608Metric" V 9330 3400 50  0001 C CNN
F 3 "" H 9400 3400 50  0000 C CNN
	1    9400 3400
	0    1    1    0   
$EndComp
Wire Wire Line
	9550 3400 9800 3400
Wire Wire Line
	9800 3400 9800 3450
$Comp
L power:GNDA #PWR048
U 1 1 5E220537
P 9800 3750
F 0 "#PWR048" H 9800 3500 50  0001 C CNN
F 1 "GNDA" H 9805 3577 50  0000 C CNN
F 2 "" H 9800 3750 50  0000 C CNN
F 3 "" H 9800 3750 50  0000 C CNN
	1    9800 3750
	1    0    0    -1  
$EndComp
Wire Wire Line
	8950 3400 9250 3400
Text Label 8950 3400 0    50   ~ 0
adc_1p8
Text HLabel 10000 3400 2    50   Output ~ 0
REF_VCC
Wire Wire Line
	10000 3400 9800 3400
Connection ~ 9800 3400
$Comp
L Device:C C8
U 1 1 5E2224EE
P 8050 3600
F 0 "C8" H 8165 3646 50  0000 L CNN
F 1 "1n" H 8165 3555 50  0000 L CNN
F 2 "Capacitor_SMD:C_0402_1005Metric" H 8088 3450 50  0001 C CNN
F 3 "" H 8050 3600 50  0000 C CNN
	1    8050 3600
	1    0    0    -1  
$EndComp
$Comp
L Device:R R18
U 1 1 5E2224F5
P 7650 3400
F 0 "R18" V 7700 3250 50  0000 C CNN
F 1 "0(DNP)" V 7550 3400 50  0000 C CNN
F 2 "Resistor_SMD:R_0603_1608Metric" V 7580 3400 50  0001 C CNN
F 3 "" H 7650 3400 50  0000 C CNN
	1    7650 3400
	0    1    1    0   
$EndComp
Wire Wire Line
	7800 3400 8050 3400
Wire Wire Line
	8050 3400 8050 3450
$Comp
L power:GNDA #PWR047
U 1 1 5E2224FE
P 8050 3750
F 0 "#PWR047" H 8050 3500 50  0001 C CNN
F 1 "GNDA" H 8055 3577 50  0000 C CNN
F 2 "" H 8050 3750 50  0000 C CNN
F 3 "" H 8050 3750 50  0000 C CNN
	1    8050 3750
	1    0    0    -1  
$EndComp
Wire Wire Line
	7200 3400 7500 3400
Text Label 7200 3400 0    50   ~ 0
adc_0p9
Text HLabel 8250 3400 2    50   Output ~ 0
REF_VCM
Wire Wire Line
	8250 3400 8050 3400
Connection ~ 8050 3400
Text HLabel 2800 2900 2    50   Output ~ 0
REF_1p2
Wire Wire Line
	2800 2900 2650 2900
Wire Wire Line
	2650 2900 2650 3300
$Comp
L Device:C C13
U 1 1 5E2278FC
P 1500 5350
F 0 "C13" H 1615 5396 50  0000 L CNN
F 1 "1u" H 1615 5305 50  0000 L CNN
F 2 "Capacitor_SMD:C_0603_1608Metric" H 1538 5200 50  0001 C CNN
F 3 "" H 1500 5350 50  0000 C CNN
	1    1500 5350
	1    0    0    -1  
$EndComp
$Comp
L Device:C C14
U 1 1 5E227968
P 1850 5350
F 0 "C14" H 1965 5396 50  0000 L CNN
F 1 "100n" H 1965 5305 50  0000 L CNN
F 2 "Capacitor_SMD:C_0603_1608Metric" H 1888 5200 50  0001 C CNN
F 3 "" H 1850 5350 50  0000 C CNN
	1    1850 5350
	1    0    0    -1  
$EndComp
Wire Wire Line
	1500 5200 1500 5150
Wire Wire Line
	1500 5150 1850 5150
Wire Wire Line
	1850 5200 1850 5150
Connection ~ 1850 5150
Wire Wire Line
	1850 5150 2200 5150
Wire Wire Line
	1500 5500 1850 5500
Wire Wire Line
	1850 5500 2100 5500
Wire Wire Line
	2100 5500 2100 5350
Wire Wire Line
	2100 5350 2200 5350
Connection ~ 1850 5500
$Comp
L Device:R R22
U 1 1 5E22B193
P 3500 5500
F 0 "R22" V 3600 5500 50  0000 C CNN
F 1 "2k" V 3400 5500 50  0000 C CNN
F 2 "Resistor_SMD:R_0603_1608Metric" V 3430 5500 50  0001 C CNN
F 3 "" H 3500 5500 50  0000 C CNN
	1    3500 5500
	-1   0    0    1   
$EndComp
$Comp
L Device:C C16
U 1 1 5E22B215
P 3500 5850
F 0 "C16" H 3615 5896 50  0000 L CNN
F 1 "10u" H 3615 5805 50  0000 L CNN
F 2 "Capacitor_SMD:C_0603_1608Metric" H 3538 5700 50  0001 C CNN
F 3 "" H 3500 5850 50  0000 C CNN
	1    3500 5850
	1    0    0    -1  
$EndComp
$Comp
L Device:C C15
U 1 1 5E22B275
P 3150 5650
F 0 "C15" H 3265 5696 50  0000 L CNN
F 1 "10n" H 3265 5605 50  0000 L CNN
F 2 "Capacitor_SMD:C_0603_1608Metric" H 3188 5500 50  0001 C CNN
F 3 "" H 3150 5650 50  0000 C CNN
	1    3150 5650
	1    0    0    -1  
$EndComp
Wire Wire Line
	3500 5250 3500 5350
Wire Wire Line
	3500 5650 3500 5700
Wire Wire Line
	3150 5500 3150 5250
Wire Wire Line
	3150 5250 3500 5250
$Comp
L power:GNDA #PWR054
U 1 1 5E22F598
P 2100 5500
F 0 "#PWR054" H 2100 5250 50  0001 C CNN
F 1 "GNDA" H 2105 5327 50  0000 C CNN
F 2 "" H 2100 5500 50  0000 C CNN
F 3 "" H 2100 5500 50  0000 C CNN
	1    2100 5500
	1    0    0    -1  
$EndComp
Connection ~ 2100 5500
$Comp
L power:GNDA #PWR056
U 1 1 5E22F608
P 3500 6000
F 0 "#PWR056" H 3500 5750 50  0001 C CNN
F 1 "GNDA" H 3505 5827 50  0000 C CNN
F 2 "" H 3500 6000 50  0000 C CNN
F 3 "" H 3500 6000 50  0000 C CNN
	1    3500 6000
	1    0    0    -1  
$EndComp
$Comp
L power:GNDA #PWR055
U 1 1 5E22F678
P 3150 5800
F 0 "#PWR055" H 3150 5550 50  0001 C CNN
F 1 "GNDA" H 3155 5627 50  0000 C CNN
F 2 "" H 3150 5800 50  0000 C CNN
F 3 "" H 3150 5800 50  0000 C CNN
	1    3150 5800
	1    0    0    -1  
$EndComp
Text HLabel 3700 5250 2    50   Output ~ 0
REF_ADC
Wire Wire Line
	3700 5250 3500 5250
Connection ~ 3500 5250
Text Notes 7300 3000 0    50   ~ 0
If we want to use the internal ADC reference buffer, then remove this two resistors
$Comp
L Device:C C12
U 1 1 5C54C79C
P 5150 4500
F 0 "C12" H 5265 4546 50  0000 L CNN
F 1 "100n" H 5265 4455 50  0000 L CNN
F 2 "Capacitor_SMD:C_0603_1608Metric" H 5188 4350 50  0001 C CNN
F 3 "" H 5150 4500 50  0000 C CNN
	1    5150 4500
	1    0    0    -1  
$EndComp
$Comp
L power:GNDA #PWR052
U 1 1 5C54C7A3
P 5150 4650
F 0 "#PWR052" H 5150 4400 50  0001 C CNN
F 1 "GNDA" H 5155 4477 50  0000 C CNN
F 2 "" H 5150 4650 50  0000 C CNN
F 3 "" H 5150 4650 50  0000 C CNN
	1    5150 4650
	1    0    0    -1  
$EndComp
$Comp
L KLauS-ASIC:ISL60002-18 U4
U 1 1 5DACA63C
P 2400 5000
F 0 "U4" H 2600 5137 60  0000 C CNN
F 1 "ISL60002-18" H 2600 5031 60  0000 C CNN
F 2 "KLauS-Custom:SOT-23" H 2400 5000 60  0001 C CNN
F 3 "" H 2400 5000 60  0001 C CNN
	1    2400 5000
	1    0    0    -1  
$EndComp
Connection ~ 3150 5250
Wire Wire Line
	3000 5250 3150 5250
Wire Wire Line
	2550 3300 2650 3300
$Comp
L Device:C C3
U 1 1 5DACF1F7
P 1050 3400
F 0 "C3" H 1165 3446 50  0000 L CNN
F 1 "1u" H 1165 3355 50  0000 L CNN
F 2 "Capacitor_SMD:C_0603_1608Metric" H 1088 3250 50  0001 C CNN
F 3 "" H 1050 3400 50  0000 C CNN
	1    1050 3400
	1    0    0    -1  
$EndComp
$Comp
L Device:C C4
U 1 1 5DACF1FD
P 1400 3400
F 0 "C4" H 1515 3446 50  0000 L CNN
F 1 "100n" H 1515 3355 50  0000 L CNN
F 2 "Capacitor_SMD:C_0603_1608Metric" H 1438 3250 50  0001 C CNN
F 3 "" H 1400 3400 50  0000 C CNN
	1    1400 3400
	1    0    0    -1  
$EndComp
Wire Wire Line
	1050 3250 1050 3200
Wire Wire Line
	1050 3200 1400 3200
Wire Wire Line
	1400 3250 1400 3200
Connection ~ 1400 3200
Wire Wire Line
	1400 3200 1750 3200
Wire Wire Line
	1050 3550 1400 3550
Wire Wire Line
	1400 3550 1650 3550
Wire Wire Line
	1650 3550 1650 3400
Wire Wire Line
	1650 3400 1750 3400
Connection ~ 1400 3550
$Comp
L power:GNDA #PWR044
U 1 1 5DACF214
P 1650 3550
F 0 "#PWR044" H 1650 3300 50  0001 C CNN
F 1 "GNDA" H 1655 3377 50  0000 C CNN
F 2 "" H 1650 3550 50  0000 C CNN
F 3 "" H 1650 3550 50  0000 C CNN
	1    1650 3550
	1    0    0    -1  
$EndComp
Connection ~ 1650 3550
$Comp
L KLauS-ASIC:ISL60002-11 U2
U 1 1 5DAD0F06
P 1950 3050
F 0 "U2" H 2150 3187 60  0000 C CNN
F 1 "ISL60002-11" H 2150 3081 60  0000 C CNN
F 2 "KLauS-Custom:SOT-23" H 1950 3050 60  0001 C CNN
F 3 "" H 1950 3050 60  0001 C CNN
	1    1950 3050
	1    0    0    -1  
$EndComp
$Comp
L KLauS-ASIC:LTC6248 U3
U 1 1 5DAD1720
P 4700 3050
F 0 "U3" H 4950 3187 60  0000 C CNN
F 1 "LTC6248" H 4950 3081 60  0000 C CNN
F 2 "KLauS-Custom:LTC6248" H 4700 3050 60  0001 C CNN
F 3 "" H 4700 3050 60  0001 C CNN
	1    4700 3050
	1    0    0    -1  
$EndComp
$Comp
L KLauS-ASIC:TP1 P8
U 1 1 5DAD229E
P 7950 3200
F 0 "P8" V 7940 3022 50  0000 R CNN
F 1 "TP1" V 7849 3022 50  0000 R CNN
F 2 "MountingHoles-Custom:TP1" H 7950 3200 50  0001 C CNN
F 3 "" H 7950 3200 50  0001 C CNN
	1    7950 3200
	0    -1   -1   0   
$EndComp
$Comp
L KLauS-ASIC:TP1 P9
U 1 1 5DAD23CB
P 9700 3200
F 0 "P9" V 9690 3022 50  0000 R CNN
F 1 "TP1" V 9599 3022 50  0000 R CNN
F 2 "MountingHoles-Custom:TP1" H 9700 3200 50  0001 C CNN
F 3 "" H 9700 3200 50  0001 C CNN
	1    9700 3200
	0    -1   -1   0   
$EndComp
$Comp
L power:+3.3VA #PWR041
U 1 1 5DDEEF8D
P 1050 3200
F 0 "#PWR041" H 1050 3050 50  0001 C CNN
F 1 "+3.3VA" H 1065 3373 50  0000 C CNN
F 2 "" H 1050 3200 50  0000 C CNN
F 3 "" H 1050 3200 50  0000 C CNN
	1    1050 3200
	1    0    0    -1  
$EndComp
Connection ~ 1050 3200
$Comp
L power:+3.3VA #PWR053
U 1 1 5DDEF0DD
P 1500 5150
F 0 "#PWR053" H 1500 5000 50  0001 C CNN
F 1 "+3.3VA" H 1515 5323 50  0000 C CNN
F 2 "" H 1500 5150 50  0000 C CNN
F 3 "" H 1500 5150 50  0000 C CNN
	1    1500 5150
	1    0    0    -1  
$EndComp
Connection ~ 1500 5150
$Comp
L power:+3.3VA #PWR042
U 1 1 5DDEF3ED
P 5400 3200
F 0 "#PWR042" H 5400 3050 50  0001 C CNN
F 1 "+3.3VA" H 5415 3373 50  0000 C CNN
F 2 "" H 5400 3200 50  0000 C CNN
F 3 "" H 5400 3200 50  0000 C CNN
	1    5400 3200
	1    0    0    -1  
$EndComp
$Comp
L power:+3.3VA #PWR051
U 1 1 5DDF0298
P 5150 4350
F 0 "#PWR051" H 5150 4200 50  0001 C CNN
F 1 "+3.3VA" H 5165 4523 50  0000 C CNN
F 2 "" H 5150 4350 50  0000 C CNN
F 3 "" H 5150 4350 50  0000 C CNN
	1    5150 4350
	1    0    0    -1  
$EndComp
$EndSCHEMATC
