EESchema Schematic File Version 4
LIBS:TestBoard-COB-cache
EELAYER 26 0
EELAYER END
$Descr A4 11693 8268
encoding utf-8
Sheet 9 11
Title "SiPM Input connectors"
Date ""
Rev ""
Comp "KIP, Uni-Heidelberg"
Comment1 ""
Comment2 ""
Comment3 ""
Comment4 ""
$EndDescr
Text HLabel 9300 1250 0    50   Input ~ 0
HV
$Comp
L Device:R R62
U 1 1 5C42A0C6
P 1450 1150
F 0 "R62" V 1400 1300 39  0000 C CNN
F 1 "1k" V 1450 1150 28  0000 C CNN
F 2 "Resistor_SMD:R_0603_1608Metric" V 1380 1150 50  0001 C CNN
F 3 "" H 1450 1150 50  0000 C CNN
	1    1450 1150
	0    1    1    0   
$EndComp
$Comp
L Device:C C74
U 1 1 5C42A1AE
P 1450 1300
F 0 "C74" V 1400 1450 39  0000 C CNN
F 1 "100n/100V" V 1500 1100 28  0000 C CNN
F 2 "Capacitor_SMD:C_0603_1608Metric" H 1488 1150 50  0001 C CNN
F 3 "" H 1450 1300 50  0000 C CNN
	1    1450 1300
	0    1    1    0   
$EndComp
$Comp
L power:GNDA #PWR0169
U 1 1 5C42A39B
P 1150 1300
F 0 "#PWR0169" H 1150 1050 50  0001 C CNN
F 1 "GNDA" V 1155 1173 50  0000 R CNN
F 2 "" H 1150 1300 50  0000 C CNN
F 3 "" H 1150 1300 50  0000 C CNN
	1    1150 1300
	0    1    1    0   
$EndComp
Text Label 1150 1150 0    50   ~ 0
HV
$Comp
L Device:R R64
U 1 1 5C42A8B6
P 1450 1450
F 0 "R64" V 1400 1600 39  0000 C CNN
F 1 "1k" V 1450 1450 28  0000 C CNN
F 2 "Resistor_SMD:R_0603_1608Metric" V 1380 1450 50  0001 C CNN
F 3 "" H 1450 1450 50  0000 C CNN
	1    1450 1450
	0    1    1    0   
$EndComp
$Comp
L Device:C C76
U 1 1 5C42A8BD
P 1450 1600
F 0 "C76" V 1400 1750 39  0000 C CNN
F 1 "100n/100V" V 1500 1400 28  0000 C CNN
F 2 "Capacitor_SMD:C_0603_1608Metric" H 1488 1450 50  0001 C CNN
F 3 "" H 1450 1600 50  0000 C CNN
	1    1450 1600
	0    1    1    0   
$EndComp
$Comp
L power:GNDA #PWR0175
U 1 1 5C42A8C4
P 1150 1600
F 0 "#PWR0175" H 1150 1350 50  0001 C CNN
F 1 "GNDA" V 1155 1473 50  0000 R CNN
F 2 "" H 1150 1600 50  0000 C CNN
F 3 "" H 1150 1600 50  0000 C CNN
	1    1150 1600
	0    1    1    0   
$EndComp
Text Label 1150 1450 0    50   ~ 0
HV
$Comp
L Device:R R66
U 1 1 5C42AA2E
P 1450 1750
F 0 "R66" V 1400 1900 39  0000 C CNN
F 1 "1k" V 1450 1750 28  0000 C CNN
F 2 "Resistor_SMD:R_0603_1608Metric" V 1380 1750 50  0001 C CNN
F 3 "" H 1450 1750 50  0000 C CNN
	1    1450 1750
	0    1    1    0   
$EndComp
$Comp
L Device:C C78
U 1 1 5C42AA35
P 1450 1900
F 0 "C78" V 1400 2050 39  0000 C CNN
F 1 "100n/100V" V 1500 1700 28  0000 C CNN
F 2 "Capacitor_SMD:C_0603_1608Metric" H 1488 1750 50  0001 C CNN
F 3 "" H 1450 1900 50  0000 C CNN
	1    1450 1900
	0    1    1    0   
$EndComp
$Comp
L power:GNDA #PWR0177
U 1 1 5C42AA3C
P 1150 1900
F 0 "#PWR0177" H 1150 1650 50  0001 C CNN
F 1 "GNDA" V 1155 1773 50  0000 R CNN
F 2 "" H 1150 1900 50  0000 C CNN
F 3 "" H 1150 1900 50  0000 C CNN
	1    1150 1900
	0    1    1    0   
$EndComp
Text Label 1150 1750 0    50   ~ 0
HV
$Comp
L Device:R R68
U 1 1 5C42AA4A
P 1450 2050
F 0 "R68" V 1400 2200 39  0000 C CNN
F 1 "1k" V 1450 2050 28  0000 C CNN
F 2 "Resistor_SMD:R_0603_1608Metric" V 1380 2050 50  0001 C CNN
F 3 "" H 1450 2050 50  0000 C CNN
	1    1450 2050
	0    1    1    0   
$EndComp
$Comp
L Device:C C80
U 1 1 5C42AA51
P 1450 2200
F 0 "C80" V 1400 2350 39  0000 C CNN
F 1 "100n/100V" V 1500 2000 28  0000 C CNN
F 2 "Capacitor_SMD:C_0603_1608Metric" H 1488 2050 50  0001 C CNN
F 3 "" H 1450 2200 50  0000 C CNN
	1    1450 2200
	0    1    1    0   
$EndComp
$Comp
L power:GNDA #PWR0179
U 1 1 5C42AA58
P 1150 2200
F 0 "#PWR0179" H 1150 1950 50  0001 C CNN
F 1 "GNDA" V 1155 2073 50  0000 R CNN
F 2 "" H 1150 2200 50  0000 C CNN
F 3 "" H 1150 2200 50  0000 C CNN
	1    1150 2200
	0    1    1    0   
$EndComp
Text Label 1150 2050 0    50   ~ 0
HV
$Comp
L Device:R R70
U 1 1 5C42AF16
P 1450 2350
F 0 "R70" V 1400 2500 39  0000 C CNN
F 1 "1k" V 1450 2350 28  0000 C CNN
F 2 "Resistor_SMD:R_0603_1608Metric" V 1380 2350 50  0001 C CNN
F 3 "" H 1450 2350 50  0000 C CNN
	1    1450 2350
	0    1    1    0   
$EndComp
$Comp
L Device:C C82
U 1 1 5C42AF1D
P 1450 2500
F 0 "C82" V 1400 2650 39  0000 C CNN
F 1 "100n/100V" V 1500 2300 28  0000 C CNN
F 2 "Capacitor_SMD:C_0603_1608Metric" H 1488 2350 50  0001 C CNN
F 3 "" H 1450 2500 50  0000 C CNN
	1    1450 2500
	0    1    1    0   
$EndComp
$Comp
L power:GNDA #PWR0181
U 1 1 5C42AF24
P 1150 2500
F 0 "#PWR0181" H 1150 2250 50  0001 C CNN
F 1 "GNDA" V 1155 2373 50  0000 R CNN
F 2 "" H 1150 2500 50  0000 C CNN
F 3 "" H 1150 2500 50  0000 C CNN
	1    1150 2500
	0    1    1    0   
$EndComp
Text Label 1150 2350 0    50   ~ 0
HV
$Comp
L Device:R R72
U 1 1 5C42AF32
P 1450 2650
F 0 "R72" V 1400 2800 39  0000 C CNN
F 1 "1k" V 1450 2650 28  0000 C CNN
F 2 "Resistor_SMD:R_0603_1608Metric" V 1380 2650 50  0001 C CNN
F 3 "" H 1450 2650 50  0000 C CNN
	1    1450 2650
	0    1    1    0   
$EndComp
$Comp
L Device:C C84
U 1 1 5C42AF39
P 1450 2800
F 0 "C84" V 1400 2950 39  0000 C CNN
F 1 "100n/100V" V 1500 2600 28  0000 C CNN
F 2 "Capacitor_SMD:C_0603_1608Metric" H 1488 2650 50  0001 C CNN
F 3 "" H 1450 2800 50  0000 C CNN
	1    1450 2800
	0    1    1    0   
$EndComp
$Comp
L power:GNDA #PWR0185
U 1 1 5C42AF40
P 1150 2800
F 0 "#PWR0185" H 1150 2550 50  0001 C CNN
F 1 "GNDA" V 1155 2673 50  0000 R CNN
F 2 "" H 1150 2800 50  0000 C CNN
F 3 "" H 1150 2800 50  0000 C CNN
	1    1150 2800
	0    1    1    0   
$EndComp
Text Label 1150 2650 0    50   ~ 0
HV
$Comp
L Device:R R74
U 1 1 5C42AF4E
P 1450 2950
F 0 "R74" V 1400 3100 39  0000 C CNN
F 1 "1k" V 1450 2950 28  0000 C CNN
F 2 "Resistor_SMD:R_0603_1608Metric" V 1380 2950 50  0001 C CNN
F 3 "" H 1450 2950 50  0000 C CNN
	1    1450 2950
	0    1    1    0   
$EndComp
$Comp
L Device:C C86
U 1 1 5C42AF55
P 1450 3100
F 0 "C86" V 1400 3250 39  0000 C CNN
F 1 "100n/100V" V 1500 2900 28  0000 C CNN
F 2 "Capacitor_SMD:C_0603_1608Metric" H 1488 2950 50  0001 C CNN
F 3 "" H 1450 3100 50  0000 C CNN
	1    1450 3100
	0    1    1    0   
$EndComp
$Comp
L power:GNDA #PWR0187
U 1 1 5C42AF5C
P 1150 3100
F 0 "#PWR0187" H 1150 2850 50  0001 C CNN
F 1 "GNDA" V 1155 2973 50  0000 R CNN
F 2 "" H 1150 3100 50  0000 C CNN
F 3 "" H 1150 3100 50  0000 C CNN
	1    1150 3100
	0    1    1    0   
$EndComp
Text Label 1150 2950 0    50   ~ 0
HV
$Comp
L Device:R R76
U 1 1 5C42AF6A
P 1450 3250
F 0 "R76" V 1400 3400 39  0000 C CNN
F 1 "1k" V 1450 3250 28  0000 C CNN
F 2 "Resistor_SMD:R_0603_1608Metric" V 1380 3250 50  0001 C CNN
F 3 "" H 1450 3250 50  0000 C CNN
	1    1450 3250
	0    1    1    0   
$EndComp
$Comp
L Device:C C88
U 1 1 5C42AF71
P 1450 3400
F 0 "C88" V 1400 3550 39  0000 C CNN
F 1 "100n/100V" V 1500 3200 28  0000 C CNN
F 2 "Capacitor_SMD:C_0603_1608Metric" H 1488 3250 50  0001 C CNN
F 3 "" H 1450 3400 50  0000 C CNN
	1    1450 3400
	0    1    1    0   
$EndComp
$Comp
L power:GNDA #PWR0189
U 1 1 5C42AF78
P 1150 3400
F 0 "#PWR0189" H 1150 3150 50  0001 C CNN
F 1 "GNDA" V 1155 3273 50  0000 R CNN
F 2 "" H 1150 3400 50  0000 C CNN
F 3 "" H 1150 3400 50  0000 C CNN
	1    1150 3400
	0    1    1    0   
$EndComp
Text Label 1150 3250 0    50   ~ 0
HV
$Comp
L Device:R R78
U 1 1 5C42C1E6
P 1450 3550
F 0 "R78" V 1400 3700 39  0000 C CNN
F 1 "1k" V 1450 3550 28  0000 C CNN
F 2 "Resistor_SMD:R_0603_1608Metric" V 1380 3550 50  0001 C CNN
F 3 "" H 1450 3550 50  0000 C CNN
	1    1450 3550
	0    1    1    0   
$EndComp
$Comp
L Device:C C90
U 1 1 5C42C1ED
P 1450 3700
F 0 "C90" V 1400 3850 39  0000 C CNN
F 1 "100n/100V" V 1500 3500 28  0000 C CNN
F 2 "Capacitor_SMD:C_0603_1608Metric" H 1488 3550 50  0001 C CNN
F 3 "" H 1450 3700 50  0000 C CNN
	1    1450 3700
	0    1    1    0   
$EndComp
$Comp
L power:GNDA #PWR0191
U 1 1 5C42C1F4
P 1150 3700
F 0 "#PWR0191" H 1150 3450 50  0001 C CNN
F 1 "GNDA" V 1155 3573 50  0000 R CNN
F 2 "" H 1150 3700 50  0000 C CNN
F 3 "" H 1150 3700 50  0000 C CNN
	1    1150 3700
	0    1    1    0   
$EndComp
Text Label 1150 3550 0    50   ~ 0
HV
$Comp
L Device:R R80
U 1 1 5C42C202
P 1450 3850
F 0 "R80" V 1400 4000 39  0000 C CNN
F 1 "1k" V 1450 3850 28  0000 C CNN
F 2 "Resistor_SMD:R_0603_1608Metric" V 1380 3850 50  0001 C CNN
F 3 "" H 1450 3850 50  0000 C CNN
	1    1450 3850
	0    1    1    0   
$EndComp
$Comp
L Device:C C92
U 1 1 5C42C209
P 1450 4000
F 0 "C92" V 1400 4150 39  0000 C CNN
F 1 "100n/100V" V 1500 3800 28  0000 C CNN
F 2 "Capacitor_SMD:C_0603_1608Metric" H 1488 3850 50  0001 C CNN
F 3 "" H 1450 4000 50  0000 C CNN
	1    1450 4000
	0    1    1    0   
$EndComp
$Comp
L power:GNDA #PWR0197
U 1 1 5C42C210
P 1150 4000
F 0 "#PWR0197" H 1150 3750 50  0001 C CNN
F 1 "GNDA" V 1155 3873 50  0000 R CNN
F 2 "" H 1150 4000 50  0000 C CNN
F 3 "" H 1150 4000 50  0000 C CNN
	1    1150 4000
	0    1    1    0   
$EndComp
Text Label 1150 3850 0    50   ~ 0
HV
$Comp
L Device:R R82
U 1 1 5C42C21E
P 1450 4150
F 0 "R82" V 1400 4300 39  0000 C CNN
F 1 "1k" V 1450 4150 28  0000 C CNN
F 2 "Resistor_SMD:R_0603_1608Metric" V 1380 4150 50  0001 C CNN
F 3 "" H 1450 4150 50  0000 C CNN
	1    1450 4150
	0    1    1    0   
$EndComp
$Comp
L Device:C C94
U 1 1 5C42C225
P 1450 4300
F 0 "C94" V 1400 4450 39  0000 C CNN
F 1 "100n/100V" V 1500 4100 28  0000 C CNN
F 2 "Capacitor_SMD:C_0603_1608Metric" H 1488 4150 50  0001 C CNN
F 3 "" H 1450 4300 50  0000 C CNN
	1    1450 4300
	0    1    1    0   
$EndComp
$Comp
L power:GNDA #PWR0199
U 1 1 5C42C22C
P 1150 4300
F 0 "#PWR0199" H 1150 4050 50  0001 C CNN
F 1 "GNDA" V 1155 4173 50  0000 R CNN
F 2 "" H 1150 4300 50  0000 C CNN
F 3 "" H 1150 4300 50  0000 C CNN
	1    1150 4300
	0    1    1    0   
$EndComp
Text Label 1150 4150 0    50   ~ 0
HV
$Comp
L Device:R R84
U 1 1 5C42C23A
P 1450 4450
F 0 "R84" V 1400 4600 39  0000 C CNN
F 1 "1k" V 1450 4450 28  0000 C CNN
F 2 "Resistor_SMD:R_0603_1608Metric" V 1380 4450 50  0001 C CNN
F 3 "" H 1450 4450 50  0000 C CNN
	1    1450 4450
	0    1    1    0   
$EndComp
$Comp
L Device:C C96
U 1 1 5C42C241
P 1450 4600
F 0 "C96" V 1400 4750 39  0000 C CNN
F 1 "100n/100V" V 1500 4400 28  0000 C CNN
F 2 "Capacitor_SMD:C_0603_1608Metric" H 1488 4450 50  0001 C CNN
F 3 "" H 1450 4600 50  0000 C CNN
	1    1450 4600
	0    1    1    0   
$EndComp
$Comp
L power:GNDA #PWR0201
U 1 1 5C42C248
P 1150 4600
F 0 "#PWR0201" H 1150 4350 50  0001 C CNN
F 1 "GNDA" V 1155 4473 50  0000 R CNN
F 2 "" H 1150 4600 50  0000 C CNN
F 3 "" H 1150 4600 50  0000 C CNN
	1    1150 4600
	0    1    1    0   
$EndComp
Text Label 1150 4450 0    50   ~ 0
HV
$Comp
L Device:R R86
U 1 1 5C42C256
P 1450 4750
F 0 "R86" V 1400 4900 39  0000 C CNN
F 1 "1k" V 1450 4750 28  0000 C CNN
F 2 "Resistor_SMD:R_0603_1608Metric" V 1380 4750 50  0001 C CNN
F 3 "" H 1450 4750 50  0000 C CNN
	1    1450 4750
	0    1    1    0   
$EndComp
$Comp
L Device:C C98
U 1 1 5C42C25D
P 1450 4900
F 0 "C98" V 1400 5050 39  0000 C CNN
F 1 "100n/100V" V 1500 4700 28  0000 C CNN
F 2 "Capacitor_SMD:C_0603_1608Metric" H 1488 4750 50  0001 C CNN
F 3 "" H 1450 4900 50  0000 C CNN
	1    1450 4900
	0    1    1    0   
$EndComp
$Comp
L power:GNDA #PWR0205
U 1 1 5C42C264
P 1150 4900
F 0 "#PWR0205" H 1150 4650 50  0001 C CNN
F 1 "GNDA" V 1155 4773 50  0000 R CNN
F 2 "" H 1150 4900 50  0000 C CNN
F 3 "" H 1150 4900 50  0000 C CNN
	1    1150 4900
	0    1    1    0   
$EndComp
Text Label 1150 4750 0    50   ~ 0
HV
$Comp
L Device:R R88
U 1 1 5C42C272
P 1450 5050
F 0 "R88" V 1400 5200 39  0000 C CNN
F 1 "1k" V 1450 5050 28  0000 C CNN
F 2 "Resistor_SMD:R_0603_1608Metric" V 1380 5050 50  0001 C CNN
F 3 "" H 1450 5050 50  0000 C CNN
	1    1450 5050
	0    1    1    0   
$EndComp
$Comp
L Device:C C100
U 1 1 5C42C279
P 1450 5200
F 0 "C100" V 1400 5350 39  0000 C CNN
F 1 "100n/100V" V 1500 5000 28  0000 C CNN
F 2 "Capacitor_SMD:C_0603_1608Metric" H 1488 5050 50  0001 C CNN
F 3 "" H 1450 5200 50  0000 C CNN
	1    1450 5200
	0    1    1    0   
$EndComp
$Comp
L power:GNDA #PWR0207
U 1 1 5C42C280
P 1150 5200
F 0 "#PWR0207" H 1150 4950 50  0001 C CNN
F 1 "GNDA" V 1155 5073 50  0000 R CNN
F 2 "" H 1150 5200 50  0000 C CNN
F 3 "" H 1150 5200 50  0000 C CNN
	1    1150 5200
	0    1    1    0   
$EndComp
Text Label 1150 5050 0    50   ~ 0
HV
$Comp
L Device:R R90
U 1 1 5C42C28E
P 1450 5350
F 0 "R90" V 1400 5500 39  0000 C CNN
F 1 "1k" V 1450 5350 28  0000 C CNN
F 2 "Resistor_SMD:R_0603_1608Metric" V 1380 5350 50  0001 C CNN
F 3 "" H 1450 5350 50  0000 C CNN
	1    1450 5350
	0    1    1    0   
$EndComp
$Comp
L Device:C C102
U 1 1 5C42C295
P 1450 5500
F 0 "C102" V 1400 5650 39  0000 C CNN
F 1 "100n/100V" V 1500 5300 28  0000 C CNN
F 2 "Capacitor_SMD:C_0603_1608Metric" H 1488 5350 50  0001 C CNN
F 3 "" H 1450 5500 50  0000 C CNN
	1    1450 5500
	0    1    1    0   
$EndComp
$Comp
L power:GNDA #PWR0209
U 1 1 5C42C29C
P 1150 5500
F 0 "#PWR0209" H 1150 5250 50  0001 C CNN
F 1 "GNDA" V 1155 5373 50  0000 R CNN
F 2 "" H 1150 5500 50  0000 C CNN
F 3 "" H 1150 5500 50  0000 C CNN
	1    1150 5500
	0    1    1    0   
$EndComp
Text Label 1150 5350 0    50   ~ 0
HV
$Comp
L Device:R R92
U 1 1 5C42C2AA
P 1450 5650
F 0 "R92" V 1400 5800 39  0000 C CNN
F 1 "1k" V 1450 5650 28  0000 C CNN
F 2 "Resistor_SMD:R_0603_1608Metric" V 1380 5650 50  0001 C CNN
F 3 "" H 1450 5650 50  0000 C CNN
	1    1450 5650
	0    1    1    0   
$EndComp
$Comp
L Device:C C104
U 1 1 5C42C2B1
P 1450 5800
F 0 "C104" V 1400 5950 39  0000 C CNN
F 1 "100n/100V" V 1500 5600 28  0000 C CNN
F 2 "Capacitor_SMD:C_0603_1608Metric" H 1488 5650 50  0001 C CNN
F 3 "" H 1450 5800 50  0000 C CNN
	1    1450 5800
	0    1    1    0   
$EndComp
$Comp
L power:GNDA #PWR0211
U 1 1 5C42C2B8
P 1150 5800
F 0 "#PWR0211" H 1150 5550 50  0001 C CNN
F 1 "GNDA" V 1155 5673 50  0000 R CNN
F 2 "" H 1150 5800 50  0000 C CNN
F 3 "" H 1150 5800 50  0000 C CNN
	1    1150 5800
	0    1    1    0   
$EndComp
Text Label 1150 5650 0    50   ~ 0
HV
$Comp
L Device:R R94
U 1 1 5C42F6A4
P 1450 5950
F 0 "R94" V 1400 6100 39  0000 C CNN
F 1 "1k" V 1450 5950 28  0000 C CNN
F 2 "Resistor_SMD:R_0603_1608Metric" V 1380 5950 50  0001 C CNN
F 3 "" H 1450 5950 50  0000 C CNN
	1    1450 5950
	0    1    1    0   
$EndComp
$Comp
L Device:C C106
U 1 1 5C42F6AB
P 1450 6100
F 0 "C106" V 1400 6250 39  0000 C CNN
F 1 "100n/100V" V 1500 5900 28  0000 C CNN
F 2 "Capacitor_SMD:C_0603_1608Metric" H 1488 5950 50  0001 C CNN
F 3 "" H 1450 6100 50  0000 C CNN
	1    1450 6100
	0    1    1    0   
$EndComp
$Comp
L power:GNDA #PWR0213
U 1 1 5C42F6B2
P 1150 6100
F 0 "#PWR0213" H 1150 5850 50  0001 C CNN
F 1 "GNDA" V 1155 5973 50  0000 R CNN
F 2 "" H 1150 6100 50  0000 C CNN
F 3 "" H 1150 6100 50  0000 C CNN
	1    1150 6100
	0    1    1    0   
$EndComp
Text Label 1150 5950 0    50   ~ 0
HV
$Comp
L Device:R R96
U 1 1 5C42F6C0
P 1450 6250
F 0 "R96" V 1400 6400 39  0000 C CNN
F 1 "1k" V 1450 6250 28  0000 C CNN
F 2 "Resistor_SMD:R_0603_1608Metric" V 1380 6250 50  0001 C CNN
F 3 "" H 1450 6250 50  0000 C CNN
	1    1450 6250
	0    1    1    0   
$EndComp
$Comp
L Device:C C108
U 1 1 5C42F6C7
P 1450 6400
F 0 "C108" V 1400 6550 39  0000 C CNN
F 1 "100n/100V" V 1500 6200 28  0000 C CNN
F 2 "Capacitor_SMD:C_0603_1608Metric" H 1488 6250 50  0001 C CNN
F 3 "" H 1450 6400 50  0000 C CNN
	1    1450 6400
	0    1    1    0   
$EndComp
$Comp
L power:GNDA #PWR0215
U 1 1 5C42F6CE
P 1150 6400
F 0 "#PWR0215" H 1150 6150 50  0001 C CNN
F 1 "GNDA" V 1155 6273 50  0000 R CNN
F 2 "" H 1150 6400 50  0000 C CNN
F 3 "" H 1150 6400 50  0000 C CNN
	1    1150 6400
	0    1    1    0   
$EndComp
Text Label 1150 6250 0    50   ~ 0
HV
$Comp
L Device:R R63
U 1 1 5C7A52EF
P 3300 1150
F 0 "R63" V 3250 1300 39  0000 C CNN
F 1 "1k" V 3300 1150 28  0000 C CNN
F 2 "Resistor_SMD:R_0603_1608Metric" V 3230 1150 50  0001 C CNN
F 3 "" H 3300 1150 50  0000 C CNN
	1    3300 1150
	0    1    1    0   
$EndComp
$Comp
L Device:C C75
U 1 1 5C7A52F6
P 3300 1300
F 0 "C75" V 3250 1450 39  0000 C CNN
F 1 "100n/100V" V 3350 1100 28  0000 C CNN
F 2 "Capacitor_SMD:C_0603_1608Metric" H 3338 1150 50  0001 C CNN
F 3 "" H 3300 1300 50  0000 C CNN
	1    3300 1300
	0    1    1    0   
$EndComp
$Comp
L power:GNDA #PWR0170
U 1 1 5C7A52FD
P 3000 1300
F 0 "#PWR0170" H 3000 1050 50  0001 C CNN
F 1 "GNDA" V 3005 1173 50  0000 R CNN
F 2 "" H 3000 1300 50  0000 C CNN
F 3 "" H 3000 1300 50  0000 C CNN
	1    3000 1300
	0    1    1    0   
$EndComp
Text Label 3000 1150 0    50   ~ 0
HV
$Comp
L Device:R R65
U 1 1 5C7A530A
P 3300 1450
F 0 "R65" V 3250 1600 39  0000 C CNN
F 1 "1k" V 3300 1450 28  0000 C CNN
F 2 "Resistor_SMD:R_0603_1608Metric" V 3230 1450 50  0001 C CNN
F 3 "" H 3300 1450 50  0000 C CNN
	1    3300 1450
	0    1    1    0   
$EndComp
$Comp
L Device:C C77
U 1 1 5C7A5311
P 3300 1600
F 0 "C77" V 3250 1750 39  0000 C CNN
F 1 "100n/100V" V 3350 1400 28  0000 C CNN
F 2 "Capacitor_SMD:C_0603_1608Metric" H 3338 1450 50  0001 C CNN
F 3 "" H 3300 1600 50  0000 C CNN
	1    3300 1600
	0    1    1    0   
$EndComp
$Comp
L power:GNDA #PWR0176
U 1 1 5C7A5318
P 3000 1600
F 0 "#PWR0176" H 3000 1350 50  0001 C CNN
F 1 "GNDA" V 3005 1473 50  0000 R CNN
F 2 "" H 3000 1600 50  0000 C CNN
F 3 "" H 3000 1600 50  0000 C CNN
	1    3000 1600
	0    1    1    0   
$EndComp
Text Label 3000 1450 0    50   ~ 0
HV
$Comp
L Device:R R67
U 1 1 5C7A5325
P 3300 1750
F 0 "R67" V 3250 1900 39  0000 C CNN
F 1 "1k" V 3300 1750 28  0000 C CNN
F 2 "Resistor_SMD:R_0603_1608Metric" V 3230 1750 50  0001 C CNN
F 3 "" H 3300 1750 50  0000 C CNN
	1    3300 1750
	0    1    1    0   
$EndComp
$Comp
L Device:C C79
U 1 1 5C7A532C
P 3300 1900
F 0 "C79" V 3250 2050 39  0000 C CNN
F 1 "100n/100V" V 3350 1700 28  0000 C CNN
F 2 "Capacitor_SMD:C_0603_1608Metric" H 3338 1750 50  0001 C CNN
F 3 "" H 3300 1900 50  0000 C CNN
	1    3300 1900
	0    1    1    0   
$EndComp
$Comp
L power:GNDA #PWR0178
U 1 1 5C7A5333
P 3000 1900
F 0 "#PWR0178" H 3000 1650 50  0001 C CNN
F 1 "GNDA" V 3005 1773 50  0000 R CNN
F 2 "" H 3000 1900 50  0000 C CNN
F 3 "" H 3000 1900 50  0000 C CNN
	1    3000 1900
	0    1    1    0   
$EndComp
Text Label 3000 1750 0    50   ~ 0
HV
$Comp
L Device:R R69
U 1 1 5C7A5340
P 3300 2050
F 0 "R69" V 3250 2200 39  0000 C CNN
F 1 "1k" V 3300 2050 28  0000 C CNN
F 2 "Resistor_SMD:R_0603_1608Metric" V 3230 2050 50  0001 C CNN
F 3 "" H 3300 2050 50  0000 C CNN
	1    3300 2050
	0    1    1    0   
$EndComp
$Comp
L Device:C C81
U 1 1 5C7A5347
P 3300 2200
F 0 "C81" V 3250 2350 39  0000 C CNN
F 1 "100n/100V" V 3350 2000 28  0000 C CNN
F 2 "Capacitor_SMD:C_0603_1608Metric" H 3338 2050 50  0001 C CNN
F 3 "" H 3300 2200 50  0000 C CNN
	1    3300 2200
	0    1    1    0   
$EndComp
$Comp
L power:GNDA #PWR0180
U 1 1 5C7A534E
P 3000 2200
F 0 "#PWR0180" H 3000 1950 50  0001 C CNN
F 1 "GNDA" V 3005 2073 50  0000 R CNN
F 2 "" H 3000 2200 50  0000 C CNN
F 3 "" H 3000 2200 50  0000 C CNN
	1    3000 2200
	0    1    1    0   
$EndComp
Text Label 3000 2050 0    50   ~ 0
HV
$Comp
L Device:R R71
U 1 1 5C7A535B
P 3300 2350
F 0 "R71" V 3250 2500 39  0000 C CNN
F 1 "1k" V 3300 2350 28  0000 C CNN
F 2 "Resistor_SMD:R_0603_1608Metric" V 3230 2350 50  0001 C CNN
F 3 "" H 3300 2350 50  0000 C CNN
	1    3300 2350
	0    1    1    0   
$EndComp
$Comp
L Device:C C83
U 1 1 5C7A5362
P 3300 2500
F 0 "C83" V 3250 2650 39  0000 C CNN
F 1 "100n/100V" V 3350 2300 28  0000 C CNN
F 2 "Capacitor_SMD:C_0603_1608Metric" H 3338 2350 50  0001 C CNN
F 3 "" H 3300 2500 50  0000 C CNN
	1    3300 2500
	0    1    1    0   
$EndComp
$Comp
L power:GNDA #PWR0182
U 1 1 5C7A5369
P 3000 2500
F 0 "#PWR0182" H 3000 2250 50  0001 C CNN
F 1 "GNDA" V 3005 2373 50  0000 R CNN
F 2 "" H 3000 2500 50  0000 C CNN
F 3 "" H 3000 2500 50  0000 C CNN
	1    3000 2500
	0    1    1    0   
$EndComp
Text Label 3000 2350 0    50   ~ 0
HV
$Comp
L Device:R R73
U 1 1 5C7A5376
P 3300 2650
F 0 "R73" V 3250 2800 39  0000 C CNN
F 1 "1k" V 3300 2650 28  0000 C CNN
F 2 "Resistor_SMD:R_0603_1608Metric" V 3230 2650 50  0001 C CNN
F 3 "" H 3300 2650 50  0000 C CNN
	1    3300 2650
	0    1    1    0   
$EndComp
$Comp
L Device:C C85
U 1 1 5C7A537D
P 3300 2800
F 0 "C85" V 3250 2950 39  0000 C CNN
F 1 "100n/100V" V 3350 2600 28  0000 C CNN
F 2 "Capacitor_SMD:C_0603_1608Metric" H 3338 2650 50  0001 C CNN
F 3 "" H 3300 2800 50  0000 C CNN
	1    3300 2800
	0    1    1    0   
$EndComp
$Comp
L power:GNDA #PWR0186
U 1 1 5C7A5384
P 3000 2800
F 0 "#PWR0186" H 3000 2550 50  0001 C CNN
F 1 "GNDA" V 3005 2673 50  0000 R CNN
F 2 "" H 3000 2800 50  0000 C CNN
F 3 "" H 3000 2800 50  0000 C CNN
	1    3000 2800
	0    1    1    0   
$EndComp
Text Label 3000 2650 0    50   ~ 0
HV
$Comp
L Device:R R75
U 1 1 5C7A5391
P 3300 2950
F 0 "R75" V 3250 3100 39  0000 C CNN
F 1 "1k" V 3300 2950 28  0000 C CNN
F 2 "Resistor_SMD:R_0603_1608Metric" V 3230 2950 50  0001 C CNN
F 3 "" H 3300 2950 50  0000 C CNN
	1    3300 2950
	0    1    1    0   
$EndComp
$Comp
L Device:C C87
U 1 1 5C7A5398
P 3300 3100
F 0 "C87" V 3250 3250 39  0000 C CNN
F 1 "100n/100V" V 3350 2900 28  0000 C CNN
F 2 "Capacitor_SMD:C_0603_1608Metric" H 3338 2950 50  0001 C CNN
F 3 "" H 3300 3100 50  0000 C CNN
	1    3300 3100
	0    1    1    0   
$EndComp
$Comp
L power:GNDA #PWR0188
U 1 1 5C7A539F
P 3000 3100
F 0 "#PWR0188" H 3000 2850 50  0001 C CNN
F 1 "GNDA" V 3005 2973 50  0000 R CNN
F 2 "" H 3000 3100 50  0000 C CNN
F 3 "" H 3000 3100 50  0000 C CNN
	1    3000 3100
	0    1    1    0   
$EndComp
Text Label 3000 2950 0    50   ~ 0
HV
$Comp
L Device:R R77
U 1 1 5C7A53AC
P 3300 3250
F 0 "R77" V 3250 3400 39  0000 C CNN
F 1 "1k" V 3300 3250 28  0000 C CNN
F 2 "Resistor_SMD:R_0603_1608Metric" V 3230 3250 50  0001 C CNN
F 3 "" H 3300 3250 50  0000 C CNN
	1    3300 3250
	0    1    1    0   
$EndComp
$Comp
L Device:C C89
U 1 1 5C7A53B3
P 3300 3400
F 0 "C89" V 3250 3550 39  0000 C CNN
F 1 "100n/100V" V 3350 3200 28  0000 C CNN
F 2 "Capacitor_SMD:C_0603_1608Metric" H 3338 3250 50  0001 C CNN
F 3 "" H 3300 3400 50  0000 C CNN
	1    3300 3400
	0    1    1    0   
$EndComp
$Comp
L power:GNDA #PWR0190
U 1 1 5C7A53BA
P 3000 3400
F 0 "#PWR0190" H 3000 3150 50  0001 C CNN
F 1 "GNDA" V 3005 3273 50  0000 R CNN
F 2 "" H 3000 3400 50  0000 C CNN
F 3 "" H 3000 3400 50  0000 C CNN
	1    3000 3400
	0    1    1    0   
$EndComp
Text Label 3000 3250 0    50   ~ 0
HV
$Comp
L Device:R R79
U 1 1 5C7A53C7
P 3300 3550
F 0 "R79" V 3250 3700 39  0000 C CNN
F 1 "1k" V 3300 3550 28  0000 C CNN
F 2 "Resistor_SMD:R_0603_1608Metric" V 3230 3550 50  0001 C CNN
F 3 "" H 3300 3550 50  0000 C CNN
	1    3300 3550
	0    1    1    0   
$EndComp
$Comp
L Device:C C91
U 1 1 5C7A53CE
P 3300 3700
F 0 "C91" V 3250 3850 39  0000 C CNN
F 1 "100n/100V" V 3350 3500 28  0000 C CNN
F 2 "Capacitor_SMD:C_0603_1608Metric" H 3338 3550 50  0001 C CNN
F 3 "" H 3300 3700 50  0000 C CNN
	1    3300 3700
	0    1    1    0   
$EndComp
$Comp
L power:GNDA #PWR0192
U 1 1 5C7A53D5
P 3000 3700
F 0 "#PWR0192" H 3000 3450 50  0001 C CNN
F 1 "GNDA" V 3005 3573 50  0000 R CNN
F 2 "" H 3000 3700 50  0000 C CNN
F 3 "" H 3000 3700 50  0000 C CNN
	1    3000 3700
	0    1    1    0   
$EndComp
Text Label 3000 3550 0    50   ~ 0
HV
$Comp
L Device:R R81
U 1 1 5C7A53E2
P 3300 3850
F 0 "R81" V 3250 4000 39  0000 C CNN
F 1 "1k" V 3300 3850 28  0000 C CNN
F 2 "Resistor_SMD:R_0603_1608Metric" V 3230 3850 50  0001 C CNN
F 3 "" H 3300 3850 50  0000 C CNN
	1    3300 3850
	0    1    1    0   
$EndComp
$Comp
L Device:C C93
U 1 1 5C7A53E9
P 3300 4000
F 0 "C93" V 3250 4150 39  0000 C CNN
F 1 "100n/100V" V 3350 3800 28  0000 C CNN
F 2 "Capacitor_SMD:C_0603_1608Metric" H 3338 3850 50  0001 C CNN
F 3 "" H 3300 4000 50  0000 C CNN
	1    3300 4000
	0    1    1    0   
$EndComp
$Comp
L power:GNDA #PWR0198
U 1 1 5C7A53F0
P 3000 4000
F 0 "#PWR0198" H 3000 3750 50  0001 C CNN
F 1 "GNDA" V 3005 3873 50  0000 R CNN
F 2 "" H 3000 4000 50  0000 C CNN
F 3 "" H 3000 4000 50  0000 C CNN
	1    3000 4000
	0    1    1    0   
$EndComp
Text Label 3000 3850 0    50   ~ 0
HV
$Comp
L Device:R R83
U 1 1 5C7A53FD
P 3300 4150
F 0 "R83" V 3250 4300 39  0000 C CNN
F 1 "1k" V 3300 4150 28  0000 C CNN
F 2 "Resistor_SMD:R_0603_1608Metric" V 3230 4150 50  0001 C CNN
F 3 "" H 3300 4150 50  0000 C CNN
	1    3300 4150
	0    1    1    0   
$EndComp
$Comp
L Device:C C95
U 1 1 5C7A5404
P 3300 4300
F 0 "C95" V 3250 4450 39  0000 C CNN
F 1 "100n/100V" V 3350 4100 28  0000 C CNN
F 2 "Capacitor_SMD:C_0603_1608Metric" H 3338 4150 50  0001 C CNN
F 3 "" H 3300 4300 50  0000 C CNN
	1    3300 4300
	0    1    1    0   
$EndComp
$Comp
L power:GNDA #PWR0200
U 1 1 5C7A540B
P 3000 4300
F 0 "#PWR0200" H 3000 4050 50  0001 C CNN
F 1 "GNDA" V 3005 4173 50  0000 R CNN
F 2 "" H 3000 4300 50  0000 C CNN
F 3 "" H 3000 4300 50  0000 C CNN
	1    3000 4300
	0    1    1    0   
$EndComp
Text Label 3000 4150 0    50   ~ 0
HV
$Comp
L Device:R R85
U 1 1 5C7A5418
P 3300 4450
F 0 "R85" V 3250 4600 39  0000 C CNN
F 1 "1k" V 3300 4450 28  0000 C CNN
F 2 "Resistor_SMD:R_0603_1608Metric" V 3230 4450 50  0001 C CNN
F 3 "" H 3300 4450 50  0000 C CNN
	1    3300 4450
	0    1    1    0   
$EndComp
$Comp
L Device:C C97
U 1 1 5C7A541F
P 3300 4600
F 0 "C97" V 3250 4750 39  0000 C CNN
F 1 "100n/100V" V 3350 4400 28  0000 C CNN
F 2 "Capacitor_SMD:C_0603_1608Metric" H 3338 4450 50  0001 C CNN
F 3 "" H 3300 4600 50  0000 C CNN
	1    3300 4600
	0    1    1    0   
$EndComp
$Comp
L power:GNDA #PWR0202
U 1 1 5C7A5426
P 3000 4600
F 0 "#PWR0202" H 3000 4350 50  0001 C CNN
F 1 "GNDA" V 3005 4473 50  0000 R CNN
F 2 "" H 3000 4600 50  0000 C CNN
F 3 "" H 3000 4600 50  0000 C CNN
	1    3000 4600
	0    1    1    0   
$EndComp
Text Label 3000 4450 0    50   ~ 0
HV
$Comp
L Device:R R87
U 1 1 5C7A5433
P 3300 4750
F 0 "R87" V 3250 4900 39  0000 C CNN
F 1 "1k" V 3300 4750 28  0000 C CNN
F 2 "Resistor_SMD:R_0603_1608Metric" V 3230 4750 50  0001 C CNN
F 3 "" H 3300 4750 50  0000 C CNN
	1    3300 4750
	0    1    1    0   
$EndComp
$Comp
L Device:C C99
U 1 1 5C7A543A
P 3300 4900
F 0 "C99" V 3250 5050 39  0000 C CNN
F 1 "100n/100V" V 3350 4700 28  0000 C CNN
F 2 "Capacitor_SMD:C_0603_1608Metric" H 3338 4750 50  0001 C CNN
F 3 "" H 3300 4900 50  0000 C CNN
	1    3300 4900
	0    1    1    0   
$EndComp
$Comp
L power:GNDA #PWR0206
U 1 1 5C7A5441
P 3000 4900
F 0 "#PWR0206" H 3000 4650 50  0001 C CNN
F 1 "GNDA" V 3005 4773 50  0000 R CNN
F 2 "" H 3000 4900 50  0000 C CNN
F 3 "" H 3000 4900 50  0000 C CNN
	1    3000 4900
	0    1    1    0   
$EndComp
Text Label 3000 4750 0    50   ~ 0
HV
$Comp
L Device:R R89
U 1 1 5C7A544E
P 3300 5050
F 0 "R89" V 3250 5200 39  0000 C CNN
F 1 "1k" V 3300 5050 28  0000 C CNN
F 2 "Resistor_SMD:R_0603_1608Metric" V 3230 5050 50  0001 C CNN
F 3 "" H 3300 5050 50  0000 C CNN
	1    3300 5050
	0    1    1    0   
$EndComp
$Comp
L Device:C C101
U 1 1 5C7A5455
P 3300 5200
F 0 "C101" V 3250 5350 39  0000 C CNN
F 1 "100n/100V" V 3350 5000 28  0000 C CNN
F 2 "Capacitor_SMD:C_0603_1608Metric" H 3338 5050 50  0001 C CNN
F 3 "" H 3300 5200 50  0000 C CNN
	1    3300 5200
	0    1    1    0   
$EndComp
$Comp
L power:GNDA #PWR0208
U 1 1 5C7A545C
P 3000 5200
F 0 "#PWR0208" H 3000 4950 50  0001 C CNN
F 1 "GNDA" V 3005 5073 50  0000 R CNN
F 2 "" H 3000 5200 50  0000 C CNN
F 3 "" H 3000 5200 50  0000 C CNN
	1    3000 5200
	0    1    1    0   
$EndComp
Text Label 3000 5050 0    50   ~ 0
HV
$Comp
L Device:R R91
U 1 1 5C7A5469
P 3300 5350
F 0 "R91" V 3250 5500 39  0000 C CNN
F 1 "1k" V 3300 5350 28  0000 C CNN
F 2 "Resistor_SMD:R_0603_1608Metric" V 3230 5350 50  0001 C CNN
F 3 "" H 3300 5350 50  0000 C CNN
	1    3300 5350
	0    1    1    0   
$EndComp
$Comp
L Device:C C103
U 1 1 5C7A5470
P 3300 5500
F 0 "C103" V 3250 5650 39  0000 C CNN
F 1 "100n/100V" V 3350 5300 28  0000 C CNN
F 2 "Capacitor_SMD:C_0603_1608Metric" H 3338 5350 50  0001 C CNN
F 3 "" H 3300 5500 50  0000 C CNN
	1    3300 5500
	0    1    1    0   
$EndComp
$Comp
L power:GNDA #PWR0210
U 1 1 5C7A5477
P 3000 5500
F 0 "#PWR0210" H 3000 5250 50  0001 C CNN
F 1 "GNDA" V 3005 5373 50  0000 R CNN
F 2 "" H 3000 5500 50  0000 C CNN
F 3 "" H 3000 5500 50  0000 C CNN
	1    3000 5500
	0    1    1    0   
$EndComp
Text Label 3000 5350 0    50   ~ 0
HV
$Comp
L Device:R R93
U 1 1 5C7A5484
P 3300 5650
F 0 "R93" V 3250 5800 39  0000 C CNN
F 1 "1k" V 3300 5650 28  0000 C CNN
F 2 "Resistor_SMD:R_0603_1608Metric" V 3230 5650 50  0001 C CNN
F 3 "" H 3300 5650 50  0000 C CNN
	1    3300 5650
	0    1    1    0   
$EndComp
$Comp
L Device:C C105
U 1 1 5C7A548B
P 3300 5800
F 0 "C105" V 3250 5950 39  0000 C CNN
F 1 "100n/100V" V 3350 5600 28  0000 C CNN
F 2 "Capacitor_SMD:C_0603_1608Metric" H 3338 5650 50  0001 C CNN
F 3 "" H 3300 5800 50  0000 C CNN
	1    3300 5800
	0    1    1    0   
$EndComp
$Comp
L power:GNDA #PWR0212
U 1 1 5C7A5492
P 3000 5800
F 0 "#PWR0212" H 3000 5550 50  0001 C CNN
F 1 "GNDA" V 3005 5673 50  0000 R CNN
F 2 "" H 3000 5800 50  0000 C CNN
F 3 "" H 3000 5800 50  0000 C CNN
	1    3000 5800
	0    1    1    0   
$EndComp
Text Label 3000 5650 0    50   ~ 0
HV
$Comp
L Device:R R95
U 1 1 5C7A549F
P 3300 5950
F 0 "R95" V 3250 6100 39  0000 C CNN
F 1 "1k" V 3300 5950 28  0000 C CNN
F 2 "Resistor_SMD:R_0603_1608Metric" V 3230 5950 50  0001 C CNN
F 3 "" H 3300 5950 50  0000 C CNN
	1    3300 5950
	0    1    1    0   
$EndComp
$Comp
L Device:C C107
U 1 1 5C7A54A6
P 3300 6100
F 0 "C107" V 3250 6250 39  0000 C CNN
F 1 "100n/100V" V 3350 5900 28  0000 C CNN
F 2 "Capacitor_SMD:C_0603_1608Metric" H 3338 5950 50  0001 C CNN
F 3 "" H 3300 6100 50  0000 C CNN
	1    3300 6100
	0    1    1    0   
$EndComp
$Comp
L power:GNDA #PWR0214
U 1 1 5C7A54AD
P 3000 6100
F 0 "#PWR0214" H 3000 5850 50  0001 C CNN
F 1 "GNDA" V 3005 5973 50  0000 R CNN
F 2 "" H 3000 6100 50  0000 C CNN
F 3 "" H 3000 6100 50  0000 C CNN
	1    3000 6100
	0    1    1    0   
$EndComp
Text Label 3000 5950 0    50   ~ 0
HV
$Comp
L Device:R R97
U 1 1 5C7A54BA
P 3300 6250
F 0 "R97" V 3250 6400 39  0000 C CNN
F 1 "1k" V 3300 6250 28  0000 C CNN
F 2 "Resistor_SMD:R_0603_1608Metric" V 3230 6250 50  0001 C CNN
F 3 "" H 3300 6250 50  0000 C CNN
	1    3300 6250
	0    1    1    0   
$EndComp
$Comp
L Device:C C109
U 1 1 5C7A54C1
P 3300 6400
F 0 "C109" V 3250 6550 39  0000 C CNN
F 1 "100n/100V" V 3350 6200 28  0000 C CNN
F 2 "Capacitor_SMD:C_0603_1608Metric" H 3338 6250 50  0001 C CNN
F 3 "" H 3300 6400 50  0000 C CNN
	1    3300 6400
	0    1    1    0   
$EndComp
$Comp
L power:GNDA #PWR0216
U 1 1 5C7A54C8
P 3000 6400
F 0 "#PWR0216" H 3000 6150 50  0001 C CNN
F 1 "GNDA" V 3005 6273 50  0000 R CNN
F 2 "" H 3000 6400 50  0000 C CNN
F 3 "" H 3000 6400 50  0000 C CNN
	1    3000 6400
	0    1    1    0   
$EndComp
Text Label 3000 6250 0    50   ~ 0
HV
Wire Wire Line
	1150 1300 1300 1300
Wire Wire Line
	1150 1150 1300 1150
Wire Wire Line
	1600 1150 1650 1150
Wire Wire Line
	1650 1150 1650 1300
Wire Wire Line
	1650 1300 1600 1300
Connection ~ 1650 1150
Wire Wire Line
	1150 1600 1300 1600
Wire Wire Line
	1150 1450 1300 1450
Wire Wire Line
	1600 1450 1650 1450
Wire Wire Line
	1650 1450 1650 1600
Wire Wire Line
	1650 1600 1600 1600
Connection ~ 1650 1450
Wire Wire Line
	1150 1900 1300 1900
Wire Wire Line
	1150 1750 1300 1750
Wire Wire Line
	1600 1750 1650 1750
Wire Wire Line
	1650 1750 1650 1900
Wire Wire Line
	1650 1900 1600 1900
Connection ~ 1650 1750
Wire Wire Line
	1150 2200 1300 2200
Wire Wire Line
	1150 2050 1300 2050
Wire Wire Line
	1600 2050 1650 2050
Wire Wire Line
	1650 2050 1650 2200
Wire Wire Line
	1650 2200 1600 2200
Connection ~ 1650 2050
Wire Wire Line
	1150 2500 1300 2500
Wire Wire Line
	1150 2350 1300 2350
Wire Wire Line
	1600 2350 1650 2350
Wire Wire Line
	1650 2350 1650 2500
Wire Wire Line
	1650 2500 1600 2500
Connection ~ 1650 2350
Wire Wire Line
	1150 2800 1300 2800
Wire Wire Line
	1150 2650 1300 2650
Wire Wire Line
	1600 2650 1650 2650
Wire Wire Line
	1650 2650 1650 2800
Wire Wire Line
	1650 2800 1600 2800
Connection ~ 1650 2650
Wire Wire Line
	1150 3100 1300 3100
Wire Wire Line
	1150 2950 1300 2950
Wire Wire Line
	1600 2950 1650 2950
Wire Wire Line
	1650 2950 1650 3100
Wire Wire Line
	1650 3100 1600 3100
Connection ~ 1650 2950
Wire Wire Line
	1150 3400 1300 3400
Wire Wire Line
	1150 3250 1300 3250
Wire Wire Line
	1600 3250 1650 3250
Wire Wire Line
	1650 3250 1650 3400
Wire Wire Line
	1650 3400 1600 3400
Connection ~ 1650 3250
Wire Wire Line
	1150 3700 1300 3700
Wire Wire Line
	1150 3550 1300 3550
Wire Wire Line
	1600 3550 1650 3550
Wire Wire Line
	1650 3550 1650 3700
Wire Wire Line
	1650 3700 1600 3700
Connection ~ 1650 3550
Wire Wire Line
	1150 4000 1300 4000
Wire Wire Line
	1150 3850 1300 3850
Wire Wire Line
	1600 3850 1650 3850
Wire Wire Line
	1650 3850 1650 4000
Wire Wire Line
	1650 4000 1600 4000
Connection ~ 1650 3850
Wire Wire Line
	1150 4300 1300 4300
Wire Wire Line
	1150 4150 1300 4150
Wire Wire Line
	1600 4150 1650 4150
Wire Wire Line
	1650 4150 1650 4300
Wire Wire Line
	1650 4300 1600 4300
Connection ~ 1650 4150
Wire Wire Line
	1150 4600 1300 4600
Wire Wire Line
	1150 4450 1300 4450
Wire Wire Line
	1600 4450 1650 4450
Wire Wire Line
	1650 4450 1650 4600
Wire Wire Line
	1650 4600 1600 4600
Connection ~ 1650 4450
Wire Wire Line
	1150 4900 1300 4900
Wire Wire Line
	1150 4750 1300 4750
Wire Wire Line
	1600 4750 1650 4750
Wire Wire Line
	1650 4750 1650 4900
Wire Wire Line
	1650 4900 1600 4900
Connection ~ 1650 4750
Wire Wire Line
	1150 5200 1300 5200
Wire Wire Line
	1150 5050 1300 5050
Wire Wire Line
	1600 5050 1650 5050
Wire Wire Line
	1650 5050 1650 5200
Wire Wire Line
	1650 5200 1600 5200
Connection ~ 1650 5050
Wire Wire Line
	1150 5500 1300 5500
Wire Wire Line
	1150 5350 1300 5350
Wire Wire Line
	1600 5350 1650 5350
Wire Wire Line
	1650 5350 1650 5500
Wire Wire Line
	1650 5500 1600 5500
Connection ~ 1650 5350
Wire Wire Line
	1150 5800 1300 5800
Wire Wire Line
	1150 5650 1300 5650
Wire Wire Line
	1600 5650 1650 5650
Wire Wire Line
	1650 5650 1650 5800
Wire Wire Line
	1650 5800 1600 5800
Connection ~ 1650 5650
Wire Wire Line
	1150 6100 1300 6100
Wire Wire Line
	1150 5950 1300 5950
Wire Wire Line
	1600 5950 1650 5950
Wire Wire Line
	1650 5950 1650 6100
Wire Wire Line
	1650 6100 1600 6100
Connection ~ 1650 5950
Wire Wire Line
	1150 6400 1300 6400
Wire Wire Line
	1150 6250 1300 6250
Wire Wire Line
	1600 6250 1650 6250
Wire Wire Line
	1650 6250 1650 6400
Wire Wire Line
	1650 6400 1600 6400
Connection ~ 1650 6250
Wire Wire Line
	1650 1150 1950 1150
Wire Wire Line
	1650 1450 1950 1450
Wire Wire Line
	1650 1750 1950 1750
Wire Wire Line
	1650 2350 1950 2350
Wire Wire Line
	1650 2650 1950 2650
Wire Wire Line
	1650 2950 1950 2950
Wire Wire Line
	1650 2050 1950 2050
Wire Wire Line
	1650 3250 1950 3250
Wire Wire Line
	1650 3550 1950 3550
Wire Wire Line
	1650 3850 1950 3850
Wire Wire Line
	1650 4150 1950 4150
Wire Wire Line
	1650 4450 1950 4450
Wire Wire Line
	1650 4750 1950 4750
Wire Wire Line
	1650 5050 1950 5050
Wire Wire Line
	1650 5350 1950 5350
Wire Wire Line
	1650 5650 1950 5650
Wire Wire Line
	1650 5950 1950 5950
Wire Wire Line
	1650 6250 1950 6250
Wire Wire Line
	5800 1650 5500 1650
Wire Wire Line
	5800 1750 5500 1750
Wire Wire Line
	5800 1850 5500 1850
Wire Wire Line
	5800 1950 5500 1950
Wire Wire Line
	5800 2050 5500 2050
Wire Wire Line
	5800 2150 5500 2150
Wire Wire Line
	5800 2250 5500 2250
Wire Wire Line
	5800 2350 5500 2350
Wire Wire Line
	5800 2450 5500 2450
Wire Wire Line
	7300 1650 7000 1650
Wire Wire Line
	7300 1750 7000 1750
Wire Wire Line
	7300 1850 7000 1850
Wire Wire Line
	7300 1950 7000 1950
Wire Wire Line
	7300 2050 7000 2050
Wire Wire Line
	7300 2150 7000 2150
Wire Wire Line
	7300 2250 7000 2250
Wire Wire Line
	7300 2350 7000 2350
Wire Wire Line
	7300 2450 7000 2450
Wire Wire Line
	6300 1650 6550 1650
Wire Wire Line
	6300 1750 6550 1750
Wire Wire Line
	6300 1850 6550 1850
Wire Wire Line
	6300 1950 6550 1950
Wire Wire Line
	6300 2050 6550 2050
Wire Wire Line
	6300 2150 6550 2150
Wire Wire Line
	6300 2250 6550 2250
Wire Wire Line
	6300 2350 6550 2350
Wire Wire Line
	6300 2450 6550 2450
Wire Wire Line
	7800 1650 8050 1650
Wire Wire Line
	7800 1750 8050 1750
Wire Wire Line
	7800 1850 8050 1850
Wire Wire Line
	7800 1950 8050 1950
Wire Wire Line
	7800 2050 8050 2050
Wire Wire Line
	7800 2150 8050 2150
Wire Wire Line
	7800 2250 8050 2250
Wire Wire Line
	7800 2350 8050 2350
Wire Wire Line
	7800 2450 8050 2450
Wire Wire Line
	3000 1300 3150 1300
Wire Wire Line
	3000 1150 3150 1150
Wire Wire Line
	3450 1150 3500 1150
Wire Wire Line
	3500 1150 3500 1300
Wire Wire Line
	3500 1300 3450 1300
Connection ~ 3500 1150
Wire Wire Line
	3000 1600 3150 1600
Wire Wire Line
	3000 1450 3150 1450
Wire Wire Line
	3450 1450 3500 1450
Wire Wire Line
	3500 1450 3500 1600
Wire Wire Line
	3500 1600 3450 1600
Connection ~ 3500 1450
Wire Wire Line
	3000 1900 3150 1900
Wire Wire Line
	3000 1750 3150 1750
Wire Wire Line
	3450 1750 3500 1750
Wire Wire Line
	3500 1750 3500 1900
Wire Wire Line
	3500 1900 3450 1900
Connection ~ 3500 1750
Wire Wire Line
	3000 2200 3150 2200
Wire Wire Line
	3000 2050 3150 2050
Wire Wire Line
	3450 2050 3500 2050
Wire Wire Line
	3500 2050 3500 2200
Wire Wire Line
	3500 2200 3450 2200
Connection ~ 3500 2050
Wire Wire Line
	3000 2500 3150 2500
Wire Wire Line
	3000 2350 3150 2350
Wire Wire Line
	3450 2350 3500 2350
Wire Wire Line
	3500 2350 3500 2500
Wire Wire Line
	3500 2500 3450 2500
Connection ~ 3500 2350
Wire Wire Line
	3000 2800 3150 2800
Wire Wire Line
	3000 2650 3150 2650
Wire Wire Line
	3450 2650 3500 2650
Wire Wire Line
	3500 2650 3500 2800
Wire Wire Line
	3500 2800 3450 2800
Connection ~ 3500 2650
Wire Wire Line
	3000 3100 3150 3100
Wire Wire Line
	3000 2950 3150 2950
Wire Wire Line
	3450 2950 3500 2950
Wire Wire Line
	3500 2950 3500 3100
Wire Wire Line
	3500 3100 3450 3100
Connection ~ 3500 2950
Wire Wire Line
	3000 3400 3150 3400
Wire Wire Line
	3000 3250 3150 3250
Wire Wire Line
	3450 3250 3500 3250
Wire Wire Line
	3500 3250 3500 3400
Wire Wire Line
	3500 3400 3450 3400
Connection ~ 3500 3250
Wire Wire Line
	3000 3700 3150 3700
Wire Wire Line
	3000 3550 3150 3550
Wire Wire Line
	3450 3550 3500 3550
Wire Wire Line
	3500 3550 3500 3700
Wire Wire Line
	3500 3700 3450 3700
Connection ~ 3500 3550
Wire Wire Line
	3000 4000 3150 4000
Wire Wire Line
	3000 3850 3150 3850
Wire Wire Line
	3450 3850 3500 3850
Wire Wire Line
	3500 3850 3500 4000
Wire Wire Line
	3500 4000 3450 4000
Connection ~ 3500 3850
Wire Wire Line
	3000 4300 3150 4300
Wire Wire Line
	3000 4150 3150 4150
Wire Wire Line
	3450 4150 3500 4150
Wire Wire Line
	3500 4150 3500 4300
Wire Wire Line
	3500 4300 3450 4300
Connection ~ 3500 4150
Wire Wire Line
	3000 4600 3150 4600
Wire Wire Line
	3000 4450 3150 4450
Wire Wire Line
	3450 4450 3500 4450
Wire Wire Line
	3500 4450 3500 4600
Wire Wire Line
	3500 4600 3450 4600
Connection ~ 3500 4450
Wire Wire Line
	3000 4900 3150 4900
Wire Wire Line
	3000 4750 3150 4750
Wire Wire Line
	3450 4750 3500 4750
Wire Wire Line
	3500 4750 3500 4900
Wire Wire Line
	3500 4900 3450 4900
Connection ~ 3500 4750
Wire Wire Line
	3000 5200 3150 5200
Wire Wire Line
	3000 5050 3150 5050
Wire Wire Line
	3450 5050 3500 5050
Wire Wire Line
	3500 5050 3500 5200
Wire Wire Line
	3500 5200 3450 5200
Connection ~ 3500 5050
Wire Wire Line
	3000 5500 3150 5500
Wire Wire Line
	3000 5350 3150 5350
Wire Wire Line
	3450 5350 3500 5350
Wire Wire Line
	3500 5350 3500 5500
Wire Wire Line
	3500 5500 3450 5500
Connection ~ 3500 5350
Wire Wire Line
	3000 5800 3150 5800
Wire Wire Line
	3000 5650 3150 5650
Wire Wire Line
	3450 5650 3500 5650
Wire Wire Line
	3500 5650 3500 5800
Wire Wire Line
	3500 5800 3450 5800
Connection ~ 3500 5650
Wire Wire Line
	3000 6100 3150 6100
Wire Wire Line
	3000 5950 3150 5950
Wire Wire Line
	3450 5950 3500 5950
Wire Wire Line
	3500 5950 3500 6100
Wire Wire Line
	3500 6100 3450 6100
Connection ~ 3500 5950
Wire Wire Line
	3000 6400 3150 6400
Wire Wire Line
	3000 6250 3150 6250
Wire Wire Line
	3450 6250 3500 6250
Wire Wire Line
	3500 6250 3500 6400
Wire Wire Line
	3500 6400 3450 6400
Connection ~ 3500 6250
Wire Wire Line
	3500 1150 3800 1150
Wire Wire Line
	3500 1450 3800 1450
Wire Wire Line
	3500 1750 3800 1750
Wire Wire Line
	3500 2350 3800 2350
Wire Wire Line
	3500 2650 3800 2650
Wire Wire Line
	3500 2950 3800 2950
Wire Wire Line
	3500 2050 3800 2050
Wire Wire Line
	3500 3250 3800 3250
Wire Wire Line
	3500 3550 3800 3550
Wire Wire Line
	3500 3850 3800 3850
Wire Wire Line
	3500 4150 3800 4150
Wire Wire Line
	3500 4450 3800 4450
Wire Wire Line
	3500 4750 3800 4750
Wire Wire Line
	3500 5050 3800 5050
Wire Wire Line
	3500 5350 3800 5350
Wire Wire Line
	3500 5650 3800 5650
Wire Wire Line
	3500 5950 3800 5950
Wire Wire Line
	3500 6250 3800 6250
Wire Wire Line
	5800 4600 5500 4600
Wire Wire Line
	5800 4500 5500 4500
Wire Wire Line
	5800 4400 5500 4400
Wire Wire Line
	5800 4300 5500 4300
Wire Wire Line
	5800 4200 5500 4200
Wire Wire Line
	5800 4100 5500 4100
Wire Wire Line
	5800 4000 5500 4000
Wire Wire Line
	5800 3900 5500 3900
Wire Wire Line
	5800 3800 5500 3800
Wire Wire Line
	7300 4600 7000 4600
Wire Wire Line
	7300 4500 7000 4500
Wire Wire Line
	7300 4400 7000 4400
Wire Wire Line
	7300 4300 7000 4300
Wire Wire Line
	7300 4200 7000 4200
Wire Wire Line
	7300 4100 7000 4100
Wire Wire Line
	7300 4000 7000 4000
Wire Wire Line
	7300 3900 7000 3900
Wire Wire Line
	7300 3800 7000 3800
Wire Wire Line
	6300 4600 6550 4600
Wire Wire Line
	6300 4500 6550 4500
Wire Wire Line
	6300 4400 6550 4400
Wire Wire Line
	6300 4300 6550 4300
Wire Wire Line
	6300 4200 6550 4200
Wire Wire Line
	6300 4100 6550 4100
Wire Wire Line
	6300 4000 6550 4000
Wire Wire Line
	6300 3900 6550 3900
Wire Wire Line
	6300 3800 6550 3800
Wire Wire Line
	7800 4600 8050 4600
Wire Wire Line
	7800 4500 8050 4500
Wire Wire Line
	7800 4400 8050 4400
Wire Wire Line
	7800 4300 8050 4300
Wire Wire Line
	7800 4200 8050 4200
Wire Wire Line
	7800 4100 8050 4100
Wire Wire Line
	7800 4000 8050 4000
Wire Wire Line
	7800 3900 8050 3900
Wire Wire Line
	7800 3800 8050 3800
Text Label 1750 1150 0    50   ~ 0
HV1
Text Label 1750 1450 0    50   ~ 0
HV2
Text Label 1750 1750 0    50   ~ 0
HV3
Text Label 1750 2050 0    50   ~ 0
HV4
Text Label 1750 2350 0    50   ~ 0
HV5
Text Label 1750 2650 0    50   ~ 0
HV6
Text Label 1750 2950 0    50   ~ 0
HV7
Text Label 1750 3250 0    50   ~ 0
HV8
Text Label 1750 3550 0    50   ~ 0
HV9
Text Label 1750 3850 0    50   ~ 0
HV10
Text Label 1750 4150 0    50   ~ 0
HV11
Text Label 1750 4450 0    50   ~ 0
HV12
Text Label 1750 4750 0    50   ~ 0
HV13
Text Label 1750 5050 0    50   ~ 0
HV14
Text Label 1750 5350 0    50   ~ 0
HV15
Text Label 1750 5650 0    50   ~ 0
HV16
Text Label 1750 5950 0    50   ~ 0
HV17
Text Label 1750 6250 0    50   ~ 0
HV18
Text Label 5500 1650 0    50   ~ 0
HV1
Text Label 5500 1750 0    50   ~ 0
HV2
Text Label 5500 1850 0    50   ~ 0
HV3
Text Label 5500 1950 0    50   ~ 0
HV4
Text Label 5500 2050 0    50   ~ 0
HV5
Text Label 5500 2150 0    50   ~ 0
HV6
Text Label 5500 2250 0    50   ~ 0
HV7
Text Label 5500 2350 0    50   ~ 0
HV8
Text Label 5500 2450 0    50   ~ 0
HV9
Text Label 7000 1650 0    50   ~ 0
HV10
Text Label 7000 1750 0    50   ~ 0
HV11
Text Label 7000 1850 0    50   ~ 0
HV12
Text Label 7000 1950 0    50   ~ 0
HV13
Text Label 7000 2050 0    50   ~ 0
HV14
Text Label 7000 2150 0    50   ~ 0
HV15
Text Label 7000 2250 0    50   ~ 0
HV16
Text Label 7000 2350 0    50   ~ 0
HV17
Text Label 7000 2450 0    50   ~ 0
HV18
Text Label 3600 1150 0    50   ~ 0
HV19
Text Label 3600 1450 0    50   ~ 0
HV20
Text Label 3600 1750 0    50   ~ 0
HV21
Text Label 3600 2050 0    50   ~ 0
HV22
Text Label 3600 2350 0    50   ~ 0
HV23
Text Label 3600 2650 0    50   ~ 0
HV24
Text Label 3600 2950 0    50   ~ 0
HV25
Text Label 3600 3250 0    50   ~ 0
HV26
Text Label 3600 3550 0    50   ~ 0
HV27
Text Label 3600 3850 0    50   ~ 0
HV28
Text Label 3600 4150 0    50   ~ 0
HV29
Text Label 3600 4450 0    50   ~ 0
HV30
Text Label 3600 4750 0    50   ~ 0
HV31
Text Label 3600 5050 0    50   ~ 0
HV32
Text Label 3600 5350 0    50   ~ 0
HV33
Text Label 3600 5650 0    50   ~ 0
HV34
Text Label 3600 5950 0    50   ~ 0
HV35
Text Label 3600 6250 0    50   ~ 0
HV36
Text Label 5550 4600 0    50   ~ 0
HV19
Text Label 5550 4500 0    50   ~ 0
HV20
Text Label 5550 4400 0    50   ~ 0
HV21
Text Label 5550 4300 0    50   ~ 0
HV22
Text Label 5550 4200 0    50   ~ 0
HV23
Text Label 5550 4100 0    50   ~ 0
HV24
Text Label 5550 4000 0    50   ~ 0
HV25
Text Label 5550 3900 0    50   ~ 0
HV26
Text Label 5550 3800 0    50   ~ 0
HV27
Text Label 7050 4600 0    50   ~ 0
HV28
Text Label 7050 4500 0    50   ~ 0
HV29
Text Label 7050 4400 0    50   ~ 0
HV30
Text Label 7050 4300 0    50   ~ 0
HV31
Text Label 7050 4200 0    50   ~ 0
HV32
Text Label 7050 4100 0    50   ~ 0
HV33
Text Label 7050 4000 0    50   ~ 0
HV34
Text Label 7050 3900 0    50   ~ 0
HV35
Text Label 7050 3800 0    50   ~ 0
HV36
$Comp
L power:GNDA #PWR0172
U 1 1 5C8490CB
P 6300 1550
F 0 "#PWR0172" H 6300 1300 50  0001 C CNN
F 1 "GNDA" V 6305 1422 50  0000 R CNN
F 2 "" H 6300 1550 50  0000 C CNN
F 3 "" H 6300 1550 50  0000 C CNN
	1    6300 1550
	0    -1   -1   0   
$EndComp
Text Label 6300 1650 0    50   ~ 0
SiPM[1]
Text Label 6300 1750 0    50   ~ 0
SiPM[2]
Text Label 6300 1850 0    50   ~ 0
SiPM[3]
Text Label 6300 1950 0    50   ~ 0
SiPM[4]
Text Label 6300 2050 0    50   ~ 0
SiPM[5]
Text Label 6300 2150 0    50   ~ 0
SiPM[6]
Text Label 6300 2250 0    50   ~ 0
SiPM[7]
Text Label 6300 2350 0    50   ~ 0
SiPM[8]
Text Label 6300 2450 0    50   ~ 0
SiPM[9]
Text Label 7800 1650 0    50   ~ 0
SiPM[10]
Text Label 7800 1750 0    50   ~ 0
SiPM[11]
Text Label 7800 1850 0    50   ~ 0
SiPM[12]
Text Label 7800 1950 0    50   ~ 0
SiPM[13]
Text Label 7800 2050 0    50   ~ 0
SiPM[14]
Text Label 7800 2150 0    50   ~ 0
SiPM[15]
Text Label 7800 2250 0    50   ~ 0
SiPM[16]
Text Label 7800 2350 0    50   ~ 0
SiPM[17]
Text Label 7800 2450 0    50   ~ 0
SiPM[18]
Text Label 6300 4600 0    50   ~ 0
SiPM[19]
Text Label 6300 4500 0    50   ~ 0
SiPM[20]
Text Label 6300 4400 0    50   ~ 0
SiPM[21]
Text Label 6300 4300 0    50   ~ 0
SiPM[22]
Text Label 6300 4200 0    50   ~ 0
SiPM[23]
Text Label 6300 4100 0    50   ~ 0
SiPM[24]
Text Label 6300 4000 0    50   ~ 0
SiPM[25]
Text Label 6300 3900 0    50   ~ 0
SiPM[26]
Text Label 6300 3800 0    50   ~ 0
SiPM[27]
Text Label 7800 4600 0    50   ~ 0
SiPM[28]
Text Label 7800 4500 0    50   ~ 0
SiPM[29]
Text Label 7800 4400 0    50   ~ 0
SiPM[30]
Text Label 7800 4300 0    50   ~ 0
SiPM[31]
Text Label 7800 4200 0    50   ~ 0
SiPM[32]
Text Label 7800 4100 0    50   ~ 0
SiPM[33]
Text Label 7800 4000 0    50   ~ 0
SiPM[34]
Text Label 7800 3900 0    50   ~ 0
SiPM[35]
Text Label 7800 3800 0    50   ~ 0
SiPM[36]
Text HLabel 9250 1550 2    50   Output ~ 0
SiPM[1]
Text HLabel 9250 1650 2    50   Output ~ 0
SiPM[2]
Text HLabel 9250 1750 2    50   Output ~ 0
SiPM[3]
Text HLabel 9250 1850 2    50   Output ~ 0
SiPM[4]
Text HLabel 9250 1950 2    50   Output ~ 0
SiPM[5]
Text HLabel 9250 2050 2    50   Output ~ 0
SiPM[6]
Text HLabel 9250 2150 2    50   Output ~ 0
SiPM[7]
Text HLabel 9250 2250 2    50   Output ~ 0
SiPM[8]
Text HLabel 9250 2350 2    50   Output ~ 0
SiPM[9]
Text HLabel 9250 2450 2    50   Output ~ 0
SiPM[10]
Text HLabel 9250 2550 2    50   Output ~ 0
SiPM[11]
Text HLabel 9250 2650 2    50   Output ~ 0
SiPM[13]
Text HLabel 9250 2750 2    50   Output ~ 0
SiPM[14]
Text HLabel 9250 2850 2    50   Output ~ 0
SiPM[15]
Text HLabel 9250 2950 2    50   Output ~ 0
SiPM[16]
Text HLabel 9250 3050 2    50   Output ~ 0
SiPM[17]
Text HLabel 9250 3150 2    50   Output ~ 0
SiPM[18]
Text HLabel 9250 3250 2    50   Output ~ 0
SiPM[12]
Text HLabel 9950 1550 2    50   Output ~ 0
SiPM[19]
Text HLabel 9950 1650 2    50   Output ~ 0
SiPM[20]
Text HLabel 9950 1750 2    50   Output ~ 0
SiPM[21]
Text HLabel 9950 1850 2    50   Output ~ 0
SiPM[22]
Text HLabel 9950 1950 2    50   Output ~ 0
SiPM[23]
Text HLabel 9950 2050 2    50   Output ~ 0
SiPM[24]
Text HLabel 9950 2150 2    50   Output ~ 0
SiPM[25]
Text HLabel 9950 2250 2    50   Output ~ 0
SiPM[26]
Text HLabel 9950 2350 2    50   Output ~ 0
SiPM[27]
Text HLabel 9950 2450 2    50   Output ~ 0
SiPM[28]
Text HLabel 9950 2550 2    50   Output ~ 0
SiPM[29]
Text HLabel 9950 2650 2    50   Output ~ 0
SiPM[30]
Text HLabel 9950 2750 2    50   Output ~ 0
SiPM[31]
Text HLabel 9950 2850 2    50   Output ~ 0
SiPM[32]
Text HLabel 9950 2950 2    50   Output ~ 0
SiPM[33]
Text HLabel 9950 3050 2    50   Output ~ 0
SiPM[34]
Text HLabel 9950 3150 2    50   Output ~ 0
SiPM[35]
Text HLabel 9950 3250 2    50   Output ~ 0
SiPM[36]
$Comp
L Connector_Generic:Conn_02x12_Odd_Even P29
U 1 1 5DBBB2E8
P 6100 2050
F 0 "P29" H 6150 2650 50  0000 C CNN
F 1 "CONN_02X12" H 6100 2724 50  0001 C CNN
F 2 "Connector-Custom:CONN_02X12" H 6100 850 50  0001 C CNN
F 3 "" H 6100 850 50  0000 C CNN
	1    6100 2050
	-1   0    0    -1  
$EndComp
Wire Wire Line
	5500 2650 5800 2650
Wire Wire Line
	6550 2650 6300 2650
Text Label 5500 2650 0    50   ~ 0
TCALIB
Text Label 6550 2650 2    50   ~ 0
VCALIB
$Comp
L power:GNDA #PWR0183
U 1 1 5DCC2717
P 6300 2550
F 0 "#PWR0183" H 6300 2300 50  0001 C CNN
F 1 "GNDA" V 6305 2422 50  0000 R CNN
F 2 "" H 6300 2550 50  0000 C CNN
F 3 "" H 6300 2550 50  0000 C CNN
	1    6300 2550
	0    -1   -1   0   
$EndComp
$Comp
L power:GNDA #PWR0174
U 1 1 5DCFAF77
P 7800 1550
F 0 "#PWR0174" H 7800 1300 50  0001 C CNN
F 1 "GNDA" V 7805 1422 50  0000 R CNN
F 2 "" H 7800 1550 50  0000 C CNN
F 3 "" H 7800 1550 50  0000 C CNN
	1    7800 1550
	0    -1   -1   0   
$EndComp
Wire Wire Line
	7000 2650 7300 2650
Wire Wire Line
	8050 2650 7800 2650
Text Label 7000 2650 0    50   ~ 0
TCALIB
Text Label 8050 2650 2    50   ~ 0
VCALIB
$Comp
L power:GNDA #PWR0184
U 1 1 5DCFAF92
P 7800 2550
F 0 "#PWR0184" H 7800 2300 50  0001 C CNN
F 1 "GNDA" V 7805 2422 50  0000 R CNN
F 2 "" H 7800 2550 50  0000 C CNN
F 3 "" H 7800 2550 50  0000 C CNN
	1    7800 2550
	0    -1   -1   0   
$EndComp
$Comp
L Connector_Generic:Conn_02x12_Odd_Even P30
U 1 1 5DD54A21
P 7600 2050
F 0 "P30" H 7650 2650 50  0000 C CNN
F 1 "CONN_02X12" H 7600 2724 50  0001 C CNN
F 2 "Connector-Custom:CONN_02X12" H 7600 850 50  0001 C CNN
F 3 "" H 7600 850 50  0000 C CNN
	1    7600 2050
	-1   0    0    -1  
$EndComp
$Comp
L power:GNDA #PWR0194
U 1 1 5DD717EC
P 6300 3700
F 0 "#PWR0194" H 6300 3450 50  0001 C CNN
F 1 "GNDA" V 6305 3572 50  0000 R CNN
F 2 "" H 6300 3700 50  0000 C CNN
F 3 "" H 6300 3700 50  0000 C CNN
	1    6300 3700
	0    -1   -1   0   
$EndComp
Wire Wire Line
	5500 4800 5800 4800
Wire Wire Line
	6550 4800 6300 4800
Text Label 5500 4800 0    50   ~ 0
TCALIB
Text Label 6550 4800 2    50   ~ 0
VCALIB
$Comp
L power:GNDA #PWR0203
U 1 1 5DD71810
P 6300 4700
F 0 "#PWR0203" H 6300 4450 50  0001 C CNN
F 1 "GNDA" V 6305 4572 50  0000 R CNN
F 2 "" H 6300 4700 50  0000 C CNN
F 3 "" H 6300 4700 50  0000 C CNN
	1    6300 4700
	0    -1   -1   0   
$EndComp
$Comp
L power:GNDA #PWR0196
U 1 1 5DD7181C
P 7800 3700
F 0 "#PWR0196" H 7800 3450 50  0001 C CNN
F 1 "GNDA" V 7805 3572 50  0000 R CNN
F 2 "" H 7800 3700 50  0000 C CNN
F 3 "" H 7800 3700 50  0000 C CNN
	1    7800 3700
	0    -1   -1   0   
$EndComp
Wire Wire Line
	7000 4800 7300 4800
Wire Wire Line
	8050 4800 7800 4800
Text Label 7000 4800 0    50   ~ 0
TCALIB
Text Label 8050 4800 2    50   ~ 0
VCALIB
$Comp
L power:GNDA #PWR0204
U 1 1 5DD71828
P 7800 4700
F 0 "#PWR0204" H 7800 4450 50  0001 C CNN
F 1 "GNDA" V 7805 4572 50  0000 R CNN
F 2 "" H 7800 4700 50  0000 C CNN
F 3 "" H 7800 4700 50  0000 C CNN
	1    7800 4700
	0    -1   -1   0   
$EndComp
$Comp
L Connector_Generic:Conn_02x12_Odd_Even P31
U 1 1 5DE148B7
P 6000 4200
F 0 "P31" H 6000 4965 50  0000 C CNN
F 1 "CONN_02X12" H 6000 4874 50  0000 C CNN
F 2 "Connector-Custom:CONN_02X12" H 6000 3000 50  0001 C CNN
F 3 "" H 6000 3000 50  0000 C CNN
	1    6000 4200
	1    0    0    -1  
$EndComp
$Comp
L Connector_Generic:Conn_02x12_Odd_Even P32
U 1 1 5DE14ACE
P 7500 4200
F 0 "P32" H 7500 4965 50  0000 C CNN
F 1 "CONN_02X12" H 7500 4874 50  0000 C CNN
F 2 "Connector-Custom:CONN_02X12" H 7500 3000 50  0001 C CNN
F 3 "" H 7500 3000 50  0000 C CNN
	1    7500 4200
	1    0    0    -1  
$EndComp
Text HLabel 9550 3550 0    50   Input ~ 0
TCALIB
Text HLabel 9550 3650 0    50   Input ~ 0
VCALIB
Text Notes 5850 3200 0    79   ~ 16
Female SMD Connector used
Text Notes 1050 6850 0    79   ~ 16
Back side of the PCB
Wire Wire Line
	5500 3700 5800 3700
Wire Wire Line
	7000 3700 7300 3700
Wire Wire Line
	7000 1550 7300 1550
Wire Wire Line
	5500 1550 5800 1550
Text Label 7000 1550 0    50   ~ 0
HV
Text Label 5500 3700 0    50   ~ 0
HV
Text Label 7000 3700 0    50   ~ 0
HV
$Comp
L power:GNDA #PWR0171
U 1 1 5DC7B099
P 5800 4700
F 0 "#PWR0171" H 5800 4450 50  0001 C CNN
F 1 "GNDA" V 5805 4572 50  0000 R CNN
F 2 "" H 5800 4700 50  0000 C CNN
F 3 "" H 5800 4700 50  0000 C CNN
	1    5800 4700
	0    1    1    0   
$EndComp
$Comp
L power:GNDA #PWR0173
U 1 1 5DC7B1D4
P 7300 4700
F 0 "#PWR0173" H 7300 4450 50  0001 C CNN
F 1 "GNDA" V 7305 4572 50  0000 R CNN
F 2 "" H 7300 4700 50  0000 C CNN
F 3 "" H 7300 4700 50  0000 C CNN
	1    7300 4700
	0    1    1    0   
$EndComp
$Comp
L power:GNDA #PWR0193
U 1 1 5DC7B277
P 7300 2550
F 0 "#PWR0193" H 7300 2300 50  0001 C CNN
F 1 "GNDA" V 7305 2422 50  0000 R CNN
F 2 "" H 7300 2550 50  0000 C CNN
F 3 "" H 7300 2550 50  0000 C CNN
	1    7300 2550
	0    1    1    0   
$EndComp
$Comp
L power:GNDA #PWR0195
U 1 1 5DC7B31A
P 5800 2550
F 0 "#PWR0195" H 5800 2300 50  0001 C CNN
F 1 "GNDA" V 5805 2422 50  0000 R CNN
F 2 "" H 5800 2550 50  0000 C CNN
F 3 "" H 5800 2550 50  0000 C CNN
	1    5800 2550
	0    1    1    0   
$EndComp
Text Label 5500 1550 0    50   ~ 0
HV
$EndSCHEMATC
