(module SMA-Straight-no3D (layer F.Cu) (tedit 5805EF94)
  (tags "SMA Connector")
  (fp_text reference SMA-S (at 0 5.08) (layer F.SilkS) hide
    (effects (font (thickness 0.3048)))
  )
  (fp_text value VAL** (at 1.27 7.62) (layer F.SilkS)
    (effects (font (thickness 0.3048)))
  )
  (fp_line (start -3.1496 -3.1496) (end 3.1496 -3.1496) (layer F.SilkS) (width 0.381))
  (fp_line (start 3.1496 -3.1496) (end 3.1496 3.1496) (layer F.SilkS) (width 0.381))
  (fp_line (start 3.1496 3.1496) (end -3.1496 3.1496) (layer F.SilkS) (width 0.381))
  (fp_line (start -3.1496 3.1496) (end -3.1496 -3.1496) (layer F.SilkS) (width 0.381))
  (pad 1 thru_hole circle (at 0 0) (size 1.99898 1.99898) (drill 1.00076) (layers *.Cu *.Mask F.SilkS))
  (pad 2 thru_hole circle (at 2.70002 -2.70002) (size 1.99898 1.99898) (drill 1.00076) (layers *.Cu *.Mask F.SilkS))
  (pad 2 thru_hole circle (at -2.70002 -2.70002) (size 1.99898 1.99898) (drill 1.00076) (layers *.Cu *.Mask F.SilkS))
  (pad 2 thru_hole circle (at -2.70002 2.70002) (size 1.99898 1.99898) (drill 1.00076) (layers *.Cu *.Mask F.SilkS))
  (pad 2 thru_hole circle (at 2.70002 2.70002) (size 1.99898 1.99898) (drill 1.00076) (layers *.Cu *.Mask F.SilkS))
)
