(module SMA (layer F.Cu) (tedit 5804F87A)
  (tags "SMA Connector")
  (fp_text reference P7 (at 0 5.08) (layer F.SilkS)
    (effects (font (thickness 0.3048)))
  )
  (fp_text value BNC (at 0.16002 7.62) (layer F.SilkS)
    (effects (font (thickness 0.3048)))
  )
  (fp_line (start 2.65938 -11.65606) (end 2.65938 -12.60094) (layer F.SilkS) (width 0.381))
  (fp_line (start -2.65938 -11.65606) (end -2.65938 -12.60094) (layer F.SilkS) (width 0.381))
  (fp_line (start -2.65938 -3.1496) (end -2.65938 -6.92912) (layer F.SilkS) (width 0.381))
  (fp_line (start 2.65938 -3.1496) (end 2.65938 -6.92912) (layer F.SilkS) (width 0.381))
  (fp_line (start -3.19278 -11.3411) (end 0.2667 -11.65606) (layer F.SilkS) (width 0.381))
  (fp_line (start 3.19278 -7.55904) (end -2.65938 -6.92912) (layer F.SilkS) (width 0.381))
  (fp_line (start -3.19278 -7.55904) (end 3.19278 -8.18896) (layer F.SilkS) (width 0.381))
  (fp_line (start -3.19278 -8.18896) (end 3.19278 -8.81888) (layer F.SilkS) (width 0.381))
  (fp_line (start -3.19278 -8.81888) (end 3.19278 -9.4488) (layer F.SilkS) (width 0.381))
  (fp_line (start -3.19278 -9.4488) (end 3.19278 -10.08126) (layer F.SilkS) (width 0.381))
  (fp_line (start -3.19278 -10.08126) (end 3.19278 -10.71118) (layer F.SilkS) (width 0.381))
  (fp_line (start -3.19278 -10.71118) (end 3.19278 -11.3411) (layer F.SilkS) (width 0.381))
  (fp_line (start -3.19278 -11.3411) (end -2.65938 -11.65606) (layer F.SilkS) (width 0.381))
  (fp_line (start -2.65938 -11.65606) (end 2.65938 -11.65606) (layer F.SilkS) (width 0.381))
  (fp_line (start 2.65938 -11.65606) (end 3.19278 -11.3411) (layer F.SilkS) (width 0.381))
  (fp_line (start 3.19278 -11.3411) (end 3.19278 -7.24408) (layer F.SilkS) (width 0.381))
  (fp_line (start 3.19278 -7.24408) (end 2.65938 -6.92912) (layer F.SilkS) (width 0.381))
  (fp_line (start 2.65938 -6.92912) (end -2.65938 -6.92912) (layer F.SilkS) (width 0.381))
  (fp_line (start -2.65938 -6.92912) (end -3.19278 -7.24408) (layer F.SilkS) (width 0.381))
  (fp_line (start -3.19278 -7.24408) (end -3.19278 -11.3411) (layer F.SilkS) (width 0.381))
  (fp_line (start 2.65938 -12.60094) (end -2.65938 -12.60094) (layer F.SilkS) (width 0.381))
  (fp_line (start -3.1496 -3.1496) (end 3.1496 -3.1496) (layer F.SilkS) (width 0.381))
  (fp_line (start 3.1496 -3.1496) (end 3.1496 3.1496) (layer F.SilkS) (width 0.381))
  (fp_line (start 3.1496 3.1496) (end -3.1496 3.1496) (layer F.SilkS) (width 0.381))
  (fp_line (start -3.1496 3.1496) (end -3.1496 -3.1496) (layer F.SilkS) (width 0.381))
  (pad 2 thru_hole circle (at 2.70002 2.70002) (size 1.99898 1.99898) (drill 1.00076) (layers *.Cu *.Mask F.SilkS))
  (pad 2 thru_hole circle (at -2.70002 2.70002) (size 1.99898 1.99898) (drill 1.00076) (layers *.Cu *.Mask F.SilkS))
  (pad 2 thru_hole circle (at -2.70002 -2.70002) (size 1.99898 1.99898) (drill 1.00076) (layers *.Cu *.Mask F.SilkS))
  (pad 2 thru_hole circle (at 2.70002 -2.70002) (size 1.99898 1.99898) (drill 1.00076) (layers *.Cu *.Mask F.SilkS))
  (pad 1 thru_hole circle (at 0 0) (size 1.99898 1.99898) (drill 1.00076) (layers *.Cu *.Mask F.SilkS))
  (model ${KIPRJMOD}/SMA_Connectors.pretty/SMA.wrl
    (at (xyz 0 0 0))
    (scale (xyz 0.39 0.39 0.39))
    (rotate (xyz -90 0 -90))
  )
)
