G04 #@! TF.GenerationSoftware,KiCad,Pcbnew,5.0.2+dfsg1-1*
G04 #@! TF.CreationDate,2019-01-22T14:29:04+01:00*
G04 #@! TF.ProjectId,BGASocket,42474153-6f63-46b6-9574-2e6b69636164,rev?*
G04 #@! TF.SameCoordinates,Original*
G04 #@! TF.FileFunction,Legend,Bot*
G04 #@! TF.FilePolarity,Positive*
%FSLAX46Y46*%
G04 Gerber Fmt 4.6, Leading zero omitted, Abs format (unit mm)*
G04 Created by KiCad (PCBNEW 5.0.2+dfsg1-1) date Tue 22 Jan 2019 02:29:04 PM CET*
%MOMM*%
%LPD*%
G01*
G04 APERTURE LIST*
%ADD10C,0.100000*%
%ADD11C,0.150000*%
%ADD12C,0.050000*%
%ADD13C,0.125000*%
G04 APERTURE END LIST*
D10*
G04 #@! TO.C,U7*
X140000000Y-36500000D02*
X170000000Y-36500000D01*
X140000000Y-66500000D02*
X140000000Y-36500000D01*
X170000000Y-66500000D02*
X140000000Y-66500000D01*
X170000000Y-36500000D02*
X170000000Y-66500000D01*
X156778000Y-50992000D02*
X156778000Y-51271400D01*
X156778000Y-52008000D02*
X156778000Y-51754000D01*
X156524000Y-51754000D02*
X156778000Y-51296800D01*
X157032000Y-51754000D02*
X156524000Y-51754000D01*
X156778000Y-51296800D02*
X157032000Y-51754000D01*
X157032000Y-51246000D02*
X156524000Y-51246000D01*
X156350000Y-52600000D02*
X156350000Y-50400000D01*
X153650000Y-52600000D02*
X156350000Y-52600000D01*
X153650000Y-50400000D02*
X153650000Y-52600000D01*
X156350000Y-50400000D02*
X153650000Y-50400000D01*
D11*
G04 #@! TO.C,C106*
X148870000Y-74348000D02*
X148870000Y-73648000D01*
X147670000Y-73648000D02*
X147670000Y-74348000D01*
G04 #@! TO.C,R75*
X148946000Y-71499000D02*
X148946000Y-70499000D01*
X147596000Y-70499000D02*
X147596000Y-71499000D01*
G04 #@! TO.C,R82*
X150540000Y-71495000D02*
X150540000Y-70495000D01*
X149190000Y-70495000D02*
X149190000Y-71495000D01*
G04 #@! TO.C,C73*
X92382000Y-71186000D02*
X93082000Y-71186000D01*
X93082000Y-69986000D02*
X92382000Y-69986000D01*
G04 #@! TO.C,C65*
X92383000Y-72687000D02*
X93083000Y-72687000D01*
X93083000Y-71487000D02*
X92383000Y-71487000D01*
G04 #@! TO.C,C81*
X92382000Y-69681000D02*
X93082000Y-69681000D01*
X93082000Y-68481000D02*
X92382000Y-68481000D01*
G04 #@! TO.C,C83*
X92421000Y-52154000D02*
X91721000Y-52154000D01*
X91721000Y-53354000D02*
X92421000Y-53354000D01*
G04 #@! TO.C,C84*
X92425000Y-50649000D02*
X91725000Y-50649000D01*
X91725000Y-51849000D02*
X92425000Y-51849000D01*
G04 #@! TO.C,R16*
X131165000Y-74500000D02*
X131165000Y-73500000D01*
X129815000Y-73500000D02*
X129815000Y-74500000D01*
G04 #@! TO.C,R11*
X124815000Y-71500000D02*
X124815000Y-70500000D01*
X123465000Y-70500000D02*
X123465000Y-71500000D01*
G04 #@! TO.C,R12*
X126085000Y-74500000D02*
X126085000Y-73500000D01*
X124735000Y-73500000D02*
X124735000Y-74500000D01*
G04 #@! TO.C,R13*
X127355000Y-71500000D02*
X127355000Y-70500000D01*
X126005000Y-70500000D02*
X126005000Y-71500000D01*
G04 #@! TO.C,R14*
X128625000Y-74500000D02*
X128625000Y-73500000D01*
X127275000Y-73500000D02*
X127275000Y-74500000D01*
G04 #@! TO.C,R15*
X129895000Y-71500000D02*
X129895000Y-70500000D01*
X128545000Y-70500000D02*
X128545000Y-71500000D01*
G04 #@! TO.C,R17*
X132435000Y-71500000D02*
X132435000Y-70500000D01*
X131085000Y-70500000D02*
X131085000Y-71500000D01*
G04 #@! TO.C,R18*
X133705000Y-74500000D02*
X133705000Y-73500000D01*
X132355000Y-73500000D02*
X132355000Y-74500000D01*
G04 #@! TO.C,R19*
X134975000Y-71500000D02*
X134975000Y-70500000D01*
X133625000Y-70500000D02*
X133625000Y-71500000D01*
G04 #@! TO.C,R28*
X146405000Y-74500000D02*
X146405000Y-73500000D01*
X145055000Y-73500000D02*
X145055000Y-74500000D01*
G04 #@! TO.C,R29*
X145055000Y-113500000D02*
X145055000Y-114500000D01*
X146405000Y-114500000D02*
X146405000Y-113500000D01*
G04 #@! TO.C,R30*
X143785000Y-110500000D02*
X143785000Y-111500000D01*
X145135000Y-111500000D02*
X145135000Y-110500000D01*
G04 #@! TO.C,R31*
X142515000Y-113500000D02*
X142515000Y-114500000D01*
X143865000Y-114500000D02*
X143865000Y-113500000D01*
G04 #@! TO.C,R32*
X141245000Y-110500000D02*
X141245000Y-111500000D01*
X142595000Y-111500000D02*
X142595000Y-110500000D01*
G04 #@! TO.C,R33*
X139975000Y-113500000D02*
X139975000Y-114500000D01*
X141325000Y-114500000D02*
X141325000Y-113500000D01*
G04 #@! TO.C,R20*
X136245000Y-74500000D02*
X136245000Y-73500000D01*
X134895000Y-73500000D02*
X134895000Y-74500000D01*
G04 #@! TO.C,R35*
X137435000Y-113500000D02*
X137435000Y-114500000D01*
X138785000Y-114500000D02*
X138785000Y-113500000D01*
G04 #@! TO.C,R36*
X136165000Y-110500000D02*
X136165000Y-111500000D01*
X137515000Y-111500000D02*
X137515000Y-110500000D01*
G04 #@! TO.C,R34*
X138705000Y-110500000D02*
X138705000Y-111500000D01*
X140055000Y-111500000D02*
X140055000Y-110500000D01*
G04 #@! TO.C,R38*
X133625000Y-110500000D02*
X133625000Y-111500000D01*
X134975000Y-111500000D02*
X134975000Y-110500000D01*
G04 #@! TO.C,R27*
X145135000Y-71500000D02*
X145135000Y-70500000D01*
X143785000Y-70500000D02*
X143785000Y-71500000D01*
G04 #@! TO.C,R40*
X131085000Y-110500000D02*
X131085000Y-111500000D01*
X132435000Y-111500000D02*
X132435000Y-110500000D01*
G04 #@! TO.C,R41*
X129815000Y-113500000D02*
X129815000Y-114500000D01*
X131165000Y-114500000D02*
X131165000Y-113500000D01*
G04 #@! TO.C,R42*
X128545000Y-110500000D02*
X128545000Y-111500000D01*
X129895000Y-111500000D02*
X129895000Y-110500000D01*
G04 #@! TO.C,R43*
X127275000Y-113500000D02*
X127275000Y-114500000D01*
X128625000Y-114500000D02*
X128625000Y-113500000D01*
G04 #@! TO.C,R44*
X126005000Y-110500000D02*
X126005000Y-111500000D01*
X127355000Y-111500000D02*
X127355000Y-110500000D01*
G04 #@! TO.C,R45*
X124735000Y-113500000D02*
X124735000Y-114500000D01*
X126085000Y-114500000D02*
X126085000Y-113500000D01*
G04 #@! TO.C,R46*
X123465000Y-110500000D02*
X123465000Y-111500000D01*
X124815000Y-111500000D02*
X124815000Y-110500000D01*
G04 #@! TO.C,R37*
X134895000Y-113500000D02*
X134895000Y-114500000D01*
X136245000Y-114500000D02*
X136245000Y-113500000D01*
G04 #@! TO.C,R76*
X160059000Y-99669000D02*
X160059000Y-98669000D01*
X158709000Y-98669000D02*
X158709000Y-99669000D01*
G04 #@! TO.C,R39*
X132355000Y-113500000D02*
X132355000Y-114500000D01*
X133705000Y-114500000D02*
X133705000Y-113500000D01*
G04 #@! TO.C,R21*
X137515000Y-71500000D02*
X137515000Y-70500000D01*
X136165000Y-70500000D02*
X136165000Y-71500000D01*
G04 #@! TO.C,R22*
X138785000Y-74500000D02*
X138785000Y-73500000D01*
X137435000Y-73500000D02*
X137435000Y-74500000D01*
G04 #@! TO.C,R23*
X140055000Y-71500000D02*
X140055000Y-70500000D01*
X138705000Y-70500000D02*
X138705000Y-71500000D01*
G04 #@! TO.C,R24*
X141325000Y-74500000D02*
X141325000Y-73500000D01*
X139975000Y-73500000D02*
X139975000Y-74500000D01*
G04 #@! TO.C,R25*
X142595000Y-71500000D02*
X142595000Y-70500000D01*
X141245000Y-70500000D02*
X141245000Y-71500000D01*
G04 #@! TO.C,R26*
X143835000Y-74500000D02*
X143835000Y-73500000D01*
X142485000Y-73500000D02*
X142485000Y-74500000D01*
G04 #@! TO.C,U7*
D12*
X155457104Y-49098180D02*
X155457104Y-49907704D01*
X155409485Y-50002942D01*
X155361866Y-50050561D01*
X155266628Y-50098180D01*
X155076152Y-50098180D01*
X154980914Y-50050561D01*
X154933295Y-50002942D01*
X154885676Y-49907704D01*
X154885676Y-49098180D01*
X154504723Y-49098180D02*
X153838057Y-49098180D01*
X154266628Y-50098180D01*
G04 #@! TO.C,C106*
D11*
X150152142Y-73110952D02*
X150199761Y-73063333D01*
X150247380Y-72920476D01*
X150247380Y-72825238D01*
X150199761Y-72682380D01*
X150104523Y-72587142D01*
X150009285Y-72539523D01*
X149818809Y-72491904D01*
X149675952Y-72491904D01*
X149485476Y-72539523D01*
X149390238Y-72587142D01*
X149295000Y-72682380D01*
X149247380Y-72825238D01*
X149247380Y-72920476D01*
X149295000Y-73063333D01*
X149342619Y-73110952D01*
X150247380Y-74063333D02*
X150247380Y-73491904D01*
X150247380Y-73777619D02*
X149247380Y-73777619D01*
X149390238Y-73682380D01*
X149485476Y-73587142D01*
X149533095Y-73491904D01*
X149247380Y-74682380D02*
X149247380Y-74777619D01*
X149295000Y-74872857D01*
X149342619Y-74920476D01*
X149437857Y-74968095D01*
X149628333Y-75015714D01*
X149866428Y-75015714D01*
X150056904Y-74968095D01*
X150152142Y-74920476D01*
X150199761Y-74872857D01*
X150247380Y-74777619D01*
X150247380Y-74682380D01*
X150199761Y-74587142D01*
X150152142Y-74539523D01*
X150056904Y-74491904D01*
X149866428Y-74444285D01*
X149628333Y-74444285D01*
X149437857Y-74491904D01*
X149342619Y-74539523D01*
X149295000Y-74587142D01*
X149247380Y-74682380D01*
X149247380Y-75872857D02*
X149247380Y-75682380D01*
X149295000Y-75587142D01*
X149342619Y-75539523D01*
X149485476Y-75444285D01*
X149675952Y-75396666D01*
X150056904Y-75396666D01*
X150152142Y-75444285D01*
X150199761Y-75491904D01*
X150247380Y-75587142D01*
X150247380Y-75777619D01*
X150199761Y-75872857D01*
X150152142Y-75920476D01*
X150056904Y-75968095D01*
X149818809Y-75968095D01*
X149723571Y-75920476D01*
X149675952Y-75872857D01*
X149628333Y-75777619D01*
X149628333Y-75587142D01*
X149675952Y-75491904D01*
X149723571Y-75444285D01*
X149818809Y-75396666D01*
G04 #@! TO.C,R75*
X148795380Y-67483142D02*
X148319190Y-67149809D01*
X148795380Y-66911714D02*
X147795380Y-66911714D01*
X147795380Y-67292666D01*
X147843000Y-67387904D01*
X147890619Y-67435523D01*
X147985857Y-67483142D01*
X148128714Y-67483142D01*
X148223952Y-67435523D01*
X148271571Y-67387904D01*
X148319190Y-67292666D01*
X148319190Y-66911714D01*
X147795380Y-67816476D02*
X147795380Y-68483142D01*
X148795380Y-68054571D01*
X147795380Y-69340285D02*
X147795380Y-68864095D01*
X148271571Y-68816476D01*
X148223952Y-68864095D01*
X148176333Y-68959333D01*
X148176333Y-69197428D01*
X148223952Y-69292666D01*
X148271571Y-69340285D01*
X148366809Y-69387904D01*
X148604904Y-69387904D01*
X148700142Y-69340285D01*
X148747761Y-69292666D01*
X148795380Y-69197428D01*
X148795380Y-68959333D01*
X148747761Y-68864095D01*
X148700142Y-68816476D01*
G04 #@! TO.C,R82*
X150384380Y-67524142D02*
X149908190Y-67190809D01*
X150384380Y-66952714D02*
X149384380Y-66952714D01*
X149384380Y-67333666D01*
X149432000Y-67428904D01*
X149479619Y-67476523D01*
X149574857Y-67524142D01*
X149717714Y-67524142D01*
X149812952Y-67476523D01*
X149860571Y-67428904D01*
X149908190Y-67333666D01*
X149908190Y-66952714D01*
X149812952Y-68095571D02*
X149765333Y-68000333D01*
X149717714Y-67952714D01*
X149622476Y-67905095D01*
X149574857Y-67905095D01*
X149479619Y-67952714D01*
X149432000Y-68000333D01*
X149384380Y-68095571D01*
X149384380Y-68286047D01*
X149432000Y-68381285D01*
X149479619Y-68428904D01*
X149574857Y-68476523D01*
X149622476Y-68476523D01*
X149717714Y-68428904D01*
X149765333Y-68381285D01*
X149812952Y-68286047D01*
X149812952Y-68095571D01*
X149860571Y-68000333D01*
X149908190Y-67952714D01*
X150003428Y-67905095D01*
X150193904Y-67905095D01*
X150289142Y-67952714D01*
X150336761Y-68000333D01*
X150384380Y-68095571D01*
X150384380Y-68286047D01*
X150336761Y-68381285D01*
X150289142Y-68428904D01*
X150193904Y-68476523D01*
X150003428Y-68476523D01*
X149908190Y-68428904D01*
X149860571Y-68381285D01*
X149812952Y-68286047D01*
X149479619Y-68857476D02*
X149432000Y-68905095D01*
X149384380Y-69000333D01*
X149384380Y-69238428D01*
X149432000Y-69333666D01*
X149479619Y-69381285D01*
X149574857Y-69428904D01*
X149670095Y-69428904D01*
X149812952Y-69381285D01*
X150384380Y-68809857D01*
X150384380Y-69428904D01*
G04 #@! TO.C,C73*
X90412857Y-70999142D02*
X90460476Y-71046761D01*
X90603333Y-71094380D01*
X90698571Y-71094380D01*
X90841428Y-71046761D01*
X90936666Y-70951523D01*
X90984285Y-70856285D01*
X91031904Y-70665809D01*
X91031904Y-70522952D01*
X90984285Y-70332476D01*
X90936666Y-70237238D01*
X90841428Y-70142000D01*
X90698571Y-70094380D01*
X90603333Y-70094380D01*
X90460476Y-70142000D01*
X90412857Y-70189619D01*
X90079523Y-70094380D02*
X89412857Y-70094380D01*
X89841428Y-71094380D01*
X89127142Y-70094380D02*
X88508095Y-70094380D01*
X88841428Y-70475333D01*
X88698571Y-70475333D01*
X88603333Y-70522952D01*
X88555714Y-70570571D01*
X88508095Y-70665809D01*
X88508095Y-70903904D01*
X88555714Y-70999142D01*
X88603333Y-71046761D01*
X88698571Y-71094380D01*
X88984285Y-71094380D01*
X89079523Y-71046761D01*
X89127142Y-70999142D01*
G04 #@! TO.C,C65*
X90351857Y-72573142D02*
X90399476Y-72620761D01*
X90542333Y-72668380D01*
X90637571Y-72668380D01*
X90780428Y-72620761D01*
X90875666Y-72525523D01*
X90923285Y-72430285D01*
X90970904Y-72239809D01*
X90970904Y-72096952D01*
X90923285Y-71906476D01*
X90875666Y-71811238D01*
X90780428Y-71716000D01*
X90637571Y-71668380D01*
X90542333Y-71668380D01*
X90399476Y-71716000D01*
X90351857Y-71763619D01*
X89494714Y-71668380D02*
X89685190Y-71668380D01*
X89780428Y-71716000D01*
X89828047Y-71763619D01*
X89923285Y-71906476D01*
X89970904Y-72096952D01*
X89970904Y-72477904D01*
X89923285Y-72573142D01*
X89875666Y-72620761D01*
X89780428Y-72668380D01*
X89589952Y-72668380D01*
X89494714Y-72620761D01*
X89447095Y-72573142D01*
X89399476Y-72477904D01*
X89399476Y-72239809D01*
X89447095Y-72144571D01*
X89494714Y-72096952D01*
X89589952Y-72049333D01*
X89780428Y-72049333D01*
X89875666Y-72096952D01*
X89923285Y-72144571D01*
X89970904Y-72239809D01*
X88494714Y-71668380D02*
X88970904Y-71668380D01*
X89018523Y-72144571D01*
X88970904Y-72096952D01*
X88875666Y-72049333D01*
X88637571Y-72049333D01*
X88542333Y-72096952D01*
X88494714Y-72144571D01*
X88447095Y-72239809D01*
X88447095Y-72477904D01*
X88494714Y-72573142D01*
X88542333Y-72620761D01*
X88637571Y-72668380D01*
X88875666Y-72668380D01*
X88970904Y-72620761D01*
X89018523Y-72573142D01*
G04 #@! TO.C,C81*
X90375857Y-69404142D02*
X90423476Y-69451761D01*
X90566333Y-69499380D01*
X90661571Y-69499380D01*
X90804428Y-69451761D01*
X90899666Y-69356523D01*
X90947285Y-69261285D01*
X90994904Y-69070809D01*
X90994904Y-68927952D01*
X90947285Y-68737476D01*
X90899666Y-68642238D01*
X90804428Y-68547000D01*
X90661571Y-68499380D01*
X90566333Y-68499380D01*
X90423476Y-68547000D01*
X90375857Y-68594619D01*
X89804428Y-68927952D02*
X89899666Y-68880333D01*
X89947285Y-68832714D01*
X89994904Y-68737476D01*
X89994904Y-68689857D01*
X89947285Y-68594619D01*
X89899666Y-68547000D01*
X89804428Y-68499380D01*
X89613952Y-68499380D01*
X89518714Y-68547000D01*
X89471095Y-68594619D01*
X89423476Y-68689857D01*
X89423476Y-68737476D01*
X89471095Y-68832714D01*
X89518714Y-68880333D01*
X89613952Y-68927952D01*
X89804428Y-68927952D01*
X89899666Y-68975571D01*
X89947285Y-69023190D01*
X89994904Y-69118428D01*
X89994904Y-69308904D01*
X89947285Y-69404142D01*
X89899666Y-69451761D01*
X89804428Y-69499380D01*
X89613952Y-69499380D01*
X89518714Y-69451761D01*
X89471095Y-69404142D01*
X89423476Y-69308904D01*
X89423476Y-69118428D01*
X89471095Y-69023190D01*
X89518714Y-68975571D01*
X89613952Y-68927952D01*
X88471095Y-69499380D02*
X89042523Y-69499380D01*
X88756809Y-69499380D02*
X88756809Y-68499380D01*
X88852047Y-68642238D01*
X88947285Y-68737476D01*
X89042523Y-68785095D01*
G04 #@! TO.C,C83*
X89696857Y-52947142D02*
X89744476Y-52994761D01*
X89887333Y-53042380D01*
X89982571Y-53042380D01*
X90125428Y-52994761D01*
X90220666Y-52899523D01*
X90268285Y-52804285D01*
X90315904Y-52613809D01*
X90315904Y-52470952D01*
X90268285Y-52280476D01*
X90220666Y-52185238D01*
X90125428Y-52090000D01*
X89982571Y-52042380D01*
X89887333Y-52042380D01*
X89744476Y-52090000D01*
X89696857Y-52137619D01*
X89125428Y-52470952D02*
X89220666Y-52423333D01*
X89268285Y-52375714D01*
X89315904Y-52280476D01*
X89315904Y-52232857D01*
X89268285Y-52137619D01*
X89220666Y-52090000D01*
X89125428Y-52042380D01*
X88934952Y-52042380D01*
X88839714Y-52090000D01*
X88792095Y-52137619D01*
X88744476Y-52232857D01*
X88744476Y-52280476D01*
X88792095Y-52375714D01*
X88839714Y-52423333D01*
X88934952Y-52470952D01*
X89125428Y-52470952D01*
X89220666Y-52518571D01*
X89268285Y-52566190D01*
X89315904Y-52661428D01*
X89315904Y-52851904D01*
X89268285Y-52947142D01*
X89220666Y-52994761D01*
X89125428Y-53042380D01*
X88934952Y-53042380D01*
X88839714Y-52994761D01*
X88792095Y-52947142D01*
X88744476Y-52851904D01*
X88744476Y-52661428D01*
X88792095Y-52566190D01*
X88839714Y-52518571D01*
X88934952Y-52470952D01*
X88411142Y-52042380D02*
X87792095Y-52042380D01*
X88125428Y-52423333D01*
X87982571Y-52423333D01*
X87887333Y-52470952D01*
X87839714Y-52518571D01*
X87792095Y-52613809D01*
X87792095Y-52851904D01*
X87839714Y-52947142D01*
X87887333Y-52994761D01*
X87982571Y-53042380D01*
X88268285Y-53042380D01*
X88363523Y-52994761D01*
X88411142Y-52947142D01*
G04 #@! TO.C,C84*
X89864857Y-51618142D02*
X89912476Y-51665761D01*
X90055333Y-51713380D01*
X90150571Y-51713380D01*
X90293428Y-51665761D01*
X90388666Y-51570523D01*
X90436285Y-51475285D01*
X90483904Y-51284809D01*
X90483904Y-51141952D01*
X90436285Y-50951476D01*
X90388666Y-50856238D01*
X90293428Y-50761000D01*
X90150571Y-50713380D01*
X90055333Y-50713380D01*
X89912476Y-50761000D01*
X89864857Y-50808619D01*
X89293428Y-51141952D02*
X89388666Y-51094333D01*
X89436285Y-51046714D01*
X89483904Y-50951476D01*
X89483904Y-50903857D01*
X89436285Y-50808619D01*
X89388666Y-50761000D01*
X89293428Y-50713380D01*
X89102952Y-50713380D01*
X89007714Y-50761000D01*
X88960095Y-50808619D01*
X88912476Y-50903857D01*
X88912476Y-50951476D01*
X88960095Y-51046714D01*
X89007714Y-51094333D01*
X89102952Y-51141952D01*
X89293428Y-51141952D01*
X89388666Y-51189571D01*
X89436285Y-51237190D01*
X89483904Y-51332428D01*
X89483904Y-51522904D01*
X89436285Y-51618142D01*
X89388666Y-51665761D01*
X89293428Y-51713380D01*
X89102952Y-51713380D01*
X89007714Y-51665761D01*
X88960095Y-51618142D01*
X88912476Y-51522904D01*
X88912476Y-51332428D01*
X88960095Y-51237190D01*
X89007714Y-51189571D01*
X89102952Y-51141952D01*
X88055333Y-51046714D02*
X88055333Y-51713380D01*
X88293428Y-50665761D02*
X88531523Y-51380047D01*
X87912476Y-51380047D01*
G04 #@! TO.C,REF1*
D13*
X164523809Y-34250190D02*
X164690476Y-34012095D01*
X164809523Y-34250190D02*
X164809523Y-33750190D01*
X164619047Y-33750190D01*
X164571428Y-33774000D01*
X164547619Y-33797809D01*
X164523809Y-33845428D01*
X164523809Y-33916857D01*
X164547619Y-33964476D01*
X164571428Y-33988285D01*
X164619047Y-34012095D01*
X164809523Y-34012095D01*
X164309523Y-33988285D02*
X164142857Y-33988285D01*
X164071428Y-34250190D02*
X164309523Y-34250190D01*
X164309523Y-33750190D01*
X164071428Y-33750190D01*
X163690476Y-33988285D02*
X163857142Y-33988285D01*
X163857142Y-34250190D02*
X163857142Y-33750190D01*
X163619047Y-33750190D01*
X163166666Y-34250190D02*
X163452380Y-34250190D01*
X163309523Y-34250190D02*
X163309523Y-33750190D01*
X163357142Y-33821619D01*
X163404761Y-33869238D01*
X163452380Y-33893047D01*
G04 #@! TO.C,REF3*
X57523809Y-116202190D02*
X57690476Y-115964095D01*
X57809523Y-116202190D02*
X57809523Y-115702190D01*
X57619047Y-115702190D01*
X57571428Y-115726000D01*
X57547619Y-115749809D01*
X57523809Y-115797428D01*
X57523809Y-115868857D01*
X57547619Y-115916476D01*
X57571428Y-115940285D01*
X57619047Y-115964095D01*
X57809523Y-115964095D01*
X57309523Y-115940285D02*
X57142857Y-115940285D01*
X57071428Y-116202190D02*
X57309523Y-116202190D01*
X57309523Y-115702190D01*
X57071428Y-115702190D01*
X56690476Y-115940285D02*
X56857142Y-115940285D01*
X56857142Y-116202190D02*
X56857142Y-115702190D01*
X56619047Y-115702190D01*
X56476190Y-115702190D02*
X56166666Y-115702190D01*
X56333333Y-115892666D01*
X56261904Y-115892666D01*
X56214285Y-115916476D01*
X56190476Y-115940285D01*
X56166666Y-115987904D01*
X56166666Y-116106952D01*
X56190476Y-116154571D01*
X56214285Y-116178380D01*
X56261904Y-116202190D01*
X56404761Y-116202190D01*
X56452380Y-116178380D01*
X56476190Y-116154571D01*
G04 #@! TO.C,R16*
D11*
X130939380Y-67513142D02*
X130463190Y-67179809D01*
X130939380Y-66941714D02*
X129939380Y-66941714D01*
X129939380Y-67322666D01*
X129987000Y-67417904D01*
X130034619Y-67465523D01*
X130129857Y-67513142D01*
X130272714Y-67513142D01*
X130367952Y-67465523D01*
X130415571Y-67417904D01*
X130463190Y-67322666D01*
X130463190Y-66941714D01*
X130939380Y-68465523D02*
X130939380Y-67894095D01*
X130939380Y-68179809D02*
X129939380Y-68179809D01*
X130082238Y-68084571D01*
X130177476Y-67989333D01*
X130225095Y-67894095D01*
X129939380Y-69322666D02*
X129939380Y-69132190D01*
X129987000Y-69036952D01*
X130034619Y-68989333D01*
X130177476Y-68894095D01*
X130367952Y-68846476D01*
X130748904Y-68846476D01*
X130844142Y-68894095D01*
X130891761Y-68941714D01*
X130939380Y-69036952D01*
X130939380Y-69227428D01*
X130891761Y-69322666D01*
X130844142Y-69370285D01*
X130748904Y-69417904D01*
X130510809Y-69417904D01*
X130415571Y-69370285D01*
X130367952Y-69322666D01*
X130320333Y-69227428D01*
X130320333Y-69036952D01*
X130367952Y-68941714D01*
X130415571Y-68894095D01*
X130510809Y-68846476D01*
G04 #@! TO.C,R11*
X124525380Y-67591142D02*
X124049190Y-67257809D01*
X124525380Y-67019714D02*
X123525380Y-67019714D01*
X123525380Y-67400666D01*
X123573000Y-67495904D01*
X123620619Y-67543523D01*
X123715857Y-67591142D01*
X123858714Y-67591142D01*
X123953952Y-67543523D01*
X124001571Y-67495904D01*
X124049190Y-67400666D01*
X124049190Y-67019714D01*
X124525380Y-68543523D02*
X124525380Y-67972095D01*
X124525380Y-68257809D02*
X123525380Y-68257809D01*
X123668238Y-68162571D01*
X123763476Y-68067333D01*
X123811095Y-67972095D01*
X124525380Y-69495904D02*
X124525380Y-68924476D01*
X124525380Y-69210190D02*
X123525380Y-69210190D01*
X123668238Y-69114952D01*
X123763476Y-69019714D01*
X123811095Y-68924476D01*
G04 #@! TO.C,R12*
X125883380Y-67622142D02*
X125407190Y-67288809D01*
X125883380Y-67050714D02*
X124883380Y-67050714D01*
X124883380Y-67431666D01*
X124931000Y-67526904D01*
X124978619Y-67574523D01*
X125073857Y-67622142D01*
X125216714Y-67622142D01*
X125311952Y-67574523D01*
X125359571Y-67526904D01*
X125407190Y-67431666D01*
X125407190Y-67050714D01*
X125883380Y-68574523D02*
X125883380Y-68003095D01*
X125883380Y-68288809D02*
X124883380Y-68288809D01*
X125026238Y-68193571D01*
X125121476Y-68098333D01*
X125169095Y-68003095D01*
X124978619Y-68955476D02*
X124931000Y-69003095D01*
X124883380Y-69098333D01*
X124883380Y-69336428D01*
X124931000Y-69431666D01*
X124978619Y-69479285D01*
X125073857Y-69526904D01*
X125169095Y-69526904D01*
X125311952Y-69479285D01*
X125883380Y-68907857D01*
X125883380Y-69526904D01*
G04 #@! TO.C,R13*
X127116380Y-67560142D02*
X126640190Y-67226809D01*
X127116380Y-66988714D02*
X126116380Y-66988714D01*
X126116380Y-67369666D01*
X126164000Y-67464904D01*
X126211619Y-67512523D01*
X126306857Y-67560142D01*
X126449714Y-67560142D01*
X126544952Y-67512523D01*
X126592571Y-67464904D01*
X126640190Y-67369666D01*
X126640190Y-66988714D01*
X127116380Y-68512523D02*
X127116380Y-67941095D01*
X127116380Y-68226809D02*
X126116380Y-68226809D01*
X126259238Y-68131571D01*
X126354476Y-68036333D01*
X126402095Y-67941095D01*
X126116380Y-68845857D02*
X126116380Y-69464904D01*
X126497333Y-69131571D01*
X126497333Y-69274428D01*
X126544952Y-69369666D01*
X126592571Y-69417285D01*
X126687809Y-69464904D01*
X126925904Y-69464904D01*
X127021142Y-69417285D01*
X127068761Y-69369666D01*
X127116380Y-69274428D01*
X127116380Y-68988714D01*
X127068761Y-68893476D01*
X127021142Y-68845857D01*
G04 #@! TO.C,R14*
X128364380Y-67607142D02*
X127888190Y-67273809D01*
X128364380Y-67035714D02*
X127364380Y-67035714D01*
X127364380Y-67416666D01*
X127412000Y-67511904D01*
X127459619Y-67559523D01*
X127554857Y-67607142D01*
X127697714Y-67607142D01*
X127792952Y-67559523D01*
X127840571Y-67511904D01*
X127888190Y-67416666D01*
X127888190Y-67035714D01*
X128364380Y-68559523D02*
X128364380Y-67988095D01*
X128364380Y-68273809D02*
X127364380Y-68273809D01*
X127507238Y-68178571D01*
X127602476Y-68083333D01*
X127650095Y-67988095D01*
X127697714Y-69416666D02*
X128364380Y-69416666D01*
X127316761Y-69178571D02*
X128031047Y-68940476D01*
X128031047Y-69559523D01*
G04 #@! TO.C,R15*
X129691380Y-67544142D02*
X129215190Y-67210809D01*
X129691380Y-66972714D02*
X128691380Y-66972714D01*
X128691380Y-67353666D01*
X128739000Y-67448904D01*
X128786619Y-67496523D01*
X128881857Y-67544142D01*
X129024714Y-67544142D01*
X129119952Y-67496523D01*
X129167571Y-67448904D01*
X129215190Y-67353666D01*
X129215190Y-66972714D01*
X129691380Y-68496523D02*
X129691380Y-67925095D01*
X129691380Y-68210809D02*
X128691380Y-68210809D01*
X128834238Y-68115571D01*
X128929476Y-68020333D01*
X128977095Y-67925095D01*
X128691380Y-69401285D02*
X128691380Y-68925095D01*
X129167571Y-68877476D01*
X129119952Y-68925095D01*
X129072333Y-69020333D01*
X129072333Y-69258428D01*
X129119952Y-69353666D01*
X129167571Y-69401285D01*
X129262809Y-69448904D01*
X129500904Y-69448904D01*
X129596142Y-69401285D01*
X129643761Y-69353666D01*
X129691380Y-69258428D01*
X129691380Y-69020333D01*
X129643761Y-68925095D01*
X129596142Y-68877476D01*
G04 #@! TO.C,R17*
X132109380Y-67482142D02*
X131633190Y-67148809D01*
X132109380Y-66910714D02*
X131109380Y-66910714D01*
X131109380Y-67291666D01*
X131157000Y-67386904D01*
X131204619Y-67434523D01*
X131299857Y-67482142D01*
X131442714Y-67482142D01*
X131537952Y-67434523D01*
X131585571Y-67386904D01*
X131633190Y-67291666D01*
X131633190Y-66910714D01*
X132109380Y-68434523D02*
X132109380Y-67863095D01*
X132109380Y-68148809D02*
X131109380Y-68148809D01*
X131252238Y-68053571D01*
X131347476Y-67958333D01*
X131395095Y-67863095D01*
X131109380Y-68767857D02*
X131109380Y-69434523D01*
X132109380Y-69005952D01*
G04 #@! TO.C,R18*
X133342380Y-67482142D02*
X132866190Y-67148809D01*
X133342380Y-66910714D02*
X132342380Y-66910714D01*
X132342380Y-67291666D01*
X132390000Y-67386904D01*
X132437619Y-67434523D01*
X132532857Y-67482142D01*
X132675714Y-67482142D01*
X132770952Y-67434523D01*
X132818571Y-67386904D01*
X132866190Y-67291666D01*
X132866190Y-66910714D01*
X133342380Y-68434523D02*
X133342380Y-67863095D01*
X133342380Y-68148809D02*
X132342380Y-68148809D01*
X132485238Y-68053571D01*
X132580476Y-67958333D01*
X132628095Y-67863095D01*
X132770952Y-69005952D02*
X132723333Y-68910714D01*
X132675714Y-68863095D01*
X132580476Y-68815476D01*
X132532857Y-68815476D01*
X132437619Y-68863095D01*
X132390000Y-68910714D01*
X132342380Y-69005952D01*
X132342380Y-69196428D01*
X132390000Y-69291666D01*
X132437619Y-69339285D01*
X132532857Y-69386904D01*
X132580476Y-69386904D01*
X132675714Y-69339285D01*
X132723333Y-69291666D01*
X132770952Y-69196428D01*
X132770952Y-69005952D01*
X132818571Y-68910714D01*
X132866190Y-68863095D01*
X132961428Y-68815476D01*
X133151904Y-68815476D01*
X133247142Y-68863095D01*
X133294761Y-68910714D01*
X133342380Y-69005952D01*
X133342380Y-69196428D01*
X133294761Y-69291666D01*
X133247142Y-69339285D01*
X133151904Y-69386904D01*
X132961428Y-69386904D01*
X132866190Y-69339285D01*
X132818571Y-69291666D01*
X132770952Y-69196428D01*
G04 #@! TO.C,R19*
X134559380Y-67482142D02*
X134083190Y-67148809D01*
X134559380Y-66910714D02*
X133559380Y-66910714D01*
X133559380Y-67291666D01*
X133607000Y-67386904D01*
X133654619Y-67434523D01*
X133749857Y-67482142D01*
X133892714Y-67482142D01*
X133987952Y-67434523D01*
X134035571Y-67386904D01*
X134083190Y-67291666D01*
X134083190Y-66910714D01*
X134559380Y-68434523D02*
X134559380Y-67863095D01*
X134559380Y-68148809D02*
X133559380Y-68148809D01*
X133702238Y-68053571D01*
X133797476Y-67958333D01*
X133845095Y-67863095D01*
X134559380Y-68910714D02*
X134559380Y-69101190D01*
X134511761Y-69196428D01*
X134464142Y-69244047D01*
X134321285Y-69339285D01*
X134130809Y-69386904D01*
X133749857Y-69386904D01*
X133654619Y-69339285D01*
X133607000Y-69291666D01*
X133559380Y-69196428D01*
X133559380Y-69005952D01*
X133607000Y-68910714D01*
X133654619Y-68863095D01*
X133749857Y-68815476D01*
X133987952Y-68815476D01*
X134083190Y-68863095D01*
X134130809Y-68910714D01*
X134178428Y-69005952D01*
X134178428Y-69196428D01*
X134130809Y-69291666D01*
X134083190Y-69339285D01*
X133987952Y-69386904D01*
G04 #@! TO.C,R28*
X146716380Y-67392142D02*
X146240190Y-67058809D01*
X146716380Y-66820714D02*
X145716380Y-66820714D01*
X145716380Y-67201666D01*
X145764000Y-67296904D01*
X145811619Y-67344523D01*
X145906857Y-67392142D01*
X146049714Y-67392142D01*
X146144952Y-67344523D01*
X146192571Y-67296904D01*
X146240190Y-67201666D01*
X146240190Y-66820714D01*
X145811619Y-67773095D02*
X145764000Y-67820714D01*
X145716380Y-67915952D01*
X145716380Y-68154047D01*
X145764000Y-68249285D01*
X145811619Y-68296904D01*
X145906857Y-68344523D01*
X146002095Y-68344523D01*
X146144952Y-68296904D01*
X146716380Y-67725476D01*
X146716380Y-68344523D01*
X146144952Y-68915952D02*
X146097333Y-68820714D01*
X146049714Y-68773095D01*
X145954476Y-68725476D01*
X145906857Y-68725476D01*
X145811619Y-68773095D01*
X145764000Y-68820714D01*
X145716380Y-68915952D01*
X145716380Y-69106428D01*
X145764000Y-69201666D01*
X145811619Y-69249285D01*
X145906857Y-69296904D01*
X145954476Y-69296904D01*
X146049714Y-69249285D01*
X146097333Y-69201666D01*
X146144952Y-69106428D01*
X146144952Y-68915952D01*
X146192571Y-68820714D01*
X146240190Y-68773095D01*
X146335428Y-68725476D01*
X146525904Y-68725476D01*
X146621142Y-68773095D01*
X146668761Y-68820714D01*
X146716380Y-68915952D01*
X146716380Y-69106428D01*
X146668761Y-69201666D01*
X146621142Y-69249285D01*
X146525904Y-69296904D01*
X146335428Y-69296904D01*
X146240190Y-69249285D01*
X146192571Y-69201666D01*
X146144952Y-69106428D01*
G04 #@! TO.C,R29*
X146219380Y-116287142D02*
X145743190Y-115953809D01*
X146219380Y-115715714D02*
X145219380Y-115715714D01*
X145219380Y-116096666D01*
X145267000Y-116191904D01*
X145314619Y-116239523D01*
X145409857Y-116287142D01*
X145552714Y-116287142D01*
X145647952Y-116239523D01*
X145695571Y-116191904D01*
X145743190Y-116096666D01*
X145743190Y-115715714D01*
X145314619Y-116668095D02*
X145267000Y-116715714D01*
X145219380Y-116810952D01*
X145219380Y-117049047D01*
X145267000Y-117144285D01*
X145314619Y-117191904D01*
X145409857Y-117239523D01*
X145505095Y-117239523D01*
X145647952Y-117191904D01*
X146219380Y-116620476D01*
X146219380Y-117239523D01*
X146219380Y-117715714D02*
X146219380Y-117906190D01*
X146171761Y-118001428D01*
X146124142Y-118049047D01*
X145981285Y-118144285D01*
X145790809Y-118191904D01*
X145409857Y-118191904D01*
X145314619Y-118144285D01*
X145267000Y-118096666D01*
X145219380Y-118001428D01*
X145219380Y-117810952D01*
X145267000Y-117715714D01*
X145314619Y-117668095D01*
X145409857Y-117620476D01*
X145647952Y-117620476D01*
X145743190Y-117668095D01*
X145790809Y-117715714D01*
X145838428Y-117810952D01*
X145838428Y-118001428D01*
X145790809Y-118096666D01*
X145743190Y-118144285D01*
X145647952Y-118191904D01*
G04 #@! TO.C,R30*
X144908380Y-116275142D02*
X144432190Y-115941809D01*
X144908380Y-115703714D02*
X143908380Y-115703714D01*
X143908380Y-116084666D01*
X143956000Y-116179904D01*
X144003619Y-116227523D01*
X144098857Y-116275142D01*
X144241714Y-116275142D01*
X144336952Y-116227523D01*
X144384571Y-116179904D01*
X144432190Y-116084666D01*
X144432190Y-115703714D01*
X143908380Y-116608476D02*
X143908380Y-117227523D01*
X144289333Y-116894190D01*
X144289333Y-117037047D01*
X144336952Y-117132285D01*
X144384571Y-117179904D01*
X144479809Y-117227523D01*
X144717904Y-117227523D01*
X144813142Y-117179904D01*
X144860761Y-117132285D01*
X144908380Y-117037047D01*
X144908380Y-116751333D01*
X144860761Y-116656095D01*
X144813142Y-116608476D01*
X143908380Y-117846571D02*
X143908380Y-117941809D01*
X143956000Y-118037047D01*
X144003619Y-118084666D01*
X144098857Y-118132285D01*
X144289333Y-118179904D01*
X144527428Y-118179904D01*
X144717904Y-118132285D01*
X144813142Y-118084666D01*
X144860761Y-118037047D01*
X144908380Y-117941809D01*
X144908380Y-117846571D01*
X144860761Y-117751333D01*
X144813142Y-117703714D01*
X144717904Y-117656095D01*
X144527428Y-117608476D01*
X144289333Y-117608476D01*
X144098857Y-117656095D01*
X144003619Y-117703714D01*
X143956000Y-117751333D01*
X143908380Y-117846571D01*
G04 #@! TO.C,R31*
X143609380Y-116287142D02*
X143133190Y-115953809D01*
X143609380Y-115715714D02*
X142609380Y-115715714D01*
X142609380Y-116096666D01*
X142657000Y-116191904D01*
X142704619Y-116239523D01*
X142799857Y-116287142D01*
X142942714Y-116287142D01*
X143037952Y-116239523D01*
X143085571Y-116191904D01*
X143133190Y-116096666D01*
X143133190Y-115715714D01*
X142609380Y-116620476D02*
X142609380Y-117239523D01*
X142990333Y-116906190D01*
X142990333Y-117049047D01*
X143037952Y-117144285D01*
X143085571Y-117191904D01*
X143180809Y-117239523D01*
X143418904Y-117239523D01*
X143514142Y-117191904D01*
X143561761Y-117144285D01*
X143609380Y-117049047D01*
X143609380Y-116763333D01*
X143561761Y-116668095D01*
X143514142Y-116620476D01*
X143609380Y-118191904D02*
X143609380Y-117620476D01*
X143609380Y-117906190D02*
X142609380Y-117906190D01*
X142752238Y-117810952D01*
X142847476Y-117715714D01*
X142895095Y-117620476D01*
G04 #@! TO.C,R32*
X142359380Y-116300142D02*
X141883190Y-115966809D01*
X142359380Y-115728714D02*
X141359380Y-115728714D01*
X141359380Y-116109666D01*
X141407000Y-116204904D01*
X141454619Y-116252523D01*
X141549857Y-116300142D01*
X141692714Y-116300142D01*
X141787952Y-116252523D01*
X141835571Y-116204904D01*
X141883190Y-116109666D01*
X141883190Y-115728714D01*
X141359380Y-116633476D02*
X141359380Y-117252523D01*
X141740333Y-116919190D01*
X141740333Y-117062047D01*
X141787952Y-117157285D01*
X141835571Y-117204904D01*
X141930809Y-117252523D01*
X142168904Y-117252523D01*
X142264142Y-117204904D01*
X142311761Y-117157285D01*
X142359380Y-117062047D01*
X142359380Y-116776333D01*
X142311761Y-116681095D01*
X142264142Y-116633476D01*
X141454619Y-117633476D02*
X141407000Y-117681095D01*
X141359380Y-117776333D01*
X141359380Y-118014428D01*
X141407000Y-118109666D01*
X141454619Y-118157285D01*
X141549857Y-118204904D01*
X141645095Y-118204904D01*
X141787952Y-118157285D01*
X142359380Y-117585857D01*
X142359380Y-118204904D01*
G04 #@! TO.C,R33*
X141159380Y-116300142D02*
X140683190Y-115966809D01*
X141159380Y-115728714D02*
X140159380Y-115728714D01*
X140159380Y-116109666D01*
X140207000Y-116204904D01*
X140254619Y-116252523D01*
X140349857Y-116300142D01*
X140492714Y-116300142D01*
X140587952Y-116252523D01*
X140635571Y-116204904D01*
X140683190Y-116109666D01*
X140683190Y-115728714D01*
X140159380Y-116633476D02*
X140159380Y-117252523D01*
X140540333Y-116919190D01*
X140540333Y-117062047D01*
X140587952Y-117157285D01*
X140635571Y-117204904D01*
X140730809Y-117252523D01*
X140968904Y-117252523D01*
X141064142Y-117204904D01*
X141111761Y-117157285D01*
X141159380Y-117062047D01*
X141159380Y-116776333D01*
X141111761Y-116681095D01*
X141064142Y-116633476D01*
X140159380Y-117585857D02*
X140159380Y-118204904D01*
X140540333Y-117871571D01*
X140540333Y-118014428D01*
X140587952Y-118109666D01*
X140635571Y-118157285D01*
X140730809Y-118204904D01*
X140968904Y-118204904D01*
X141064142Y-118157285D01*
X141111761Y-118109666D01*
X141159380Y-118014428D01*
X141159380Y-117728714D01*
X141111761Y-117633476D01*
X141064142Y-117585857D01*
G04 #@! TO.C,R20*
X135855380Y-67451142D02*
X135379190Y-67117809D01*
X135855380Y-66879714D02*
X134855380Y-66879714D01*
X134855380Y-67260666D01*
X134903000Y-67355904D01*
X134950619Y-67403523D01*
X135045857Y-67451142D01*
X135188714Y-67451142D01*
X135283952Y-67403523D01*
X135331571Y-67355904D01*
X135379190Y-67260666D01*
X135379190Y-66879714D01*
X134950619Y-67832095D02*
X134903000Y-67879714D01*
X134855380Y-67974952D01*
X134855380Y-68213047D01*
X134903000Y-68308285D01*
X134950619Y-68355904D01*
X135045857Y-68403523D01*
X135141095Y-68403523D01*
X135283952Y-68355904D01*
X135855380Y-67784476D01*
X135855380Y-68403523D01*
X134855380Y-69022571D02*
X134855380Y-69117809D01*
X134903000Y-69213047D01*
X134950619Y-69260666D01*
X135045857Y-69308285D01*
X135236333Y-69355904D01*
X135474428Y-69355904D01*
X135664904Y-69308285D01*
X135760142Y-69260666D01*
X135807761Y-69213047D01*
X135855380Y-69117809D01*
X135855380Y-69022571D01*
X135807761Y-68927333D01*
X135760142Y-68879714D01*
X135664904Y-68832095D01*
X135474428Y-68784476D01*
X135236333Y-68784476D01*
X135045857Y-68832095D01*
X134950619Y-68879714D01*
X134903000Y-68927333D01*
X134855380Y-69022571D01*
G04 #@! TO.C,R35*
X138583380Y-116302142D02*
X138107190Y-115968809D01*
X138583380Y-115730714D02*
X137583380Y-115730714D01*
X137583380Y-116111666D01*
X137631000Y-116206904D01*
X137678619Y-116254523D01*
X137773857Y-116302142D01*
X137916714Y-116302142D01*
X138011952Y-116254523D01*
X138059571Y-116206904D01*
X138107190Y-116111666D01*
X138107190Y-115730714D01*
X137583380Y-116635476D02*
X137583380Y-117254523D01*
X137964333Y-116921190D01*
X137964333Y-117064047D01*
X138011952Y-117159285D01*
X138059571Y-117206904D01*
X138154809Y-117254523D01*
X138392904Y-117254523D01*
X138488142Y-117206904D01*
X138535761Y-117159285D01*
X138583380Y-117064047D01*
X138583380Y-116778333D01*
X138535761Y-116683095D01*
X138488142Y-116635476D01*
X137583380Y-118159285D02*
X137583380Y-117683095D01*
X138059571Y-117635476D01*
X138011952Y-117683095D01*
X137964333Y-117778333D01*
X137964333Y-118016428D01*
X138011952Y-118111666D01*
X138059571Y-118159285D01*
X138154809Y-118206904D01*
X138392904Y-118206904D01*
X138488142Y-118159285D01*
X138535761Y-118111666D01*
X138583380Y-118016428D01*
X138583380Y-117778333D01*
X138535761Y-117683095D01*
X138488142Y-117635476D01*
G04 #@! TO.C,R36*
X137314380Y-116325142D02*
X136838190Y-115991809D01*
X137314380Y-115753714D02*
X136314380Y-115753714D01*
X136314380Y-116134666D01*
X136362000Y-116229904D01*
X136409619Y-116277523D01*
X136504857Y-116325142D01*
X136647714Y-116325142D01*
X136742952Y-116277523D01*
X136790571Y-116229904D01*
X136838190Y-116134666D01*
X136838190Y-115753714D01*
X136314380Y-116658476D02*
X136314380Y-117277523D01*
X136695333Y-116944190D01*
X136695333Y-117087047D01*
X136742952Y-117182285D01*
X136790571Y-117229904D01*
X136885809Y-117277523D01*
X137123904Y-117277523D01*
X137219142Y-117229904D01*
X137266761Y-117182285D01*
X137314380Y-117087047D01*
X137314380Y-116801333D01*
X137266761Y-116706095D01*
X137219142Y-116658476D01*
X136314380Y-118134666D02*
X136314380Y-117944190D01*
X136362000Y-117848952D01*
X136409619Y-117801333D01*
X136552476Y-117706095D01*
X136742952Y-117658476D01*
X137123904Y-117658476D01*
X137219142Y-117706095D01*
X137266761Y-117753714D01*
X137314380Y-117848952D01*
X137314380Y-118039428D01*
X137266761Y-118134666D01*
X137219142Y-118182285D01*
X137123904Y-118229904D01*
X136885809Y-118229904D01*
X136790571Y-118182285D01*
X136742952Y-118134666D01*
X136695333Y-118039428D01*
X136695333Y-117848952D01*
X136742952Y-117753714D01*
X136790571Y-117706095D01*
X136885809Y-117658476D01*
G04 #@! TO.C,R34*
X139872380Y-116287142D02*
X139396190Y-115953809D01*
X139872380Y-115715714D02*
X138872380Y-115715714D01*
X138872380Y-116096666D01*
X138920000Y-116191904D01*
X138967619Y-116239523D01*
X139062857Y-116287142D01*
X139205714Y-116287142D01*
X139300952Y-116239523D01*
X139348571Y-116191904D01*
X139396190Y-116096666D01*
X139396190Y-115715714D01*
X138872380Y-116620476D02*
X138872380Y-117239523D01*
X139253333Y-116906190D01*
X139253333Y-117049047D01*
X139300952Y-117144285D01*
X139348571Y-117191904D01*
X139443809Y-117239523D01*
X139681904Y-117239523D01*
X139777142Y-117191904D01*
X139824761Y-117144285D01*
X139872380Y-117049047D01*
X139872380Y-116763333D01*
X139824761Y-116668095D01*
X139777142Y-116620476D01*
X139205714Y-118096666D02*
X139872380Y-118096666D01*
X138824761Y-117858571D02*
X139539047Y-117620476D01*
X139539047Y-118239523D01*
G04 #@! TO.C,R38*
X134742380Y-116385142D02*
X134266190Y-116051809D01*
X134742380Y-115813714D02*
X133742380Y-115813714D01*
X133742380Y-116194666D01*
X133790000Y-116289904D01*
X133837619Y-116337523D01*
X133932857Y-116385142D01*
X134075714Y-116385142D01*
X134170952Y-116337523D01*
X134218571Y-116289904D01*
X134266190Y-116194666D01*
X134266190Y-115813714D01*
X133742380Y-116718476D02*
X133742380Y-117337523D01*
X134123333Y-117004190D01*
X134123333Y-117147047D01*
X134170952Y-117242285D01*
X134218571Y-117289904D01*
X134313809Y-117337523D01*
X134551904Y-117337523D01*
X134647142Y-117289904D01*
X134694761Y-117242285D01*
X134742380Y-117147047D01*
X134742380Y-116861333D01*
X134694761Y-116766095D01*
X134647142Y-116718476D01*
X134170952Y-117908952D02*
X134123333Y-117813714D01*
X134075714Y-117766095D01*
X133980476Y-117718476D01*
X133932857Y-117718476D01*
X133837619Y-117766095D01*
X133790000Y-117813714D01*
X133742380Y-117908952D01*
X133742380Y-118099428D01*
X133790000Y-118194666D01*
X133837619Y-118242285D01*
X133932857Y-118289904D01*
X133980476Y-118289904D01*
X134075714Y-118242285D01*
X134123333Y-118194666D01*
X134170952Y-118099428D01*
X134170952Y-117908952D01*
X134218571Y-117813714D01*
X134266190Y-117766095D01*
X134361428Y-117718476D01*
X134551904Y-117718476D01*
X134647142Y-117766095D01*
X134694761Y-117813714D01*
X134742380Y-117908952D01*
X134742380Y-118099428D01*
X134694761Y-118194666D01*
X134647142Y-118242285D01*
X134551904Y-118289904D01*
X134361428Y-118289904D01*
X134266190Y-118242285D01*
X134218571Y-118194666D01*
X134170952Y-118099428D01*
G04 #@! TO.C,R27*
X145180380Y-67407142D02*
X144704190Y-67073809D01*
X145180380Y-66835714D02*
X144180380Y-66835714D01*
X144180380Y-67216666D01*
X144228000Y-67311904D01*
X144275619Y-67359523D01*
X144370857Y-67407142D01*
X144513714Y-67407142D01*
X144608952Y-67359523D01*
X144656571Y-67311904D01*
X144704190Y-67216666D01*
X144704190Y-66835714D01*
X144275619Y-67788095D02*
X144228000Y-67835714D01*
X144180380Y-67930952D01*
X144180380Y-68169047D01*
X144228000Y-68264285D01*
X144275619Y-68311904D01*
X144370857Y-68359523D01*
X144466095Y-68359523D01*
X144608952Y-68311904D01*
X145180380Y-67740476D01*
X145180380Y-68359523D01*
X144180380Y-68692857D02*
X144180380Y-69359523D01*
X145180380Y-68930952D01*
G04 #@! TO.C,R40*
X132219380Y-116385142D02*
X131743190Y-116051809D01*
X132219380Y-115813714D02*
X131219380Y-115813714D01*
X131219380Y-116194666D01*
X131267000Y-116289904D01*
X131314619Y-116337523D01*
X131409857Y-116385142D01*
X131552714Y-116385142D01*
X131647952Y-116337523D01*
X131695571Y-116289904D01*
X131743190Y-116194666D01*
X131743190Y-115813714D01*
X131552714Y-117242285D02*
X132219380Y-117242285D01*
X131171761Y-117004190D02*
X131886047Y-116766095D01*
X131886047Y-117385142D01*
X131219380Y-117956571D02*
X131219380Y-118051809D01*
X131267000Y-118147047D01*
X131314619Y-118194666D01*
X131409857Y-118242285D01*
X131600333Y-118289904D01*
X131838428Y-118289904D01*
X132028904Y-118242285D01*
X132124142Y-118194666D01*
X132171761Y-118147047D01*
X132219380Y-118051809D01*
X132219380Y-117956571D01*
X132171761Y-117861333D01*
X132124142Y-117813714D01*
X132028904Y-117766095D01*
X131838428Y-117718476D01*
X131600333Y-117718476D01*
X131409857Y-117766095D01*
X131314619Y-117813714D01*
X131267000Y-117861333D01*
X131219380Y-117956571D01*
G04 #@! TO.C,R41*
X130939380Y-116420142D02*
X130463190Y-116086809D01*
X130939380Y-115848714D02*
X129939380Y-115848714D01*
X129939380Y-116229666D01*
X129987000Y-116324904D01*
X130034619Y-116372523D01*
X130129857Y-116420142D01*
X130272714Y-116420142D01*
X130367952Y-116372523D01*
X130415571Y-116324904D01*
X130463190Y-116229666D01*
X130463190Y-115848714D01*
X130272714Y-117277285D02*
X130939380Y-117277285D01*
X129891761Y-117039190D02*
X130606047Y-116801095D01*
X130606047Y-117420142D01*
X130939380Y-118324904D02*
X130939380Y-117753476D01*
X130939380Y-118039190D02*
X129939380Y-118039190D01*
X130082238Y-117943952D01*
X130177476Y-117848714D01*
X130225095Y-117753476D01*
G04 #@! TO.C,R42*
X129651380Y-116397142D02*
X129175190Y-116063809D01*
X129651380Y-115825714D02*
X128651380Y-115825714D01*
X128651380Y-116206666D01*
X128699000Y-116301904D01*
X128746619Y-116349523D01*
X128841857Y-116397142D01*
X128984714Y-116397142D01*
X129079952Y-116349523D01*
X129127571Y-116301904D01*
X129175190Y-116206666D01*
X129175190Y-115825714D01*
X128984714Y-117254285D02*
X129651380Y-117254285D01*
X128603761Y-117016190D02*
X129318047Y-116778095D01*
X129318047Y-117397142D01*
X128746619Y-117730476D02*
X128699000Y-117778095D01*
X128651380Y-117873333D01*
X128651380Y-118111428D01*
X128699000Y-118206666D01*
X128746619Y-118254285D01*
X128841857Y-118301904D01*
X128937095Y-118301904D01*
X129079952Y-118254285D01*
X129651380Y-117682857D01*
X129651380Y-118301904D01*
G04 #@! TO.C,R43*
X128399380Y-116422142D02*
X127923190Y-116088809D01*
X128399380Y-115850714D02*
X127399380Y-115850714D01*
X127399380Y-116231666D01*
X127447000Y-116326904D01*
X127494619Y-116374523D01*
X127589857Y-116422142D01*
X127732714Y-116422142D01*
X127827952Y-116374523D01*
X127875571Y-116326904D01*
X127923190Y-116231666D01*
X127923190Y-115850714D01*
X127732714Y-117279285D02*
X128399380Y-117279285D01*
X127351761Y-117041190D02*
X128066047Y-116803095D01*
X128066047Y-117422142D01*
X127399380Y-117707857D02*
X127399380Y-118326904D01*
X127780333Y-117993571D01*
X127780333Y-118136428D01*
X127827952Y-118231666D01*
X127875571Y-118279285D01*
X127970809Y-118326904D01*
X128208904Y-118326904D01*
X128304142Y-118279285D01*
X128351761Y-118231666D01*
X128399380Y-118136428D01*
X128399380Y-117850714D01*
X128351761Y-117755476D01*
X128304142Y-117707857D01*
G04 #@! TO.C,R44*
X127084380Y-116473142D02*
X126608190Y-116139809D01*
X127084380Y-115901714D02*
X126084380Y-115901714D01*
X126084380Y-116282666D01*
X126132000Y-116377904D01*
X126179619Y-116425523D01*
X126274857Y-116473142D01*
X126417714Y-116473142D01*
X126512952Y-116425523D01*
X126560571Y-116377904D01*
X126608190Y-116282666D01*
X126608190Y-115901714D01*
X126417714Y-117330285D02*
X127084380Y-117330285D01*
X126036761Y-117092190D02*
X126751047Y-116854095D01*
X126751047Y-117473142D01*
X126417714Y-118282666D02*
X127084380Y-118282666D01*
X126036761Y-118044571D02*
X126751047Y-117806476D01*
X126751047Y-118425523D01*
G04 #@! TO.C,R45*
X125802380Y-116490142D02*
X125326190Y-116156809D01*
X125802380Y-115918714D02*
X124802380Y-115918714D01*
X124802380Y-116299666D01*
X124850000Y-116394904D01*
X124897619Y-116442523D01*
X124992857Y-116490142D01*
X125135714Y-116490142D01*
X125230952Y-116442523D01*
X125278571Y-116394904D01*
X125326190Y-116299666D01*
X125326190Y-115918714D01*
X125135714Y-117347285D02*
X125802380Y-117347285D01*
X124754761Y-117109190D02*
X125469047Y-116871095D01*
X125469047Y-117490142D01*
X124802380Y-118347285D02*
X124802380Y-117871095D01*
X125278571Y-117823476D01*
X125230952Y-117871095D01*
X125183333Y-117966333D01*
X125183333Y-118204428D01*
X125230952Y-118299666D01*
X125278571Y-118347285D01*
X125373809Y-118394904D01*
X125611904Y-118394904D01*
X125707142Y-118347285D01*
X125754761Y-118299666D01*
X125802380Y-118204428D01*
X125802380Y-117966333D01*
X125754761Y-117871095D01*
X125707142Y-117823476D01*
G04 #@! TO.C,R46*
X124402380Y-116473142D02*
X123926190Y-116139809D01*
X124402380Y-115901714D02*
X123402380Y-115901714D01*
X123402380Y-116282666D01*
X123450000Y-116377904D01*
X123497619Y-116425523D01*
X123592857Y-116473142D01*
X123735714Y-116473142D01*
X123830952Y-116425523D01*
X123878571Y-116377904D01*
X123926190Y-116282666D01*
X123926190Y-115901714D01*
X123735714Y-117330285D02*
X124402380Y-117330285D01*
X123354761Y-117092190D02*
X124069047Y-116854095D01*
X124069047Y-117473142D01*
X123402380Y-118282666D02*
X123402380Y-118092190D01*
X123450000Y-117996952D01*
X123497619Y-117949333D01*
X123640476Y-117854095D01*
X123830952Y-117806476D01*
X124211904Y-117806476D01*
X124307142Y-117854095D01*
X124354761Y-117901714D01*
X124402380Y-117996952D01*
X124402380Y-118187428D01*
X124354761Y-118282666D01*
X124307142Y-118330285D01*
X124211904Y-118377904D01*
X123973809Y-118377904D01*
X123878571Y-118330285D01*
X123830952Y-118282666D01*
X123783333Y-118187428D01*
X123783333Y-117996952D01*
X123830952Y-117901714D01*
X123878571Y-117854095D01*
X123973809Y-117806476D01*
G04 #@! TO.C,R37*
X136010380Y-116373142D02*
X135534190Y-116039809D01*
X136010380Y-115801714D02*
X135010380Y-115801714D01*
X135010380Y-116182666D01*
X135058000Y-116277904D01*
X135105619Y-116325523D01*
X135200857Y-116373142D01*
X135343714Y-116373142D01*
X135438952Y-116325523D01*
X135486571Y-116277904D01*
X135534190Y-116182666D01*
X135534190Y-115801714D01*
X135010380Y-116706476D02*
X135010380Y-117325523D01*
X135391333Y-116992190D01*
X135391333Y-117135047D01*
X135438952Y-117230285D01*
X135486571Y-117277904D01*
X135581809Y-117325523D01*
X135819904Y-117325523D01*
X135915142Y-117277904D01*
X135962761Y-117230285D01*
X136010380Y-117135047D01*
X136010380Y-116849333D01*
X135962761Y-116754095D01*
X135915142Y-116706476D01*
X135010380Y-117658857D02*
X135010380Y-118325523D01*
X136010380Y-117896952D01*
G04 #@! TO.C,R76*
X159957380Y-101356142D02*
X159481190Y-101022809D01*
X159957380Y-100784714D02*
X158957380Y-100784714D01*
X158957380Y-101165666D01*
X159005000Y-101260904D01*
X159052619Y-101308523D01*
X159147857Y-101356142D01*
X159290714Y-101356142D01*
X159385952Y-101308523D01*
X159433571Y-101260904D01*
X159481190Y-101165666D01*
X159481190Y-100784714D01*
X158957380Y-101689476D02*
X158957380Y-102356142D01*
X159957380Y-101927571D01*
X158957380Y-103165666D02*
X158957380Y-102975190D01*
X159005000Y-102879952D01*
X159052619Y-102832333D01*
X159195476Y-102737095D01*
X159385952Y-102689476D01*
X159766904Y-102689476D01*
X159862142Y-102737095D01*
X159909761Y-102784714D01*
X159957380Y-102879952D01*
X159957380Y-103070428D01*
X159909761Y-103165666D01*
X159862142Y-103213285D01*
X159766904Y-103260904D01*
X159528809Y-103260904D01*
X159433571Y-103213285D01*
X159385952Y-103165666D01*
X159338333Y-103070428D01*
X159338333Y-102879952D01*
X159385952Y-102784714D01*
X159433571Y-102737095D01*
X159528809Y-102689476D01*
G04 #@! TO.C,R39*
X133462380Y-116373142D02*
X132986190Y-116039809D01*
X133462380Y-115801714D02*
X132462380Y-115801714D01*
X132462380Y-116182666D01*
X132510000Y-116277904D01*
X132557619Y-116325523D01*
X132652857Y-116373142D01*
X132795714Y-116373142D01*
X132890952Y-116325523D01*
X132938571Y-116277904D01*
X132986190Y-116182666D01*
X132986190Y-115801714D01*
X132462380Y-116706476D02*
X132462380Y-117325523D01*
X132843333Y-116992190D01*
X132843333Y-117135047D01*
X132890952Y-117230285D01*
X132938571Y-117277904D01*
X133033809Y-117325523D01*
X133271904Y-117325523D01*
X133367142Y-117277904D01*
X133414761Y-117230285D01*
X133462380Y-117135047D01*
X133462380Y-116849333D01*
X133414761Y-116754095D01*
X133367142Y-116706476D01*
X133462380Y-117801714D02*
X133462380Y-117992190D01*
X133414761Y-118087428D01*
X133367142Y-118135047D01*
X133224285Y-118230285D01*
X133033809Y-118277904D01*
X132652857Y-118277904D01*
X132557619Y-118230285D01*
X132510000Y-118182666D01*
X132462380Y-118087428D01*
X132462380Y-117896952D01*
X132510000Y-117801714D01*
X132557619Y-117754095D01*
X132652857Y-117706476D01*
X132890952Y-117706476D01*
X132986190Y-117754095D01*
X133033809Y-117801714D01*
X133081428Y-117896952D01*
X133081428Y-118087428D01*
X133033809Y-118182666D01*
X132986190Y-118230285D01*
X132890952Y-118277904D01*
G04 #@! TO.C,R21*
X137180380Y-67469142D02*
X136704190Y-67135809D01*
X137180380Y-66897714D02*
X136180380Y-66897714D01*
X136180380Y-67278666D01*
X136228000Y-67373904D01*
X136275619Y-67421523D01*
X136370857Y-67469142D01*
X136513714Y-67469142D01*
X136608952Y-67421523D01*
X136656571Y-67373904D01*
X136704190Y-67278666D01*
X136704190Y-66897714D01*
X136275619Y-67850095D02*
X136228000Y-67897714D01*
X136180380Y-67992952D01*
X136180380Y-68231047D01*
X136228000Y-68326285D01*
X136275619Y-68373904D01*
X136370857Y-68421523D01*
X136466095Y-68421523D01*
X136608952Y-68373904D01*
X137180380Y-67802476D01*
X137180380Y-68421523D01*
X137180380Y-69373904D02*
X137180380Y-68802476D01*
X137180380Y-69088190D02*
X136180380Y-69088190D01*
X136323238Y-68992952D01*
X136418476Y-68897714D01*
X136466095Y-68802476D01*
G04 #@! TO.C,R22*
X138516380Y-67469142D02*
X138040190Y-67135809D01*
X138516380Y-66897714D02*
X137516380Y-66897714D01*
X137516380Y-67278666D01*
X137564000Y-67373904D01*
X137611619Y-67421523D01*
X137706857Y-67469142D01*
X137849714Y-67469142D01*
X137944952Y-67421523D01*
X137992571Y-67373904D01*
X138040190Y-67278666D01*
X138040190Y-66897714D01*
X137611619Y-67850095D02*
X137564000Y-67897714D01*
X137516380Y-67992952D01*
X137516380Y-68231047D01*
X137564000Y-68326285D01*
X137611619Y-68373904D01*
X137706857Y-68421523D01*
X137802095Y-68421523D01*
X137944952Y-68373904D01*
X138516380Y-67802476D01*
X138516380Y-68421523D01*
X137611619Y-68802476D02*
X137564000Y-68850095D01*
X137516380Y-68945333D01*
X137516380Y-69183428D01*
X137564000Y-69278666D01*
X137611619Y-69326285D01*
X137706857Y-69373904D01*
X137802095Y-69373904D01*
X137944952Y-69326285D01*
X138516380Y-68754857D01*
X138516380Y-69373904D01*
G04 #@! TO.C,R23*
X139790380Y-67407142D02*
X139314190Y-67073809D01*
X139790380Y-66835714D02*
X138790380Y-66835714D01*
X138790380Y-67216666D01*
X138838000Y-67311904D01*
X138885619Y-67359523D01*
X138980857Y-67407142D01*
X139123714Y-67407142D01*
X139218952Y-67359523D01*
X139266571Y-67311904D01*
X139314190Y-67216666D01*
X139314190Y-66835714D01*
X138885619Y-67788095D02*
X138838000Y-67835714D01*
X138790380Y-67930952D01*
X138790380Y-68169047D01*
X138838000Y-68264285D01*
X138885619Y-68311904D01*
X138980857Y-68359523D01*
X139076095Y-68359523D01*
X139218952Y-68311904D01*
X139790380Y-67740476D01*
X139790380Y-68359523D01*
X138790380Y-68692857D02*
X138790380Y-69311904D01*
X139171333Y-68978571D01*
X139171333Y-69121428D01*
X139218952Y-69216666D01*
X139266571Y-69264285D01*
X139361809Y-69311904D01*
X139599904Y-69311904D01*
X139695142Y-69264285D01*
X139742761Y-69216666D01*
X139790380Y-69121428D01*
X139790380Y-68835714D01*
X139742761Y-68740476D01*
X139695142Y-68692857D01*
G04 #@! TO.C,R24*
X141034380Y-67392142D02*
X140558190Y-67058809D01*
X141034380Y-66820714D02*
X140034380Y-66820714D01*
X140034380Y-67201666D01*
X140082000Y-67296904D01*
X140129619Y-67344523D01*
X140224857Y-67392142D01*
X140367714Y-67392142D01*
X140462952Y-67344523D01*
X140510571Y-67296904D01*
X140558190Y-67201666D01*
X140558190Y-66820714D01*
X140129619Y-67773095D02*
X140082000Y-67820714D01*
X140034380Y-67915952D01*
X140034380Y-68154047D01*
X140082000Y-68249285D01*
X140129619Y-68296904D01*
X140224857Y-68344523D01*
X140320095Y-68344523D01*
X140462952Y-68296904D01*
X141034380Y-67725476D01*
X141034380Y-68344523D01*
X140367714Y-69201666D02*
X141034380Y-69201666D01*
X139986761Y-68963571D02*
X140701047Y-68725476D01*
X140701047Y-69344523D01*
G04 #@! TO.C,R25*
X142340380Y-67422142D02*
X141864190Y-67088809D01*
X142340380Y-66850714D02*
X141340380Y-66850714D01*
X141340380Y-67231666D01*
X141388000Y-67326904D01*
X141435619Y-67374523D01*
X141530857Y-67422142D01*
X141673714Y-67422142D01*
X141768952Y-67374523D01*
X141816571Y-67326904D01*
X141864190Y-67231666D01*
X141864190Y-66850714D01*
X141435619Y-67803095D02*
X141388000Y-67850714D01*
X141340380Y-67945952D01*
X141340380Y-68184047D01*
X141388000Y-68279285D01*
X141435619Y-68326904D01*
X141530857Y-68374523D01*
X141626095Y-68374523D01*
X141768952Y-68326904D01*
X142340380Y-67755476D01*
X142340380Y-68374523D01*
X141340380Y-69279285D02*
X141340380Y-68803095D01*
X141816571Y-68755476D01*
X141768952Y-68803095D01*
X141721333Y-68898333D01*
X141721333Y-69136428D01*
X141768952Y-69231666D01*
X141816571Y-69279285D01*
X141911809Y-69326904D01*
X142149904Y-69326904D01*
X142245142Y-69279285D01*
X142292761Y-69231666D01*
X142340380Y-69136428D01*
X142340380Y-68898333D01*
X142292761Y-68803095D01*
X142245142Y-68755476D01*
G04 #@! TO.C,R26*
X143737380Y-67407142D02*
X143261190Y-67073809D01*
X143737380Y-66835714D02*
X142737380Y-66835714D01*
X142737380Y-67216666D01*
X142785000Y-67311904D01*
X142832619Y-67359523D01*
X142927857Y-67407142D01*
X143070714Y-67407142D01*
X143165952Y-67359523D01*
X143213571Y-67311904D01*
X143261190Y-67216666D01*
X143261190Y-66835714D01*
X142832619Y-67788095D02*
X142785000Y-67835714D01*
X142737380Y-67930952D01*
X142737380Y-68169047D01*
X142785000Y-68264285D01*
X142832619Y-68311904D01*
X142927857Y-68359523D01*
X143023095Y-68359523D01*
X143165952Y-68311904D01*
X143737380Y-67740476D01*
X143737380Y-68359523D01*
X142737380Y-69216666D02*
X142737380Y-69026190D01*
X142785000Y-68930952D01*
X142832619Y-68883333D01*
X142975476Y-68788095D01*
X143165952Y-68740476D01*
X143546904Y-68740476D01*
X143642142Y-68788095D01*
X143689761Y-68835714D01*
X143737380Y-68930952D01*
X143737380Y-69121428D01*
X143689761Y-69216666D01*
X143642142Y-69264285D01*
X143546904Y-69311904D01*
X143308809Y-69311904D01*
X143213571Y-69264285D01*
X143165952Y-69216666D01*
X143118333Y-69121428D01*
X143118333Y-68930952D01*
X143165952Y-68835714D01*
X143213571Y-68788095D01*
X143308809Y-68740476D01*
G04 #@! TD*
M02*
