G04 #@! TF.GenerationSoftware,KiCad,Pcbnew,5.0.2+dfsg1-1*
G04 #@! TF.CreationDate,2019-01-22T14:29:04+01:00*
G04 #@! TF.ProjectId,BGASocket,42474153-6f63-46b6-9574-2e6b69636164,rev?*
G04 #@! TF.SameCoordinates,Original*
G04 #@! TF.FileFunction,Other,Fab,Bot*
%FSLAX46Y46*%
G04 Gerber Fmt 4.6, Leading zero omitted, Abs format (unit mm)*
G04 Created by KiCad (PCBNEW 5.0.2+dfsg1-1) date Tue 22 Jan 2019 02:29:04 PM CET*
%MOMM*%
%LPD*%
G01*
G04 APERTURE LIST*
%ADD10C,0.150000*%
%ADD11C,0.100000*%
%ADD12C,0.050000*%
G04 APERTURE END LIST*
D10*
G04 #@! TO.C,C106*
X147870000Y-73198000D02*
X147870000Y-74798000D01*
X147870000Y-74798000D02*
X148670000Y-74798000D01*
X148670000Y-74798000D02*
X148670000Y-73198000D01*
X148670000Y-73198000D02*
X147870000Y-73198000D01*
D11*
G04 #@! TO.C,R75*
X148671000Y-71799000D02*
X148671000Y-70199000D01*
X148671000Y-70199000D02*
X147871000Y-70199000D01*
X147871000Y-70199000D02*
X147871000Y-71799000D01*
X147871000Y-71799000D02*
X148671000Y-71799000D01*
G04 #@! TO.C,R82*
X150265000Y-71795000D02*
X150265000Y-70195000D01*
X150265000Y-70195000D02*
X149465000Y-70195000D01*
X149465000Y-70195000D02*
X149465000Y-71795000D01*
X149465000Y-71795000D02*
X150265000Y-71795000D01*
D10*
G04 #@! TO.C,C73*
X93532000Y-70186000D02*
X91932000Y-70186000D01*
X91932000Y-70186000D02*
X91932000Y-70986000D01*
X91932000Y-70986000D02*
X93532000Y-70986000D01*
X93532000Y-70986000D02*
X93532000Y-70186000D01*
G04 #@! TO.C,C65*
X93533000Y-71687000D02*
X91933000Y-71687000D01*
X91933000Y-71687000D02*
X91933000Y-72487000D01*
X91933000Y-72487000D02*
X93533000Y-72487000D01*
X93533000Y-72487000D02*
X93533000Y-71687000D01*
G04 #@! TO.C,C81*
X93532000Y-68681000D02*
X91932000Y-68681000D01*
X91932000Y-68681000D02*
X91932000Y-69481000D01*
X91932000Y-69481000D02*
X93532000Y-69481000D01*
X93532000Y-69481000D02*
X93532000Y-68681000D01*
G04 #@! TO.C,C83*
X91271000Y-53154000D02*
X92871000Y-53154000D01*
X92871000Y-53154000D02*
X92871000Y-52354000D01*
X92871000Y-52354000D02*
X91271000Y-52354000D01*
X91271000Y-52354000D02*
X91271000Y-53154000D01*
G04 #@! TO.C,C84*
X91275000Y-51649000D02*
X92875000Y-51649000D01*
X92875000Y-51649000D02*
X92875000Y-50849000D01*
X92875000Y-50849000D02*
X91275000Y-50849000D01*
X91275000Y-50849000D02*
X91275000Y-51649000D01*
D11*
G04 #@! TO.C,R16*
X130890000Y-74800000D02*
X130890000Y-73200000D01*
X130890000Y-73200000D02*
X130090000Y-73200000D01*
X130090000Y-73200000D02*
X130090000Y-74800000D01*
X130090000Y-74800000D02*
X130890000Y-74800000D01*
G04 #@! TO.C,R11*
X124540000Y-71800000D02*
X124540000Y-70200000D01*
X124540000Y-70200000D02*
X123740000Y-70200000D01*
X123740000Y-70200000D02*
X123740000Y-71800000D01*
X123740000Y-71800000D02*
X124540000Y-71800000D01*
G04 #@! TO.C,R12*
X125810000Y-74800000D02*
X125810000Y-73200000D01*
X125810000Y-73200000D02*
X125010000Y-73200000D01*
X125010000Y-73200000D02*
X125010000Y-74800000D01*
X125010000Y-74800000D02*
X125810000Y-74800000D01*
G04 #@! TO.C,R13*
X127080000Y-71800000D02*
X127080000Y-70200000D01*
X127080000Y-70200000D02*
X126280000Y-70200000D01*
X126280000Y-70200000D02*
X126280000Y-71800000D01*
X126280000Y-71800000D02*
X127080000Y-71800000D01*
G04 #@! TO.C,R14*
X128350000Y-74800000D02*
X128350000Y-73200000D01*
X128350000Y-73200000D02*
X127550000Y-73200000D01*
X127550000Y-73200000D02*
X127550000Y-74800000D01*
X127550000Y-74800000D02*
X128350000Y-74800000D01*
G04 #@! TO.C,R15*
X129620000Y-71800000D02*
X129620000Y-70200000D01*
X129620000Y-70200000D02*
X128820000Y-70200000D01*
X128820000Y-70200000D02*
X128820000Y-71800000D01*
X128820000Y-71800000D02*
X129620000Y-71800000D01*
G04 #@! TO.C,R17*
X132160000Y-71800000D02*
X132160000Y-70200000D01*
X132160000Y-70200000D02*
X131360000Y-70200000D01*
X131360000Y-70200000D02*
X131360000Y-71800000D01*
X131360000Y-71800000D02*
X132160000Y-71800000D01*
G04 #@! TO.C,R18*
X133430000Y-74800000D02*
X133430000Y-73200000D01*
X133430000Y-73200000D02*
X132630000Y-73200000D01*
X132630000Y-73200000D02*
X132630000Y-74800000D01*
X132630000Y-74800000D02*
X133430000Y-74800000D01*
G04 #@! TO.C,R19*
X134700000Y-71800000D02*
X134700000Y-70200000D01*
X134700000Y-70200000D02*
X133900000Y-70200000D01*
X133900000Y-70200000D02*
X133900000Y-71800000D01*
X133900000Y-71800000D02*
X134700000Y-71800000D01*
G04 #@! TO.C,R28*
X146130000Y-74800000D02*
X146130000Y-73200000D01*
X146130000Y-73200000D02*
X145330000Y-73200000D01*
X145330000Y-73200000D02*
X145330000Y-74800000D01*
X145330000Y-74800000D02*
X146130000Y-74800000D01*
G04 #@! TO.C,R29*
X145330000Y-113200000D02*
X145330000Y-114800000D01*
X145330000Y-114800000D02*
X146130000Y-114800000D01*
X146130000Y-114800000D02*
X146130000Y-113200000D01*
X146130000Y-113200000D02*
X145330000Y-113200000D01*
G04 #@! TO.C,R30*
X144060000Y-110200000D02*
X144060000Y-111800000D01*
X144060000Y-111800000D02*
X144860000Y-111800000D01*
X144860000Y-111800000D02*
X144860000Y-110200000D01*
X144860000Y-110200000D02*
X144060000Y-110200000D01*
G04 #@! TO.C,R31*
X142790000Y-113200000D02*
X142790000Y-114800000D01*
X142790000Y-114800000D02*
X143590000Y-114800000D01*
X143590000Y-114800000D02*
X143590000Y-113200000D01*
X143590000Y-113200000D02*
X142790000Y-113200000D01*
G04 #@! TO.C,R32*
X141520000Y-110200000D02*
X141520000Y-111800000D01*
X141520000Y-111800000D02*
X142320000Y-111800000D01*
X142320000Y-111800000D02*
X142320000Y-110200000D01*
X142320000Y-110200000D02*
X141520000Y-110200000D01*
G04 #@! TO.C,R33*
X140250000Y-113200000D02*
X140250000Y-114800000D01*
X140250000Y-114800000D02*
X141050000Y-114800000D01*
X141050000Y-114800000D02*
X141050000Y-113200000D01*
X141050000Y-113200000D02*
X140250000Y-113200000D01*
G04 #@! TO.C,R20*
X135970000Y-74800000D02*
X135970000Y-73200000D01*
X135970000Y-73200000D02*
X135170000Y-73200000D01*
X135170000Y-73200000D02*
X135170000Y-74800000D01*
X135170000Y-74800000D02*
X135970000Y-74800000D01*
G04 #@! TO.C,R35*
X137710000Y-113200000D02*
X137710000Y-114800000D01*
X137710000Y-114800000D02*
X138510000Y-114800000D01*
X138510000Y-114800000D02*
X138510000Y-113200000D01*
X138510000Y-113200000D02*
X137710000Y-113200000D01*
G04 #@! TO.C,R36*
X136440000Y-110200000D02*
X136440000Y-111800000D01*
X136440000Y-111800000D02*
X137240000Y-111800000D01*
X137240000Y-111800000D02*
X137240000Y-110200000D01*
X137240000Y-110200000D02*
X136440000Y-110200000D01*
G04 #@! TO.C,R34*
X138980000Y-110200000D02*
X138980000Y-111800000D01*
X138980000Y-111800000D02*
X139780000Y-111800000D01*
X139780000Y-111800000D02*
X139780000Y-110200000D01*
X139780000Y-110200000D02*
X138980000Y-110200000D01*
G04 #@! TO.C,R38*
X133900000Y-110200000D02*
X133900000Y-111800000D01*
X133900000Y-111800000D02*
X134700000Y-111800000D01*
X134700000Y-111800000D02*
X134700000Y-110200000D01*
X134700000Y-110200000D02*
X133900000Y-110200000D01*
G04 #@! TO.C,R27*
X144860000Y-71800000D02*
X144860000Y-70200000D01*
X144860000Y-70200000D02*
X144060000Y-70200000D01*
X144060000Y-70200000D02*
X144060000Y-71800000D01*
X144060000Y-71800000D02*
X144860000Y-71800000D01*
G04 #@! TO.C,R40*
X131360000Y-110200000D02*
X131360000Y-111800000D01*
X131360000Y-111800000D02*
X132160000Y-111800000D01*
X132160000Y-111800000D02*
X132160000Y-110200000D01*
X132160000Y-110200000D02*
X131360000Y-110200000D01*
G04 #@! TO.C,R41*
X130090000Y-113200000D02*
X130090000Y-114800000D01*
X130090000Y-114800000D02*
X130890000Y-114800000D01*
X130890000Y-114800000D02*
X130890000Y-113200000D01*
X130890000Y-113200000D02*
X130090000Y-113200000D01*
G04 #@! TO.C,R42*
X128820000Y-110200000D02*
X128820000Y-111800000D01*
X128820000Y-111800000D02*
X129620000Y-111800000D01*
X129620000Y-111800000D02*
X129620000Y-110200000D01*
X129620000Y-110200000D02*
X128820000Y-110200000D01*
G04 #@! TO.C,R43*
X127550000Y-113200000D02*
X127550000Y-114800000D01*
X127550000Y-114800000D02*
X128350000Y-114800000D01*
X128350000Y-114800000D02*
X128350000Y-113200000D01*
X128350000Y-113200000D02*
X127550000Y-113200000D01*
G04 #@! TO.C,R44*
X126280000Y-110200000D02*
X126280000Y-111800000D01*
X126280000Y-111800000D02*
X127080000Y-111800000D01*
X127080000Y-111800000D02*
X127080000Y-110200000D01*
X127080000Y-110200000D02*
X126280000Y-110200000D01*
G04 #@! TO.C,R45*
X125010000Y-113200000D02*
X125010000Y-114800000D01*
X125010000Y-114800000D02*
X125810000Y-114800000D01*
X125810000Y-114800000D02*
X125810000Y-113200000D01*
X125810000Y-113200000D02*
X125010000Y-113200000D01*
G04 #@! TO.C,R46*
X123740000Y-110200000D02*
X123740000Y-111800000D01*
X123740000Y-111800000D02*
X124540000Y-111800000D01*
X124540000Y-111800000D02*
X124540000Y-110200000D01*
X124540000Y-110200000D02*
X123740000Y-110200000D01*
G04 #@! TO.C,R37*
X135170000Y-113200000D02*
X135170000Y-114800000D01*
X135170000Y-114800000D02*
X135970000Y-114800000D01*
X135970000Y-114800000D02*
X135970000Y-113200000D01*
X135970000Y-113200000D02*
X135170000Y-113200000D01*
G04 #@! TO.C,R76*
X159784000Y-99969000D02*
X159784000Y-98369000D01*
X159784000Y-98369000D02*
X158984000Y-98369000D01*
X158984000Y-98369000D02*
X158984000Y-99969000D01*
X158984000Y-99969000D02*
X159784000Y-99969000D01*
G04 #@! TO.C,R39*
X132630000Y-113200000D02*
X132630000Y-114800000D01*
X132630000Y-114800000D02*
X133430000Y-114800000D01*
X133430000Y-114800000D02*
X133430000Y-113200000D01*
X133430000Y-113200000D02*
X132630000Y-113200000D01*
G04 #@! TO.C,R21*
X137240000Y-71800000D02*
X137240000Y-70200000D01*
X137240000Y-70200000D02*
X136440000Y-70200000D01*
X136440000Y-70200000D02*
X136440000Y-71800000D01*
X136440000Y-71800000D02*
X137240000Y-71800000D01*
G04 #@! TO.C,R22*
X138510000Y-74800000D02*
X138510000Y-73200000D01*
X138510000Y-73200000D02*
X137710000Y-73200000D01*
X137710000Y-73200000D02*
X137710000Y-74800000D01*
X137710000Y-74800000D02*
X138510000Y-74800000D01*
G04 #@! TO.C,R23*
X139780000Y-71800000D02*
X139780000Y-70200000D01*
X139780000Y-70200000D02*
X138980000Y-70200000D01*
X138980000Y-70200000D02*
X138980000Y-71800000D01*
X138980000Y-71800000D02*
X139780000Y-71800000D01*
G04 #@! TO.C,R24*
X141050000Y-74800000D02*
X141050000Y-73200000D01*
X141050000Y-73200000D02*
X140250000Y-73200000D01*
X140250000Y-73200000D02*
X140250000Y-74800000D01*
X140250000Y-74800000D02*
X141050000Y-74800000D01*
G04 #@! TO.C,R25*
X142320000Y-71800000D02*
X142320000Y-70200000D01*
X142320000Y-70200000D02*
X141520000Y-70200000D01*
X141520000Y-70200000D02*
X141520000Y-71800000D01*
X141520000Y-71800000D02*
X142320000Y-71800000D01*
G04 #@! TO.C,R26*
X143560000Y-74800000D02*
X143560000Y-73200000D01*
X143560000Y-73200000D02*
X142760000Y-73200000D01*
X142760000Y-73200000D02*
X142760000Y-74800000D01*
X142760000Y-74800000D02*
X143560000Y-74800000D01*
G04 #@! TD*
G04 #@! TO.C,U7*
D12*
X158447609Y-53784361D02*
X158304752Y-53831980D01*
X158066657Y-53831980D01*
X157971419Y-53784361D01*
X157923800Y-53736742D01*
X157876180Y-53641504D01*
X157876180Y-53546266D01*
X157923800Y-53451028D01*
X157971419Y-53403409D01*
X158066657Y-53355790D01*
X158257133Y-53308171D01*
X158352371Y-53260552D01*
X158399990Y-53212933D01*
X158447609Y-53117695D01*
X158447609Y-53022457D01*
X158399990Y-52927219D01*
X158352371Y-52879600D01*
X158257133Y-52831980D01*
X158019038Y-52831980D01*
X157876180Y-52879600D01*
X157447609Y-53831980D02*
X157447609Y-53165314D01*
X157447609Y-52831980D02*
X157495228Y-52879600D01*
X157447609Y-52927219D01*
X157399990Y-52879600D01*
X157447609Y-52831980D01*
X157447609Y-52927219D01*
X156971419Y-53831980D02*
X156971419Y-52831980D01*
X156590466Y-52831980D01*
X156495228Y-52879600D01*
X156447609Y-52927219D01*
X156399990Y-53022457D01*
X156399990Y-53165314D01*
X156447609Y-53260552D01*
X156495228Y-53308171D01*
X156590466Y-53355790D01*
X156971419Y-53355790D01*
X155971419Y-53831980D02*
X155971419Y-52831980D01*
X155638085Y-53546266D01*
X155304752Y-52831980D01*
X155304752Y-53831980D01*
X155066657Y-53927219D02*
X154304752Y-53927219D01*
X154114276Y-53784361D02*
X153971419Y-53831980D01*
X153733323Y-53831980D01*
X153638085Y-53784361D01*
X153590466Y-53736742D01*
X153542847Y-53641504D01*
X153542847Y-53546266D01*
X153590466Y-53451028D01*
X153638085Y-53403409D01*
X153733323Y-53355790D01*
X153923800Y-53308171D01*
X154019038Y-53260552D01*
X154066657Y-53212933D01*
X154114276Y-53117695D01*
X154114276Y-53022457D01*
X154066657Y-52927219D01*
X154019038Y-52879600D01*
X153923800Y-52831980D01*
X153685704Y-52831980D01*
X153542847Y-52879600D01*
X153114276Y-53831980D02*
X153114276Y-52831980D01*
X152780942Y-53546266D01*
X152447609Y-52831980D01*
X152447609Y-53831980D01*
X151971419Y-53831980D02*
X151971419Y-52831980D01*
X151733323Y-52831980D01*
X151590466Y-52879600D01*
X151495228Y-52974838D01*
X151447609Y-53070076D01*
X151399990Y-53260552D01*
X151399990Y-53403409D01*
X151447609Y-53593885D01*
X151495228Y-53689123D01*
X151590466Y-53784361D01*
X151733323Y-53831980D01*
X151971419Y-53831980D01*
G04 #@! TO.C,C106*
D10*
X150527142Y-74307523D02*
X150574761Y-74259904D01*
X150622380Y-74117047D01*
X150622380Y-74021809D01*
X150574761Y-73878952D01*
X150479523Y-73783714D01*
X150384285Y-73736095D01*
X150193809Y-73688476D01*
X150050952Y-73688476D01*
X149860476Y-73736095D01*
X149765238Y-73783714D01*
X149670000Y-73878952D01*
X149622380Y-74021809D01*
X149622380Y-74117047D01*
X149670000Y-74259904D01*
X149717619Y-74307523D01*
G04 #@! TO.C,R75*
X146823380Y-68689476D02*
X146823380Y-68118047D01*
X146823380Y-68403761D02*
X145823380Y-68403761D01*
X145966238Y-68308523D01*
X146061476Y-68213285D01*
X146109095Y-68118047D01*
X146823380Y-69118047D02*
X145823380Y-69118047D01*
X146442428Y-69213285D02*
X146823380Y-69499000D01*
X146156714Y-69499000D02*
X146537666Y-69118047D01*
X147204333Y-70213285D02*
X147156714Y-70165666D01*
X147013857Y-70070428D01*
X146918619Y-70022809D01*
X146775761Y-69975190D01*
X146537666Y-69927571D01*
X146347190Y-69927571D01*
X146109095Y-69975190D01*
X145966238Y-70022809D01*
X145871000Y-70070428D01*
X145728142Y-70165666D01*
X145680523Y-70213285D01*
X146823380Y-70594238D02*
X145823380Y-70594238D01*
X145823380Y-70832333D01*
X145871000Y-70975190D01*
X145966238Y-71070428D01*
X146061476Y-71118047D01*
X146251952Y-71165666D01*
X146394809Y-71165666D01*
X146585285Y-71118047D01*
X146680523Y-71070428D01*
X146775761Y-70975190D01*
X146823380Y-70832333D01*
X146823380Y-70594238D01*
X146823380Y-71594238D02*
X145823380Y-71594238D01*
X146823380Y-72165666D01*
X145823380Y-72165666D01*
X146823380Y-72641857D02*
X145823380Y-72641857D01*
X145823380Y-73022809D01*
X145871000Y-73118047D01*
X145918619Y-73165666D01*
X146013857Y-73213285D01*
X146156714Y-73213285D01*
X146251952Y-73165666D01*
X146299571Y-73118047D01*
X146347190Y-73022809D01*
X146347190Y-72641857D01*
X147204333Y-73546619D02*
X147156714Y-73594238D01*
X147013857Y-73689476D01*
X146918619Y-73737095D01*
X146775761Y-73784714D01*
X146537666Y-73832333D01*
X146347190Y-73832333D01*
X146109095Y-73784714D01*
X145966238Y-73737095D01*
X145871000Y-73689476D01*
X145728142Y-73594238D01*
X145680523Y-73546619D01*
G04 #@! TO.C,R82*
X147417380Y-68756904D02*
X147417380Y-68852142D01*
X147465000Y-68947380D01*
X147512619Y-68995000D01*
X147607857Y-69042619D01*
X147798333Y-69090238D01*
X148036428Y-69090238D01*
X148226904Y-69042619D01*
X148322142Y-68995000D01*
X148369761Y-68947380D01*
X148417380Y-68852142D01*
X148417380Y-68756904D01*
X148369761Y-68661666D01*
X148322142Y-68614047D01*
X148226904Y-68566428D01*
X148036428Y-68518809D01*
X147798333Y-68518809D01*
X147607857Y-68566428D01*
X147512619Y-68614047D01*
X147465000Y-68661666D01*
X147417380Y-68756904D01*
X148798333Y-69804523D02*
X148750714Y-69756904D01*
X148607857Y-69661666D01*
X148512619Y-69614047D01*
X148369761Y-69566428D01*
X148131666Y-69518809D01*
X147941190Y-69518809D01*
X147703095Y-69566428D01*
X147560238Y-69614047D01*
X147465000Y-69661666D01*
X147322142Y-69756904D01*
X147274523Y-69804523D01*
X148417380Y-70185476D02*
X147417380Y-70185476D01*
X147417380Y-70423571D01*
X147465000Y-70566428D01*
X147560238Y-70661666D01*
X147655476Y-70709285D01*
X147845952Y-70756904D01*
X147988809Y-70756904D01*
X148179285Y-70709285D01*
X148274523Y-70661666D01*
X148369761Y-70566428D01*
X148417380Y-70423571D01*
X148417380Y-70185476D01*
X148417380Y-71185476D02*
X147417380Y-71185476D01*
X148417380Y-71756904D01*
X147417380Y-71756904D01*
X148417380Y-72233095D02*
X147417380Y-72233095D01*
X147417380Y-72614047D01*
X147465000Y-72709285D01*
X147512619Y-72756904D01*
X147607857Y-72804523D01*
X147750714Y-72804523D01*
X147845952Y-72756904D01*
X147893571Y-72709285D01*
X147941190Y-72614047D01*
X147941190Y-72233095D01*
X148798333Y-73137857D02*
X148750714Y-73185476D01*
X148607857Y-73280714D01*
X148512619Y-73328333D01*
X148369761Y-73375952D01*
X148131666Y-73423571D01*
X147941190Y-73423571D01*
X147703095Y-73375952D01*
X147560238Y-73328333D01*
X147465000Y-73280714D01*
X147322142Y-73185476D01*
X147274523Y-73137857D01*
G04 #@! TO.C,C73*
X92898666Y-72938380D02*
X93470095Y-72938380D01*
X93184380Y-72938380D02*
X93184380Y-71938380D01*
X93279619Y-72081238D01*
X93374857Y-72176476D01*
X93470095Y-72224095D01*
X92041523Y-72271714D02*
X92041523Y-72938380D01*
X92470095Y-72271714D02*
X92470095Y-72795523D01*
X92422476Y-72890761D01*
X92327238Y-72938380D01*
X92184380Y-72938380D01*
X92089142Y-72890761D01*
X92041523Y-72843142D01*
G04 #@! TO.C,C65*
X93947285Y-73439380D02*
X93852047Y-73439380D01*
X93756809Y-73487000D01*
X93709190Y-73534619D01*
X93661571Y-73629857D01*
X93613952Y-73820333D01*
X93613952Y-74058428D01*
X93661571Y-74248904D01*
X93709190Y-74344142D01*
X93756809Y-74391761D01*
X93852047Y-74439380D01*
X93947285Y-74439380D01*
X94042523Y-74391761D01*
X94090142Y-74344142D01*
X94137761Y-74248904D01*
X94185380Y-74058428D01*
X94185380Y-73820333D01*
X94137761Y-73629857D01*
X94090142Y-73534619D01*
X94042523Y-73487000D01*
X93947285Y-73439380D01*
X93185380Y-74344142D02*
X93137761Y-74391761D01*
X93185380Y-74439380D01*
X93233000Y-74391761D01*
X93185380Y-74344142D01*
X93185380Y-74439380D01*
X92185380Y-74439380D02*
X92756809Y-74439380D01*
X92471095Y-74439380D02*
X92471095Y-73439380D01*
X92566333Y-73582238D01*
X92661571Y-73677476D01*
X92756809Y-73725095D01*
X91328238Y-73772714D02*
X91328238Y-74439380D01*
X91756809Y-73772714D02*
X91756809Y-74296523D01*
X91709190Y-74391761D01*
X91613952Y-74439380D01*
X91471095Y-74439380D01*
X91375857Y-74391761D01*
X91328238Y-74344142D01*
G04 #@! TO.C,C81*
X93374857Y-71433380D02*
X93946285Y-71433380D01*
X93660571Y-71433380D02*
X93660571Y-70433380D01*
X93755809Y-70576238D01*
X93851047Y-70671476D01*
X93946285Y-70719095D01*
X92755809Y-70433380D02*
X92660571Y-70433380D01*
X92565333Y-70481000D01*
X92517714Y-70528619D01*
X92470095Y-70623857D01*
X92422476Y-70814333D01*
X92422476Y-71052428D01*
X92470095Y-71242904D01*
X92517714Y-71338142D01*
X92565333Y-71385761D01*
X92660571Y-71433380D01*
X92755809Y-71433380D01*
X92851047Y-71385761D01*
X92898666Y-71338142D01*
X92946285Y-71242904D01*
X92993904Y-71052428D01*
X92993904Y-70814333D01*
X92946285Y-70623857D01*
X92898666Y-70528619D01*
X92851047Y-70481000D01*
X92755809Y-70433380D01*
X91565333Y-70766714D02*
X91565333Y-71433380D01*
X91993904Y-70766714D02*
X91993904Y-71290523D01*
X91946285Y-71385761D01*
X91851047Y-71433380D01*
X91708190Y-71433380D01*
X91612952Y-71385761D01*
X91565333Y-71338142D01*
G04 #@! TO.C,C83*
X93190047Y-51306380D02*
X93761476Y-51306380D01*
X93475761Y-51306380D02*
X93475761Y-50306380D01*
X93570999Y-50449238D01*
X93666238Y-50544476D01*
X93761476Y-50592095D01*
X92570999Y-50306380D02*
X92475761Y-50306380D01*
X92380523Y-50354000D01*
X92332904Y-50401619D01*
X92285285Y-50496857D01*
X92237666Y-50687333D01*
X92237666Y-50925428D01*
X92285285Y-51115904D01*
X92332904Y-51211142D01*
X92380523Y-51258761D01*
X92475761Y-51306380D01*
X92570999Y-51306380D01*
X92666238Y-51258761D01*
X92713857Y-51211142D01*
X92761476Y-51115904D01*
X92809095Y-50925428D01*
X92809095Y-50687333D01*
X92761476Y-50496857D01*
X92713857Y-50401619D01*
X92666238Y-50354000D01*
X92570999Y-50306380D01*
X91618619Y-50306380D02*
X91523380Y-50306380D01*
X91428142Y-50354000D01*
X91380523Y-50401619D01*
X91332904Y-50496857D01*
X91285285Y-50687333D01*
X91285285Y-50925428D01*
X91332904Y-51115904D01*
X91380523Y-51211142D01*
X91428142Y-51258761D01*
X91523380Y-51306380D01*
X91618619Y-51306380D01*
X91713857Y-51258761D01*
X91761476Y-51211142D01*
X91809095Y-51115904D01*
X91856714Y-50925428D01*
X91856714Y-50687333D01*
X91809095Y-50496857D01*
X91761476Y-50401619D01*
X91713857Y-50354000D01*
X91618619Y-50306380D01*
X90856714Y-50639714D02*
X90856714Y-51306380D01*
X90856714Y-50734952D02*
X90809095Y-50687333D01*
X90713857Y-50639714D01*
X90570999Y-50639714D01*
X90475761Y-50687333D01*
X90428142Y-50782571D01*
X90428142Y-51306380D01*
G04 #@! TO.C,C84*
X92241666Y-49801380D02*
X92813095Y-49801380D01*
X92527380Y-49801380D02*
X92527380Y-48801380D01*
X92622619Y-48944238D01*
X92717857Y-49039476D01*
X92813095Y-49087095D01*
X91384523Y-49134714D02*
X91384523Y-49801380D01*
X91813095Y-49134714D02*
X91813095Y-49658523D01*
X91765476Y-49753761D01*
X91670238Y-49801380D01*
X91527380Y-49801380D01*
X91432142Y-49753761D01*
X91384523Y-49706142D01*
G04 #@! TO.C,R16*
X129042380Y-73880952D02*
X129042380Y-73309523D01*
X129042380Y-73595238D02*
X128042380Y-73595238D01*
X128185238Y-73500000D01*
X128280476Y-73404761D01*
X128328095Y-73309523D01*
X129042380Y-74309523D02*
X128042380Y-74309523D01*
X128661428Y-74404761D02*
X129042380Y-74690476D01*
X128375714Y-74690476D02*
X128756666Y-74309523D01*
G04 #@! TO.C,R11*
X122692380Y-70880952D02*
X122692380Y-70309523D01*
X122692380Y-70595238D02*
X121692380Y-70595238D01*
X121835238Y-70500000D01*
X121930476Y-70404761D01*
X121978095Y-70309523D01*
X122692380Y-71309523D02*
X121692380Y-71309523D01*
X122311428Y-71404761D02*
X122692380Y-71690476D01*
X122025714Y-71690476D02*
X122406666Y-71309523D01*
G04 #@! TO.C,R12*
X123962380Y-73880952D02*
X123962380Y-73309523D01*
X123962380Y-73595238D02*
X122962380Y-73595238D01*
X123105238Y-73500000D01*
X123200476Y-73404761D01*
X123248095Y-73309523D01*
X123962380Y-74309523D02*
X122962380Y-74309523D01*
X123581428Y-74404761D02*
X123962380Y-74690476D01*
X123295714Y-74690476D02*
X123676666Y-74309523D01*
G04 #@! TO.C,R13*
X125232380Y-70880952D02*
X125232380Y-70309523D01*
X125232380Y-70595238D02*
X124232380Y-70595238D01*
X124375238Y-70500000D01*
X124470476Y-70404761D01*
X124518095Y-70309523D01*
X125232380Y-71309523D02*
X124232380Y-71309523D01*
X124851428Y-71404761D02*
X125232380Y-71690476D01*
X124565714Y-71690476D02*
X124946666Y-71309523D01*
G04 #@! TO.C,R14*
X126502380Y-73880952D02*
X126502380Y-73309523D01*
X126502380Y-73595238D02*
X125502380Y-73595238D01*
X125645238Y-73500000D01*
X125740476Y-73404761D01*
X125788095Y-73309523D01*
X126502380Y-74309523D02*
X125502380Y-74309523D01*
X126121428Y-74404761D02*
X126502380Y-74690476D01*
X125835714Y-74690476D02*
X126216666Y-74309523D01*
G04 #@! TO.C,R15*
X127772380Y-70880952D02*
X127772380Y-70309523D01*
X127772380Y-70595238D02*
X126772380Y-70595238D01*
X126915238Y-70500000D01*
X127010476Y-70404761D01*
X127058095Y-70309523D01*
X127772380Y-71309523D02*
X126772380Y-71309523D01*
X127391428Y-71404761D02*
X127772380Y-71690476D01*
X127105714Y-71690476D02*
X127486666Y-71309523D01*
G04 #@! TO.C,R17*
X130312380Y-70880952D02*
X130312380Y-70309523D01*
X130312380Y-70595238D02*
X129312380Y-70595238D01*
X129455238Y-70500000D01*
X129550476Y-70404761D01*
X129598095Y-70309523D01*
X130312380Y-71309523D02*
X129312380Y-71309523D01*
X129931428Y-71404761D02*
X130312380Y-71690476D01*
X129645714Y-71690476D02*
X130026666Y-71309523D01*
G04 #@! TO.C,R18*
X131582380Y-73880952D02*
X131582380Y-73309523D01*
X131582380Y-73595238D02*
X130582380Y-73595238D01*
X130725238Y-73500000D01*
X130820476Y-73404761D01*
X130868095Y-73309523D01*
X131582380Y-74309523D02*
X130582380Y-74309523D01*
X131201428Y-74404761D02*
X131582380Y-74690476D01*
X130915714Y-74690476D02*
X131296666Y-74309523D01*
G04 #@! TO.C,R19*
X132852380Y-70880952D02*
X132852380Y-70309523D01*
X132852380Y-70595238D02*
X131852380Y-70595238D01*
X131995238Y-70500000D01*
X132090476Y-70404761D01*
X132138095Y-70309523D01*
X132852380Y-71309523D02*
X131852380Y-71309523D01*
X132471428Y-71404761D02*
X132852380Y-71690476D01*
X132185714Y-71690476D02*
X132566666Y-71309523D01*
G04 #@! TO.C,R28*
X144282380Y-73880952D02*
X144282380Y-73309523D01*
X144282380Y-73595238D02*
X143282380Y-73595238D01*
X143425238Y-73500000D01*
X143520476Y-73404761D01*
X143568095Y-73309523D01*
X144282380Y-74309523D02*
X143282380Y-74309523D01*
X143901428Y-74404761D02*
X144282380Y-74690476D01*
X143615714Y-74690476D02*
X143996666Y-74309523D01*
G04 #@! TO.C,R29*
X148082380Y-113880952D02*
X148082380Y-113309523D01*
X148082380Y-113595238D02*
X147082380Y-113595238D01*
X147225238Y-113500000D01*
X147320476Y-113404761D01*
X147368095Y-113309523D01*
X148082380Y-114309523D02*
X147082380Y-114309523D01*
X147701428Y-114404761D02*
X148082380Y-114690476D01*
X147415714Y-114690476D02*
X147796666Y-114309523D01*
G04 #@! TO.C,R30*
X146812380Y-110880952D02*
X146812380Y-110309523D01*
X146812380Y-110595238D02*
X145812380Y-110595238D01*
X145955238Y-110500000D01*
X146050476Y-110404761D01*
X146098095Y-110309523D01*
X146812380Y-111309523D02*
X145812380Y-111309523D01*
X146431428Y-111404761D02*
X146812380Y-111690476D01*
X146145714Y-111690476D02*
X146526666Y-111309523D01*
G04 #@! TO.C,R31*
X145542380Y-113880952D02*
X145542380Y-113309523D01*
X145542380Y-113595238D02*
X144542380Y-113595238D01*
X144685238Y-113500000D01*
X144780476Y-113404761D01*
X144828095Y-113309523D01*
X145542380Y-114309523D02*
X144542380Y-114309523D01*
X145161428Y-114404761D02*
X145542380Y-114690476D01*
X144875714Y-114690476D02*
X145256666Y-114309523D01*
G04 #@! TO.C,R32*
X144272380Y-110880952D02*
X144272380Y-110309523D01*
X144272380Y-110595238D02*
X143272380Y-110595238D01*
X143415238Y-110500000D01*
X143510476Y-110404761D01*
X143558095Y-110309523D01*
X144272380Y-111309523D02*
X143272380Y-111309523D01*
X143891428Y-111404761D02*
X144272380Y-111690476D01*
X143605714Y-111690476D02*
X143986666Y-111309523D01*
G04 #@! TO.C,R33*
X143002380Y-113880952D02*
X143002380Y-113309523D01*
X143002380Y-113595238D02*
X142002380Y-113595238D01*
X142145238Y-113500000D01*
X142240476Y-113404761D01*
X142288095Y-113309523D01*
X143002380Y-114309523D02*
X142002380Y-114309523D01*
X142621428Y-114404761D02*
X143002380Y-114690476D01*
X142335714Y-114690476D02*
X142716666Y-114309523D01*
G04 #@! TO.C,R20*
X134122380Y-73880952D02*
X134122380Y-73309523D01*
X134122380Y-73595238D02*
X133122380Y-73595238D01*
X133265238Y-73500000D01*
X133360476Y-73404761D01*
X133408095Y-73309523D01*
X134122380Y-74309523D02*
X133122380Y-74309523D01*
X133741428Y-74404761D02*
X134122380Y-74690476D01*
X133455714Y-74690476D02*
X133836666Y-74309523D01*
G04 #@! TO.C,R35*
X140462380Y-113880952D02*
X140462380Y-113309523D01*
X140462380Y-113595238D02*
X139462380Y-113595238D01*
X139605238Y-113500000D01*
X139700476Y-113404761D01*
X139748095Y-113309523D01*
X140462380Y-114309523D02*
X139462380Y-114309523D01*
X140081428Y-114404761D02*
X140462380Y-114690476D01*
X139795714Y-114690476D02*
X140176666Y-114309523D01*
G04 #@! TO.C,R36*
X139192380Y-110880952D02*
X139192380Y-110309523D01*
X139192380Y-110595238D02*
X138192380Y-110595238D01*
X138335238Y-110500000D01*
X138430476Y-110404761D01*
X138478095Y-110309523D01*
X139192380Y-111309523D02*
X138192380Y-111309523D01*
X138811428Y-111404761D02*
X139192380Y-111690476D01*
X138525714Y-111690476D02*
X138906666Y-111309523D01*
G04 #@! TO.C,R34*
X141732380Y-110880952D02*
X141732380Y-110309523D01*
X141732380Y-110595238D02*
X140732380Y-110595238D01*
X140875238Y-110500000D01*
X140970476Y-110404761D01*
X141018095Y-110309523D01*
X141732380Y-111309523D02*
X140732380Y-111309523D01*
X141351428Y-111404761D02*
X141732380Y-111690476D01*
X141065714Y-111690476D02*
X141446666Y-111309523D01*
G04 #@! TO.C,R38*
X136652380Y-110880952D02*
X136652380Y-110309523D01*
X136652380Y-110595238D02*
X135652380Y-110595238D01*
X135795238Y-110500000D01*
X135890476Y-110404761D01*
X135938095Y-110309523D01*
X136652380Y-111309523D02*
X135652380Y-111309523D01*
X136271428Y-111404761D02*
X136652380Y-111690476D01*
X135985714Y-111690476D02*
X136366666Y-111309523D01*
G04 #@! TO.C,R27*
X143012380Y-70880952D02*
X143012380Y-70309523D01*
X143012380Y-70595238D02*
X142012380Y-70595238D01*
X142155238Y-70500000D01*
X142250476Y-70404761D01*
X142298095Y-70309523D01*
X143012380Y-71309523D02*
X142012380Y-71309523D01*
X142631428Y-71404761D02*
X143012380Y-71690476D01*
X142345714Y-71690476D02*
X142726666Y-71309523D01*
G04 #@! TO.C,R40*
X134112380Y-110880952D02*
X134112380Y-110309523D01*
X134112380Y-110595238D02*
X133112380Y-110595238D01*
X133255238Y-110500000D01*
X133350476Y-110404761D01*
X133398095Y-110309523D01*
X134112380Y-111309523D02*
X133112380Y-111309523D01*
X133731428Y-111404761D02*
X134112380Y-111690476D01*
X133445714Y-111690476D02*
X133826666Y-111309523D01*
G04 #@! TO.C,R41*
X132842380Y-113880952D02*
X132842380Y-113309523D01*
X132842380Y-113595238D02*
X131842380Y-113595238D01*
X131985238Y-113500000D01*
X132080476Y-113404761D01*
X132128095Y-113309523D01*
X132842380Y-114309523D02*
X131842380Y-114309523D01*
X132461428Y-114404761D02*
X132842380Y-114690476D01*
X132175714Y-114690476D02*
X132556666Y-114309523D01*
G04 #@! TO.C,R42*
X131572380Y-110880952D02*
X131572380Y-110309523D01*
X131572380Y-110595238D02*
X130572380Y-110595238D01*
X130715238Y-110500000D01*
X130810476Y-110404761D01*
X130858095Y-110309523D01*
X131572380Y-111309523D02*
X130572380Y-111309523D01*
X131191428Y-111404761D02*
X131572380Y-111690476D01*
X130905714Y-111690476D02*
X131286666Y-111309523D01*
G04 #@! TO.C,R43*
X130302380Y-113880952D02*
X130302380Y-113309523D01*
X130302380Y-113595238D02*
X129302380Y-113595238D01*
X129445238Y-113500000D01*
X129540476Y-113404761D01*
X129588095Y-113309523D01*
X130302380Y-114309523D02*
X129302380Y-114309523D01*
X129921428Y-114404761D02*
X130302380Y-114690476D01*
X129635714Y-114690476D02*
X130016666Y-114309523D01*
G04 #@! TO.C,R44*
X129032380Y-110880952D02*
X129032380Y-110309523D01*
X129032380Y-110595238D02*
X128032380Y-110595238D01*
X128175238Y-110500000D01*
X128270476Y-110404761D01*
X128318095Y-110309523D01*
X129032380Y-111309523D02*
X128032380Y-111309523D01*
X128651428Y-111404761D02*
X129032380Y-111690476D01*
X128365714Y-111690476D02*
X128746666Y-111309523D01*
G04 #@! TO.C,R45*
X127762380Y-113880952D02*
X127762380Y-113309523D01*
X127762380Y-113595238D02*
X126762380Y-113595238D01*
X126905238Y-113500000D01*
X127000476Y-113404761D01*
X127048095Y-113309523D01*
X127762380Y-114309523D02*
X126762380Y-114309523D01*
X127381428Y-114404761D02*
X127762380Y-114690476D01*
X127095714Y-114690476D02*
X127476666Y-114309523D01*
G04 #@! TO.C,R46*
X126492380Y-110880952D02*
X126492380Y-110309523D01*
X126492380Y-110595238D02*
X125492380Y-110595238D01*
X125635238Y-110500000D01*
X125730476Y-110404761D01*
X125778095Y-110309523D01*
X126492380Y-111309523D02*
X125492380Y-111309523D01*
X126111428Y-111404761D02*
X126492380Y-111690476D01*
X125825714Y-111690476D02*
X126206666Y-111309523D01*
G04 #@! TO.C,R37*
X137922380Y-113880952D02*
X137922380Y-113309523D01*
X137922380Y-113595238D02*
X136922380Y-113595238D01*
X137065238Y-113500000D01*
X137160476Y-113404761D01*
X137208095Y-113309523D01*
X137922380Y-114309523D02*
X136922380Y-114309523D01*
X137541428Y-114404761D02*
X137922380Y-114690476D01*
X137255714Y-114690476D02*
X137636666Y-114309523D01*
G04 #@! TO.C,R76*
X156936380Y-98930904D02*
X156936380Y-98454714D01*
X157412571Y-98407095D01*
X157364952Y-98454714D01*
X157317333Y-98549952D01*
X157317333Y-98788047D01*
X157364952Y-98883285D01*
X157412571Y-98930904D01*
X157507809Y-98978523D01*
X157745904Y-98978523D01*
X157841142Y-98930904D01*
X157888761Y-98883285D01*
X157936380Y-98788047D01*
X157936380Y-98549952D01*
X157888761Y-98454714D01*
X157841142Y-98407095D01*
X156936380Y-99597571D02*
X156936380Y-99692809D01*
X156984000Y-99788047D01*
X157031619Y-99835666D01*
X157126857Y-99883285D01*
X157317333Y-99930904D01*
X157555428Y-99930904D01*
X157745904Y-99883285D01*
X157841142Y-99835666D01*
X157888761Y-99788047D01*
X157936380Y-99692809D01*
X157936380Y-99597571D01*
X157888761Y-99502333D01*
X157841142Y-99454714D01*
X157745904Y-99407095D01*
X157555428Y-99359476D01*
X157317333Y-99359476D01*
X157126857Y-99407095D01*
X157031619Y-99454714D01*
X156984000Y-99502333D01*
X156936380Y-99597571D01*
G04 #@! TO.C,R39*
X135382380Y-113880952D02*
X135382380Y-113309523D01*
X135382380Y-113595238D02*
X134382380Y-113595238D01*
X134525238Y-113500000D01*
X134620476Y-113404761D01*
X134668095Y-113309523D01*
X135382380Y-114309523D02*
X134382380Y-114309523D01*
X135001428Y-114404761D02*
X135382380Y-114690476D01*
X134715714Y-114690476D02*
X135096666Y-114309523D01*
G04 #@! TO.C,R21*
X135392380Y-70880952D02*
X135392380Y-70309523D01*
X135392380Y-70595238D02*
X134392380Y-70595238D01*
X134535238Y-70500000D01*
X134630476Y-70404761D01*
X134678095Y-70309523D01*
X135392380Y-71309523D02*
X134392380Y-71309523D01*
X135011428Y-71404761D02*
X135392380Y-71690476D01*
X134725714Y-71690476D02*
X135106666Y-71309523D01*
G04 #@! TO.C,R22*
X136662380Y-73880952D02*
X136662380Y-73309523D01*
X136662380Y-73595238D02*
X135662380Y-73595238D01*
X135805238Y-73500000D01*
X135900476Y-73404761D01*
X135948095Y-73309523D01*
X136662380Y-74309523D02*
X135662380Y-74309523D01*
X136281428Y-74404761D02*
X136662380Y-74690476D01*
X135995714Y-74690476D02*
X136376666Y-74309523D01*
G04 #@! TO.C,R23*
X137932380Y-70880952D02*
X137932380Y-70309523D01*
X137932380Y-70595238D02*
X136932380Y-70595238D01*
X137075238Y-70500000D01*
X137170476Y-70404761D01*
X137218095Y-70309523D01*
X137932380Y-71309523D02*
X136932380Y-71309523D01*
X137551428Y-71404761D02*
X137932380Y-71690476D01*
X137265714Y-71690476D02*
X137646666Y-71309523D01*
G04 #@! TO.C,R24*
X139202380Y-73880952D02*
X139202380Y-73309523D01*
X139202380Y-73595238D02*
X138202380Y-73595238D01*
X138345238Y-73500000D01*
X138440476Y-73404761D01*
X138488095Y-73309523D01*
X139202380Y-74309523D02*
X138202380Y-74309523D01*
X138821428Y-74404761D02*
X139202380Y-74690476D01*
X138535714Y-74690476D02*
X138916666Y-74309523D01*
G04 #@! TO.C,R25*
X140472380Y-70880952D02*
X140472380Y-70309523D01*
X140472380Y-70595238D02*
X139472380Y-70595238D01*
X139615238Y-70500000D01*
X139710476Y-70404761D01*
X139758095Y-70309523D01*
X140472380Y-71309523D02*
X139472380Y-71309523D01*
X140091428Y-71404761D02*
X140472380Y-71690476D01*
X139805714Y-71690476D02*
X140186666Y-71309523D01*
G04 #@! TO.C,R26*
X141712380Y-73880952D02*
X141712380Y-73309523D01*
X141712380Y-73595238D02*
X140712380Y-73595238D01*
X140855238Y-73500000D01*
X140950476Y-73404761D01*
X140998095Y-73309523D01*
X141712380Y-74309523D02*
X140712380Y-74309523D01*
X141331428Y-74404761D02*
X141712380Y-74690476D01*
X141045714Y-74690476D02*
X141426666Y-74309523D01*
G04 #@! TD*
M02*
