(module Conn_2X3 (layer F.Cu) (tedit 598D6091)
  (fp_text reference REF** (at -1.5748 0.8556 90) (layer F.SilkS)
    (effects (font (size 1 1) (thickness 0.15)))
  )
  (fp_text value Conn_2X3 (at 2.3622 -2.0494) (layer F.Fab)
    (effects (font (size 1 1) (thickness 0.15)))
  )
  (fp_line (start -0.7874 3.3274) (end 5.8674 3.3274) (layer F.SilkS) (width 0.05))
  (fp_line (start 5.8674 3.3274) (end 5.8674 -0.7874) (layer F.SilkS) (width 0.05))
  (fp_line (start 5.8674 -0.7874) (end -0.7874 -0.7874) (layer F.SilkS) (width 0.05))
  (fp_line (start -0.7874 -0.7874) (end -0.7874 3.3274) (layer F.SilkS) (width 0.05))
  (pad 1 thru_hole rect (at 0 2.54) (size 1.524 1.524) (drill 0.762) (layers *.Cu *.Mask))
  (pad 2 thru_hole circle (at 0 0) (size 1.524 1.524) (drill 0.762) (layers *.Cu *.Mask))
  (pad 3 thru_hole circle (at 2.54 2.54) (size 1.524 1.524) (drill 0.762) (layers *.Cu *.Mask))
  (pad 4 thru_hole circle (at 2.54 0) (size 1.524 1.524) (drill 0.762) (layers *.Cu *.Mask))
  (pad 5 thru_hole circle (at 5.08 2.54) (size 1.524 1.524) (drill 0.762) (layers *.Cu *.Mask))
  (pad 6 thru_hole circle (at 5.08 0) (size 1.524 1.524) (drill 0.762) (layers *.Cu *.Mask))
)
