(module MC33996EK (layer F.Cu) (tedit 5A7AF466)
  (fp_text reference REF** (at 5.2578 -1.7272) (layer F.SilkS)
    (effects (font (size 1 1) (thickness 0.05)))
  )
  (fp_text value MC33996EK (at 4.7752 11.1252) (layer F.Fab)
    (effects (font (size 1 1) (thickness 0.05)))
  )
  (fp_circle (center 1.6256 0.6096) (end 2.0066 0.635) (layer F.SilkS) (width 0.15))
  (fp_line (start 1.016 9.8806) (end 1.143 9.8806) (layer F.SilkS) (width 0.1))
  (fp_line (start 1.016 0) (end 1.016 9.8806) (layer F.SilkS) (width 0.1))
  (fp_line (start 8.0518 0) (end 1.016 0) (layer F.SilkS) (width 0.1))
  (fp_line (start 8.0518 9.8806) (end 8.0518 0) (layer F.SilkS) (width 0.1))
  (fp_line (start 1.1684 9.8806) (end 8.0518 9.8806) (layer F.SilkS) (width 0.1))
  (pad 33 smd rect (at 4.65 4.875) (size 4.4 5.5) (layers F.Cu F.Paste F.Mask))
  (pad 32 smd rect (at 9.1 0) (size 1.6 0.4) (layers F.Cu F.Paste F.Mask))
  (pad 31 smd rect (at 9.1 0.65) (size 1.6 0.4) (layers F.Cu F.Paste F.Mask))
  (pad 30 smd rect (at 9.1 1.3) (size 1.6 0.4) (layers F.Cu F.Paste F.Mask))
  (pad 29 smd rect (at 9.1 1.95) (size 1.6 0.4) (layers F.Cu F.Paste F.Mask))
  (pad 28 smd rect (at 9.1 2.6) (size 1.6 0.4) (layers F.Cu F.Paste F.Mask))
  (pad 27 smd rect (at 9.1 3.25) (size 1.6 0.4) (layers F.Cu F.Paste F.Mask))
  (pad 26 smd rect (at 9.1 3.9) (size 1.6 0.4) (layers F.Cu F.Paste F.Mask))
  (pad 25 smd rect (at 9.1 4.55) (size 1.6 0.4) (layers F.Cu F.Paste F.Mask))
  (pad 24 smd rect (at 9.1 5.2) (size 1.6 0.4) (layers F.Cu F.Paste F.Mask))
  (pad 23 smd rect (at 9.1 5.85) (size 1.6 0.4) (layers F.Cu F.Paste F.Mask))
  (pad 22 smd rect (at 9.1 6.5) (size 1.6 0.4) (layers F.Cu F.Paste F.Mask))
  (pad 21 smd rect (at 9.1 7.15) (size 1.6 0.4) (layers F.Cu F.Paste F.Mask))
  (pad 20 smd rect (at 9.1 7.8) (size 1.6 0.4) (layers F.Cu F.Paste F.Mask))
  (pad 19 smd rect (at 9.1 8.45) (size 1.6 0.4) (layers F.Cu F.Paste F.Mask))
  (pad 18 smd rect (at 9.1 9.1) (size 1.6 0.4) (layers F.Cu F.Paste F.Mask))
  (pad 17 smd rect (at 9.1 9.75) (size 1.6 0.4) (layers F.Cu F.Paste F.Mask))
  (pad 16 smd rect (at 0 9.75) (size 1.6 0.4) (layers F.Cu F.Paste F.Mask))
  (pad 15 smd rect (at 0 9.1) (size 1.6 0.4) (layers F.Cu F.Paste F.Mask))
  (pad 14 smd rect (at 0 8.45) (size 1.6 0.4) (layers F.Cu F.Paste F.Mask))
  (pad 13 smd rect (at 0 7.8) (size 1.6 0.4) (layers F.Cu F.Paste F.Mask))
  (pad 12 smd rect (at 0 7.15) (size 1.6 0.4) (layers F.Cu F.Paste F.Mask))
  (pad 11 smd rect (at 0 6.5) (size 1.6 0.4) (layers F.Cu F.Paste F.Mask))
  (pad 10 smd rect (at 0 5.85) (size 1.6 0.4) (layers F.Cu F.Paste F.Mask))
  (pad 9 smd rect (at 0 5.2) (size 1.6 0.4) (layers F.Cu F.Paste F.Mask))
  (pad 8 smd rect (at 0 4.55) (size 1.6 0.4) (layers F.Cu F.Paste F.Mask))
  (pad 7 smd rect (at 0 3.9) (size 1.6 0.4) (layers F.Cu F.Paste F.Mask))
  (pad 6 smd rect (at 0 3.25) (size 1.6 0.4) (layers F.Cu F.Paste F.Mask))
  (pad 5 smd rect (at 0 2.542) (size 1.6 0.4) (layers F.Cu F.Paste F.Mask))
  (pad 4 smd rect (at 0 1.95) (size 1.6 0.4) (layers F.Cu F.Paste F.Mask))
  (pad 3 smd rect (at 0 1.3) (size 1.6 0.4) (layers F.Cu F.Paste F.Mask))
  (pad 2 smd rect (at 0 0.65) (size 1.6 0.4) (layers F.Cu F.Paste F.Mask))
  (pad 1 smd rect (at 0 0) (size 1.6 0.4) (layers F.Cu F.Paste F.Mask))
)
