(module SMA (layer F.Cu) (tedit 5A79BBA3)
  (tags "SMA Connector")
  (fp_text reference SMA-S (at 0 5.08) (layer F.SilkS) hide
    (effects (font (thickness 0.3048)))
  )
  (fp_text value VAL** (at 1.27 7.62) (layer F.SilkS)
    (effects (font (thickness 0.3048)))
  )
  (fp_line (start -2.55 2.55) (end -2.55 -2.55) (layer F.SilkS) (width 0.381))
  (fp_line (start 2.55 2.55) (end -2.55 2.55) (layer F.SilkS) (width 0.381))
  (fp_line (start 2.55 -2.55) (end 2.55 2.55) (layer F.SilkS) (width 0.381))
  (fp_line (start -2.55 -2.55) (end 2.55 -2.55) (layer F.SilkS) (width 0.381))
  (pad 1 thru_hole circle (at 0 0) (size 3 3) (drill 1.7) (layers *.Cu *.Mask F.SilkS))
  (pad 2 thru_hole circle (at 2.55 -2.55) (size 3 3) (drill 1.8) (layers *.Cu *.Mask F.SilkS))
  (pad 2 thru_hole circle (at -2.55 -2.55) (size 3 3) (drill 1.7) (layers *.Cu *.Mask F.SilkS))
  (pad 2 thru_hole circle (at -2.55 2.55) (size 3 3) (drill 1.7) (layers *.Cu *.Mask F.SilkS))
  (pad 2 thru_hole circle (at 2.55 2.55) (size 3 3) (drill 1.7) (layers *.Cu *.Mask F.SilkS))
  (model ${KIPRJMOD}/SMA_Connectors.pretty/SMA.wrl
    (at (xyz 0 0 0))
    (scale (xyz 0.39 0.39 0.39))
    (rotate (xyz -90 0 -90))
  )
)
