(module Logo-KIP_10x10-Title (layer F.Cu) (tedit 58085472)
  (fp_text reference G*** (at 0 0) (layer F.SilkS) hide
    (effects (font (thickness 0.3)))
  )
  (fp_text value LOGO (at 0 6.35) (layer F.SilkS)
    (effects (font (thickness 0.3)))
  )
  (fp_poly (pts (xy 0.14608 -4.832218) (xy 0.264314 -4.828801) (xy 0.377421 -4.822828) (xy 0.4878 -4.814108)
    (xy 0.597851 -4.802446) (xy 0.709974 -4.78765) (xy 0.826567 -4.769525) (xy 0.84074 -4.767156)
    (xy 1.055736 -4.725874) (xy 1.268455 -4.674852) (xy 1.478509 -4.614283) (xy 1.685512 -4.544358)
    (xy 1.889075 -4.465269) (xy 2.088812 -4.377205) (xy 2.284335 -4.280359) (xy 2.475258 -4.174922)
    (xy 2.661193 -4.061086) (xy 2.841754 -3.939041) (xy 3.016552 -3.808979) (xy 3.1852 -3.67109)
    (xy 3.339971 -3.532458) (xy 3.501518 -3.374427) (xy 3.654525 -3.210905) (xy 3.79898 -3.041913)
    (xy 3.93487 -2.867468) (xy 4.062182 -2.68759) (xy 4.180902 -2.502297) (xy 4.291018 -2.311607)
    (xy 4.392518 -2.11554) (xy 4.485387 -1.914114) (xy 4.53451 -1.796779) (xy 4.611484 -1.592582)
    (xy 4.678887 -1.385296) (xy 4.736692 -1.175315) (xy 4.784874 -0.963031) (xy 4.823405 -0.748837)
    (xy 4.85226 -0.533127) (xy 4.871412 -0.316292) (xy 4.880836 -0.098725) (xy 4.880504 0.11918)
    (xy 4.870391 0.337032) (xy 4.85047 0.554437) (xy 4.820714 0.771002) (xy 4.781099 0.986336)
    (xy 4.734209 1.189791) (xy 4.675021 1.402684) (xy 4.60639 1.611897) (xy 4.528414 1.81725)
    (xy 4.441188 2.018566) (xy 4.344808 2.215663) (xy 4.23937 2.408363) (xy 4.124971 2.596486)
    (xy 4.001707 2.779852) (xy 3.869672 2.958283) (xy 3.728965 3.131599) (xy 3.640093 3.23342)
    (xy 3.613991 3.261907) (xy 3.58203 3.295784) (xy 3.545755 3.333483) (xy 3.506713 3.37344)
    (xy 3.46645 3.414086) (xy 3.426511 3.453856) (xy 3.388443 3.491183) (xy 3.353792 3.524499)
    (xy 3.339971 3.537537) (xy 3.180055 3.680439) (xy 3.012824 3.816608) (xy 2.8389 3.945654)
    (xy 2.658906 4.067184) (xy 2.473464 4.180807) (xy 2.283198 4.286131) (xy 2.088731 4.382764)
    (xy 1.890685 4.470315) (xy 1.79578 4.508514) (xy 1.596817 4.581205) (xy 1.396065 4.644763)
    (xy 1.192824 4.69934) (xy 0.986395 4.745091) (xy 0.776081 4.782172) (xy 0.561181 4.810736)
    (xy 0.340998 4.83094) (xy 0.33782 4.831168) (xy 0.315479 4.83242) (xy 0.284845 4.833634)
    (xy 0.247468 4.834787) (xy 0.204897 4.835858) (xy 0.158681 4.836825) (xy 0.11037 4.837664)
    (xy 0.061513 4.838354) (xy 0.013658 4.838873) (xy -0.031644 4.839199) (xy -0.072845 4.83931)
    (xy -0.108394 4.839183) (xy -0.136744 4.838797) (xy -0.15494 4.838203) (xy -0.250283 4.832883)
    (xy -0.340394 4.826813) (xy -0.423438 4.820125) (xy -0.47498 4.815286) (xy -0.69125 4.78856)
    (xy -0.906527 4.751889) (xy -1.120246 4.705453) (xy -1.331841 4.64943) (xy -1.540748 4.583997)
    (xy -1.7464 4.509333) (xy -1.948234 4.425615) (xy -2.145683 4.333023) (xy -2.338182 4.231733)
    (xy -2.35204 4.223994) (xy -2.542662 4.11142) (xy -2.727118 3.990996) (xy -2.905214 3.86299)
    (xy -3.076757 3.727667) (xy -3.241553 3.585296) (xy -3.399407 3.436142) (xy -3.550128 3.280473)
    (xy -3.69352 3.118555) (xy -3.82939 2.950656) (xy -3.957545 2.777042) (xy -4.07779 2.59798)
    (xy -4.189932 2.413736) (xy -4.293778 2.224579) (xy -4.389133 2.030773) (xy -4.475803 1.832587)
    (xy -4.553596 1.630288) (xy -4.622317 1.424141) (xy -4.675903 1.23512) (xy -4.498174 1.23512)
    (xy -4.497744 1.240831) (xy -4.494511 1.254932) (xy -4.488852 1.276163) (xy -4.48114 1.303265)
    (xy -4.47175 1.334976) (xy -4.461059 1.370036) (xy -4.449439 1.407186) (xy -4.437268 1.445165)
    (xy -4.424918 1.482713) (xy -4.421297 1.49352) (xy -4.348273 1.694619) (xy -4.266022 1.891744)
    (xy -4.174787 2.084599) (xy -4.074811 2.272888) (xy -3.966338 2.456315) (xy -3.84961 2.634587)
    (xy -3.724871 2.807406) (xy -3.592365 2.974478) (xy -3.452333 3.135506) (xy -3.305021 3.290197)
    (xy -3.15067 3.438254) (xy -2.989524 3.579381) (xy -2.821826 3.713284) (xy -2.64782 3.839667)
    (xy -2.467748 3.958234) (xy -2.318559 4.047797) (xy -2.296978 4.060038) (xy -2.270834 4.074591)
    (xy -2.241418 4.090766) (xy -2.21002 4.10787) (xy -2.177933 4.125212) (xy -2.146445 4.142102)
    (xy -2.116849 4.157848) (xy -2.090434 4.171759) (xy -2.068491 4.183144) (xy -2.052311 4.191312)
    (xy -2.043185 4.195571) (xy -2.041749 4.196028) (xy -2.037492 4.1921) (xy -2.032961 4.18465)
    (xy -2.026882 4.170667) (xy -2.019055 4.149735) (xy -2.010448 4.124695) (xy -2.002032 4.098387)
    (xy -1.994776 4.073653) (xy -1.993531 4.06908) (xy -1.988505 4.051514) (xy -1.98397 4.037744)
    (xy -1.98103 4.03098) (xy -1.978356 4.024065) (xy -1.973949 4.009183) (xy -1.968297 3.98828)
    (xy -1.961888 3.963304) (xy -1.95521 3.9362) (xy -1.94875 3.908916) (xy -1.942998 3.883398)
    (xy -1.938439 3.861594) (xy -1.93795 3.859084) (xy -1.933568 3.836758) (xy -1.929089 3.814603)
    (xy -1.925833 3.799053) (xy -1.917609 3.754604) (xy -1.910162 3.701613) (xy -1.903656 3.641682)
    (xy -1.898251 3.576412) (xy -1.89411 3.507401) (xy -1.892476 3.46964) (xy -1.891711 3.435357)
    (xy -1.891692 3.395954) (xy -1.892343 3.353424) (xy -1.893585 3.30976) (xy -1.895342 3.266955)
    (xy -1.897535 3.227004) (xy -1.900087 3.191898) (xy -1.90292 3.163632) (xy -1.904922 3.1496)
    (xy -1.907563 3.13308) (xy -1.911029 3.109808) (xy -1.914835 3.083103) (xy -1.917907 3.0607)
    (xy -1.921816 3.033655) (xy -1.926106 3.007286) (xy -1.930211 2.98492) (xy -1.933065 2.9718)
    (xy -1.937104 2.955186) (xy -1.942591 2.932043) (xy -1.94873 2.90575) (xy -1.953412 2.88544)
    (xy -1.966814 2.831505) (xy -1.982887 2.774391) (xy -2.00081 2.716593) (xy -2.019765 2.660606)
    (xy -2.038931 2.608929) (xy -2.05749 2.564055) (xy -2.062629 2.5527) (xy -2.069449 2.536428)
    (xy -2.074632 2.521384) (xy -2.075433 2.51841) (xy -2.079289 2.508314) (xy -2.083351 2.50444)
    (xy -2.087493 2.500377) (xy -2.08788 2.497626) (xy -2.090102 2.49121) (xy -2.096205 2.477473)
    (xy -2.105351 2.45809) (xy -2.116698 2.434733) (xy -2.129406 2.409078) (xy -2.142635 2.382799)
    (xy -2.155545 2.357571) (xy -2.167294 2.335066) (xy -2.177044 2.316961) (xy -2.183952 2.304929)
    (xy -2.186452 2.30124) (xy -2.192169 2.293099) (xy -2.200859 2.27938) (xy -2.210536 2.263373)
    (xy -2.219211 2.248368) (xy -2.2249 2.237653) (xy -2.22504 2.237352) (xy -2.228695 2.231308)
    (xy -2.236832 2.218717) (xy -2.248211 2.201431) (xy -2.261594 2.181299) (xy -2.275742 2.160173)
    (xy -2.289417 2.139903) (xy -2.30138 2.122339) (xy -2.310392 2.109332) (xy -2.314871 2.103159)
    (xy -2.34682 2.062524) (xy -2.373704 2.028603) (xy -2.396671 2.000072) (xy -2.416869 1.975606)
    (xy -2.435447 1.953882) (xy -2.453552 1.933575) (xy -2.472333 1.913359) (xy -2.492939 1.891913)
    (xy -2.516517 1.86791) (xy -2.53492 1.849365) (xy -2.586272 1.798825) (xy -2.634069 1.754227)
    (xy -2.680808 1.713351) (xy -2.728988 1.673978) (xy -2.7559 1.653008) (xy -2.778172 1.636367)
    (xy -2.805341 1.616764) (xy -2.834892 1.595946) (xy -2.86431 1.575665) (xy -2.89108 1.55767)
    (xy -2.912686 1.54371) (xy -2.915801 1.54178) (xy -2.936411 1.529059) (xy -2.956019 1.516843)
    (xy -2.971435 1.507121) (xy -2.975759 1.504348) (xy -2.993658 1.493469) (xy -3.017368 1.480103)
    (xy -3.045488 1.464942) (xy -3.076617 1.448678) (xy -3.109355 1.432004) (xy -3.142301 1.415613)
    (xy -3.174055 1.400196) (xy -3.203216 1.386446) (xy -3.228384 1.375055) (xy -3.248159 1.366716)
    (xy -3.261139 1.36212) (xy -3.264827 1.36144) (xy -3.271732 1.359238) (xy -3.283488 1.353773)
    (xy -3.286836 1.352034) (xy -3.298171 1.346999) (xy -3.317198 1.339604) (xy -3.341917 1.330541)
    (xy -3.370327 1.320503) (xy -3.400429 1.310182) (xy -3.430224 1.300271) (xy -3.457712 1.291461)
    (xy -3.480893 1.284445) (xy -3.48742 1.282596) (xy -3.533564 1.270406) (xy -3.583164 1.258273)
    (xy -3.631685 1.24727) (xy -3.6703 1.239297) (xy -3.695211 1.234456) (xy -3.719494 1.229716)
    (xy -3.739404 1.225808) (xy -3.7465 1.224405) (xy -3.771578 1.220242) (xy -3.804755 1.215948)
    (xy -3.843978 1.211691) (xy -3.887192 1.207639) (xy -3.932341 1.20396) (xy -3.977371 1.200823)
    (xy -4.020226 1.198395) (xy -4.058852 1.196846) (xy -4.0894 1.19634) (xy -4.122009 1.196824)
    (xy -4.159152 1.198198) (xy -4.199539 1.200337) (xy -4.24188 1.20312) (xy -4.284886 1.206425)
    (xy -4.327268 1.210128) (xy -4.367736 1.214108) (xy -4.405 1.218243) (xy -4.437771 1.222409)
    (xy -4.464759 1.226485) (xy -4.484675 1.230349) (xy -4.496229 1.233877) (xy -4.498174 1.23512)
    (xy -4.675903 1.23512) (xy -4.681773 1.214414) (xy -4.73177 1.001374) (xy -4.747292 0.92456)
    (xy -4.784433 0.706266) (xy -4.811532 0.48742) (xy -4.828634 0.26834) (xy -4.835783 0.049342)
    (xy -4.835698 0.042565) (xy -4.664082 0.042565) (xy -4.662066 0.15942) (xy -4.657614 0.272561)
    (xy -4.650725 0.379333) (xy -4.648027 0.41148) (xy -4.635719 0.530985) (xy -4.619953 0.653552)
    (xy -4.601193 0.776271) (xy -4.579899 0.896235) (xy -4.556536 1.010533) (xy -4.54389 1.066058)
    (xy -4.54041 1.074158) (xy -4.533104 1.076308) (xy -4.524781 1.075365) (xy -4.39637 1.056932)
    (xy -4.274022 1.044639) (xy -4.155749 1.038426) (xy -4.039565 1.038232) (xy -3.923483 1.043997)
    (xy -3.820238 1.053904) (xy -3.791061 1.057371) (xy -3.766711 1.060485) (xy -3.744494 1.063669)
    (xy -3.721719 1.067347) (xy -3.695693 1.07194) (xy -3.663722 1.077872) (xy -3.6449 1.081427)
    (xy -3.617121 1.08693) (xy -3.586935 1.093307) (xy -3.556317 1.100097) (xy -3.527238 1.106841)
    (xy -3.501671 1.113078) (xy -3.481589 1.118347) (xy -3.468964 1.122189) (xy -3.4671 1.122918)
    (xy -3.455937 1.126845) (xy -3.440077 1.131417) (xy -3.43408 1.132951) (xy -3.420462 1.136772)
    (xy -3.399723 1.143162) (xy -3.37408 1.151382) (xy -3.345746 1.160693) (xy -3.316937 1.170354)
    (xy -3.289866 1.179625) (xy -3.266749 1.187769) (xy -3.249801 1.194043) (xy -3.24358 1.196574)
    (xy -3.23215 1.201436) (xy -3.214325 1.208831) (xy -3.193138 1.217508) (xy -3.18262 1.221777)
    (xy -3.163428 1.229943) (xy -3.139302 1.240811) (xy -3.111854 1.253591) (xy -3.082696 1.267494)
    (xy -3.05344 1.281728) (xy -3.025698 1.295503) (xy -3.001082 1.308028) (xy -2.981205 1.318514)
    (xy -2.967677 1.32617) (xy -2.962548 1.32969) (xy -2.954473 1.335159) (xy -2.951189 1.33604)
    (xy -2.945555 1.338543) (xy -2.933064 1.345345) (xy -2.915487 1.355386) (xy -2.894599 1.367605)
    (xy -2.872173 1.380941) (xy -2.849982 1.394334) (xy -2.829798 1.406724) (xy -2.813396 1.417049)
    (xy -2.802548 1.424249) (xy -2.79908 1.427018) (xy -2.793743 1.431386) (xy -2.78231 1.439284)
    (xy -2.7686 1.448147) (xy -2.732825 1.471933) (xy -2.691724 1.501478) (xy -2.647157 1.535361)
    (xy -2.600986 1.57216) (xy -2.555074 1.610455) (xy -2.54762 1.616846) (xy -2.526808 1.635534)
    (xy -2.500888 1.660002) (xy -2.471317 1.688768) (xy -2.439552 1.720349) (xy -2.407051 1.753261)
    (xy -2.37527 1.786021) (xy -2.345665 1.817148) (xy -2.319694 1.845157) (xy -2.298814 1.868567)
    (xy -2.289489 1.8796) (xy -2.272839 1.899909) (xy -2.258082 1.917879) (xy -2.246634 1.931788)
    (xy -2.239908 1.939916) (xy -2.239229 1.940726) (xy -2.23303 1.948527) (xy -2.222892 1.961737)
    (xy -2.210923 1.977605) (xy -2.21001 1.978826) (xy -2.198399 1.994273) (xy -2.188872 2.006782)
    (xy -2.183313 2.013879) (xy -2.183028 2.01422) (xy -2.177276 2.021954) (xy -2.170119 2.032573)
    (xy -2.162854 2.043609) (xy -2.152382 2.059271) (xy -2.140261 2.077259) (xy -2.128049 2.095271)
    (xy -2.117305 2.111008) (xy -2.109587 2.122167) (xy -2.106859 2.125972) (xy -2.09825 2.138273)
    (xy -2.086951 2.155717) (xy -2.075295 2.174615) (xy -2.066243 2.190152) (xy -2.056578 2.207327)
    (xy -2.04549 2.226827) (xy -2.041204 2.234306) (xy -2.034203 2.24706) (xy -2.024217 2.266029)
    (xy -2.011977 2.28975) (xy -1.998215 2.31676) (xy -1.983661 2.345597) (xy -1.969047 2.374796)
    (xy -1.955103 2.402895) (xy -1.942561 2.428431) (xy -1.932151 2.449939) (xy -1.924604 2.465959)
    (xy -1.920653 2.475025) (xy -1.92024 2.476416) (xy -1.918184 2.483382) (xy -1.912997 2.495695)
    (xy -1.910193 2.501668) (xy -1.904467 2.514823) (xy -1.896559 2.534758) (xy -1.887566 2.558638)
    (xy -1.879598 2.580742) (xy -1.87119 2.604348) (xy -1.863602 2.625179) (xy -1.857682 2.640941)
    (xy -1.854331 2.64922) (xy -1.850945 2.658417) (xy -1.845598 2.675077) (xy -1.83897 2.696854)
    (xy -1.831745 2.7214) (xy -1.824605 2.746368) (xy -1.818232 2.769413) (xy -1.81331 2.788186)
    (xy -1.810799 2.798913) (xy -1.807136 2.813178) (xy -1.803154 2.823863) (xy -1.802916 2.824313)
    (xy -1.799312 2.834468) (xy -1.79454 2.853309) (xy -1.788847 2.87946) (xy -1.782481 2.911545)
    (xy -1.77569 2.948189) (xy -1.76872 2.988017) (xy -1.76182 3.029653) (xy -1.755236 3.071721)
    (xy -1.749216 3.112846) (xy -1.744008 3.151653) (xy -1.743946 3.15214) (xy -1.740445 3.187227)
    (xy -1.737766 3.229606) (xy -1.735884 3.277737) (xy -1.734777 3.330081) (xy -1.734422 3.385097)
    (xy -1.734796 3.441247) (xy -1.735875 3.496989) (xy -1.737636 3.550785) (xy -1.740056 3.601095)
    (xy -1.743112 3.646378) (xy -1.746781 3.685096) (xy -1.75104 3.715708) (xy -1.752544 3.72364)
    (xy -1.755209 3.73769) (xy -1.75893 3.758869) (xy -1.763207 3.784263) (xy -1.767387 3.81)
    (xy -1.774041 3.849755) (xy -1.781137 3.887597) (xy -1.789129 3.925462) (xy -1.798468 3.965281)
    (xy -1.809608 4.008989) (xy -1.823003 4.058519) (xy -1.838819 4.1148) (xy -1.84465 4.134491)
    (xy -1.850048 4.151381) (xy -1.853964 4.162201) (xy -1.85434 4.16306) (xy -1.858409 4.172939)
    (xy -1.864324 4.188515) (xy -1.871176 4.207234) (xy -1.878056 4.226545) (xy -1.884052 4.243894)
    (xy -1.888256 4.256728) (xy -1.88976 4.262428) (xy -1.885138 4.266556) (xy -1.871942 4.273668)
    (xy -1.851181 4.283367) (xy -1.823864 4.295258) (xy -1.790999 4.308945) (xy -1.753595 4.324033)
    (xy -1.712661 4.340126) (xy -1.669204 4.356828) (xy -1.624233 4.373743) (xy -1.578757 4.390477)
    (xy -1.533784 4.406632) (xy -1.490322 4.421815) (xy -1.449381 4.435628) (xy -1.442662 4.437839)
    (xy -1.415506 4.446586) (xy -1.384838 4.456214) (xy -1.352094 4.466299) (xy -1.318709 4.476417)
    (xy -1.286119 4.486142) (xy -1.255761 4.495051) (xy -1.229071 4.502719) (xy -1.207485 4.508722)
    (xy -1.192438 4.512636) (xy -1.185367 4.514035) (xy -1.185036 4.513976) (xy -1.183413 4.508922)
    (xy -1.180209 4.49654) (xy -1.17609 4.479409) (xy -1.175696 4.477722) (xy -1.171259 4.457328)
    (xy -1.165449 4.428631) (xy -1.158589 4.393347) (xy -1.151003 4.353189) (xy -1.143016 4.309871)
    (xy -1.134951 4.26511) (xy -1.127282 4.22148) (xy -1.123221 4.196561) (xy -1.118404 4.164632)
    (xy -1.113275 4.128771) (xy -1.108275 4.092054) (xy -1.10497 4.06654) (xy -1.100699 4.03271)
    (xy -1.096437 3.998971) (xy -1.092514 3.967935) (xy -1.089261 3.942213) (xy -1.087314 3.92684)
    (xy -1.080109 3.861986) (xy -1.073771 3.788888) (xy -1.068361 3.70943) (xy -1.063939 3.625495)
    (xy -1.060565 3.538966) (xy -1.058298 3.451728) (xy -1.057199 3.365664) (xy -1.057328 3.282657)
    (xy -1.058743 3.204592) (xy -1.061506 3.133351) (xy -1.061855 3.12674) (xy -1.065005 3.075045)
    (xy -1.069073 3.018246) (xy -1.073891 2.95811) (xy -1.079287 2.896403) (xy -1.085091 2.834892)
    (xy -1.091133 2.775344) (xy -1.097241 2.719525) (xy -1.103245 2.669202) (xy -1.108975 2.626143)
    (xy -1.112374 2.6035) (xy -1.119936 2.556557) (xy -1.127579 2.510134) (xy -1.135099 2.46539)
    (xy -1.14229 2.423484) (xy -1.148949 2.385575) (xy -1.154871 2.352824) (xy -1.159853 2.326389)
    (xy -1.163689 2.307431) (xy -1.166177 2.297108) (xy -1.166503 2.29616) (xy -1.168838 2.287991)
    (xy -1.172526 2.272577) (xy -1.176931 2.252636) (xy -1.178996 2.24282) (xy -1.186527 2.207737)
    (xy -1.19541 2.168405) (xy -1.204942 2.127776) (xy -1.214422 2.088803) (xy -1.223146 2.054439)
    (xy -1.229178 2.032) (xy -1.23529 2.00994) (xy -1.242822 1.982493) (xy -1.250562 1.954086)
    (xy -1.254224 1.94056) (xy -1.26149 1.914216) (xy -1.269143 1.887387) (xy -1.276023 1.864107)
    (xy -1.279081 1.8542) (xy -1.285539 1.833391) (xy -1.293359 1.807601) (xy -1.301095 1.78161)
    (xy -1.302899 1.77546) (xy -1.309615 1.753336) (xy -1.316152 1.733245) (xy -1.321452 1.718391)
    (xy -1.323047 1.7145) (xy -1.329088 1.699333) (xy -1.333255 1.68656) (xy -1.337754 1.672335)
    (xy -1.341074 1.6637) (xy -1.344719 1.653884) (xy -1.350119 1.637753) (xy -1.356131 1.618728)
    (xy -1.35636 1.61798) (xy -1.362386 1.59891) (xy -1.367864 1.582602) (xy -1.371643 1.572479)
    (xy -1.371739 1.57226) (xy -1.376732 1.560236) (xy -1.383308 1.543459) (xy -1.390521 1.524472)
    (xy -1.397425 1.505817) (xy -1.403073 1.490038) (xy -1.40652 1.479677) (xy -1.407137 1.477137)
    (xy -1.409127 1.471009) (xy -1.414343 1.458324) (xy -1.421697 1.441718) (xy -1.4224 1.440179)
    (xy -1.429938 1.422869) (xy -1.435387 1.408729) (xy -1.437632 1.400665) (xy -1.43764 1.400428)
    (xy -1.44076 1.39069) (xy -1.441931 1.389126) (xy -1.445781 1.382123) (xy -1.451642 1.368543)
    (xy -1.457831 1.352442) (xy -1.464366 1.335828) (xy -1.470171 1.323349) (xy -1.47386 1.317852)
    (xy -1.477871 1.310939) (xy -1.47828 1.307485) (xy -1.480331 1.298885) (xy -1.485615 1.284795)
    (xy -1.490585 1.273495) (xy -1.49786 1.257688) (xy -1.507772 1.235855) (xy -1.518842 1.211261)
    (xy -1.526646 1.1938) (xy -1.534607 1.176384) (xy -1.545504 1.153212) (xy -1.558698 1.125582)
    (xy -1.57355 1.094791) (xy -1.589421 1.06214) (xy -1.605674 1.028925) (xy -1.621669 0.996446)
    (xy -1.636769 0.966001) (xy -1.650336 0.938889) (xy -1.661729 0.916408) (xy -1.670312 0.899856)
    (xy -1.675446 0.890533) (xy -1.676505 0.889) (xy -1.680368 0.883219) (xy -1.687752 0.870141)
    (xy -1.697679 0.851581) (xy -1.70917 0.829351) (xy -1.716242 0.81534) (xy -1.722349 0.804189)
    (xy -1.726861 0.79774) (xy -1.727067 0.79756) (xy -1.731098 0.79168) (xy -1.73709 0.780272)
    (xy -1.738688 0.776908) (xy -1.744326 0.766067) (xy -1.753913 0.749023) (xy -1.766599 0.72717)
    (xy -1.781536 0.701908) (xy -1.797875 0.674631) (xy -1.814766 0.646738) (xy -1.831361 0.619624)
    (xy -1.846811 0.594686) (xy -1.860267 0.573321) (xy -1.87088 0.556926) (xy -1.8778 0.546898)
    (xy -1.880012 0.544406) (xy -1.884581 0.538606) (xy -1.88468 0.537497) (xy -1.887368 0.53207)
    (xy -1.894771 0.519739) (xy -1.905901 0.502008) (xy -1.919769 0.480382) (xy -1.935387 0.456363)
    (xy -1.951766 0.431456) (xy -1.967916 0.407165) (xy -1.98285 0.384994) (xy -1.995579 0.366445)
    (xy -2.005113 0.353024) (xy -2.010355 0.346347) (xy -2.015835 0.338946) (xy -2.016772 0.336187)
    (xy -2.019814 0.330592) (xy -2.027494 0.320411) (xy -2.032037 0.31496) (xy -2.04197 0.302211)
    (xy -2.048873 0.291224) (xy -2.050147 0.28829) (xy -2.054248 0.280793) (xy -2.056648 0.2794)
    (xy -2.061367 0.275458) (xy -2.068318 0.265745) (xy -2.069707 0.263458) (xy -2.078133 0.25025)
    (xy -2.08581 0.239818) (xy -2.086228 0.239328) (xy -2.09161 0.232645) (xy -2.101819 0.219569)
    (xy -2.115548 0.201804) (xy -2.13149 0.181055) (xy -2.148335 0.159026) (xy -2.164776 0.137423)
    (xy -2.179505 0.117949) (xy -2.185875 0.109467) (xy -2.193497 0.099703) (xy -2.205897 0.084275)
    (xy -2.221345 0.065318) (xy -2.23774 0.045417) (xy -2.256427 0.022793) (xy -2.275652 -0.000594)
    (xy -2.292914 -0.021696) (xy -2.30378 -0.035071) (xy -2.318325 -0.05277) (xy -2.332667 -0.069732)
    (xy -2.34385 -0.082463) (xy -2.34442 -0.083087) (xy -2.354913 -0.094688) (xy -2.369434 -0.110975)
    (xy -2.385338 -0.128976) (xy -2.39014 -0.134446) (xy -2.417821 -0.165277) (xy -2.451536 -0.201611)
    (xy -2.489882 -0.242024) (xy -2.531458 -0.285096) (xy -2.574864 -0.329404) (xy -2.618697 -0.373526)
    (xy -2.661557 -0.41604) (xy -2.702041 -0.455524) (xy -2.738748 -0.490555) (xy -2.765771 -0.51562)
    (xy -2.78609 -0.534166) (xy -2.805197 -0.551661) (xy -2.821051 -0.566231) (xy -2.831611 -0.576005)
    (xy -2.832227 -0.57658) (xy -2.84364 -0.586829) (xy -2.860022 -0.601005) (xy -2.878469 -0.616606)
    (xy -2.88531 -0.6223) (xy -2.904893 -0.638656) (xy -2.924585 -0.65533) (xy -2.940929 -0.669388)
    (xy -2.944715 -0.672703) (xy -2.956029 -0.68232) (xy -2.973584 -0.696815) (xy -2.995633 -0.714786)
    (xy -3.020431 -0.734828) (xy -3.046234 -0.755539) (xy -3.071296 -0.775516) (xy -3.093872 -0.793355)
    (xy -3.112217 -0.807653) (xy -3.118948 -0.8128) (xy -3.13366 -0.824297) (xy -3.147552 -0.835682)
    (xy -3.149008 -0.836924) (xy -3.158774 -0.844618) (xy -3.165049 -0.8483) (xy -3.165412 -0.848354)
    (xy -3.170902 -0.851217) (xy -3.181413 -0.858502) (xy -3.188272 -0.86368) (xy -3.229093 -0.894741)
    (xy -3.270996 -0.925331) (xy -3.316249 -0.95706) (xy -3.367126 -0.991538) (xy -3.390276 -1.006934)
    (xy -3.407579 -1.01852) (xy -3.421986 -1.028408) (xy -3.431087 -1.034935) (xy -3.432506 -1.03606)
    (xy -3.440564 -1.041677) (xy -3.453363 -1.049436) (xy -3.457906 -1.052014) (xy -3.473903 -1.0616)
    (xy -3.492235 -1.073519) (xy -3.50012 -1.078955) (xy -3.51873 -1.091417) (xy -3.539611 -1.104425)
    (xy -3.54838 -1.109562) (xy -3.568296 -1.121155) (xy -3.589931 -1.134135) (xy -3.599228 -1.139855)
    (xy -3.655335 -1.173996) (xy -3.706563 -1.203434) (xy -3.72872 -1.215557) (xy -3.745974 -1.225036)
    (xy -3.761435 -1.233846) (xy -3.76936 -1.238599) (xy -3.784391 -1.247391) (xy -3.807927 -1.260244)
    (xy -3.839323 -1.276813) (xy -3.877928 -1.296754) (xy -3.90144 -1.308749) (xy -3.923489 -1.320177)
    (xy -3.942946 -1.330667) (xy -3.957563 -1.338983) (xy -3.964704 -1.34357) (xy -3.97397 -1.349528)
    (xy -3.978983 -1.35128) (xy -3.984933 -1.353381) (xy -3.998189 -1.359136) (xy -4.016935 -1.367726)
    (xy -4.039354 -1.378332) (xy -4.045259 -1.381173) (xy -4.070807 -1.393437) (xy -4.095541 -1.405188)
    (xy -4.116757 -1.415149) (xy -4.131751 -1.422042) (xy -4.13258 -1.422414) (xy -4.151435 -1.430926)
    (xy -4.173782 -1.441138) (xy -4.189519 -1.448401) (xy -4.205762 -1.455748) (xy -4.218176 -1.461002)
    (xy -4.224101 -1.46304) (xy -4.224123 -1.46304) (xy -4.23007 -1.464989) (xy -4.242232 -1.470022)
    (xy -4.253545 -1.475046) (xy -4.282586 -1.488205) (xy -4.304031 -1.497735) (xy -4.319482 -1.50432)
    (xy -4.330541 -1.508643) (xy -4.33832 -1.511243) (xy -4.350823 -1.51569) (xy -4.36709 -1.522322)
    (xy -4.373107 -1.524959) (xy -4.387587 -1.530327) (xy -4.398929 -1.53256) (xy -4.402068 -1.532228)
    (xy -4.405813 -1.526595) (xy -4.411953 -1.512301) (xy -4.42012 -1.490462) (xy -4.429946 -1.462193)
    (xy -4.441062 -1.42861) (xy -4.453101 -1.39083) (xy -4.465695 -1.349969) (xy -4.478475 -1.307141)
    (xy -4.491074 -1.263464) (xy -4.493186 -1.25598) (xy -4.542334 -1.064883) (xy -4.583756 -0.868942)
    (xy -4.617053 -0.670355) (xy -4.641822 -0.47132) (xy -4.647789 -0.40894) (xy -4.655514 -0.303757)
    (xy -4.660805 -0.191676) (xy -4.663661 -0.075351) (xy -4.664082 0.042565) (xy -4.835698 0.042565)
    (xy -4.833022 -0.169256) (xy -4.820396 -0.387137) (xy -4.797949 -0.603982) (xy -4.765724 -0.819476)
    (xy -4.723767 -1.033301) (xy -4.67212 -1.245139) (xy -4.610828 -1.454673) (xy -4.539935 -1.661585)
    (xy -4.529128 -1.688986) (xy -4.34717 -1.688986) (xy -4.339815 -1.685083) (xy -4.325644 -1.678538)
    (xy -4.307274 -1.670491) (xy -4.287317 -1.662084) (xy -4.268391 -1.654456) (xy -4.26466 -1.653009)
    (xy -4.241011 -1.643578) (xy -4.215519 -1.632894) (xy -4.197223 -1.62485) (xy -4.181005 -1.617616)
    (xy -4.168781 -1.612423) (xy -4.163126 -1.610362) (xy -4.163084 -1.61036) (xy -4.157262 -1.608279)
    (xy -4.143558 -1.602428) (xy -4.123266 -1.593397) (xy -4.09768 -1.581774) (xy -4.068096 -1.56815)
    (xy -4.035808 -1.553113) (xy -4.002111 -1.537254) (xy -3.99288 -1.53288) (xy -3.967456 -1.520829)
    (xy -3.94145 -1.508532) (xy -3.918506 -1.49771) (xy -3.90652 -1.492075) (xy -3.889937 -1.484067)
    (xy -3.877277 -1.47752) (xy -3.871097 -1.473764) (xy -3.87096 -1.473625) (xy -3.865588 -1.470286)
    (xy -3.85311 -1.463632) (xy -3.835584 -1.454739) (xy -3.821506 -1.4478) (xy -3.80198 -1.437942)
    (xy -3.786416 -1.429429) (xy -3.776745 -1.423358) (xy -3.774516 -1.42113) (xy -3.77043 -1.417541)
    (xy -3.768408 -1.41732) (xy -3.762477 -1.414973) (xy -3.749412 -1.408551) (xy -3.730918 -1.398983)
    (xy -3.708704 -1.3872) (xy -3.684474 -1.374132) (xy -3.659938 -1.360709) (xy -3.636801 -1.347861)
    (xy -3.61677 -1.336517) (xy -3.601552 -1.327608) (xy -3.592853 -1.322063) (xy -3.59156 -1.320968)
    (xy -3.586229 -1.317232) (xy -3.574091 -1.309996) (xy -3.557312 -1.300531) (xy -3.54838 -1.295642)
    (xy -3.530161 -1.285569) (xy -3.515558 -1.277135) (xy -3.506737 -1.271605) (xy -3.5052 -1.270365)
    (xy -3.499931 -1.266479) (xy -3.488046 -1.258887) (xy -3.471731 -1.248969) (xy -3.464574 -1.24473)
    (xy -3.446719 -1.234083) (xy -3.432036 -1.225056) (xy -3.422895 -1.219116) (xy -3.421394 -1.217996)
    (xy -3.414871 -1.213359) (xy -3.402205 -1.205002) (xy -3.385887 -1.194564) (xy -3.38229 -1.192299)
    (xy -3.366157 -1.181989) (xy -3.345528 -1.168542) (xy -3.321875 -1.152946) (xy -3.29667 -1.136189)
    (xy -3.271384 -1.119259) (xy -3.247491 -1.103146) (xy -3.226461 -1.088837) (xy -3.209768 -1.077321)
    (xy -3.198882 -1.069586) (xy -3.19532 -1.066756) (xy -3.190041 -1.062405) (xy -3.178933 -1.054344)
    (xy -3.16738 -1.046353) (xy -3.149021 -1.033622) (xy -3.130232 -1.020179) (xy -3.121402 -1.013668)
    (xy -3.105866 -1.002154) (xy -3.090991 -0.991361) (xy -3.086339 -0.98806) (xy -3.073775 -0.978683)
    (xy -3.063747 -0.970286) (xy -3.063668 -0.970212) (xy -3.054252 -0.962368) (xy -3.041141 -0.952534)
    (xy -3.037772 -0.950147) (xy -3.023902 -0.940037) (xy -3.006613 -0.926879) (xy -2.994278 -0.917195)
    (xy -2.977475 -0.903918) (xy -2.961 -0.891112) (xy -2.951564 -0.88392) (xy -2.939492 -0.874655)
    (xy -2.930491 -0.867378) (xy -2.929079 -0.86614) (xy -2.922295 -0.860356) (xy -2.910451 -0.850612)
    (xy -2.89953 -0.841774) (xy -2.885516 -0.830332) (xy -2.874124 -0.820714) (xy -2.869057 -0.816166)
    (xy -2.859809 -0.808335) (xy -2.851585 -0.802259) (xy -2.844968 -0.797338) (xy -2.835261 -0.789496)
    (xy -2.821812 -0.778168) (xy -2.803968 -0.762787) (xy -2.781076 -0.742787) (xy -2.752485 -0.717602)
    (xy -2.717541 -0.686666) (xy -2.682713 -0.655742) (xy -2.664384 -0.639122) (xy -2.640594 -0.617062)
    (xy -2.613119 -0.591256) (xy -2.583737 -0.563396) (xy -2.554223 -0.535173) (xy -2.526354 -0.508279)
    (xy -2.501906 -0.484407) (xy -2.482657 -0.465248) (xy -2.481737 -0.464317) (xy -2.453235 -0.435185)
    (xy -2.422727 -0.403578) (xy -2.391437 -0.3708) (xy -2.36059 -0.338158) (xy -2.331411 -0.306957)
    (xy -2.305125 -0.278503) (xy -2.282956 -0.254102) (xy -2.26613 -0.23506) (xy -2.260638 -0.2286)
    (xy -2.249092 -0.21518) (xy -2.238354 -0.2032) (xy -2.231635 -0.195512) (xy -2.219586 -0.181337)
    (xy -2.203336 -0.162034) (xy -2.184012 -0.138959) (xy -2.162744 -0.11347) (xy -2.14066 -0.086924)
    (xy -2.118889 -0.060677) (xy -2.09856 -0.036087) (xy -2.080802 -0.014511) (xy -2.066742 0.002695)
    (xy -2.057509 0.014172) (xy -2.056453 0.015518) (xy -2.045843 0.029082) (xy -2.036509 0.040949)
    (xy -2.034743 0.04318) (xy -2.026901 0.053286) (xy -2.014867 0.06904) (xy -2.000527 0.087948)
    (xy -1.985764 0.107515) (xy -1.972465 0.125246) (xy -1.962512 0.138647) (xy -1.959617 0.142616)
    (xy -1.9518 0.153416) (xy -1.940742 0.168647) (xy -1.931677 0.181108) (xy -1.920258 0.196931)
    (xy -1.91024 0.211055) (xy -1.905 0.218644) (xy -1.896136 0.23115) (xy -1.886972 0.243276)
    (xy -1.880019 0.252781) (xy -1.8684 0.269393) (xy -1.853047 0.291742) (xy -1.834893 0.318457)
    (xy -1.814869 0.348164) (xy -1.793907 0.379495) (xy -1.772938 0.411076) (xy -1.771637 0.413044)
    (xy -1.759297 0.432139) (xy -1.748147 0.450129) (xy -1.740191 0.463763) (xy -1.738946 0.46609)
    (xy -1.732323 0.476912) (xy -1.726957 0.482422) (xy -1.72626 0.4826) (xy -1.722306 0.486556)
    (xy -1.72212 0.488213) (xy -1.71946 0.495375) (xy -1.712664 0.507474) (xy -1.7075 0.515489)
    (xy -1.697364 0.531172) (xy -1.684957 0.551295) (xy -1.67321 0.571083) (xy -1.661961 0.590456)
    (xy -1.647795 0.614807) (xy -1.632921 0.640342) (xy -1.624782 0.654297) (xy -1.610098 0.679844)
    (xy -1.594541 0.70753) (xy -1.580513 0.733059) (xy -1.574532 0.74422) (xy -1.564675 0.762486)
    (xy -1.556413 0.777109) (xy -1.550997 0.785906) (xy -1.5498 0.7874) (xy -1.546168 0.793014)
    (xy -1.538751 0.806653) (xy -1.528115 0.827159) (xy -1.514824 0.853375) (xy -1.499443 0.884142)
    (xy -1.482535 0.918304) (xy -1.464667 0.954701) (xy -1.446401 0.992178) (xy -1.428304 1.029576)
    (xy -1.410939 1.065738) (xy -1.394871 1.099505) (xy -1.380665 1.129721) (xy -1.368885 1.155228)
    (xy -1.360095 1.174868) (xy -1.355555 1.185682) (xy -1.349141 1.20108) (xy -1.343663 1.212733)
    (xy -1.341361 1.216647) (xy -1.337393 1.224449) (xy -1.332404 1.23765) (xy -1.33096 1.24206)
    (xy -1.326076 1.256026) (xy -1.321753 1.26592) (xy -1.320814 1.26746) (xy -1.317188 1.274641)
    (xy -1.311491 1.288257) (xy -1.305855 1.302958) (xy -1.299432 1.319637) (xy -1.293928 1.332639)
    (xy -1.29091 1.338518) (xy -1.287769 1.345162) (xy -1.28212 1.359216) (xy -1.274817 1.3785)
    (xy -1.268077 1.397) (xy -1.259577 1.420334) (xy -1.251578 1.441589) (xy -1.245122 1.458035)
    (xy -1.241915 1.46558) (xy -1.23446 1.483515) (xy -1.225145 1.508743) (xy -1.214852 1.538775)
    (xy -1.20446 1.571119) (xy -1.203322 1.5748) (xy -1.196951 1.594404) (xy -1.190579 1.612296)
    (xy -1.186246 1.62306) (xy -1.179948 1.639338) (xy -1.175712 1.65354) (xy -1.171981 1.666045)
    (xy -1.168418 1.67386) (xy -1.165518 1.680832) (xy -1.160943 1.695046) (xy -1.15551 1.713896)
    (xy -1.153406 1.721674) (xy -1.14772 1.742078) (xy -1.142435 1.759299) (xy -1.138437 1.770501)
    (xy -1.137507 1.772474) (xy -1.134361 1.780493) (xy -1.129286 1.796069) (xy -1.122935 1.816932)
    (xy -1.115961 1.840814) (xy -1.109015 1.865443) (xy -1.10275 1.88855) (xy -1.097819 1.907866)
    (xy -1.095039 1.92024) (xy -1.091378 1.935459) (xy -1.087242 1.947815) (xy -1.087082 1.94818)
    (xy -1.083804 1.957116) (xy -1.079401 1.971975) (xy -1.073647 1.993627) (xy -1.066315 2.022944)
    (xy -1.05718 2.060795) (xy -1.050758 2.08788) (xy -1.032141 2.168407) (xy -1.015934 2.242165)
    (xy -1.00153 2.312086) (xy -0.988322 2.3811) (xy -0.977634 2.44094) (xy -0.973373 2.465397)
    (xy -0.968916 2.490785) (xy -0.965213 2.511691) (xy -0.965147 2.51206) (xy -0.959203 2.54842)
    (xy -0.952744 2.593453) (xy -0.945939 2.645696) (xy -0.938953 2.703685) (xy -0.931953 2.765956)
    (xy -0.925107 2.831045) (xy -0.91858 2.897489) (xy -0.912541 2.963824) (xy -0.909277 3.00228)
    (xy -0.906232 3.047921) (xy -0.903822 3.102124) (xy -0.902037 3.163312) (xy -0.900866 3.229908)
    (xy -0.900297 3.300333) (xy -0.900319 3.373011) (xy -0.900921 3.446363) (xy -0.902092 3.518814)
    (xy -0.903821 3.588785) (xy -0.906097 3.654698) (xy -0.908909 3.714978) (xy -0.912246 3.768045)
    (xy -0.914869 3.79984) (xy -0.921474 3.867459) (xy -0.928785 3.936305) (xy -0.936592 4.004721)
    (xy -0.944687 4.071052) (xy -0.952864 4.133643) (xy -0.960913 4.190841) (xy -0.968627 4.240988)
    (xy -0.974861 4.27736) (xy -0.986133 4.338781) (xy -0.99575 4.390558) (xy -1.00378 4.433057)
    (xy -1.010296 4.466646) (xy -1.015369 4.491691) (xy -1.019068 4.50856) (xy -1.02099 4.516086)
    (xy -1.024424 4.527633) (xy -1.026462 4.536668) (xy -1.026063 4.543756) (xy -1.022187 4.549462)
    (xy -1.013791 4.55435) (xy -0.999836 4.558985) (xy -0.97928 4.563932) (xy -0.951083 4.569756)
    (xy -0.914202 4.57702) (xy -0.90551 4.578731) (xy -0.842778 4.590888) (xy -0.787243 4.601131)
    (xy -0.736219 4.609902) (xy -0.687021 4.617641) (xy -0.636961 4.624787) (xy -0.583355 4.631781)
    (xy -0.57658 4.632627) (xy -0.547754 4.636221) (xy -0.52142 4.639511) (xy -0.499706 4.642232)
    (xy -0.484741 4.644116) (xy -0.48006 4.644712) (xy -0.462934 4.646473) (xy -0.449065 4.647438)
    (xy -0.43331 4.6482) (xy -0.430139 4.60629) (xy -0.42602 4.550988) (xy -0.422661 4.503765)
    (xy -0.419936 4.462577) (xy -0.41772 4.42538) (xy -0.415886 4.390133) (xy -0.41431 4.354792)
    (xy -0.413652 4.33832) (xy -0.412425 4.309245) (xy -0.41116 4.283761) (xy -0.409958 4.263576)
    (xy -0.408918 4.250399) (xy -0.408242 4.245994) (xy -0.407037 4.239057) (xy -0.405713 4.222711)
    (xy -0.404295 4.197706) (xy -0.402806 4.164792) (xy -0.40127 4.124719) (xy -0.399711 4.078238)
    (xy -0.398153 4.026097) (xy -0.396619 3.969048) (xy -0.395134 3.90784) (xy -0.393721 3.843223)
    (xy -0.392404 3.775947) (xy -0.391347 3.715321) (xy -0.390422 3.64652) (xy -0.389819 3.573586)
    (xy -0.389525 3.49743) (xy -0.389525 3.418965) (xy -0.389804 3.339102) (xy -0.390348 3.258755)
    (xy -0.391142 3.178834) (xy -0.392173 3.100254) (xy -0.393425 3.023925) (xy -0.394884 2.950759)
    (xy -0.396536 2.88167) (xy -0.398367 2.817568) (xy -0.400361 2.759367) (xy -0.402504 2.707978)
    (xy -0.404782 2.664314) (xy -0.407181 2.629287) (xy -0.408847 2.61112) (xy -0.409788 2.599353)
    (xy -0.411063 2.579275) (xy -0.412568 2.552725) (xy -0.414201 2.521543) (xy -0.41586 2.487568)
    (xy -0.416491 2.47396) (xy -0.418317 2.436407) (xy -0.420371 2.398139) (xy -0.4225 2.361748)
    (xy -0.424552 2.329827) (xy -0.426373 2.30497) (xy -0.426682 2.30124) (xy -0.428323 2.280814)
    (xy -0.430488 2.252178) (xy -0.433039 2.217259) (xy -0.435836 2.177984) (xy -0.438741 2.136281)
    (xy -0.441616 2.094077) (xy -0.442032 2.08788) (xy -0.444708 2.048815) (xy -0.447294 2.0127)
    (xy -0.449685 1.980871) (xy -0.451776 1.954666) (xy -0.453464 1.935422) (xy -0.454643 1.924476)
    (xy -0.454933 1.92278) (xy -0.456168 1.914788) (xy -0.458155 1.898374) (xy -0.460709 1.875228)
    (xy -0.463644 1.847044) (xy -0.466775 1.815515) (xy -0.467454 1.80848) (xy -0.472494 1.757172)
    (xy -0.478155 1.70156) (xy -0.484236 1.643471) (xy -0.490538 1.584734) (xy -0.49686 1.527177)
    (xy -0.503 1.472629) (xy -0.508759 1.422917) (xy -0.513936 1.379869) (xy -0.517879 1.34874)
    (xy -0.52228 1.314866) (xy -0.527033 1.277759) (xy -0.531588 1.241738) (xy -0.535397 1.211123)
    (xy -0.535652 1.20904) (xy -0.540161 1.173931) (xy -0.546073 1.130503) (xy -0.553133 1.080461)
    (xy -0.561083 1.02551) (xy -0.569669 0.967355) (xy -0.578634 0.907699) (xy -0.587722 0.848249)
    (xy -0.596677 0.790708) (xy -0.605244 0.736782) (xy -0.613166 0.688175) (xy -0.619559 0.65024)
    (xy -0.632402 0.575833) (xy -0.643631 0.51128) (xy -0.653277 0.456411) (xy -0.66137 0.411054)
    (xy -0.667939 0.375037) (xy -0.670624 0.36068) (xy -0.675361 0.335593) (xy -0.681296 0.304128)
    (xy -0.687748 0.269889) (xy -0.694038 0.236484) (xy -0.695522 0.2286) (xy -0.70154 0.197285)
    (xy -0.70922 0.158346) (xy -0.71811 0.113985) (xy -0.727759 0.066407) (xy -0.737715 0.017814)
    (xy -0.747527 -0.029589) (xy -0.756744 -0.073598) (xy -0.764913 -0.112011) (xy -0.771499 -0.14224)
    (xy -0.777385 -0.169071) (xy -0.78378 -0.198708) (xy -0.789344 -0.224948) (xy -0.789577 -0.22606)
    (xy -0.794887 -0.250534) (xy -0.801988 -0.281924) (xy -0.810189 -0.317292) (xy -0.818802 -0.353701)
    (xy -0.827137 -0.388215) (xy -0.834506 -0.417895) (xy -0.835458 -0.42164) (xy -0.839907 -0.440443)
    (xy -0.845128 -0.46451) (xy -0.850099 -0.489106) (xy -0.850801 -0.49276) (xy -0.855105 -0.513762)
    (xy -0.859365 -0.531849) (xy -0.862846 -0.543968) (xy -0.863681 -0.5461) (xy -0.866274 -0.554164)
    (xy -0.870628 -0.57036) (xy -0.876295 -0.592907) (xy -0.882826 -0.620021) (xy -0.889264 -0.6477)
    (xy -0.896083 -0.677225) (xy -0.902302 -0.703627) (xy -0.907507 -0.725185) (xy -0.911282 -0.740178)
    (xy -0.91316 -0.74676) (xy -0.916654 -0.75761) (xy -0.921976 -0.776556) (xy -0.928656 -0.8018)
    (xy -0.936221 -0.831542) (xy -0.9442 -0.863983) (xy -0.947766 -0.87884) (xy -0.953283 -0.901479)
    (xy -0.958246 -0.920885) (xy -0.962023 -0.934639) (xy -0.963702 -0.9398) (xy -0.965934 -0.946068)
    (xy -0.969339 -0.957354) (xy -0.974194 -0.974661) (xy -0.980774 -0.998992) (xy -0.989357 -1.031352)
    (xy -0.997999 -1.06426) (xy -1.003888 -1.086316) (xy -1.009128 -1.105155) (xy -1.013017 -1.118297)
    (xy -1.014519 -1.12268) (xy -1.017429 -1.131324) (xy -1.021872 -1.146421) (xy -1.026512 -1.16332)
    (xy -1.033395 -1.188529) (xy -1.04238 -1.220426) (xy -1.052594 -1.255985) (xy -1.063166 -1.292182)
    (xy -1.073221 -1.325988) (xy -1.077031 -1.33858) (xy -1.083639 -1.36083) (xy -1.091416 -1.387807)
    (xy -1.098898 -1.414426) (xy -1.100396 -1.41986) (xy -1.10644 -1.441211) (xy -1.112021 -1.459719)
    (xy -1.116266 -1.472546) (xy -1.117523 -1.47574) (xy -1.120558 -1.48412) (xy -1.125767 -1.500208)
    (xy -1.132505 -1.521951) (xy -1.140129 -1.547296) (xy -1.143 -1.55702) (xy -1.15076 -1.583162)
    (xy -1.157824 -1.606452) (xy -1.163557 -1.624837) (xy -1.167327 -1.636265) (xy -1.168089 -1.6383)
    (xy -1.17245 -1.650206) (xy -1.178707 -1.668925) (xy -1.185931 -1.691509) (xy -1.193196 -1.715012)
    (xy -1.199575 -1.736486) (xy -1.204041 -1.7526) (xy -1.209313 -1.77047) (xy -1.215199 -1.786964)
    (xy -1.216773 -1.7907) (xy -1.220889 -1.80145) (xy -1.227047 -1.819432) (xy -1.234412 -1.842136)
    (xy -1.242103 -1.8669) (xy -1.249679 -1.891482) (xy -1.256676 -1.913532) (xy -1.262325 -1.930661)
    (xy -1.265854 -1.94048) (xy -1.265887 -1.94056) (xy -1.269368 -1.949917) (xy -1.275255 -1.966767)
    (xy -1.282806 -1.988943) (xy -1.291278 -2.014282) (xy -1.293777 -2.02184) (xy -1.302512 -2.047978)
    (xy -1.310698 -2.071851) (xy -1.317545 -2.091195) (xy -1.322263 -2.103745) (xy -1.323062 -2.10566)
    (xy -1.327267 -2.116488) (xy -1.333667 -2.134422) (xy -1.341364 -2.156892) (xy -1.348805 -2.17932)
    (xy -1.356491 -2.202416) (xy -1.363307 -2.22209) (xy -1.368514 -2.236255) (xy -1.371365 -2.24282)
    (xy -1.374846 -2.250466) (xy -1.379601 -2.263897) (xy -1.38176 -2.27076) (xy -1.386572 -2.28549)
    (xy -1.390727 -2.296231) (xy -1.391994 -2.2987) (xy -1.394983 -2.305731) (xy -1.399886 -2.319742)
    (xy -1.405743 -2.337966) (xy -1.406947 -2.34188) (xy -1.412931 -2.360622) (xy -1.41823 -2.3757)
    (xy -1.421859 -2.384348) (xy -1.422297 -2.38506) (xy -1.425269 -2.391549) (xy -1.430758 -2.405695)
    (xy -1.43803 -2.425529) (xy -1.446349 -2.449086) (xy -1.447925 -2.45364) (xy -1.456404 -2.47773)
    (xy -1.464033 -2.498517) (xy -1.470059 -2.514011) (xy -1.47373 -2.522221) (xy -1.474079 -2.522767)
    (xy -1.478336 -2.531256) (xy -1.485063 -2.548318) (xy -1.493829 -2.572787) (xy -1.504204 -2.6035)
    (xy -1.506282 -2.609824) (xy -1.51268 -2.627782) (xy -1.51957 -2.644894) (xy -1.52092 -2.647924)
    (xy -1.526028 -2.65984) (xy -1.533508 -2.678242) (xy -1.542146 -2.700111) (xy -1.547026 -2.71272)
    (xy -1.555655 -2.735005) (xy -1.563655 -2.755319) (xy -1.569868 -2.770735) (xy -1.57217 -2.77622)
    (xy -1.576603 -2.787067) (xy -1.583566 -2.804836) (xy -1.592049 -2.826926) (xy -1.599769 -2.84734)
    (xy -1.608428 -2.8701) (xy -1.616142 -2.889819) (xy -1.622027 -2.904272) (xy -1.625061 -2.910996)
    (xy -1.628621 -2.918691) (xy -1.634952 -2.933566) (xy -1.643102 -2.953351) (xy -1.6506 -2.971956)
    (xy -1.659899 -2.995095) (xy -1.668499 -3.016208) (xy -1.675302 -3.032617) (xy -1.678635 -3.04038)
    (xy -1.683431 -3.051651) (xy -1.690751 -3.069471) (xy -1.699405 -3.090932) (xy -1.704561 -3.10388)
    (xy -1.712963 -3.124661) (xy -1.720306 -3.142031) (xy -1.725609 -3.153716) (xy -1.727524 -3.15722)
    (xy -1.730873 -3.163764) (xy -1.737018 -3.177632) (xy -1.745039 -3.196694) (xy -1.752746 -3.21564)
    (xy -1.761625 -3.237463) (xy -1.76939 -3.255929) (xy -1.775128 -3.268908) (xy -1.777749 -3.27406)
    (xy -1.781864 -3.281926) (xy -1.787256 -3.294645) (xy -1.788134 -3.29692) (xy -1.794416 -3.312447)
    (xy -1.803874 -3.334577) (xy -1.815375 -3.360712) (xy -1.827787 -3.388254) (xy -1.831325 -3.39598)
    (xy -1.837771 -3.410231) (xy -1.845598 -3.42783) (xy -1.848348 -3.43408) (xy -1.856389 -3.452277)
    (xy -1.865874 -3.473533) (xy -1.870976 -3.48488) (xy -1.879056 -3.502895) (xy -1.889333 -3.525963)
    (xy -1.899917 -3.549836) (xy -1.90264 -3.556) (xy -1.913035 -3.579177) (xy -1.925935 -3.607384)
    (xy -1.939445 -3.636496) (xy -1.948179 -3.65506) (xy -1.960187 -3.680453) (xy -1.972184 -3.70592)
    (xy -1.982615 -3.728157) (xy -1.988798 -3.74142) (xy -2.006198 -3.77864) (xy -2.027455 -3.82359)
    (xy -2.051916 -3.874897) (xy -2.078927 -3.931188) (xy -2.089807 -3.953771) (xy -2.102389 -3.980123)
    (xy -2.113263 -4.003398) (xy -2.121711 -4.02202) (xy -2.127017 -4.034415) (xy -2.12852 -4.038861)
    (xy -2.131851 -4.043583) (xy -2.132682 -4.04368) (xy -2.136503 -4.048005) (xy -2.14301 -4.059508)
    (xy -2.150994 -4.075987) (xy -2.153588 -4.081781) (xy -2.161911 -4.099374) (xy -2.169325 -4.112666)
    (xy -2.174557 -4.119447) (xy -2.17553 -4.119881) (xy -2.183356 -4.117276) (xy -2.198758 -4.109866)
    (xy -2.220711 -4.098254) (xy -2.24819 -4.083043) (xy -2.280173 -4.064838) (xy -2.315633 -4.044242)
    (xy -2.353547 -4.021858) (xy -2.39289 -3.998292) (xy -2.432638 -3.974146) (xy -2.471766 -3.950024)
    (xy -2.509251 -3.92653) (xy -2.544067 -3.904268) (xy -2.568803 -3.888087) (xy -2.747179 -3.763952)
    (xy -2.91925 -3.632038) (xy -3.08476 -3.492635) (xy -3.243454 -3.346036) (xy -3.395076 -3.19253)
    (xy -3.539372 -3.03241) (xy -3.676084 -2.865967) (xy -3.80496 -2.693492) (xy -3.925742 -2.515276)
    (xy -4.038175 -2.331609) (xy -4.142004 -2.142785) (xy -4.198938 -2.02946) (xy -4.215342 -1.995191)
    (xy -4.232617 -1.958279) (xy -4.250277 -1.919841) (xy -4.267836 -1.880994) (xy -4.284809 -1.842851)
    (xy -4.300709 -1.806529) (xy -4.315051 -1.773144) (xy -4.32735 -1.743812) (xy -4.33712 -1.719647)
    (xy -4.343874 -1.701765) (xy -4.347128 -1.691283) (xy -4.34717 -1.688986) (xy -4.529128 -1.688986)
    (xy -4.459484 -1.865559) (xy -4.369521 -2.066277) (xy -4.317759 -2.1717) (xy -4.213832 -2.365899)
    (xy -4.101661 -2.554385) (xy -3.981518 -2.73695) (xy -3.853674 -2.913385) (xy -3.718402 -3.08348)
    (xy -3.575974 -3.247026) (xy -3.426661 -3.403813) (xy -3.270737 -3.553631) (xy -3.108472 -3.696272)
    (xy -2.94014 -3.831526) (xy -2.766011 -3.959184) (xy -2.586358 -4.079036) (xy -2.401454 -4.190872)
    (xy -2.401253 -4.190982) (xy -2.02692 -4.190982) (xy -2.024708 -4.184641) (xy -2.018734 -4.17145)
    (xy -2.009995 -4.153535) (xy -2.002585 -4.138976) (xy -1.991121 -4.116169) (xy -1.980441 -4.093779)
    (xy -1.97212 -4.075161) (xy -1.969145 -4.06781) (xy -1.963115 -4.05405) (xy -1.957677 -4.045313)
    (xy -1.95538 -4.04368) (xy -1.950919 -4.039746) (xy -1.95072 -4.038151) (xy -1.948605 -4.031822)
    (xy -1.942786 -4.018154) (xy -1.934057 -3.998919) (xy -1.923211 -3.975891) (xy -1.918335 -3.965761)
    (xy -1.89207 -3.911372) (xy -1.869681 -3.864666) (xy -1.851342 -3.826007) (xy -1.837226 -3.79576)
    (xy -1.828697 -3.77698) (xy -1.821974 -3.762172) (xy -1.812231 -3.741103) (xy -1.80082 -3.716683)
    (xy -1.790082 -3.69391) (xy -1.77972 -3.671863) (xy -1.771163 -3.653321) (xy -1.76524 -3.640108)
    (xy -1.762784 -3.63405) (xy -1.76276 -3.633905) (xy -1.760791 -3.628397) (xy -1.755699 -3.616583)
    (xy -1.750523 -3.605216) (xy -1.741972 -3.586642) (xy -1.731605 -3.563908) (xy -1.722283 -3.5433)
    (xy -1.713442 -3.523698) (xy -1.705292 -3.505699) (xy -1.699516 -3.493022) (xy -1.699276 -3.4925)
    (xy -1.692826 -3.478255) (xy -1.684986 -3.46066) (xy -1.682225 -3.4544) (xy -1.674765 -3.437654)
    (xy -1.665215 -3.416519) (xy -1.656509 -3.397462) (xy -1.648919 -3.380626) (xy -1.643353 -3.367655)
    (xy -1.640879 -3.361051) (xy -1.64084 -3.360783) (xy -1.638888 -3.355132) (xy -1.63382 -3.343108)
    (xy -1.62814 -3.330417) (xy -1.621393 -3.315247) (xy -1.616787 -3.304094) (xy -1.61544 -3.299937)
    (xy -1.613916 -3.295168) (xy -1.609149 -3.283667) (xy -1.60085 -3.26477) (xy -1.58873 -3.237815)
    (xy -1.5775 -3.2131) (xy -1.569387 -3.194064) (xy -1.562068 -3.174869) (xy -1.55954 -3.16738)
    (xy -1.554619 -3.153409) (xy -1.550187 -3.143514) (xy -1.549208 -3.14198) (xy -1.545821 -3.135493)
    (xy -1.539554 -3.12164) (xy -1.531316 -3.102482) (xy -1.522395 -3.08102) (xy -1.510541 -3.052092)
    (xy -1.497377 -3.020031) (xy -1.484898 -2.989695) (xy -1.478746 -2.97477) (xy -1.470235 -2.953786)
    (xy -1.463411 -2.936272) (xy -1.459082 -2.924352) (xy -1.45796 -2.920311) (xy -1.456013 -2.913777)
    (xy -1.450978 -2.901136) (xy -1.445857 -2.889401) (xy -1.438425 -2.872177) (xy -1.432365 -2.856808)
    (xy -1.429995 -2.84988) (xy -1.42572 -2.838254) (xy -1.422441 -2.8321) (xy -1.418586 -2.824316)
    (xy -1.413631 -2.811136) (xy -1.412168 -2.8067) (xy -1.406116 -2.789595) (xy -1.398231 -2.769618)
    (xy -1.39456 -2.76098) (xy -1.387664 -2.744372) (xy -1.378927 -2.722118) (xy -1.369883 -2.698153)
    (xy -1.366847 -2.68986) (xy -1.358973 -2.668385) (xy -1.351807 -2.649254) (xy -1.346447 -2.635379)
    (xy -1.344837 -2.63144) (xy -1.335898 -2.609238) (xy -1.324461 -2.578748) (xy -1.311056 -2.541383)
    (xy -1.308784 -2.53492) (xy -1.301755 -2.515406) (xy -1.29537 -2.498611) (xy -1.290843 -2.487711)
    (xy -1.290339 -2.48666) (xy -1.286502 -2.477571) (xy -1.279715 -2.459702) (xy -1.269921 -2.432898)
    (xy -1.257063 -2.397) (xy -1.241084 -2.35185) (xy -1.221928 -2.297291) (xy -1.214149 -2.275049)
    (xy -1.205348 -2.250041) (xy -1.19762 -2.228426) (xy -1.19163 -2.212039) (xy -1.188044 -2.202712)
    (xy -1.187443 -2.201389) (xy -1.184525 -2.194143) (xy -1.180259 -2.181302) (xy -1.178874 -2.17678)
    (xy -1.173883 -2.161201) (xy -1.169237 -2.14831) (xy -1.168412 -2.1463) (xy -1.165216 -2.137786)
    (xy -1.159607 -2.1218) (xy -1.152338 -2.100524) (xy -1.144162 -2.076141) (xy -1.143 -2.07264)
    (xy -1.134769 -2.048001) (xy -1.127358 -2.026165) (xy -1.121517 -2.009316) (xy -1.117992 -1.999635)
    (xy -1.117728 -1.99898) (xy -1.115023 -1.99139) (xy -1.109726 -1.975615) (xy -1.102329 -1.953151)
    (xy -1.093323 -1.925495) (xy -1.083198 -1.894144) (xy -1.076899 -1.87452) (xy -1.066348 -1.841691)
    (xy -1.05663 -1.811674) (xy -1.048238 -1.785966) (xy -1.041659 -1.766064) (xy -1.037384 -1.753464)
    (xy -1.036142 -1.75006) (xy -1.031638 -1.73745) (xy -1.025124 -1.717099) (xy -1.01723 -1.691077)
    (xy -1.008585 -1.661455) (xy -1.000727 -1.633594) (xy -0.994961 -1.613779) (xy -0.989625 -1.597153)
    (xy -0.985678 -1.586662) (xy -0.985015 -1.585334) (xy -0.982128 -1.577933) (xy -0.977053 -1.562578)
    (xy -0.970361 -1.541089) (xy -0.962626 -1.515291) (xy -0.957016 -1.49606) (xy -0.948268 -1.465844)
    (xy -0.939645 -1.436249) (xy -0.931908 -1.409872) (xy -0.925815 -1.38931) (xy -0.923545 -1.38176)
    (xy -0.916905 -1.359077) (xy -0.909522 -1.332643) (xy -0.903641 -1.31064) (xy -0.89726 -1.287239)
    (xy -0.890207 -1.263194) (xy -0.884301 -1.2446) (xy -0.879467 -1.22922) (xy -0.872887 -1.206767)
    (xy -0.865351 -1.18001) (xy -0.857649 -1.151715) (xy -0.856007 -1.14554) (xy -0.848953 -1.119302)
    (xy -0.842478 -1.095946) (xy -0.837173 -1.077548) (xy -0.833628 -1.066185) (xy -0.832915 -1.06426)
    (xy -0.830346 -1.05613) (xy -0.825893 -1.039959) (xy -0.820038 -1.017588) (xy -0.813266 -0.990854)
    (xy -0.807554 -0.96774) (xy -0.800385 -0.938853) (xy -0.793729 -0.912866) (xy -0.788074 -0.89162)
    (xy -0.783907 -0.876956) (xy -0.781982 -0.87122) (xy -0.778518 -0.861425) (xy -0.773836 -0.844807)
    (xy -0.767747 -0.820611) (xy -0.760063 -0.788082) (xy -0.750594 -0.746465) (xy -0.748952 -0.73914)
    (xy -0.743477 -0.715612) (xy -0.738296 -0.694994) (xy -0.734059 -0.679782) (xy -0.73175 -0.6731)
    (xy -0.730138 -0.669329) (xy -0.728427 -0.664409) (xy -0.726325 -0.657154) (xy -0.723539 -0.646373)
    (xy -0.719774 -0.63088) (xy -0.714738 -0.609485) (xy -0.708138 -0.581) (xy -0.69968 -0.544238)
    (xy -0.696026 -0.52832) (xy -0.689232 -0.498974) (xy -0.682022 -0.468263) (xy -0.675336 -0.440168)
    (xy -0.670846 -0.42164) (xy -0.665557 -0.399483) (xy -0.658992 -0.371046) (xy -0.651984 -0.339988)
    (xy -0.645369 -0.309968) (xy -0.64535 -0.30988) (xy -0.638715 -0.279525) (xy -0.631702 -0.24778)
    (xy -0.625151 -0.21844) (xy -0.619971 -0.19558) (xy -0.614936 -0.172994) (xy -0.608676 -0.143955)
    (xy -0.601938 -0.111977) (xy -0.59547 -0.080573) (xy -0.594584 -0.0762) (xy -0.588129 -0.044516)
    (xy -0.581242 -0.011092) (xy -0.574703 0.020309) (xy -0.56929 0.045928) (xy -0.568791 0.04826)
    (xy -0.563769 0.072303) (xy -0.557592 0.102841) (xy -0.550955 0.13638) (xy -0.544556 0.169423)
    (xy -0.54296 0.1778) (xy -0.536761 0.21042) (xy -0.530209 0.244785) (xy -0.523993 0.27729)
    (xy -0.518802 0.304329) (xy -0.517732 0.30988) (xy -0.513251 0.333676) (xy -0.507644 0.364333)
    (xy -0.501479 0.398695) (xy -0.495324 0.433604) (xy -0.492111 0.45212) (xy -0.486205 0.486245)
    (xy -0.480003 0.521854) (xy -0.474073 0.555699) (xy -0.468984 0.584534) (xy -0.466781 0.5969)
    (xy -0.462265 0.62284) (xy -0.456826 0.655397) (xy -0.450369 0.695175) (xy -0.442797 0.742776)
    (xy -0.434013 0.798805) (xy -0.423923 0.863867) (xy -0.416138 0.9144) (xy -0.41165 0.944408)
    (xy -0.406121 0.982678) (xy -0.399803 1.027391) (xy -0.392945 1.07673) (xy -0.385799 1.128879)
    (xy -0.378616 1.182019) (xy -0.371646 1.234335) (xy -0.365309 1.2827) (xy -0.360991 1.31698)
    (xy -0.355872 1.359237) (xy -0.350195 1.407342) (xy -0.3442 1.459166) (xy -0.33813 1.512579)
    (xy -0.332227 1.565451) (xy -0.326731 1.615654) (xy -0.321885 1.661058) (xy -0.317931 1.699534)
    (xy -0.317453 1.70434) (xy -0.314292 1.735636) (xy -0.310866 1.768495) (xy -0.307585 1.799044)
    (xy -0.304858 1.823412) (xy -0.304823 1.82372) (xy -0.30305 1.8408) (xy -0.30065 1.866582)
    (xy -0.297737 1.899636) (xy -0.294428 1.938532) (xy -0.290837 1.981839) (xy -0.287082 2.028127)
    (xy -0.283276 2.075965) (xy -0.279537 2.123923) (xy -0.27598 2.170571) (xy -0.272721 2.214478)
    (xy -0.269874 2.254214) (xy -0.269079 2.26568) (xy -0.261776 2.37581) (xy -0.255416 2.480565)
    (xy -0.249948 2.581517) (xy -0.245323 2.680239) (xy -0.24149 2.778305) (xy -0.2384 2.877287)
    (xy -0.236003 2.978758) (xy -0.234249 3.084291) (xy -0.233088 3.19546) (xy -0.23247 3.313837)
    (xy -0.232335 3.42392) (xy -0.232611 3.553632) (xy -0.233368 3.674521) (xy -0.234644 3.787916)
    (xy -0.236478 3.895143) (xy -0.238908 3.99753) (xy -0.241973 4.096406) (xy -0.245711 4.193097)
    (xy -0.250161 4.288931) (xy -0.255361 4.385237) (xy -0.261349 4.483341) (xy -0.264402 4.529771)
    (xy -0.26621 4.558946) (xy -0.267711 4.587436) (xy -0.268764 4.61226) (xy -0.26923 4.630437)
    (xy -0.26924 4.632641) (xy -0.26924 4.66344) (xy -0.24511 4.664117) (xy -0.18217 4.665865)
    (xy -0.128665 4.667304) (xy -0.083876 4.668448) (xy -0.047084 4.669314) (xy -0.01757 4.669915)
    (xy 0.005386 4.670267) (xy 0.022503 4.670385) (xy 0.0345 4.670283) (xy 0.04064 4.670068)
    (xy 0.051996 4.669617) (xy 0.071829 4.669009) (xy 0.098455 4.668289) (xy 0.130194 4.667501)
    (xy 0.165363 4.666688) (xy 0.19304 4.666088) (xy 0.228916 4.665218) (xy 0.261925 4.664203)
    (xy 0.29055 4.663106) (xy 0.313275 4.661992) (xy 0.328581 4.660924) (xy 0.334492 4.660139)
    (xy 0.340073 4.658208) (xy 0.343394 4.654724) (xy 0.34482 4.647612) (xy 0.344716 4.634801)
    (xy 0.343446 4.614216) (xy 0.3432 4.610651) (xy 0.341229 4.58397) (xy 0.338722 4.552542)
    (xy 0.336114 4.521737) (xy 0.335161 4.51104) (xy 0.333739 4.492688) (xy 0.331996 4.465902)
    (xy 0.330025 4.4324) (xy 0.327924 4.3939) (xy 0.325788 4.352119) (xy 0.323711 4.308776)
    (xy 0.322745 4.28752) (xy 0.32017 4.230377) (xy 0.317895 4.181536) (xy 0.315824 4.139145)
    (xy 0.313859 4.101353) (xy 0.311904 4.066309) (xy 0.309862 4.032163) (xy 0.307634 3.997063)
    (xy 0.307029 3.9878) (xy 0.306281 3.972015) (xy 0.305474 3.947189) (xy 0.304625 3.91444)
    (xy 0.303748 3.874885) (xy 0.302859 3.829643) (xy 0.301972 3.779832) (xy 0.301102 3.726571)
    (xy 0.300264 3.670976) (xy 0.299473 3.614168) (xy 0.298745 3.557263) (xy 0.298094 3.501379)
    (xy 0.297534 3.447636) (xy 0.297082 3.397151) (xy 0.296856 3.3655) (xy 0.45974 3.3655)
    (xy 0.460012 3.49634) (xy 0.46085 3.618523) (xy 0.46229 3.733536) (xy 0.464363 3.842866)
    (xy 0.467105 3.948002) (xy 0.470548 4.050431) (xy 0.474727 4.151641) (xy 0.479675 4.25312)
    (xy 0.480014 4.25958) (xy 0.482256 4.300754) (xy 0.484747 4.344239) (xy 0.487407 4.388825)
    (xy 0.490155 4.433302) (xy 0.492911 4.476461) (xy 0.495594 4.51709) (xy 0.498125 4.55398)
    (xy 0.500423 4.585921) (xy 0.502408 4.611703) (xy 0.503999 4.630116) (xy 0.505116 4.63995)
    (xy 0.505342 4.641031) (xy 0.510935 4.642589) (xy 0.525629 4.642563) (xy 0.548505 4.64105)
    (xy 0.578641 4.638147) (xy 0.61512 4.633953) (xy 0.657022 4.628566) (xy 0.703427 4.622082)
    (xy 0.75184 4.614842) (xy 0.77406 4.61123) (xy 0.801932 4.606408) (xy 0.834058 4.600645)
    (xy 0.869042 4.594211) (xy 0.905491 4.587375) (xy 0.942007 4.580406) (xy 0.977194 4.573572)
    (xy 1.009658 4.567145) (xy 1.038003 4.561391) (xy 1.060832 4.556581) (xy 1.07675 4.552984)
    (xy 1.084361 4.550869) (xy 1.084775 4.550637) (xy 1.084543 4.545272) (xy 1.082394 4.532757)
    (xy 1.078854 4.516071) (xy 1.054318 4.399016) (xy 1.031964 4.272953) (xy 1.011918 4.138823)
    (xy 0.994307 3.997569) (xy 0.979258 3.850131) (xy 0.966896 3.697452) (xy 0.964851 3.66776)
    (xy 0.96314 3.63594) (xy 0.96174 3.597078) (xy 0.960642 3.552424) (xy 0.959842 3.503226)
    (xy 0.959332 3.450736) (xy 0.959105 3.396202) (xy 0.95911 3.389837) (xy 1.118992 3.389837)
    (xy 1.119154 3.4388) (xy 1.119493 3.485929) (xy 1.120008 3.529724) (xy 1.120697 3.568686)
    (xy 1.121561 3.601318) (xy 1.122598 3.626118) (xy 1.123152 3.63474) (xy 1.1248 3.656879)
    (xy 1.126956 3.686682) (xy 1.129446 3.721677) (xy 1.132092 3.759391) (xy 1.134721 3.79735)
    (xy 1.135414 3.80746) (xy 1.137964 3.842754) (xy 1.140639 3.876328) (xy 1.14327 3.906279)
    (xy 1.145684 3.930706) (xy 1.147712 3.947708) (xy 1.148418 3.95224) (xy 1.15076 3.96699)
    (xy 1.153934 3.989352) (xy 1.157604 4.016846) (xy 1.161437 4.04699) (xy 1.163516 4.064)
    (xy 1.174347 4.145883) (xy 1.187687 4.233435) (xy 1.20287 4.322674) (xy 1.219226 4.40962)
    (xy 1.231546 4.469462) (xy 1.235383 4.487622) (xy 1.23821 4.501518) (xy 1.239493 4.508527)
    (xy 1.23952 4.508832) (xy 1.24004 4.510129) (xy 1.24248 4.510489) (xy 1.248157 4.509593)
    (xy 1.258387 4.507128) (xy 1.274489 4.502775) (xy 1.297779 4.496221) (xy 1.327873 4.487634)
    (xy 1.418261 4.460543) (xy 1.512493 4.430009) (xy 1.608163 4.396908) (xy 1.702866 4.362119)
    (xy 1.794195 4.326518) (xy 1.879746 4.290985) (xy 1.93996 4.264317) (xy 1.979433 4.246273)
    (xy 1.970932 4.222446) (xy 1.9653 4.206907) (xy 1.960689 4.194601) (xy 1.959263 4.191)
    (xy 1.950179 4.167265) (xy 1.939512 4.136415) (xy 1.92812 4.101195) (xy 1.91686 4.064352)
    (xy 1.906592 4.028633) (xy 1.898171 3.996783) (xy 1.896597 3.99034) (xy 1.891271 3.969623)
    (xy 1.885465 3.949265) (xy 1.882195 3.938944) (xy 1.877858 3.923819) (xy 1.872813 3.902753)
    (xy 1.868026 3.879827) (xy 1.867196 3.875444) (xy 1.862765 3.851802) (xy 1.858301 3.828376)
    (xy 1.854668 3.809695) (xy 1.854223 3.80746) (xy 1.85227 3.797175) (xy 1.850097 3.784593)
    (xy 1.847513 3.768436) (xy 1.844322 3.747424) (xy 1.840331 3.720281) (xy 1.835346 3.685726)
    (xy 1.829173 3.642481) (xy 1.82866 3.638874) (xy 1.826056 3.615482) (xy 1.823596 3.583936)
    (xy 1.821351 3.546242) (xy 1.819395 3.504407) (xy 1.817799 3.460436) (xy 1.816637 3.416335)
    (xy 1.815979 3.37411) (xy 1.815944 3.356763) (xy 1.978938 3.356763) (xy 1.978959 3.38582)
    (xy 1.979094 3.434729) (xy 1.979371 3.475134) (xy 1.979875 3.508689) (xy 1.980688 3.537049)
    (xy 1.981892 3.561869) (xy 1.98357 3.584803) (xy 1.985805 3.607507) (xy 1.98868 3.631635)
    (xy 1.992278 3.658843) (xy 1.992801 3.66268) (xy 1.997789 3.698872) (xy 2.001868 3.727387)
    (xy 2.005456 3.750619) (xy 2.00897 3.770964) (xy 2.012826 3.790817) (xy 2.017444 3.812572)
    (xy 2.023239 3.838625) (xy 2.024228 3.84302) (xy 2.03405 3.884835) (xy 2.044849 3.927722)
    (xy 2.056273 3.970549) (xy 2.067974 4.012184) (xy 2.079602 4.051496) (xy 2.090804 4.087353)
    (xy 2.101233 4.118624) (xy 2.110537 4.144177) (xy 2.118367 4.162881) (xy 2.124371 4.173604)
    (xy 2.127198 4.17576) (xy 2.13241 4.173515) (xy 2.144834 4.167374) (xy 2.162719 4.158222)
    (xy 2.184313 4.146947) (xy 2.188849 4.144553) (xy 2.370071 4.044405) (xy 2.542903 3.939805)
    (xy 2.70842 3.82999) (xy 2.867697 3.714199) (xy 3.02181 3.591671) (xy 3.171834 3.461644)
    (xy 3.234679 3.40387) (xy 3.39051 3.251321) (xy 3.538177 3.092749) (xy 3.677732 2.928086)
    (xy 3.809227 2.757259) (xy 3.932716 2.580199) (xy 4.04825 2.396835) (xy 4.155882 2.207097)
    (xy 4.229246 2.06502) (xy 4.30095 1.91451) (xy 4.365221 1.766906) (xy 4.423142 1.61957)
    (xy 4.475796 1.469867) (xy 4.484715 1.44272) (xy 4.496021 1.40744) (xy 4.507183 1.371681)
    (xy 4.517813 1.336785) (xy 4.52752 1.304095) (xy 4.535915 1.274954) (xy 4.542609 1.250702)
    (xy 4.547211 1.232683) (xy 4.549333 1.222239) (xy 4.549287 1.220193) (xy 4.543716 1.218796)
    (xy 4.529781 1.216397) (xy 4.509203 1.213236) (xy 4.4837 1.209553) (xy 4.454994 1.205589)
    (xy 4.424804 1.201584) (xy 4.39485 1.197779) (xy 4.366852 1.194414) (xy 4.3561 1.193191)
    (xy 4.334404 1.191478) (xy 4.304441 1.190113) (xy 4.268096 1.189096) (xy 4.227255 1.188428)
    (xy 4.183805 1.188109) (xy 4.139632 1.188139) (xy 4.096622 1.18852) (xy 4.056661 1.189251)
    (xy 4.021634 1.190334) (xy 3.99343 1.191767) (xy 3.97764 1.1931) (xy 3.941303 1.197328)
    (xy 3.902525 1.202187) (xy 3.864076 1.207301) (xy 3.828724 1.212297) (xy 3.79924 1.216801)
    (xy 3.786945 1.21886) (xy 3.760951 1.22374) (xy 3.730624 1.229955) (xy 3.697761 1.237082)
    (xy 3.664162 1.244696) (xy 3.631625 1.252373) (xy 3.601948 1.259691) (xy 3.576929 1.266224)
    (xy 3.558366 1.271549) (xy 3.54838 1.275089) (xy 3.538269 1.278748) (xy 3.521993 1.283603)
    (xy 3.5052 1.288059) (xy 3.487596 1.292844) (xy 3.473812 1.297299) (xy 3.4671 1.300312)
    (xy 3.458553 1.304736) (xy 3.44932 1.307986) (xy 3.434743 1.312689) (xy 3.413709 1.320071)
    (xy 3.389187 1.329026) (xy 3.364147 1.338445) (xy 3.341561 1.347222) (xy 3.324397 1.354248)
    (xy 3.31978 1.356291) (xy 3.302544 1.364093) (xy 3.28244 1.37301) (xy 3.27406 1.376672)
    (xy 3.258395 1.383732) (xy 3.2381 1.393252) (xy 3.214996 1.404332) (xy 3.190908 1.416073)
    (xy 3.16766 1.427575) (xy 3.147073 1.437941) (xy 3.130973 1.446269) (xy 3.121183 1.451661)
    (xy 3.11912 1.453082) (xy 3.113789 1.456717) (xy 3.101655 1.463869) (xy 3.084879 1.473282)
    (xy 3.07594 1.478166) (xy 3.05137 1.49223) (xy 3.020797 1.510888) (xy 2.986398 1.532707)
    (xy 2.950349 1.556253) (xy 2.914828 1.580097) (xy 2.882012 1.602804) (xy 2.854079 1.622943)
    (xy 2.84226 1.631884) (xy 2.724563 1.728933) (xy 2.614989 1.831665) (xy 2.573248 1.87452)
    (xy 2.553001 1.895857) (xy 2.538379 1.911309) (xy 2.528024 1.922365) (xy 2.520576 1.930519)
    (xy 2.514677 1.937262) (xy 2.508967 1.944084) (xy 2.502086 1.952479) (xy 2.500976 1.953835)
    (xy 2.472565 1.98863) (xy 2.449916 2.016585) (xy 2.432277 2.038653) (xy 2.418893 2.055789)
    (xy 2.40901 2.068947) (xy 2.401875 2.079082) (xy 2.401088 2.08026) (xy 2.393575 2.091444)
    (xy 2.384884 2.104049) (xy 2.373749 2.119878) (xy 2.358904 2.140735) (xy 2.344017 2.16154)
    (xy 2.335874 2.173381) (xy 2.325814 2.188668) (xy 2.315325 2.205047) (xy 2.305896 2.220161)
    (xy 2.299015 2.231656) (xy 2.296169 2.237177) (xy 2.29616 2.237267) (xy 2.293584 2.242569)
    (xy 2.286992 2.253414) (xy 2.281668 2.261615) (xy 2.269257 2.28172) (xy 2.253751 2.308961)
    (xy 2.23624 2.341214) (xy 2.217812 2.376355) (xy 2.199557 2.412262) (xy 2.182564 2.44681)
    (xy 2.167922 2.477877) (xy 2.156719 2.503338) (xy 2.153221 2.51206) (xy 2.146727 2.528599)
    (xy 2.140988 2.54256) (xy 2.138767 2.54762) (xy 2.127031 2.575025) (xy 2.113574 2.609917)
    (xy 2.099193 2.649939) (xy 2.084682 2.692736) (xy 2.070838 2.73595) (xy 2.058456 2.777225)
    (xy 2.048331 2.814204) (xy 2.047015 2.8194) (xy 2.032062 2.881252) (xy 2.019698 2.937463)
    (xy 2.009249 2.991628) (xy 2.000041 3.047341) (xy 1.991402 3.108197) (xy 1.988008 3.13436)
    (xy 1.985293 3.157744) (xy 1.983143 3.181402) (xy 1.981501 3.206847) (xy 1.980314 3.235592)
    (xy 1.979528 3.269151) (xy 1.979088 3.309037) (xy 1.978938 3.356763) (xy 1.815944 3.356763)
    (xy 1.8159 3.335768) (xy 1.81647 3.303313) (xy 1.816513 3.302) (xy 1.82232 3.198255)
    (xy 1.832591 3.094028) (xy 1.843521 3.01498) (xy 1.847824 2.989066) (xy 1.853059 2.959632)
    (xy 1.858852 2.92857) (xy 1.864826 2.897774) (xy 1.870606 2.869138) (xy 1.875817 2.844555)
    (xy 1.880083 2.825919) (xy 1.883028 2.815122) (xy 1.883323 2.81432) (xy 1.885935 2.806136)
    (xy 1.89029 2.790889) (xy 1.895603 2.771358) (xy 1.897676 2.76352) (xy 1.909708 2.718634)
    (xy 1.920172 2.681613) (xy 1.928887 2.653068) (xy 1.93567 2.633613) (xy 1.937628 2.6289)
    (xy 1.943699 2.613578) (xy 1.949706 2.595869) (xy 1.950474 2.59334) (xy 1.95546 2.577749)
    (xy 1.960174 2.564855) (xy 1.961017 2.56286) (xy 1.964526 2.554387) (xy 1.970838 2.538624)
    (xy 1.979085 2.517751) (xy 1.9884 2.493953) (xy 1.989262 2.49174) (xy 2.011113 2.439124)
    (xy 2.037578 2.381139) (xy 2.067251 2.320599) (xy 2.098725 2.260321) (xy 2.130593 2.203119)
    (xy 2.149117 2.171778) (xy 2.161158 2.151908) (xy 2.171617 2.134643) (xy 2.179123 2.122247)
    (xy 2.18186 2.117722) (xy 2.189004 2.106361) (xy 2.199028 2.091004) (xy 2.210428 2.073877)
    (xy 2.221702 2.057211) (xy 2.231348 2.043231) (xy 2.237864 2.034166) (xy 2.239663 2.032)
    (xy 2.243862 2.026857) (xy 2.252126 2.015538) (xy 2.262829 2.000282) (xy 2.265192 1.996848)
    (xy 2.277238 1.979606) (xy 2.288215 1.964442) (xy 2.295943 1.95436) (xy 2.29652 1.953668)
    (xy 2.30342 1.945255) (xy 2.314775 1.931126) (xy 2.328762 1.913557) (xy 2.338173 1.901661)
    (xy 2.392264 1.836753) (xy 2.453542 1.769607) (xy 2.519951 1.702203) (xy 2.589435 1.63652)
    (xy 2.65994 1.574538) (xy 2.729408 1.518239) (xy 2.76098 1.494405) (xy 2.770881 1.487092)
    (xy 2.780423 1.479961) (xy 2.792101 1.471128) (xy 2.80841 1.458713) (xy 2.816288 1.452705)
    (xy 2.828565 1.443919) (xy 2.837613 1.43849) (xy 2.840055 1.43764) (xy 2.846711 1.434483)
    (xy 2.850787 1.431071) (xy 2.857914 1.425533) (xy 2.87132 1.416253) (xy 2.888649 1.404843)
    (xy 2.89729 1.399321) (xy 2.988492 1.344319) (xy 3.082402 1.292833) (xy 3.177047 1.245812)
    (xy 3.270456 1.204206) (xy 3.360658 1.168963) (xy 3.41376 1.150835) (xy 3.437596 1.14315)
    (xy 3.461726 1.135306) (xy 3.481638 1.12877) (xy 3.48488 1.127695) (xy 3.535353 1.112382)
    (xy 3.593724 1.097179) (xy 3.657732 1.08253) (xy 3.725119 1.068881) (xy 3.793628 1.056677)
    (xy 3.861001 1.046361) (xy 3.924978 1.038379) (xy 3.95224 1.03565) (xy 3.998109 1.032392)
    (xy 4.050514 1.030255) (xy 4.107639 1.029195) (xy 4.167668 1.029167) (xy 4.228786 1.030125)
    (xy 4.289175 1.032023) (xy 4.347022 1.034817) (xy 4.400509 1.038461) (xy 4.44782 1.04291)
    (xy 4.487141 1.048119) (xy 4.49326 1.049139) (xy 4.517299 1.053079) (xy 4.541902 1.056753)
    (xy 4.5619 1.05939) (xy 4.562577 1.059468) (xy 4.591255 1.062757) (xy 4.597242 1.035568)
    (xy 4.6402 0.817613) (xy 4.673106 0.599694) (xy 4.69597 0.381997) (xy 4.7088 0.164711)
    (xy 4.711606 -0.051979) (xy 4.704395 -0.267886) (xy 4.687176 -0.482823) (xy 4.659958 -0.696602)
    (xy 4.62275 -0.909039) (xy 4.57556 -1.119944) (xy 4.518397 -1.329133) (xy 4.482097 -1.44526)
    (xy 4.473816 -1.470414) (xy 4.466625 -1.491907) (xy 4.461118 -1.507998) (xy 4.457886 -1.516943)
    (xy 4.457335 -1.518168) (xy 4.451884 -1.517813) (xy 4.439786 -1.514514) (xy 4.423781 -1.509212)
    (xy 4.406613 -1.502846) (xy 4.39102 -1.496356) (xy 4.38404 -1.493038) (xy 4.370817 -1.48686)
    (xy 4.351741 -1.478624) (xy 4.330451 -1.469892) (xy 4.32562 -1.467976) (xy 4.302371 -1.458594)
    (xy 4.278607 -1.448633) (xy 4.259028 -1.440067) (xy 4.25704 -1.439161) (xy 4.236881 -1.429949)
    (xy 4.216167 -1.420534) (xy 4.20624 -1.416047) (xy 4.183362 -1.405527) (xy 4.154636 -1.391992)
    (xy 4.121835 -1.376309) (xy 4.086731 -1.359344) (xy 4.051098 -1.341964) (xy 4.016707 -1.325034)
    (xy 3.985331 -1.309422) (xy 3.958742 -1.295994) (xy 3.938715 -1.285616) (xy 3.93192 -1.281955)
    (xy 3.872401 -1.249101) (xy 3.821024 -1.220602) (xy 3.776982 -1.196002) (xy 3.739469 -1.174847)
    (xy 3.707677 -1.15668) (xy 3.6808 -1.141045) (xy 3.658031 -1.127486) (xy 3.651416 -1.123473)
    (xy 3.630162 -1.110392) (xy 3.605023 -1.094732) (xy 3.577434 -1.077406) (xy 3.548828 -1.059327)
    (xy 3.520641 -1.04141) (xy 3.494306 -1.024567) (xy 3.471258 -1.009712) (xy 3.45293 -0.997759)
    (xy 3.440758 -0.989622) (xy 3.43662 -0.986646) (xy 3.430187 -0.981951) (xy 3.417773 -0.973298)
    (xy 3.401829 -0.962395) (xy 3.39852 -0.960153) (xy 3.381851 -0.948621) (xy 3.367971 -0.938552)
    (xy 3.359499 -0.931854) (xy 3.358787 -0.93119) (xy 3.350963 -0.925531) (xy 3.34772 -0.924561)
    (xy 3.340736 -0.9214) (xy 3.336652 -0.918043) (xy 3.328306 -0.911057) (xy 3.315845 -0.901737)
    (xy 3.31216 -0.899131) (xy 3.299864 -0.890435) (xy 3.290854 -0.883843) (xy 3.2893 -0.882636)
    (xy 3.282784 -0.877719) (xy 3.270682 -0.868845) (xy 3.25628 -0.858416) (xy 3.240125 -0.846609)
    (xy 3.225873 -0.835894) (xy 3.21756 -0.829358) (xy 3.204501 -0.819274) (xy 3.195309 -0.8128)
    (xy 3.184222 -0.804865) (xy 3.170068 -0.794029) (xy 3.16493 -0.78994) (xy 3.148327 -0.77669)
    (xy 3.130557 -0.762695) (xy 3.126408 -0.75946) (xy 3.109075 -0.745919) (xy 3.089917 -0.730831)
    (xy 3.070679 -0.715587) (xy 3.053104 -0.701576) (xy 3.038938 -0.690186) (xy 3.029925 -0.682807)
    (xy 3.02768 -0.680845) (xy 3.02508 -0.678407) (xy 3.01929 -0.673353) (xy 3.009285 -0.664811)
    (xy 2.994038 -0.651906) (xy 2.972525 -0.633767) (xy 2.959633 -0.622912) (xy 2.950739 -0.6154)
    (xy 2.942261 -0.608154) (xy 2.93309 -0.60019) (xy 2.922114 -0.590523) (xy 2.908222 -0.578169)
    (xy 2.890303 -0.562144) (xy 2.867246 -0.541463) (xy 2.83794 -0.515142) (xy 2.832131 -0.509922)
    (xy 2.814159 -0.493363) (xy 2.790704 -0.471132) (xy 2.762954 -0.444406) (xy 2.732094 -0.414361)
    (xy 2.699311 -0.382174) (xy 2.66579 -0.349021) (xy 2.632719 -0.316078) (xy 2.601284 -0.284524)
    (xy 2.57267 -0.255533) (xy 2.548064 -0.230284) (xy 2.528653 -0.209951) (xy 2.517657 -0.198012)
    (xy 2.500733 -0.179177) (xy 2.482275 -0.158777) (xy 2.469397 -0.14464) (xy 2.454124 -0.127693)
    (xy 2.436052 -0.10726) (xy 2.418952 -0.087609) (xy 2.41808 -0.086596) (xy 2.403636 -0.06993)
    (xy 2.390412 -0.05491) (xy 2.38081 -0.044259) (xy 2.37934 -0.042685) (xy 2.369016 -0.030684)
    (xy 2.357918 -0.016273) (xy 2.356553 -0.01437) (xy 2.345044 0.000487) (xy 2.332936 0.014204)
    (xy 2.331793 0.01537) (xy 2.322785 0.025248) (xy 2.309381 0.040934) (xy 2.2934 0.060196)
    (xy 2.276661 0.080805) (xy 2.260983 0.100532) (xy 2.248186 0.117145) (xy 2.24282 0.124447)
    (xy 2.233037 0.137294) (xy 2.224109 0.147754) (xy 2.215114 0.158668) (xy 2.206329 0.17111)
    (xy 2.199497 0.180935) (xy 2.18813 0.19648) (xy 2.173932 0.21544) (xy 2.16154 0.2317)
    (xy 2.146423 0.251467) (xy 2.132848 0.269385) (xy 2.122467 0.283262) (xy 2.117477 0.29012)
    (xy 2.110716 0.299698) (xy 2.099958 0.314861) (xy 2.087107 0.332923) (xy 2.081807 0.34036)
    (xy 2.067033 0.36137) (xy 2.052109 0.38307) (xy 2.039752 0.401499) (xy 2.037384 0.40513)
    (xy 2.027813 0.419036) (xy 2.020077 0.428684) (xy 2.016246 0.4318) (xy 2.011731 0.435959)
    (xy 2.00932 0.44139) (xy 2.005648 0.448663) (xy 1.997687 0.462264) (xy 1.986785 0.480066)
    (xy 1.974291 0.499944) (xy 1.961551 0.519771) (xy 1.949914 0.537422) (xy 1.940726 0.55077)
    (xy 1.936205 0.556736) (xy 1.930812 0.564775) (xy 1.923787 0.577193) (xy 1.922779 0.57912)
    (xy 1.915771 0.591782) (xy 1.909994 0.60077) (xy 1.909413 0.601503) (xy 1.904038 0.609169)
    (xy 1.895326 0.622937) (xy 1.884459 0.640787) (xy 1.87262 0.660703) (xy 1.860993 0.680667)
    (xy 1.850762 0.698661) (xy 1.843109 0.712669) (xy 1.839217 0.720672) (xy 1.83896 0.721627)
    (xy 1.835734 0.726344) (xy 1.834938 0.72644) (xy 1.83032 0.730563) (xy 1.82415 0.74071)
    (xy 1.823045 0.74295) (xy 1.817621 0.753491) (xy 1.808359 0.770635) (xy 1.79647 0.792168)
    (xy 1.783168 0.815876) (xy 1.780594 0.82042) (xy 1.764182 0.850045) (xy 1.745203 0.885466)
    (xy 1.724349 0.925293) (xy 1.702312 0.968135) (xy 1.679783 1.012602) (xy 1.657453 1.057303)
    (xy 1.636014 1.100847) (xy 1.616159 1.141845) (xy 1.598577 1.178906) (xy 1.583961 1.210638)
    (xy 1.573003 1.235653) (xy 1.568363 1.24714) (xy 1.562143 1.262435) (xy 1.556779 1.273947)
    (xy 1.554591 1.27762) (xy 1.551211 1.284135) (xy 1.545063 1.298051) (xy 1.537037 1.317288)
    (xy 1.528492 1.33858) (xy 1.519592 1.360646) (xy 1.511785 1.379062) (xy 1.505931 1.391862)
    (xy 1.502934 1.39705) (xy 1.499342 1.403392) (xy 1.495732 1.41483) (xy 1.491195 1.429485)
    (xy 1.484593 1.446621) (xy 1.482978 1.45034) (xy 1.475613 1.468232) (xy 1.468067 1.488657)
    (xy 1.465854 1.495185) (xy 1.459625 1.512667) (xy 1.453231 1.52834) (xy 1.450902 1.533285)
    (xy 1.446536 1.543522) (xy 1.440002 1.560859) (xy 1.432242 1.582723) (xy 1.425454 1.60274)
    (xy 1.417646 1.625952) (xy 1.410583 1.646368) (xy 1.405103 1.661599) (xy 1.402273 1.66878)
    (xy 1.397557 1.680762) (xy 1.390906 1.699788) (xy 1.383202 1.723138) (xy 1.375329 1.748093)
    (xy 1.36817 1.771937) (xy 1.364299 1.78562) (xy 1.359065 1.803621) (xy 1.354091 1.818844)
    (xy 1.351204 1.82626) (xy 1.347 1.837531) (xy 1.340809 1.857303) (xy 1.33303 1.8842)
    (xy 1.324062 1.916847) (xy 1.315119 1.95072) (xy 1.309773 1.97047) (xy 1.304796 1.987389)
    (xy 1.301164 1.998183) (xy 1.300834 1.99898) (xy 1.297482 2.008919) (xy 1.292902 2.025258)
    (xy 1.288081 2.044481) (xy 1.288029 2.0447) (xy 1.283004 2.065492) (xy 1.278117 2.084953)
    (xy 1.274649 2.09804) (xy 1.262722 2.14368) (xy 1.250009 2.197791) (xy 1.236817 2.258739)
    (xy 1.22345 2.324894) (xy 1.210214 2.394623) (xy 1.197414 2.466296) (xy 1.185356 2.538279)
    (xy 1.174343 2.608942) (xy 1.164682 2.676653) (xy 1.160613 2.70764) (xy 1.154789 2.75353)
    (xy 1.150085 2.791029) (xy 1.146329 2.821822) (xy 1.143346 2.847595) (xy 1.140963 2.870033)
    (xy 1.139007 2.890822) (xy 1.137304 2.911648) (xy 1.13568 2.934196) (xy 1.133961 2.960152)
    (xy 1.132888 2.97688) (xy 1.130648 3.011271) (xy 1.128281 3.046388) (xy 1.125992 3.079288)
    (xy 1.123984 3.107027) (xy 1.122866 3.12166) (xy 1.12177 3.141488) (xy 1.120856 3.169976)
    (xy 1.120123 3.205624) (xy 1.119572 3.246934) (xy 1.1192 3.292405) (xy 1.119007 3.340539)
    (xy 1.118992 3.389837) (xy 0.95911 3.389837) (xy 0.959156 3.340874) (xy 0.959477 3.286003)
    (xy 0.960062 3.232838) (xy 0.960904 3.182629) (xy 0.961997 3.136626) (xy 0.963334 3.096078)
    (xy 0.964909 3.062235) (xy 0.966715 3.036347) (xy 0.968243 3.022728) (xy 0.969247 3.013735)
    (xy 0.970893 2.996454) (xy 0.973018 2.972726) (xy 0.975457 2.944391) (xy 0.978037 2.91338)
    (xy 0.980721 2.880897) (xy 0.983067 2.853615) (xy 0.985306 2.829353) (xy 0.987666 2.805929)
    (xy 0.990378 2.781158) (xy 0.993671 2.75286) (xy 0.997775 2.718852) (xy 1.00292 2.676951)
    (xy 1.002934 2.67684) (xy 1.015843 2.582408) (xy 1.03201 2.481209) (xy 1.050942 2.375912)
    (xy 1.072141 2.269192) (xy 1.095112 2.163719) (xy 1.109306 2.10312) (xy 1.122754 2.048432)
    (xy 1.136228 1.996226) (xy 1.150548 1.943488) (xy 1.166533 1.887201) (xy 1.185 1.824352)
    (xy 1.185188 1.82372) (xy 1.192757 1.798259) (xy 1.200832 1.771036) (xy 1.207811 1.747454)
    (xy 1.208542 1.74498) (xy 1.214399 1.725878) (xy 1.219788 1.709555) (xy 1.223574 1.699449)
    (xy 1.223659 1.69926) (xy 1.226871 1.690793) (xy 1.232412 1.674771) (xy 1.23956 1.65333)
    (xy 1.247595 1.628607) (xy 1.249372 1.62306) (xy 1.257527 1.598008) (xy 1.265011 1.575887)
    (xy 1.271092 1.558799) (xy 1.27504 1.548844) (xy 1.275552 1.547817) (xy 1.279886 1.538068)
    (xy 1.285753 1.522536) (xy 1.290167 1.509717) (xy 1.302889 1.472498) (xy 1.314398 1.441515)
    (xy 1.32344 1.41986) (xy 1.328252 1.408556) (xy 1.33549 1.39068) (xy 1.343979 1.369161)
    (xy 1.348937 1.35636) (xy 1.358425 1.332198) (xy 1.368179 1.308206) (xy 1.376645 1.288177)
    (xy 1.379706 1.281279) (xy 1.386301 1.266335) (xy 1.390736 1.255404) (xy 1.39192 1.251567)
    (xy 1.392264 1.249541) (xy 1.393708 1.245495) (xy 1.39687 1.238021) (xy 1.402366 1.225713)
    (xy 1.410813 1.207167) (xy 1.422829 1.180975) (xy 1.424574 1.177178) (xy 1.432784 1.15911)
    (xy 1.439059 1.144912) (xy 1.442414 1.136826) (xy 1.44272 1.135819) (xy 1.444806 1.130851)
    (xy 1.450587 1.118262) (xy 1.459345 1.099585) (xy 1.470363 1.07635) (xy 1.480126 1.055921)
    (xy 1.492775 1.029311) (xy 1.504033 1.005202) (xy 1.513081 0.985377) (xy 1.519104 0.971621)
    (xy 1.521109 0.96647) (xy 1.525635 0.957608) (xy 1.529422 0.95504) (xy 1.533939 0.951094)
    (xy 1.53416 0.949393) (xy 1.53648 0.943149) (xy 1.542958 0.929372) (xy 1.552862 0.909438)
    (xy 1.565466 0.884724) (xy 1.580041 0.856606) (xy 1.595857 0.82646) (xy 1.612187 0.795661)
    (xy 1.628302 0.765586) (xy 1.643473 0.737611) (xy 1.656972 0.713112) (xy 1.66807 0.693466)
    (xy 1.676038 0.680047) (xy 1.679425 0.67502) (xy 1.684254 0.667585) (xy 1.69243 0.653664)
    (xy 1.702514 0.635732) (xy 1.707093 0.62738) (xy 1.717507 0.608643) (xy 1.726607 0.593016)
    (xy 1.732975 0.582901) (xy 1.734547 0.580814) (xy 1.739915 0.57338) (xy 1.748217 0.560335)
    (xy 1.75514 0.548778) (xy 1.765517 0.531426) (xy 1.77875 0.509879) (xy 1.792176 0.48847)
    (xy 1.793669 0.486123) (xy 1.805321 0.467581) (xy 1.81555 0.450846) (xy 1.822548 0.438885)
    (xy 1.823639 0.43688) (xy 1.829577 0.426716) (xy 1.833481 0.42164) (xy 1.837505 0.416437)
    (xy 1.845435 0.404826) (xy 1.855781 0.389007) (xy 1.85928 0.38354) (xy 1.870016 0.366866)
    (xy 1.878718 0.353705) (xy 1.883925 0.346254) (xy 1.884609 0.34544) (xy 1.88851 0.340319)
    (xy 1.896559 0.328891) (xy 1.907259 0.313292) (xy 1.911288 0.30734) (xy 1.926771 0.284712)
    (xy 1.944477 0.259319) (xy 1.960618 0.236588) (xy 1.960884 0.23622) (xy 1.973841 0.218111)
    (xy 1.985518 0.201591) (xy 1.993854 0.189578) (xy 1.995276 0.187469) (xy 2.015374 0.158632)
    (xy 2.041372 0.123443) (xy 2.072324 0.083057) (xy 2.107283 0.03863) (xy 2.145304 -0.008686)
    (xy 2.18544 -0.057733) (xy 2.226744 -0.107358) (xy 2.26827 -0.156405) (xy 2.309072 -0.203719)
    (xy 2.348204 -0.248147) (xy 2.384719 -0.288532) (xy 2.39014 -0.294416) (xy 2.443312 -0.351001)
    (xy 2.499983 -0.40954) (xy 2.558707 -0.468628) (xy 2.618035 -0.526861) (xy 2.676521 -0.582835)
    (xy 2.732715 -0.635144) (xy 2.785171 -0.682386) (xy 2.829379 -0.72058) (xy 2.846315 -0.735014)
    (xy 2.860552 -0.747462) (xy 2.87011 -0.756178) (xy 2.87274 -0.758845) (xy 2.877819 -0.763345)
    (xy 2.889711 -0.773181) (xy 2.907234 -0.787416) (xy 2.929209 -0.80511) (xy 2.954455 -0.825327)
    (xy 2.981794 -0.847128) (xy 3.010045 -0.869575) (xy 3.038028 -0.891731) (xy 3.064564 -0.912657)
    (xy 3.088472 -0.931415) (xy 3.108573 -0.947068) (xy 3.123687 -0.958677) (xy 3.130688 -0.96391)
    (xy 3.143618 -0.973486) (xy 3.153662 -0.981183) (xy 3.156088 -0.983148) (xy 3.164064 -0.989264)
    (xy 3.176279 -0.998036) (xy 3.18008 -1.000683) (xy 3.191674 -1.008974) (xy 3.199286 -1.014932)
    (xy 3.2004 -1.016005) (xy 3.205516 -1.020075) (xy 3.216937 -1.028279) (xy 3.232526 -1.039093)
    (xy 3.2385 -1.043164) (xy 3.27122 -1.065373) (xy 3.296503 -1.082559) (xy 3.315325 -1.095393)
    (xy 3.328663 -1.104543) (xy 3.337495 -1.110679) (xy 3.342798 -1.114473) (xy 3.34518 -1.116289)
    (xy 3.351674 -1.120891) (xy 3.364212 -1.129316) (xy 3.380291 -1.139888) (xy 3.38328 -1.141832)
    (xy 3.399719 -1.152591) (xy 3.413054 -1.161472) (xy 3.420787 -1.166809) (xy 3.42138 -1.167255)
    (xy 3.4283 -1.172005) (xy 3.440712 -1.179998) (xy 3.450816 -1.186328) (xy 3.467687 -1.196926)
    (xy 3.488547 -1.21023) (xy 3.508895 -1.223368) (xy 3.508985 -1.223427) (xy 3.52795 -1.235532)
    (xy 3.546189 -1.246776) (xy 3.55999 -1.254873) (xy 3.560828 -1.255337) (xy 3.575147 -1.263564)
    (xy 3.593368 -1.274509) (xy 3.6068 -1.28283) (xy 3.624797 -1.293752) (xy 3.642327 -1.303735)
    (xy 3.65252 -1.309075) (xy 3.664584 -1.315435) (xy 3.672117 -1.320305) (xy 3.67284 -1.321016)
    (xy 3.678129 -1.324646) (xy 3.690708 -1.332112) (xy 3.708898 -1.342483) (xy 3.731018 -1.354825)
    (xy 3.755386 -1.368207) (xy 3.780321 -1.381698) (xy 3.804144 -1.394365) (xy 3.82016 -1.402707)
    (xy 3.836603 -1.411359) (xy 3.849219 -1.418348) (xy 3.855521 -1.422291) (xy 3.85572 -1.422477)
    (xy 3.861785 -1.426343) (xy 3.875701 -1.433829) (xy 3.896101 -1.444277) (xy 3.92162 -1.457029)
    (xy 3.95089 -1.47143) (xy 3.982547 -1.486823) (xy 4.015224 -1.50255) (xy 4.047555 -1.517955)
    (xy 4.078174 -1.53238) (xy 4.105715 -1.54517) (xy 4.128812 -1.555666) (xy 4.146099 -1.563213)
    (xy 4.156209 -1.567154) (xy 4.157179 -1.567434) (xy 4.167059 -1.571364) (xy 4.17068 -1.575351)
    (xy 4.174541 -1.579773) (xy 4.175609 -1.57988) (xy 4.18263 -1.581839) (xy 4.195633 -1.5869)
    (xy 4.207359 -1.591984) (xy 4.224585 -1.599431) (xy 4.239956 -1.605526) (xy 4.24688 -1.607924)
    (xy 4.258838 -1.612225) (xy 4.275307 -1.618957) (xy 4.28498 -1.623191) (xy 4.313556 -1.635984)
    (xy 4.334834 -1.645316) (xy 4.350738 -1.65199) (xy 4.363191 -1.656811) (xy 4.374117 -1.660583)
    (xy 4.375505 -1.661032) (xy 4.388419 -1.666428) (xy 4.396443 -1.672108) (xy 4.397278 -1.673432)
    (xy 4.396146 -1.679846) (xy 4.39159 -1.694057) (xy 4.384174 -1.71452) (xy 4.374461 -1.739685)
    (xy 4.363012 -1.768006) (xy 4.361893 -1.770711) (xy 4.273821 -1.970105) (xy 4.177005 -2.164448)
    (xy 4.071646 -2.353509) (xy 3.957943 -2.537061) (xy 3.836097 -2.714872) (xy 3.706306 -2.886714)
    (xy 3.568772 -3.052358) (xy 3.423692 -3.211572) (xy 3.271269 -3.364129) (xy 3.1117 -3.509798)
    (xy 2.945186 -3.648351) (xy 2.771927 -3.779557) (xy 2.592122 -3.903186) (xy 2.405972 -4.019011)
    (xy 2.403689 -4.020359) (xy 2.371586 -4.039121) (xy 2.339935 -4.057279) (xy 2.310025 -4.074128)
    (xy 2.283142 -4.08896) (xy 2.260573 -4.101069) (xy 2.243605 -4.109749) (xy 2.233527 -4.114293)
    (xy 2.231586 -4.1148) (xy 2.227622 -4.110483) (xy 2.220198 -4.098597) (xy 2.210231 -4.080746)
    (xy 2.198637 -4.058531) (xy 2.193109 -4.04749) (xy 2.169778 -4.000104) (xy 2.146331 -3.952139)
    (xy 2.123448 -3.905006) (xy 2.101805 -3.860116) (xy 2.082082 -3.81888) (xy 2.064955 -3.782708)
    (xy 2.051102 -3.753011) (xy 2.042358 -3.7338) (xy 2.032986 -3.71319) (xy 2.024807 -3.695907)
    (xy 2.01889 -3.684171) (xy 2.016669 -3.680448) (xy 2.01255 -3.67308) (xy 2.006507 -3.659744)
    (xy 2.002492 -3.649968) (xy 1.996113 -3.63474) (xy 1.986736 -3.613489) (xy 1.975762 -3.58935)
    (xy 1.967328 -3.57124) (xy 1.952366 -3.539414) (xy 1.941272 -3.515615) (xy 1.933533 -3.498704)
    (xy 1.928637 -3.487542) (xy 1.92607 -3.480988) (xy 1.92532 -3.477903) (xy 1.92532 -3.477886)
    (xy 1.923266 -3.472408) (xy 1.917683 -3.459695) (xy 1.909436 -3.441672) (xy 1.89992 -3.42138)
    (xy 1.889953 -3.40017) (xy 1.881823 -3.382521) (xy 1.876392 -3.37033) (xy 1.87452 -3.365527)
    (xy 1.872594 -3.360042) (xy 1.867611 -3.348186) (xy 1.862407 -3.336441) (xy 1.854207 -3.318051)
    (xy 1.844134 -3.295133) (xy 1.834304 -3.272506) (xy 1.83388 -3.27152) (xy 1.824265 -3.249333)
    (xy 1.814459 -3.226913) (xy 1.806493 -3.2089) (xy 1.806099 -3.20802) (xy 1.798825 -3.191145)
    (xy 1.78961 -3.168907) (xy 1.780155 -3.145432) (xy 1.777792 -3.13944) (xy 1.769525 -3.118959)
    (xy 1.761929 -3.101169) (xy 1.756225 -3.088892) (xy 1.754713 -3.0861) (xy 1.74833 -3.072865)
    (xy 1.744912 -3.06324) (xy 1.740767 -3.05149) (xy 1.734067 -3.034981) (xy 1.729143 -3.02372)
    (xy 1.722606 -3.008802) (xy 1.718212 -2.997944) (xy 1.71704 -2.994184) (xy 1.715085 -2.98847)
    (xy 1.710014 -2.976398) (xy 1.70434 -2.963704) (xy 1.697588 -2.948499) (xy 1.692982 -2.937274)
    (xy 1.69164 -2.933048) (xy 1.689726 -2.926903) (xy 1.685048 -2.91571) (xy 1.684343 -2.914148)
    (xy 1.680161 -2.904282) (xy 1.673072 -2.886814) (xy 1.663826 -2.86362) (xy 1.653172 -2.836577)
    (xy 1.643496 -2.81178) (xy 1.632268 -2.783006) (xy 1.62185 -2.75654) (xy 1.61298 -2.734238)
    (xy 1.606394 -2.717958) (xy 1.603117 -2.71018) (xy 1.596896 -2.694954) (xy 1.590475 -2.677327)
    (xy 1.589565 -2.67462) (xy 1.584581 -2.660691) (xy 1.580374 -2.650797) (xy 1.579492 -2.64922)
    (xy 1.576149 -2.641839) (xy 1.571091 -2.628222) (xy 1.567253 -2.616897) (xy 1.560914 -2.598921)
    (xy 1.554473 -2.582882) (xy 1.551372 -2.576257) (xy 1.546334 -2.565415) (xy 1.544351 -2.558941)
    (xy 1.54262 -2.552931) (xy 1.538059 -2.539872) (xy 1.531571 -2.522162) (xy 1.524062 -2.5022)
    (xy 1.516435 -2.482385) (xy 1.509595 -2.465116) (xy 1.504448 -2.452792) (xy 1.503686 -2.4511)
    (xy 1.499634 -2.440926) (xy 1.493906 -2.424934) (xy 1.489025 -2.41046) (xy 1.478339 -2.37856)
    (xy 1.467938 -2.348799) (xy 1.45869 -2.323602) (xy 1.451466 -2.305394) (xy 1.45077 -2.30378)
    (xy 1.446458 -2.292846) (xy 1.439886 -2.274922) (xy 1.432008 -2.252657) (xy 1.425122 -2.23266)
    (xy 1.41716 -2.209479) (xy 1.410005 -2.189082) (xy 1.4045 -2.17385) (xy 1.401696 -2.16662)
    (xy 1.398495 -2.158096) (xy 1.392924 -2.142088) (xy 1.385733 -2.120786) (xy 1.377667 -2.096376)
    (xy 1.376551 -2.09296) (xy 1.36849 -2.068589) (xy 1.361248 -2.047317) (xy 1.35555 -2.031232)
    (xy 1.352119 -2.022417) (xy 1.35184 -2.02184) (xy 1.34893 -2.014401) (xy 1.343703 -1.999245)
    (xy 1.336826 -1.978369) (xy 1.328964 -1.953767) (xy 1.326414 -1.94564) (xy 1.318295 -1.920008)
    (xy 1.31087 -1.897207) (xy 1.304834 -1.879328) (xy 1.300883 -1.868459) (xy 1.300219 -1.8669)
    (xy 1.295896 -1.855953) (xy 1.289665 -1.838058) (xy 1.282436 -1.816034) (xy 1.275117 -1.792695)
    (xy 1.268618 -1.770858) (xy 1.264965 -1.75768) (xy 1.259621 -1.739824) (xy 1.253704 -1.723337)
    (xy 1.252121 -1.71958) (xy 1.24736 -1.707181) (xy 1.24118 -1.68877) (xy 1.234847 -1.668133)
    (xy 1.234296 -1.66624) (xy 1.22722 -1.641797) (xy 1.219621 -1.61558) (xy 1.213682 -1.59512)
    (xy 1.208016 -1.576576) (xy 1.202708 -1.560804) (xy 1.199218 -1.55194) (xy 1.19551 -1.542245)
    (xy 1.19021 -1.526011) (xy 1.184377 -1.50651) (xy 1.183571 -1.50368) (xy 1.166947 -1.445661)
    (xy 1.14802 -1.380948) (xy 1.135453 -1.33858) (xy 1.127816 -1.312376) (xy 1.119872 -1.284169)
    (xy 1.113103 -1.259242) (xy 1.111928 -1.25476) (xy 1.106543 -1.235007) (xy 1.101472 -1.218086)
    (xy 1.097712 -1.207294) (xy 1.097365 -1.2065) (xy 1.094124 -1.197425) (xy 1.089145 -1.181141)
    (xy 1.083213 -1.160284) (xy 1.079222 -1.14554) (xy 1.072141 -1.119091) (xy 1.064665 -1.091563)
    (xy 1.058016 -1.06744) (xy 1.0557 -1.05918) (xy 1.044925 -1.020252) (xy 1.032417 -0.973717)
    (xy 1.018768 -0.921859) (xy 1.004576 -0.866962) (xy 0.990434 -0.811307) (xy 0.976938 -0.75718)
    (xy 0.975622 -0.75184) (xy 0.968174 -0.721886) (xy 0.960948 -0.693397) (xy 0.954544 -0.668694)
    (xy 0.949562 -0.650097) (xy 0.947439 -0.64262) (xy 0.944351 -0.63183) (xy 0.940783 -0.618461)
    (xy 0.936445 -0.601317) (xy 0.931043 -0.579203) (xy 0.924287 -0.550923) (xy 0.915886 -0.515281)
    (xy 0.905547 -0.471083) (xy 0.904087 -0.46482) (xy 0.898007 -0.438754) (xy 0.890818 -0.407937)
    (xy 0.883719 -0.377511) (xy 0.880977 -0.36576) (xy 0.874177 -0.335676) (xy 0.866807 -0.301582)
    (xy 0.860124 -0.269337) (xy 0.858083 -0.25908) (xy 0.853346 -0.235993) (xy 0.848817 -0.215837)
    (xy 0.845102 -0.20121) (xy 0.84328 -0.19558) (xy 0.840545 -0.186606) (xy 0.836508 -0.17016)
    (xy 0.831757 -0.148752) (xy 0.827798 -0.12954) (xy 0.821768 -0.099368) (xy 0.814802 -0.064686)
    (xy 0.807997 -0.030943) (xy 0.804816 -0.01524) (xy 0.794615 0.035054) (xy 0.786173 0.076745)
    (xy 0.779221 0.111182) (xy 0.773491 0.139718) (xy 0.768712 0.163705) (xy 0.764615 0.184492)
    (xy 0.760931 0.203431) (xy 0.757391 0.221874) (xy 0.753942 0.24003) (xy 0.74381 0.293683)
    (xy 0.73536 0.338783) (xy 0.728336 0.376748) (xy 0.722482 0.408998) (xy 0.717545 0.436954)
    (xy 0.713269 0.462034) (xy 0.709399 0.485659) (xy 0.706269 0.50546) (xy 0.701937 0.532272)
    (xy 0.697614 0.557309) (xy 0.693785 0.57787) (xy 0.690934 0.591257) (xy 0.690793 0.59182)
    (xy 0.688077 0.604494) (xy 0.684363 0.624608) (xy 0.680112 0.649543) (xy 0.675782 0.676684)
    (xy 0.675164 0.68072) (xy 0.670315 0.712383) (xy 0.664555 0.749701) (xy 0.658564 0.788292)
    (xy 0.653019 0.823776) (xy 0.65235 0.82804) (xy 0.639062 0.915067) (xy 0.62558 1.007999)
    (xy 0.612183 1.104662) (xy 0.599152 1.202886) (xy 0.586767 1.300499) (xy 0.575306 1.395332)
    (xy 0.56505 1.485211) (xy 0.556279 1.567967) (xy 0.553833 1.59258) (xy 0.55039 1.62688)
    (xy 0.546893 1.65998) (xy 0.543583 1.689731) (xy 0.540699 1.713983) (xy 0.538482 1.730589)
    (xy 0.538223 1.73228) (xy 0.536357 1.746124) (xy 0.534064 1.766785) (xy 0.531304 1.794721)
    (xy 0.528036 1.830389) (xy 0.52422 1.87425) (xy 0.519816 1.926762) (xy 0.514782 1.988383)
    (xy 0.509078 2.059572) (xy 0.507637 2.07772) (xy 0.496597 2.224827) (xy 0.487145 2.368129)
    (xy 0.479212 2.509433) (xy 0.472733 2.650544) (xy 0.467641 2.793267) (xy 0.463867 2.939409)
    (xy 0.461344 3.090775) (xy 0.460007 3.249172) (xy 0.45974 3.3655) (xy 0.296856 3.3655)
    (xy 0.296752 3.351042) (xy 0.296559 3.310428) (xy 0.296517 3.276426) (xy 0.296643 3.250155)
    (xy 0.296929 3.23342) (xy 0.297685 3.205548) (xy 0.298543 3.169575) (xy 0.299459 3.127558)
    (xy 0.300393 3.081556) (xy 0.3013 3.033626) (xy 0.302139 2.985827) (xy 0.302535 2.96164)
    (xy 0.303261 2.919175) (xy 0.304035 2.879409) (xy 0.304825 2.843616) (xy 0.305599 2.813069)
    (xy 0.306325 2.789042) (xy 0.306972 2.772809) (xy 0.307438 2.76606) (xy 0.308239 2.756732)
    (xy 0.309375 2.738903) (xy 0.310758 2.714222) (xy 0.312295 2.684339) (xy 0.313899 2.650904)
    (xy 0.314783 2.63144) (xy 0.317598 2.568514) (xy 0.32009 2.513884) (xy 0.322357 2.465919)
    (xy 0.3245 2.422989) (xy 0.326619 2.383465) (xy 0.328813 2.345718) (xy 0.331183 2.308118)
    (xy 0.333829 2.269036) (xy 0.336851 2.226842) (xy 0.340348 2.179906) (xy 0.34442 2.1266)
    (xy 0.349168 2.065294) (xy 0.35077 2.0447) (xy 0.366097 1.86265) (xy 0.384015 1.676234)
    (xy 0.404299 1.487171) (xy 0.426725 1.29718) (xy 0.451067 1.10798) (xy 0.4771 0.921289)
    (xy 0.504599 0.738828) (xy 0.533339 0.562314) (xy 0.563094 0.393467) (xy 0.576348 0.32258)
    (xy 0.582474 0.289698) (xy 0.589166 0.252602) (xy 0.595506 0.216447) (xy 0.599476 0.19304)
    (xy 0.603868 0.167932) (xy 0.608151 0.145787) (xy 0.611848 0.128918) (xy 0.614486 0.119638)
    (xy 0.614598 0.11938) (xy 0.617298 0.11047) (xy 0.62116 0.093989) (xy 0.625644 0.072382)
    (xy 0.629726 0.0508) (xy 0.642892 -0.019193) (xy 0.65801 -0.094586) (xy 0.674199 -0.171021)
    (xy 0.67847 -0.1905) (xy 0.688882 -0.237615) (xy 0.697451 -0.276299) (xy 0.704514 -0.308048)
    (xy 0.710406 -0.334355) (xy 0.715463 -0.356714) (xy 0.720021 -0.376619) (xy 0.724416 -0.395563)
    (xy 0.728744 -0.41402) (xy 0.735841 -0.444289) (xy 0.74376 -0.478245) (xy 0.751219 -0.510388)
    (xy 0.754187 -0.52324) (xy 0.759886 -0.547696) (xy 0.765357 -0.570683) (xy 0.769835 -0.589013)
    (xy 0.771846 -0.5969) (xy 0.774891 -0.608783) (xy 0.77979 -0.628319) (xy 0.785993 -0.653291)
    (xy 0.792946 -0.681482) (xy 0.797123 -0.6985) (xy 0.805242 -0.731218) (xy 0.81507 -0.770149)
    (xy 0.825689 -0.811695) (xy 0.836179 -0.852253) (xy 0.843142 -0.87884) (xy 0.852089 -0.912798)
    (xy 0.861056 -0.946857) (xy 0.869381 -0.978501) (xy 0.8764 -1.005213) (xy 0.88123 -1.02362)
    (xy 0.903719 -1.107601) (xy 0.928983 -1.198551) (xy 0.956296 -1.2939) (xy 0.982911 -1.3843)
    (xy 0.990851 -1.411056) (xy 0.999471 -1.440311) (xy 1.007128 -1.466484) (xy 1.008342 -1.47066)
    (xy 1.013986 -1.489743) (xy 1.021833 -1.51577) (xy 1.031046 -1.545993) (xy 1.040789 -1.577662)
    (xy 1.046201 -1.59512) (xy 1.055708 -1.62585) (xy 1.064999 -1.656164) (xy 1.073289 -1.683482)
    (xy 1.079794 -1.705227) (xy 1.082507 -1.7145) (xy 1.088239 -1.73362) (xy 1.093538 -1.749953)
    (xy 1.097281 -1.760049) (xy 1.097358 -1.76022) (xy 1.101186 -1.770494) (xy 1.10635 -1.786632)
    (xy 1.110496 -1.800799) (xy 1.115676 -1.818219) (xy 1.120408 -1.832347) (xy 1.123091 -1.838899)
    (xy 1.125996 -1.846375) (xy 1.131156 -1.86158) (xy 1.137915 -1.882509) (xy 1.145616 -1.907159)
    (xy 1.148067 -1.91516) (xy 1.156003 -1.94082) (xy 1.163272 -1.963639) (xy 1.16919 -1.981521)
    (xy 1.173074 -1.992371) (xy 1.173722 -1.9939) (xy 1.177031 -2.002433) (xy 1.182665 -2.018457)
    (xy 1.189874 -2.039779) (xy 1.197904 -2.064208) (xy 1.198989 -2.06756) (xy 1.20707 -2.092237)
    (xy 1.214426 -2.114096) (xy 1.220305 -2.130948) (xy 1.223957 -2.140599) (xy 1.224234 -2.14122)
    (xy 1.227619 -2.149805) (xy 1.233402 -2.165794) (xy 1.240786 -2.186944) (xy 1.248978 -2.211013)
    (xy 1.249425 -2.21234) (xy 1.25888 -2.240171) (xy 1.269539 -2.270989) (xy 1.280789 -2.303088)
    (xy 1.292022 -2.334761) (xy 1.302626 -2.364301) (xy 1.311991 -2.390002) (xy 1.319507 -2.410156)
    (xy 1.324563 -2.423056) (xy 1.325712 -2.4257) (xy 1.329981 -2.436417) (xy 1.335525 -2.452276)
    (xy 1.338439 -2.46126) (xy 1.343966 -2.477982) (xy 1.349056 -2.492014) (xy 1.351034 -2.49682)
    (xy 1.3553 -2.507147) (xy 1.361395 -2.52294) (xy 1.365847 -2.53492) (xy 1.372062 -2.551657)
    (xy 1.38064 -2.574399) (xy 1.390269 -2.59968) (xy 1.396611 -2.6162) (xy 1.404854 -2.637957)
    (xy 1.411535 -2.656285) (xy 1.415904 -2.66908) (xy 1.417241 -2.674064) (xy 1.419272 -2.681091)
    (xy 1.424298 -2.693507) (xy 1.426974 -2.699464) (xy 1.43329 -2.714044) (xy 1.441585 -2.734431)
    (xy 1.450348 -2.756889) (xy 1.452861 -2.76352) (xy 1.461012 -2.784875) (xy 1.468658 -2.80434)
    (xy 1.474519 -2.818676) (xy 1.475938 -2.82194) (xy 1.480675 -2.833266) (xy 1.487782 -2.851179)
    (xy 1.496104 -2.872738) (xy 1.500912 -2.88544) (xy 1.50945 -2.907767) (xy 1.517492 -2.92811)
    (xy 1.523864 -2.943524) (xy 1.52628 -2.94894) (xy 1.531079 -2.959908) (xy 1.53841 -2.977678)
    (xy 1.547178 -2.999561) (xy 1.554219 -3.01752) (xy 1.562955 -3.039733) (xy 1.570713 -3.058915)
    (xy 1.576557 -3.072785) (xy 1.579287 -3.078636) (xy 1.582855 -3.086339) (xy 1.589165 -3.10123)
    (xy 1.597269 -3.121034) (xy 1.604687 -3.139596) (xy 1.613585 -3.161797) (xy 1.621507 -3.181022)
    (xy 1.627494 -3.194975) (xy 1.630302 -3.200901) (xy 1.634175 -3.208977) (xy 1.640766 -3.223916)
    (xy 1.648966 -3.243169) (xy 1.653579 -3.254241) (xy 1.662935 -3.276677) (xy 1.671983 -3.298042)
    (xy 1.67926 -3.314891) (xy 1.68143 -3.31978) (xy 1.688286 -3.335412) (xy 1.696925 -3.355666)
    (xy 1.704216 -3.37312) (xy 1.713989 -3.396089) (xy 1.724987 -3.420897) (xy 1.732228 -3.43662)
    (xy 1.750563 -3.476407) (xy 1.764326 -3.508431) (xy 1.773315 -3.53187) (xy 1.778482 -3.543905)
    (xy 1.783098 -3.550496) (xy 1.7841 -3.55092) (xy 1.788038 -3.554824) (xy 1.78816 -3.55607)
    (xy 1.790187 -3.562343) (xy 1.795835 -3.576357) (xy 1.80445 -3.596635) (xy 1.815381 -3.621699)
    (xy 1.827974 -3.650073) (xy 1.841576 -3.680278) (xy 1.855537 -3.71084) (xy 1.869202 -3.740279)
    (xy 1.874713 -3.75199) (xy 1.893531 -3.792048) (xy 1.908046 -3.823551) (xy 1.918497 -3.847031)
    (xy 1.925125 -3.863022) (xy 1.927507 -3.86969) (xy 1.932034 -3.878552) (xy 1.935822 -3.88112)
    (xy 1.940442 -3.884979) (xy 1.94056 -3.886077) (xy 1.942855 -3.89319) (xy 1.94967 -3.909123)
    (xy 1.9609 -3.933651) (xy 1.976437 -3.966549) (xy 1.996177 -4.007591) (xy 2.020013 -4.056552)
    (xy 2.037604 -4.092418) (xy 2.051348 -4.120593) (xy 2.063408 -4.145746) (xy 2.073108 -4.166429)
    (xy 2.07977 -4.181192) (xy 2.082716 -4.188587) (xy 2.0828 -4.189045) (xy 2.07832 -4.192666)
    (xy 2.065652 -4.199732) (xy 2.045953 -4.209704) (xy 2.020382 -4.22204) (xy 1.990096 -4.236201)
    (xy 1.956252 -4.251646) (xy 1.920009 -4.267836) (xy 1.882524 -4.28423) (xy 1.844954 -4.300288)
    (xy 1.83896 -4.302813) (xy 1.6406 -4.380679) (xy 1.438035 -4.449412) (xy 1.231722 -4.508907)
    (xy 1.022115 -4.559061) (xy 0.80967 -4.599768) (xy 0.594844 -4.630923) (xy 0.378091 -4.652423)
    (xy 0.290613 -4.658316) (xy 0.252434 -4.660088) (xy 0.206287 -4.661494) (xy 0.154069 -4.662532)
    (xy 0.097677 -4.663203) (xy 0.039008 -4.663505) (xy -0.020041 -4.663439) (xy -0.077574 -4.663003)
    (xy -0.131692 -4.662198) (xy -0.180499 -4.661022) (xy -0.222098 -4.659475) (xy -0.2413 -4.658461)
    (xy -0.460113 -4.640642) (xy -0.674461 -4.613853) (xy -0.88489 -4.577963) (xy -1.091949 -4.53284)
    (xy -1.296185 -4.47835) (xy -1.498146 -4.414362) (xy -1.698381 -4.340743) (xy -1.8923 -4.259641)
    (xy -1.937797 -4.239159) (xy -1.973997 -4.222166) (xy -2.000855 -4.208685) (xy -2.018321 -4.198742)
    (xy -2.026349 -4.192359) (xy -2.02692 -4.190982) (xy -2.401253 -4.190982) (xy -2.211569 -4.294484)
    (xy -2.016977 -4.389662) (xy -1.817949 -4.476196) (xy -1.614757 -4.553878) (xy -1.407674 -4.622497)
    (xy -1.19697 -4.681844) (xy -0.99568 -4.729026) (xy -0.838404 -4.759906) (xy -0.684552 -4.785035)
    (xy -0.531825 -4.804649) (xy -0.377924 -4.818984) (xy -0.220553 -4.828276) (xy -0.057411 -4.83276)
    (xy 0.02032 -4.833274) (xy 0.14608 -4.832218)) (layer F.SilkS) (width 0.01))
)
