(module klaus_V2 (layer F.Cu) (tedit 5AF30092)
  (fp_text reference REF** (at -0.9238 0.7018) (layer F.SilkS)
    (effects (font (size 0.5 0.5) (thickness 0.1)))
  )
  (fp_text value klaus (at -1.2446 -6.7676) (layer F.Fab)
    (effects (font (size 0.5 0.5) (thickness 0.1)))
  )
  (fp_line (start 0.0762 -0.3048) (end -3.51 1.64) (layer Dwgs.User) (width 0.005))
  (fp_line (start -3.61 1.42) (end 0.0762 -0.4318) (layer Dwgs.User) (width 0.005))
  (fp_line (start 0.0762 -0.5334) (end -3.7 1.2) (layer Dwgs.User) (width 0.005))
  (fp_line (start 0.0762 -0.635) (end -3.79 0.97) (layer Dwgs.User) (width 0.005))
  (fp_line (start -3.87 0.74) (end 0.0762 -0.7366) (layer Dwgs.User) (width 0.005))
  (fp_line (start -4.0132 -3.04) (end 0.0762 -2.9464) (layer Dwgs.User) (width 0.005))
  (fp_line (start 0.0762 -3.048) (end -4.0132 -3.26) (layer Dwgs.User) (width 0.005))
  (fp_line (start -4.0132 -3.48) (end 0.0762 -3.1496) (layer Dwgs.User) (width 0.005))
  (fp_line (start 0.0762 -3.2512) (end -4.0132 -3.7) (layer Dwgs.User) (width 0.005))
  (fp_line (start -4.0132 -3.92) (end 0.0762 -3.3782) (layer Dwgs.User) (width 0.005))
  (fp_line (start 0.0762 -3.4798) (end -4.0132 -4.14) (layer Dwgs.User) (width 0.005))
  (fp_line (start -4.0132 -4.36) (end 0.0762 -3.6068) (layer Dwgs.User) (width 0.005))
  (fp_line (start 0.0762 -3.7084) (end -4.0132 -4.58) (layer Dwgs.User) (width 0.005))
  (fp_line (start -4 -4.8) (end 0.0762 -3.81) (layer Dwgs.User) (width 0.005))
  (fp_line (start 0.0762 -3.937) (end -4 -5.02) (layer Dwgs.User) (width 0.005))
  (fp_line (start -4 -5.29) (end 0.0762 -4.0386) (layer Dwgs.User) (width 0.005))
  (fp_line (start 0.0762 -4.1402) (end -3.94 -5.52) (layer Dwgs.User) (width 0.005))
  (fp_line (start -3.87 -5.75) (end 0.0762 -4.2672) (layer Dwgs.User) (width 0.005))
  (fp_line (start 0.0762 -4.3688) (end -3.79 -5.98) (layer Dwgs.User) (width 0.005))
  (fp_line (start -3.7 -6.21) (end 0.0762 -4.4704) (layer Dwgs.User) (width 0.005))
  (fp_line (start 0.0762 -4.5974) (end -3.61 -6.43) (layer Dwgs.User) (width 0.005))
  (fp_line (start 0.0762 -4.699) (end -3.51 -6.65) (layer Dwgs.User) (width 0.005))
  (fp_line (start 0.0762 -2.8194) (end -4 -2.8194) (layer Dwgs.User) (width 0.005))
  (fp_line (start 0.0762 -0.9652) (end -4 0.28) (layer Dwgs.User) (width 0.005))
  (fp_line (start -4 0) (end 0.0762 -1.0668) (layer Dwgs.User) (width 0.005))
  (fp_line (start 0.0762 -1.1938) (end -4 -0.21) (layer Dwgs.User) (width 0.005))
  (fp_line (start -3.9878 -0.43) (end 0.0762 -1.2954) (layer Dwgs.User) (width 0.005))
  (fp_line (start -3.9624 -0.65) (end 0.0762 -1.397) (layer Dwgs.User) (width 0.005))
  (fp_line (start 0.0762 -1.524) (end -3.9878 -0.87) (layer Dwgs.User) (width 0.005))
  (fp_line (start -3.9878 -1.09) (end 0.0762 -1.6256) (layer Dwgs.User) (width 0.005))
  (fp_line (start 0.0762 -1.7272) (end -3.9624 -1.31) (layer Dwgs.User) (width 0.005))
  (fp_line (start 0.0762 -1.8542) (end -3.9878 -1.53) (layer Dwgs.User) (width 0.005))
  (fp_line (start 0.0762 -1.9558) (end -3.9624 -1.75) (layer Dwgs.User) (width 0.005))
  (fp_line (start 0.0762 -2.0574) (end -4 -1.97) (layer Dwgs.User) (width 0.005))
  (fp_line (start -3.94 0.51) (end 0.0762 -0.8636) (layer Dwgs.User) (width 0.005))
  (fp_line (start 0.0762 -2.1844) (end -4 -2.1844) (layer Dwgs.User) (width 0.005))
  (fp_line (start 4.9276 -0.4064) (end 6.8 0.2) (layer Dwgs.User) (width 0.005))
  (fp_line (start 4.9276 -0.508) (end 6.2 -0.15) (layer Dwgs.User) (width 0.005))
  (fp_line (start 4.9276 -0.6096) (end 8.128 0.4064) (layer Dwgs.User) (width 0.005))
  (fp_line (start 8.128 0.1524) (end 4.9276 -0.7112) (layer Dwgs.User) (width 0.005))
  (fp_line (start 4.9276 -0.8128) (end 8.1026 -0.1016) (layer Dwgs.User) (width 0.005))
  (fp_line (start 8.1026 -0.3556) (end 4.9276 -0.9144) (layer Dwgs.User) (width 0.005))
  (fp_line (start 4.9276 -1.016) (end 8.1026 -0.6096) (layer Dwgs.User) (width 0.005))
  (fp_line (start 4.9276 -1.1176) (end 8.1026 -0.8636) (layer Dwgs.User) (width 0.005))
  (fp_line (start 4.9276 -1.2192) (end 8.1026 -1.1176) (layer Dwgs.User) (width 0.005))
  (fp_line (start 4.9276 -1.3208) (end 8.128 -1.3462) (layer Dwgs.User) (width 0.005))
  (fp_line (start 4.9276 -1.4224) (end 8.1026 -1.6002) (layer Dwgs.User) (width 0.005))
  (fp_line (start 4.9276 -3.3528) (end 8.2 -4.17) (layer Dwgs.User) (width 0.005))
  (fp_line (start 4.9276 -3.2512) (end 7.4 -3.85) (layer Dwgs.User) (width 0.005))
  (fp_line (start 8.2 -3.92) (end 4.9276 -3.1496) (layer Dwgs.User) (width 0.005))
  (fp_line (start 4.9276 -3.048) (end 7.4 -3.6) (layer Dwgs.User) (width 0.005))
  (fp_line (start 8.2 -3.65) (end 4.9276 -2.9718) (layer Dwgs.User) (width 0.005))
  (fp_line (start 4.9276 -2.8448) (end 8.2 -3.45) (layer Dwgs.User) (width 0.005))
  (fp_line (start 8.2 -3.25) (end 4.9276 -2.7686) (layer Dwgs.User) (width 0.005))
  (fp_line (start 4.9276 -2.667) (end 8.2 -3.01) (layer Dwgs.User) (width 0.005))
  (fp_line (start 8.2 -2.8) (end 4.9276 -2.5654) (layer Dwgs.User) (width 0.005))
  (fp_line (start 4.9276 -2.4638) (end 8.2 -2.57) (layer Dwgs.User) (width 0.005))
  (fp_line (start 4.9276 -2.3622) (end 8.2 -2.35) (layer Dwgs.User) (width 0.005))
  (fp_line (start 4.9276 -3.4544) (end 7.4 -4.1) (layer Dwgs.User) (width 0.005))
  (fp_line (start 4.9276 -3.556) (end 6.8 -4.1) (layer Dwgs.User) (width 0.005))
  (fp_line (start 4.9276 -3.6576) (end 7.4 -4.45) (layer Dwgs.User) (width 0.005))
  (fp_line (start 4.9276 -3.7592) (end 6.8072 -4.4) (layer Dwgs.User) (width 0.005))
  (fp_line (start 4.9276 -3.8608) (end 6.8 -4.55) (layer Dwgs.User) (width 0.005))
  (fp_line (start 4.9276 -3.9624) (end 6.2 -4.45) (layer Dwgs.User) (width 0.005))
  (fp_line (start 4.9276 -4.064) (end 6.2 -4.71) (layer Dwgs.User) (width 0.005))
  (fp_line (start 4.9276 -1.525) (end 8.128 -1.8542) (layer Dwgs.User) (width 0.005))
  (fp_line (start 4.9276 -1.63) (end 6.2 -1.63) (layer Dwgs.User) (width 0.005))
  (fp_line (start 4.92 -1.75) (end 6.8 -1.75) (layer Dwgs.User) (width 0.005))
  (fp_line (start 4.9276 -1.85) (end 6.8 -1.85) (layer Dwgs.User) (width 0.005))
  (fp_line (start 4.9276 -2) (end 6.2 -2) (layer Dwgs.User) (width 0.005))
  (fp_line (start 4.9276 -2.1) (end 6.8 -2.1) (layer Dwgs.User) (width 0.005))
  (fp_line (start 4.9276 -2.2098) (end 6.2 -2.2098) (layer Dwgs.User) (width 0.005))
  (fp_line (start 0.0762 -2.7178) (end -1.8 -2.7178) (layer Dwgs.User) (width 0.005))
  (fp_line (start 0.0762 -2.286) (end -1.8 -2.286) (layer Dwgs.User) (width 0.005))
  (fp_line (start 0.0762 -2.6162) (end -1.2 -2.6162) (layer Dwgs.User) (width 0.005))
  (fp_line (start 0.0762 -2.3876) (end -1.2 -2.3876) (layer Dwgs.User) (width 0.005))
  (fp_line (start 0.0762 -2.4892) (end -2.4 -2.4892) (layer Dwgs.User) (width 0.005))
  (fp_line (start 3.81 -4.9276) (end 3.81 -6.8) (layer Dwgs.User) (width 0.005))
  (fp_line (start 3.9116 -4.9276) (end 3.9116 -6.8) (layer Dwgs.User) (width 0.005))
  (fp_line (start 4.01 -4.9276) (end 4.01 -6.2) (layer Dwgs.User) (width 0.005))
  (fp_line (start 4.11 -4.9276) (end 4.11 -6.2) (layer Dwgs.User) (width 0.005))
  (fp_line (start 4.6228 -4.9276) (end 5 -6.2) (layer Dwgs.User) (width 0.005))
  (fp_line (start 4.5212 -4.9276) (end 4.96 -6.8) (layer Dwgs.User) (width 0.005))
  (fp_line (start 4.4196 -4.9276) (end 4.71 -6.8) (layer Dwgs.User) (width 0.005))
  (fp_line (start 4.318 -4.9276) (end 4.46 -6.8) (layer Dwgs.User) (width 0.005))
  (fp_line (start 4.21 -4.9276) (end 4.21 -6.8) (layer Dwgs.User) (width 0.005))
  (fp_line (start 2.5654 -4.9276) (end 2.5654 -6.8) (layer Dwgs.User) (width 0.005))
  (fp_line (start 2.4638 -4.9276) (end 2.4638 -6.8) (layer Dwgs.User) (width 0.005))
  (fp_line (start 2.3622 -4.9276) (end 2.3622 -6.2) (layer Dwgs.User) (width 0.005))
  (fp_line (start 2.2606 -4.9276) (end 2.2606 -6.2) (layer Dwgs.User) (width 0.005))
  (fp_line (start 2.1336 -4.9276) (end 2.1336 -6.2) (layer Dwgs.User) (width 0.005))
  (fp_line (start 2.032 -4.9276) (end 2.032 -6.2) (layer Dwgs.User) (width 0.005))
  (fp_line (start 1.9304 -4.9276) (end 1.9304 -6.8) (layer Dwgs.User) (width 0.005))
  (fp_line (start 1.8288 -4.9276) (end 1.8288 -6.8) (layer Dwgs.User) (width 0.005))
  (fp_line (start 1.6764 -4.9276) (end 1.6764 -6.2) (layer Dwgs.User) (width 0.005))
  (fp_line (start 1.58 -4.9276) (end 1.58 -6.8) (layer Dwgs.User) (width 0.005))
  (fp_line (start 1.397 -4.9276) (end 1.397 -6.2) (layer Dwgs.User) (width 0.005))
  (fp_line (start 1.2954 -4.9276) (end 1.2954 -6.8) (layer Dwgs.User) (width 0.005))
  (fp_line (start 1.1938 -4.9276) (end 1.1938 -6.8) (layer Dwgs.User) (width 0.005))
  (fp_line (start 1.0414 -4.9276) (end 1.0414 -6.2) (layer Dwgs.User) (width 0.005))
  (fp_line (start 0.9144 -4.9276) (end 0.9144 -6.2) (layer Dwgs.User) (width 0.005))
  (fp_line (start 0.8128 -4.9276) (end 0.8128 -6.8) (layer Dwgs.User) (width 0.005))
  (fp_line (start 0.7112 -4.9276) (end 0.7112 -6.8) (layer Dwgs.User) (width 0.005))
  (fp_line (start 0.61 -4.9276) (end 0.61 -6.2) (layer Dwgs.User) (width 0.005))
  (fp_line (start 0.51 -4.9276) (end 0.51 -6.2) (layer Dwgs.User) (width 0.005))
  (fp_line (start 0.38 -4.9276) (end 0.38 -6.8) (layer Dwgs.User) (width 0.005))
  (fp_line (start 0.28 -4.9276) (end 0.28 -6.2) (layer Dwgs.User) (width 0.005))
  (fp_line (start 4.6228 -0.0762) (end 5.37 2.2) (layer Dwgs.User) (width 0.005))
  (fp_line (start 4.5212 -0.0762) (end 5.12 2.2) (layer Dwgs.User) (width 0.005))
  (fp_line (start 4.42 -0.0762) (end 4.87 2.2) (layer Dwgs.User) (width 0.005))
  (fp_line (start 4.32 -0.0762) (end 4.62 2.2) (layer Dwgs.User) (width 0.005))
  (fp_line (start 4.22 -0.0762) (end 4.37 2.2) (layer Dwgs.User) (width 0.005))
  (fp_line (start 4.12 -0.0762) (end 4.12 2.2) (layer Dwgs.User) (width 0.005))
  (fp_line (start 4.01 -0.0762) (end 4.01 1.8) (layer Dwgs.User) (width 0.005))
  (fp_line (start 3.91 -0.0762) (end 3.91 1.8) (layer Dwgs.User) (width 0.005))
  (fp_line (start 3.81 -0.0762) (end 3.81 1.2) (layer Dwgs.User) (width 0.005))
  (fp_line (start 3.71 -0.0762) (end 3.71 1.8) (layer Dwgs.User) (width 0.005))
  (fp_line (start 3.61 -0.0762) (end 3.61 1.8) (layer Dwgs.User) (width 0.005))
  (fp_line (start 3.51 -0.0762) (end 3.51 1.2) (layer Dwgs.User) (width 0.005))
  (fp_line (start 3.41 -0.0762) (end 3.41 1.2) (layer Dwgs.User) (width 0.005))
  (fp_line (start 1.67 -0.0762) (end 1.67 2.2) (layer Dwgs.User) (width 0.005))
  (fp_line (start 0.28 -0.0762) (end 0.28 1.2) (layer Dwgs.User) (width 0.005))
  (fp_line (start 0.38 -0.0762) (end 0.38 2.2) (layer Dwgs.User) (width 0.005))
  (fp_line (start 0.5 -0.0762) (end 0.5 1.8) (layer Dwgs.User) (width 0.005))
  (fp_line (start 0.6 -0.0762) (end 0.6 1.2) (layer Dwgs.User) (width 0.005))
  (fp_line (start 0.73 -0.08) (end 0.73 1.8) (layer Dwgs.User) (width 0.005))
  (fp_line (start 0.83 -0.08) (end 0.83 1.8) (layer Dwgs.User) (width 0.005))
  (fp_line (start 0.94 -0.08) (end 0.94 1.2) (layer Dwgs.User) (width 0.005))
  (fp_line (start 1.04 -0.08) (end 1.04 1.2) (layer Dwgs.User) (width 0.005))
  (fp_line (start 1.14 -0.08) (end 1.14 1.8) (layer Dwgs.User) (width 0.005))
  (fp_line (start 1.26 -0.08) (end 1.26 1.8) (layer Dwgs.User) (width 0.005))
  (fp_line (start 1.36 -0.08) (end 1.36 1.2) (layer Dwgs.User) (width 0.005))
  (fp_line (start 1.47 -0.08) (end 1.47 1.2) (layer Dwgs.User) (width 0.005))
  (fp_line (start 1.57 -0.0762) (end 1.57 1.8) (layer Dwgs.User) (width 0.005))
  (fp_line (start 1.78 -0.0762) (end 1.78 1.2) (layer Dwgs.User) (width 0.005))
  (fp_line (start 3.05 -0.0762) (end 3.05 1.2) (layer Dwgs.User) (width 0.005))
  (fp_line (start 2.95 -0.0762) (end 2.95 1.2) (layer Dwgs.User) (width 0.005))
  (fp_line (start 2.84 -0.0762) (end 2.84 1.8) (layer Dwgs.User) (width 0.005))
  (fp_line (start 2.74 -0.0762) (end 2.74 1.8) (layer Dwgs.User) (width 0.005))
  (fp_line (start 2.64 -0.0762) (end 2.64 1.8) (layer Dwgs.User) (width 0.005))
  (fp_line (start 2.54 -0.0762) (end 2.54 1.8) (layer Dwgs.User) (width 0.005))
  (fp_line (start 2.44 -0.0762) (end 2.44 1.2) (layer Dwgs.User) (width 0.005))
  (fp_line (start 2.325 -0.0762) (end 2.325 1.2) (layer Dwgs.User) (width 0.005))
  (fp_line (start 2.21 -0.08) (end 2.21 1.8) (layer Dwgs.User) (width 0.005))
  (fp_line (start 2.1 -0.08) (end 2.1 2.2) (layer Dwgs.User) (width 0.005))
  (fp_line (start 2 -0.08) (end 2.03 1.2) (layer Dwgs.User) (width 0.005))
  (fp_line (start 1.88 -0.08) (end 1.88 1.8) (layer Dwgs.User) (width 0.005))
  (fp_line (start 0.037 -0.037) (end 4.963 -0.037) (layer Dwgs.User) (width 0.005))
  (fp_line (start 0.037 -0.037) (end 0.037 -4.963) (layer Dwgs.User) (width 0.005))
  (fp_line (start 4.963 -0.037) (end 4.963 -4.963) (layer Dwgs.User) (width 0.005))
  (fp_line (start 0.037 -4.963) (end 4.963 -4.963) (layer Dwgs.User) (width 0.005))
  (fp_line (start 4.883 -3.02674) (end 4.963 -3.02674) (layer Dwgs.User) (width 0.005))
  (fp_line (start 4.883 -3.02674) (end 4.883 -3.08674) (layer Dwgs.User) (width 0.005))
  (fp_line (start 4.963 -3.02674) (end 4.963 -3.08674) (layer Dwgs.User) (width 0.005))
  (fp_line (start 4.883 -3.08674) (end 4.963 -3.08674) (layer Dwgs.User) (width 0.005))
  (fp_line (start 0.69211 -0.037) (end 0.75211 -0.037) (layer Dwgs.User) (width 0.005))
  (fp_line (start 0.69211 -0.037) (end 0.69211 -0.117) (layer Dwgs.User) (width 0.005))
  (fp_line (start 0.75211 -0.037) (end 0.75211 -0.117) (layer Dwgs.User) (width 0.005))
  (fp_line (start 0.69211 -0.117) (end 0.75211 -0.117) (layer Dwgs.User) (width 0.005))
  (fp_line (start 0.46961 -0.037) (end 0.52961 -0.037) (layer Dwgs.User) (width 0.005))
  (fp_line (start 0.46961 -0.037) (end 0.46961 -0.117) (layer Dwgs.User) (width 0.005))
  (fp_line (start 0.52961 -0.037) (end 0.52961 -0.117) (layer Dwgs.User) (width 0.005))
  (fp_line (start 0.46961 -0.117) (end 0.52961 -0.117) (layer Dwgs.User) (width 0.005))
  (fp_line (start 0.35361 -0.037) (end 0.41361 -0.037) (layer Dwgs.User) (width 0.005))
  (fp_line (start 0.35361 -0.037) (end 0.35361 -0.117) (layer Dwgs.User) (width 0.005))
  (fp_line (start 0.41361 -0.037) (end 0.41361 -0.117) (layer Dwgs.User) (width 0.005))
  (fp_line (start 0.35361 -0.117) (end 0.41361 -0.117) (layer Dwgs.User) (width 0.005))
  (fp_line (start 0.57572 -4.883) (end 0.63572 -4.883) (layer Dwgs.User) (width 0.005))
  (fp_line (start 0.57572 -4.883) (end 0.57572 -4.963) (layer Dwgs.User) (width 0.005))
  (fp_line (start 0.63572 -4.883) (end 0.63572 -4.963) (layer Dwgs.User) (width 0.005))
  (fp_line (start 0.57572 -4.963) (end 0.63572 -4.963) (layer Dwgs.User) (width 0.005))
  (fp_line (start 0.037 -0.6035) (end 0.117 -0.6035) (layer Dwgs.User) (width 0.005))
  (fp_line (start 0.037 -0.6035) (end 0.037 -0.6635) (layer Dwgs.User) (width 0.005))
  (fp_line (start 0.117 -0.6035) (end 0.117 -0.6635) (layer Dwgs.User) (width 0.005))
  (fp_line (start 0.037 -0.6635) (end 0.117 -0.6635) (layer Dwgs.User) (width 0.005))
  (fp_line (start 0.037 -0.7135) (end 0.117 -0.7135) (layer Dwgs.User) (width 0.005))
  (fp_line (start 0.037 -0.7135) (end 0.037 -0.7735) (layer Dwgs.User) (width 0.005))
  (fp_line (start 0.117 -0.7135) (end 0.117 -0.7735) (layer Dwgs.User) (width 0.005))
  (fp_line (start 0.037 -0.7735) (end 0.117 -0.7735) (layer Dwgs.User) (width 0.005))
  (fp_line (start 0.037 -0.8235) (end 0.117 -0.8235) (layer Dwgs.User) (width 0.005))
  (fp_line (start 0.037 -0.8235) (end 0.037 -0.8835) (layer Dwgs.User) (width 0.005))
  (fp_line (start 0.117 -0.8235) (end 0.117 -0.8835) (layer Dwgs.User) (width 0.005))
  (fp_line (start 0.037 -0.8835) (end 0.117 -0.8835) (layer Dwgs.User) (width 0.005))
  (fp_line (start 0.037 -0.9335) (end 0.117 -0.9335) (layer Dwgs.User) (width 0.005))
  (fp_line (start 0.037 -0.9335) (end 0.037 -0.9935) (layer Dwgs.User) (width 0.005))
  (fp_line (start 0.117 -0.9335) (end 0.117 -0.9935) (layer Dwgs.User) (width 0.005))
  (fp_line (start 0.037 -0.9935) (end 0.117 -0.9935) (layer Dwgs.User) (width 0.005))
  (fp_line (start 0.037 -1.0435) (end 0.117 -1.0435) (layer Dwgs.User) (width 0.005))
  (fp_line (start 0.037 -1.0435) (end 0.037 -1.1035) (layer Dwgs.User) (width 0.005))
  (fp_line (start 0.117 -1.0435) (end 0.117 -1.1035) (layer Dwgs.User) (width 0.005))
  (fp_line (start 0.037 -1.1035) (end 0.117 -1.1035) (layer Dwgs.User) (width 0.005))
  (fp_line (start 0.037 -1.1535) (end 0.117 -1.1535) (layer Dwgs.User) (width 0.005))
  (fp_line (start 0.037 -1.1535) (end 0.037 -1.2135) (layer Dwgs.User) (width 0.005))
  (fp_line (start 0.117 -1.1535) (end 0.117 -1.2135) (layer Dwgs.User) (width 0.005))
  (fp_line (start 0.037 -1.2135) (end 0.117 -1.2135) (layer Dwgs.User) (width 0.005))
  (fp_line (start 0.037 -1.2635) (end 0.117 -1.2635) (layer Dwgs.User) (width 0.005))
  (fp_line (start 0.037 -1.2635) (end 0.037 -1.3235) (layer Dwgs.User) (width 0.005))
  (fp_line (start 0.117 -1.2635) (end 0.117 -1.3235) (layer Dwgs.User) (width 0.005))
  (fp_line (start 0.037 -1.3235) (end 0.117 -1.3235) (layer Dwgs.User) (width 0.005))
  (fp_line (start 0.037 -1.3735) (end 0.117 -1.3735) (layer Dwgs.User) (width 0.005))
  (fp_line (start 0.037 -1.3735) (end 0.037 -1.4335) (layer Dwgs.User) (width 0.005))
  (fp_line (start 0.117 -1.3735) (end 0.117 -1.4335) (layer Dwgs.User) (width 0.005))
  (fp_line (start 0.037 -1.4335) (end 0.117 -1.4335) (layer Dwgs.User) (width 0.005))
  (fp_line (start 0.037 -1.4835) (end 0.117 -1.4835) (layer Dwgs.User) (width 0.005))
  (fp_line (start 0.037 -1.4835) (end 0.037 -1.5435) (layer Dwgs.User) (width 0.005))
  (fp_line (start 0.117 -1.4835) (end 0.117 -1.5435) (layer Dwgs.User) (width 0.005))
  (fp_line (start 0.037 -1.5435) (end 0.117 -1.5435) (layer Dwgs.User) (width 0.005))
  (fp_line (start 0.037 -1.5935) (end 0.117 -1.5935) (layer Dwgs.User) (width 0.005))
  (fp_line (start 0.037 -1.5935) (end 0.037 -1.6535) (layer Dwgs.User) (width 0.005))
  (fp_line (start 0.117 -1.5935) (end 0.117 -1.6535) (layer Dwgs.User) (width 0.005))
  (fp_line (start 0.037 -1.6535) (end 0.117 -1.6535) (layer Dwgs.User) (width 0.005))
  (fp_line (start 0.037 -1.7035) (end 0.117 -1.7035) (layer Dwgs.User) (width 0.005))
  (fp_line (start 0.037 -1.7035) (end 0.037 -1.7635) (layer Dwgs.User) (width 0.005))
  (fp_line (start 0.117 -1.7035) (end 0.117 -1.7635) (layer Dwgs.User) (width 0.005))
  (fp_line (start 0.037 -1.7635) (end 0.117 -1.7635) (layer Dwgs.User) (width 0.005))
  (fp_line (start 0.037 -1.8135) (end 0.117 -1.8135) (layer Dwgs.User) (width 0.005))
  (fp_line (start 0.037 -1.8135) (end 0.037 -1.8735) (layer Dwgs.User) (width 0.005))
  (fp_line (start 0.117 -1.8135) (end 0.117 -1.8735) (layer Dwgs.User) (width 0.005))
  (fp_line (start 0.037 -1.8735) (end 0.117 -1.8735) (layer Dwgs.User) (width 0.005))
  (fp_line (start 0.037 -1.9235) (end 0.117 -1.9235) (layer Dwgs.User) (width 0.005))
  (fp_line (start 0.037 -1.9235) (end 0.037 -1.9835) (layer Dwgs.User) (width 0.005))
  (fp_line (start 0.117 -1.9235) (end 0.117 -1.9835) (layer Dwgs.User) (width 0.005))
  (fp_line (start 0.037 -1.9835) (end 0.117 -1.9835) (layer Dwgs.User) (width 0.005))
  (fp_line (start 0.037 -2.0335) (end 0.117 -2.0335) (layer Dwgs.User) (width 0.005))
  (fp_line (start 0.037 -2.0335) (end 0.037 -2.0935) (layer Dwgs.User) (width 0.005))
  (fp_line (start 0.117 -2.0335) (end 0.117 -2.0935) (layer Dwgs.User) (width 0.005))
  (fp_line (start 0.037 -2.0935) (end 0.117 -2.0935) (layer Dwgs.User) (width 0.005))
  (fp_line (start 0.037 -2.1435) (end 0.117 -2.1435) (layer Dwgs.User) (width 0.005))
  (fp_line (start 0.037 -2.1435) (end 0.037 -2.2035) (layer Dwgs.User) (width 0.005))
  (fp_line (start 0.117 -2.1435) (end 0.117 -2.2035) (layer Dwgs.User) (width 0.005))
  (fp_line (start 0.037 -2.2035) (end 0.117 -2.2035) (layer Dwgs.User) (width 0.005))
  (fp_line (start 0.037 -2.7965) (end 0.117 -2.7965) (layer Dwgs.User) (width 0.005))
  (fp_line (start 0.037 -2.7965) (end 0.037 -2.8565) (layer Dwgs.User) (width 0.005))
  (fp_line (start 0.117 -2.7965) (end 0.117 -2.8565) (layer Dwgs.User) (width 0.005))
  (fp_line (start 0.037 -2.8565) (end 0.117 -2.8565) (layer Dwgs.User) (width 0.005))
  (fp_line (start 0.037 -2.9065) (end 0.117 -2.9065) (layer Dwgs.User) (width 0.005))
  (fp_line (start 0.037 -2.9065) (end 0.037 -2.9665) (layer Dwgs.User) (width 0.005))
  (fp_line (start 0.117 -2.9065) (end 0.117 -2.9665) (layer Dwgs.User) (width 0.005))
  (fp_line (start 0.037 -2.9665) (end 0.117 -2.9665) (layer Dwgs.User) (width 0.005))
  (fp_line (start 0.037 -3.0165) (end 0.117 -3.0165) (layer Dwgs.User) (width 0.005))
  (fp_line (start 0.037 -3.0165) (end 0.037 -3.0765) (layer Dwgs.User) (width 0.005))
  (fp_line (start 0.117 -3.0165) (end 0.117 -3.0765) (layer Dwgs.User) (width 0.005))
  (fp_line (start 0.037 -3.0765) (end 0.117 -3.0765) (layer Dwgs.User) (width 0.005))
  (fp_line (start 0.037 -2.58) (end 0.117 -2.58) (layer Dwgs.User) (width 0.005))
  (fp_line (start 0.037 -2.58) (end 0.037 -2.64) (layer Dwgs.User) (width 0.005))
  (fp_line (start 0.117 -2.58) (end 0.117 -2.64) (layer Dwgs.User) (width 0.005))
  (fp_line (start 0.037 -2.64) (end 0.117 -2.64) (layer Dwgs.User) (width 0.005))
  (fp_line (start 0.037 -2.6865) (end 0.117 -2.6865) (layer Dwgs.User) (width 0.005))
  (fp_line (start 0.037 -2.6865) (end 0.037 -2.7465) (layer Dwgs.User) (width 0.005))
  (fp_line (start 0.117 -2.6865) (end 0.117 -2.7465) (layer Dwgs.User) (width 0.005))
  (fp_line (start 0.037 -2.7465) (end 0.117 -2.7465) (layer Dwgs.User) (width 0.005))
  (fp_line (start 0.037 -2.47) (end 0.117 -2.47) (layer Dwgs.User) (width 0.005))
  (fp_line (start 0.037 -2.47) (end 0.037 -2.53) (layer Dwgs.User) (width 0.005))
  (fp_line (start 0.117 -2.47) (end 0.117 -2.53) (layer Dwgs.User) (width 0.005))
  (fp_line (start 0.037 -2.53) (end 0.117 -2.53) (layer Dwgs.User) (width 0.005))
  (fp_line (start 0.037 -2.36) (end 0.117 -2.36) (layer Dwgs.User) (width 0.005))
  (fp_line (start 0.037 -2.36) (end 0.037 -2.42) (layer Dwgs.User) (width 0.005))
  (fp_line (start 0.117 -2.36) (end 0.117 -2.42) (layer Dwgs.User) (width 0.005))
  (fp_line (start 0.037 -2.42) (end 0.117 -2.42) (layer Dwgs.User) (width 0.005))
  (fp_line (start 0.037 -2.2535) (end 0.117 -2.2535) (layer Dwgs.User) (width 0.005))
  (fp_line (start 0.037 -2.2535) (end 0.037 -2.3135) (layer Dwgs.User) (width 0.005))
  (fp_line (start 0.117 -2.2535) (end 0.117 -2.3135) (layer Dwgs.User) (width 0.005))
  (fp_line (start 0.037 -2.3135) (end 0.117 -2.3135) (layer Dwgs.User) (width 0.005))
  (fp_line (start 0.037 -3.1265) (end 0.117 -3.1265) (layer Dwgs.User) (width 0.005))
  (fp_line (start 0.037 -3.1265) (end 0.037 -3.1865) (layer Dwgs.User) (width 0.005))
  (fp_line (start 0.117 -3.1265) (end 0.117 -3.1865) (layer Dwgs.User) (width 0.005))
  (fp_line (start 0.037 -3.1865) (end 0.117 -3.1865) (layer Dwgs.User) (width 0.005))
  (fp_line (start 0.037 -3.2365) (end 0.117 -3.2365) (layer Dwgs.User) (width 0.005))
  (fp_line (start 0.037 -3.2365) (end 0.037 -3.2965) (layer Dwgs.User) (width 0.005))
  (fp_line (start 0.117 -3.2365) (end 0.117 -3.2965) (layer Dwgs.User) (width 0.005))
  (fp_line (start 0.037 -3.2965) (end 0.117 -3.2965) (layer Dwgs.User) (width 0.005))
  (fp_line (start 0.037 -3.3465) (end 0.117 -3.3465) (layer Dwgs.User) (width 0.005))
  (fp_line (start 0.037 -3.3465) (end 0.037 -3.4065) (layer Dwgs.User) (width 0.005))
  (fp_line (start 0.117 -3.3465) (end 0.117 -3.4065) (layer Dwgs.User) (width 0.005))
  (fp_line (start 0.037 -3.4065) (end 0.117 -3.4065) (layer Dwgs.User) (width 0.005))
  (fp_line (start 0.037 -3.4565) (end 0.117 -3.4565) (layer Dwgs.User) (width 0.005))
  (fp_line (start 0.037 -3.4565) (end 0.037 -3.5165) (layer Dwgs.User) (width 0.005))
  (fp_line (start 0.117 -3.4565) (end 0.117 -3.5165) (layer Dwgs.User) (width 0.005))
  (fp_line (start 0.037 -3.5165) (end 0.117 -3.5165) (layer Dwgs.User) (width 0.005))
  (fp_line (start 0.037 -3.5665) (end 0.117 -3.5665) (layer Dwgs.User) (width 0.005))
  (fp_line (start 0.037 -3.5665) (end 0.037 -3.6265) (layer Dwgs.User) (width 0.005))
  (fp_line (start 0.117 -3.5665) (end 0.117 -3.6265) (layer Dwgs.User) (width 0.005))
  (fp_line (start 0.037 -3.6265) (end 0.117 -3.6265) (layer Dwgs.User) (width 0.005))
  (fp_line (start 0.037 -3.6765) (end 0.117 -3.6765) (layer Dwgs.User) (width 0.005))
  (fp_line (start 0.037 -3.6765) (end 0.037 -3.7365) (layer Dwgs.User) (width 0.005))
  (fp_line (start 0.117 -3.6765) (end 0.117 -3.7365) (layer Dwgs.User) (width 0.005))
  (fp_line (start 0.037 -3.7365) (end 0.117 -3.7365) (layer Dwgs.User) (width 0.005))
  (fp_line (start 0.037 -3.7865) (end 0.117 -3.7865) (layer Dwgs.User) (width 0.005))
  (fp_line (start 0.037 -3.7865) (end 0.037 -3.8465) (layer Dwgs.User) (width 0.005))
  (fp_line (start 0.117 -3.7865) (end 0.117 -3.8465) (layer Dwgs.User) (width 0.005))
  (fp_line (start 0.037 -3.8465) (end 0.117 -3.8465) (layer Dwgs.User) (width 0.005))
  (fp_line (start 0.037 -3.8965) (end 0.117 -3.8965) (layer Dwgs.User) (width 0.005))
  (fp_line (start 0.037 -3.8965) (end 0.037 -3.9565) (layer Dwgs.User) (width 0.005))
  (fp_line (start 0.117 -3.8965) (end 0.117 -3.9565) (layer Dwgs.User) (width 0.005))
  (fp_line (start 0.037 -3.9565) (end 0.117 -3.9565) (layer Dwgs.User) (width 0.005))
  (fp_line (start 0.037 -4.0065) (end 0.117 -4.0065) (layer Dwgs.User) (width 0.005))
  (fp_line (start 0.037 -4.0065) (end 0.037 -4.0665) (layer Dwgs.User) (width 0.005))
  (fp_line (start 0.117 -4.0065) (end 0.117 -4.0665) (layer Dwgs.User) (width 0.005))
  (fp_line (start 0.037 -4.0665) (end 0.117 -4.0665) (layer Dwgs.User) (width 0.005))
  (fp_line (start 0.037 -4.1165) (end 0.117 -4.1165) (layer Dwgs.User) (width 0.005))
  (fp_line (start 0.037 -4.1165) (end 0.037 -4.1765) (layer Dwgs.User) (width 0.005))
  (fp_line (start 0.117 -4.1165) (end 0.117 -4.1765) (layer Dwgs.User) (width 0.005))
  (fp_line (start 0.037 -4.1765) (end 0.117 -4.1765) (layer Dwgs.User) (width 0.005))
  (fp_line (start 0.037 -4.2265) (end 0.117 -4.2265) (layer Dwgs.User) (width 0.005))
  (fp_line (start 0.037 -4.2265) (end 0.037 -4.2865) (layer Dwgs.User) (width 0.005))
  (fp_line (start 0.117 -4.2265) (end 0.117 -4.2865) (layer Dwgs.User) (width 0.005))
  (fp_line (start 0.037 -4.2865) (end 0.117 -4.2865) (layer Dwgs.User) (width 0.005))
  (fp_line (start 0.037 -4.3365) (end 0.117 -4.3365) (layer Dwgs.User) (width 0.005))
  (fp_line (start 0.037 -4.3365) (end 0.037 -4.3965) (layer Dwgs.User) (width 0.005))
  (fp_line (start 0.117 -4.3365) (end 0.117 -4.3965) (layer Dwgs.User) (width 0.005))
  (fp_line (start 0.037 -4.3965) (end 0.117 -4.3965) (layer Dwgs.User) (width 0.005))
  (fp_line (start 0.037 -4.4465) (end 0.117 -4.4465) (layer Dwgs.User) (width 0.005))
  (fp_line (start 0.037 -4.4465) (end 0.037 -4.5065) (layer Dwgs.User) (width 0.005))
  (fp_line (start 0.117 -4.4465) (end 0.117 -4.5065) (layer Dwgs.User) (width 0.005))
  (fp_line (start 0.037 -4.5065) (end 0.117 -4.5065) (layer Dwgs.User) (width 0.005))
  (fp_line (start 0.037 -4.5565) (end 0.117 -4.5565) (layer Dwgs.User) (width 0.005))
  (fp_line (start 0.037 -4.5565) (end 0.037 -4.6165) (layer Dwgs.User) (width 0.005))
  (fp_line (start 0.117 -4.5565) (end 0.117 -4.6165) (layer Dwgs.User) (width 0.005))
  (fp_line (start 0.037 -4.6165) (end 0.117 -4.6165) (layer Dwgs.User) (width 0.005))
  (fp_line (start 0.037 -4.6665) (end 0.117 -4.6665) (layer Dwgs.User) (width 0.005))
  (fp_line (start 0.037 -4.6665) (end 0.037 -4.7265) (layer Dwgs.User) (width 0.005))
  (fp_line (start 0.117 -4.6665) (end 0.117 -4.7265) (layer Dwgs.User) (width 0.005))
  (fp_line (start 0.037 -4.7265) (end 0.117 -4.7265) (layer Dwgs.User) (width 0.005))
  (fp_line (start 0.037 -0.4935) (end 0.117 -0.4935) (layer Dwgs.User) (width 0.005))
  (fp_line (start 0.037 -0.4935) (end 0.037 -0.5535) (layer Dwgs.User) (width 0.005))
  (fp_line (start 0.117 -0.4935) (end 0.117 -0.5535) (layer Dwgs.User) (width 0.005))
  (fp_line (start 0.037 -0.5535) (end 0.117 -0.5535) (layer Dwgs.User) (width 0.005))
  (fp_line (start 0.037 -0.3835) (end 0.117 -0.3835) (layer Dwgs.User) (width 0.005))
  (fp_line (start 0.037 -0.3835) (end 0.037 -0.4435) (layer Dwgs.User) (width 0.005))
  (fp_line (start 0.117 -0.3835) (end 0.117 -0.4435) (layer Dwgs.User) (width 0.005))
  (fp_line (start 0.037 -0.4435) (end 0.117 -0.4435) (layer Dwgs.User) (width 0.005))
  (fp_line (start 0.037 -0.2735) (end 0.117 -0.2735) (layer Dwgs.User) (width 0.005))
  (fp_line (start 0.037 -0.2735) (end 0.037 -0.3335) (layer Dwgs.User) (width 0.005))
  (fp_line (start 0.117 -0.2735) (end 0.117 -0.3335) (layer Dwgs.User) (width 0.005))
  (fp_line (start 0.037 -0.3335) (end 0.117 -0.3335) (layer Dwgs.User) (width 0.005))
  (fp_line (start 0.57611 -0.037) (end 0.63611 -0.037) (layer Dwgs.User) (width 0.005))
  (fp_line (start 0.57611 -0.037) (end 0.57611 -0.117) (layer Dwgs.User) (width 0.005))
  (fp_line (start 0.63611 -0.037) (end 0.63611 -0.117) (layer Dwgs.User) (width 0.005))
  (fp_line (start 0.57611 -0.117) (end 0.63611 -0.117) (layer Dwgs.User) (width 0.005))
  (fp_line (start 0.79811 -0.037) (end 0.85811 -0.037) (layer Dwgs.User) (width 0.005))
  (fp_line (start 0.79811 -0.037) (end 0.79811 -0.117) (layer Dwgs.User) (width 0.005))
  (fp_line (start 0.85811 -0.037) (end 0.85811 -0.117) (layer Dwgs.User) (width 0.005))
  (fp_line (start 0.79811 -0.117) (end 0.85811 -0.117) (layer Dwgs.User) (width 0.005))
  (fp_line (start 1.01011 -0.037) (end 1.07011 -0.037) (layer Dwgs.User) (width 0.005))
  (fp_line (start 1.01011 -0.037) (end 1.01011 -0.117) (layer Dwgs.User) (width 0.005))
  (fp_line (start 1.07011 -0.037) (end 1.07011 -0.117) (layer Dwgs.User) (width 0.005))
  (fp_line (start 1.01011 -0.117) (end 1.07011 -0.117) (layer Dwgs.User) (width 0.005))
  (fp_line (start 0.90411 -0.037) (end 0.96411 -0.037) (layer Dwgs.User) (width 0.005))
  (fp_line (start 0.90411 -0.037) (end 0.90411 -0.117) (layer Dwgs.User) (width 0.005))
  (fp_line (start 0.96411 -0.037) (end 0.96411 -0.117) (layer Dwgs.User) (width 0.005))
  (fp_line (start 0.90411 -0.117) (end 0.96411 -0.117) (layer Dwgs.User) (width 0.005))
  (fp_line (start 1.43461 -0.037) (end 1.49461 -0.037) (layer Dwgs.User) (width 0.005))
  (fp_line (start 1.43461 -0.037) (end 1.43461 -0.117) (layer Dwgs.User) (width 0.005))
  (fp_line (start 1.49461 -0.037) (end 1.49461 -0.117) (layer Dwgs.User) (width 0.005))
  (fp_line (start 1.43461 -0.117) (end 1.49461 -0.117) (layer Dwgs.User) (width 0.005))
  (fp_line (start 1.32861 -0.037) (end 1.38861 -0.037) (layer Dwgs.User) (width 0.005))
  (fp_line (start 1.32861 -0.037) (end 1.32861 -0.117) (layer Dwgs.User) (width 0.005))
  (fp_line (start 1.38861 -0.037) (end 1.38861 -0.117) (layer Dwgs.User) (width 0.005))
  (fp_line (start 1.32861 -0.117) (end 1.38861 -0.117) (layer Dwgs.User) (width 0.005))
  (fp_line (start 4.883 -2.32814) (end 4.963 -2.32814) (layer Dwgs.User) (width 0.005))
  (fp_line (start 4.883 -2.32814) (end 4.883 -2.38814) (layer Dwgs.User) (width 0.005))
  (fp_line (start 4.963 -2.32814) (end 4.963 -2.38814) (layer Dwgs.User) (width 0.005))
  (fp_line (start 4.883 -2.38814) (end 4.963 -2.38814) (layer Dwgs.User) (width 0.005))
  (fp_line (start 4.883 -2.42794) (end 4.963 -2.42794) (layer Dwgs.User) (width 0.005))
  (fp_line (start 4.883 -2.42794) (end 4.883 -2.48794) (layer Dwgs.User) (width 0.005))
  (fp_line (start 4.963 -2.42794) (end 4.963 -2.48794) (layer Dwgs.User) (width 0.005))
  (fp_line (start 4.883 -2.48794) (end 4.963 -2.48794) (layer Dwgs.User) (width 0.005))
  (fp_line (start 4.883 -2.52774) (end 4.963 -2.52774) (layer Dwgs.User) (width 0.005))
  (fp_line (start 4.883 -2.52774) (end 4.883 -2.58774) (layer Dwgs.User) (width 0.005))
  (fp_line (start 4.963 -2.52774) (end 4.963 -2.58774) (layer Dwgs.User) (width 0.005))
  (fp_line (start 4.883 -2.58774) (end 4.963 -2.58774) (layer Dwgs.User) (width 0.005))
  (fp_line (start 4.883 -2.72734) (end 4.963 -2.72734) (layer Dwgs.User) (width 0.005))
  (fp_line (start 4.883 -2.72734) (end 4.883 -2.78734) (layer Dwgs.User) (width 0.005))
  (fp_line (start 4.963 -2.72734) (end 4.963 -2.78734) (layer Dwgs.User) (width 0.005))
  (fp_line (start 4.883 -2.78734) (end 4.963 -2.78734) (layer Dwgs.User) (width 0.005))
  (fp_line (start 4.883 -2.62754) (end 4.963 -2.62754) (layer Dwgs.User) (width 0.005))
  (fp_line (start 4.883 -2.62754) (end 4.883 -2.68754) (layer Dwgs.User) (width 0.005))
  (fp_line (start 4.963 -2.62754) (end 4.963 -2.68754) (layer Dwgs.User) (width 0.005))
  (fp_line (start 4.883 -2.68754) (end 4.963 -2.68754) (layer Dwgs.User) (width 0.005))
  (fp_line (start 4.883 -2.82714) (end 4.963 -2.82714) (layer Dwgs.User) (width 0.005))
  (fp_line (start 4.883 -2.82714) (end 4.883 -2.88714) (layer Dwgs.User) (width 0.005))
  (fp_line (start 4.963 -2.82714) (end 4.963 -2.88714) (layer Dwgs.User) (width 0.005))
  (fp_line (start 4.883 -2.88714) (end 4.963 -2.88714) (layer Dwgs.User) (width 0.005))
  (fp_line (start 4.883 -2.92694) (end 4.963 -2.92694) (layer Dwgs.User) (width 0.005))
  (fp_line (start 4.883 -2.92694) (end 4.883 -2.98694) (layer Dwgs.User) (width 0.005))
  (fp_line (start 4.963 -2.92694) (end 4.963 -2.98694) (layer Dwgs.User) (width 0.005))
  (fp_line (start 4.883 -2.98694) (end 4.963 -2.98694) (layer Dwgs.User) (width 0.005))
  (fp_line (start 4.883 -3.12654) (end 4.963 -3.12654) (layer Dwgs.User) (width 0.005))
  (fp_line (start 4.883 -3.12654) (end 4.883 -3.18654) (layer Dwgs.User) (width 0.005))
  (fp_line (start 4.963 -3.12654) (end 4.963 -3.18654) (layer Dwgs.User) (width 0.005))
  (fp_line (start 4.883 -3.18654) (end 4.963 -3.18654) (layer Dwgs.User) (width 0.005))
  (fp_line (start 4.883 -3.22634) (end 4.963 -3.22634) (layer Dwgs.User) (width 0.005))
  (fp_line (start 4.883 -3.22634) (end 4.883 -3.28634) (layer Dwgs.User) (width 0.005))
  (fp_line (start 4.963 -3.22634) (end 4.963 -3.28634) (layer Dwgs.User) (width 0.005))
  (fp_line (start 4.883 -3.28634) (end 4.963 -3.28634) (layer Dwgs.User) (width 0.005))
  (fp_line (start 4.883 -3.32614) (end 4.963 -3.32614) (layer Dwgs.User) (width 0.005))
  (fp_line (start 4.883 -3.32614) (end 4.883 -3.38614) (layer Dwgs.User) (width 0.005))
  (fp_line (start 4.963 -3.32614) (end 4.963 -3.38614) (layer Dwgs.User) (width 0.005))
  (fp_line (start 4.883 -3.38614) (end 4.963 -3.38614) (layer Dwgs.User) (width 0.005))
  (fp_line (start 4.883 -3.42594) (end 4.963 -3.42594) (layer Dwgs.User) (width 0.005))
  (fp_line (start 4.883 -3.42594) (end 4.883 -3.48594) (layer Dwgs.User) (width 0.005))
  (fp_line (start 4.963 -3.42594) (end 4.963 -3.48594) (layer Dwgs.User) (width 0.005))
  (fp_line (start 4.883 -3.48594) (end 4.963 -3.48594) (layer Dwgs.User) (width 0.005))
  (fp_line (start 4.883 -3.62554) (end 4.963 -3.62554) (layer Dwgs.User) (width 0.005))
  (fp_line (start 4.883 -3.62554) (end 4.883 -3.68554) (layer Dwgs.User) (width 0.005))
  (fp_line (start 4.963 -3.62554) (end 4.963 -3.68554) (layer Dwgs.User) (width 0.005))
  (fp_line (start 4.883 -3.68554) (end 4.963 -3.68554) (layer Dwgs.User) (width 0.005))
  (fp_line (start 4.883 -3.52574) (end 4.963 -3.52574) (layer Dwgs.User) (width 0.005))
  (fp_line (start 4.883 -3.52574) (end 4.883 -3.58574) (layer Dwgs.User) (width 0.005))
  (fp_line (start 4.963 -3.52574) (end 4.963 -3.58574) (layer Dwgs.User) (width 0.005))
  (fp_line (start 4.883 -3.58574) (end 4.963 -3.58574) (layer Dwgs.User) (width 0.005))
  (fp_line (start 4.883 -3.72534) (end 4.963 -3.72534) (layer Dwgs.User) (width 0.005))
  (fp_line (start 4.883 -3.72534) (end 4.883 -3.78534) (layer Dwgs.User) (width 0.005))
  (fp_line (start 4.963 -3.72534) (end 4.963 -3.78534) (layer Dwgs.User) (width 0.005))
  (fp_line (start 4.883 -3.78534) (end 4.963 -3.78534) (layer Dwgs.User) (width 0.005))
  (fp_line (start 4.883 -3.82514) (end 4.963 -3.82514) (layer Dwgs.User) (width 0.005))
  (fp_line (start 4.883 -3.82514) (end 4.883 -3.88514) (layer Dwgs.User) (width 0.005))
  (fp_line (start 4.963 -3.82514) (end 4.963 -3.88514) (layer Dwgs.User) (width 0.005))
  (fp_line (start 4.883 -3.88514) (end 4.963 -3.88514) (layer Dwgs.User) (width 0.005))
  (fp_line (start 4.883 -3.92494) (end 4.963 -3.92494) (layer Dwgs.User) (width 0.005))
  (fp_line (start 4.883 -3.92494) (end 4.883 -3.98494) (layer Dwgs.User) (width 0.005))
  (fp_line (start 4.963 -3.92494) (end 4.963 -3.98494) (layer Dwgs.User) (width 0.005))
  (fp_line (start 4.883 -3.98494) (end 4.963 -3.98494) (layer Dwgs.User) (width 0.005))
  (fp_line (start 4.883 -4.02474) (end 4.963 -4.02474) (layer Dwgs.User) (width 0.005))
  (fp_line (start 4.883 -4.02474) (end 4.883 -4.08474) (layer Dwgs.User) (width 0.005))
  (fp_line (start 4.963 -4.02474) (end 4.963 -4.08474) (layer Dwgs.User) (width 0.005))
  (fp_line (start 4.883 -4.08474) (end 4.963 -4.08474) (layer Dwgs.User) (width 0.005))
  (fp_line (start 4.5816 -4.883) (end 4.6416 -4.883) (layer Dwgs.User) (width 0.005))
  (fp_line (start 4.5816 -4.883) (end 4.5816 -4.963) (layer Dwgs.User) (width 0.005))
  (fp_line (start 4.6416 -4.883) (end 4.6416 -4.963) (layer Dwgs.User) (width 0.005))
  (fp_line (start 4.5816 -4.963) (end 4.6416 -4.963) (layer Dwgs.User) (width 0.005))
  (fp_line (start 4.4818 -4.883) (end 4.5418 -4.883) (layer Dwgs.User) (width 0.005))
  (fp_line (start 4.4818 -4.883) (end 4.4818 -4.963) (layer Dwgs.User) (width 0.005))
  (fp_line (start 4.5418 -4.883) (end 4.5418 -4.963) (layer Dwgs.User) (width 0.005))
  (fp_line (start 4.4818 -4.963) (end 4.5418 -4.963) (layer Dwgs.User) (width 0.005))
  (fp_line (start 4.382 -4.883) (end 4.442 -4.883) (layer Dwgs.User) (width 0.005))
  (fp_line (start 4.382 -4.883) (end 4.382 -4.963) (layer Dwgs.User) (width 0.005))
  (fp_line (start 4.442 -4.883) (end 4.442 -4.963) (layer Dwgs.User) (width 0.005))
  (fp_line (start 4.382 -4.963) (end 4.442 -4.963) (layer Dwgs.User) (width 0.005))
  (fp_line (start 4.2822 -4.883) (end 4.3422 -4.883) (layer Dwgs.User) (width 0.005))
  (fp_line (start 4.2822 -4.883) (end 4.2822 -4.963) (layer Dwgs.User) (width 0.005))
  (fp_line (start 4.3422 -4.883) (end 4.3422 -4.963) (layer Dwgs.User) (width 0.005))
  (fp_line (start 4.2822 -4.963) (end 4.3422 -4.963) (layer Dwgs.User) (width 0.005))
  (fp_line (start 4.1824 -4.883) (end 4.2424 -4.883) (layer Dwgs.User) (width 0.005))
  (fp_line (start 4.1824 -4.883) (end 4.1824 -4.963) (layer Dwgs.User) (width 0.005))
  (fp_line (start 4.2424 -4.883) (end 4.2424 -4.963) (layer Dwgs.User) (width 0.005))
  (fp_line (start 4.1824 -4.963) (end 4.2424 -4.963) (layer Dwgs.User) (width 0.005))
  (fp_line (start 4.0826 -4.883) (end 4.1426 -4.883) (layer Dwgs.User) (width 0.005))
  (fp_line (start 4.0826 -4.883) (end 4.0826 -4.963) (layer Dwgs.User) (width 0.005))
  (fp_line (start 4.1426 -4.883) (end 4.1426 -4.963) (layer Dwgs.User) (width 0.005))
  (fp_line (start 4.0826 -4.963) (end 4.1426 -4.963) (layer Dwgs.User) (width 0.005))
  (fp_line (start 3.9828 -4.883) (end 4.0428 -4.883) (layer Dwgs.User) (width 0.005))
  (fp_line (start 3.9828 -4.883) (end 3.9828 -4.963) (layer Dwgs.User) (width 0.005))
  (fp_line (start 4.0428 -4.883) (end 4.0428 -4.963) (layer Dwgs.User) (width 0.005))
  (fp_line (start 3.9828 -4.963) (end 4.0428 -4.963) (layer Dwgs.User) (width 0.005))
  (fp_line (start 3.7832 -4.883) (end 3.8432 -4.883) (layer Dwgs.User) (width 0.005))
  (fp_line (start 3.7832 -4.883) (end 3.7832 -4.963) (layer Dwgs.User) (width 0.005))
  (fp_line (start 3.8432 -4.883) (end 3.8432 -4.963) (layer Dwgs.User) (width 0.005))
  (fp_line (start 3.7832 -4.963) (end 3.8432 -4.963) (layer Dwgs.User) (width 0.005))
  (fp_line (start 3.883 -4.883) (end 3.943 -4.883) (layer Dwgs.User) (width 0.005))
  (fp_line (start 3.883 -4.883) (end 3.883 -4.963) (layer Dwgs.User) (width 0.005))
  (fp_line (start 3.943 -4.883) (end 3.943 -4.963) (layer Dwgs.User) (width 0.005))
  (fp_line (start 3.883 -4.963) (end 3.943 -4.963) (layer Dwgs.User) (width 0.005))
  (fp_line (start 0.24761 -4.883) (end 0.30761 -4.883) (layer Dwgs.User) (width 0.005))
  (fp_line (start 0.24761 -4.883) (end 0.24761 -4.963) (layer Dwgs.User) (width 0.005))
  (fp_line (start 0.30761 -4.883) (end 0.30761 -4.963) (layer Dwgs.User) (width 0.005))
  (fp_line (start 0.24761 -4.963) (end 0.30761 -4.963) (layer Dwgs.User) (width 0.005))
  (fp_line (start 3.3861 -0.037) (end 3.4461 -0.037) (layer Dwgs.User) (width 0.005))
  (fp_line (start 3.3861 -0.037) (end 3.3861 -0.117) (layer Dwgs.User) (width 0.005))
  (fp_line (start 3.4461 -0.037) (end 3.4461 -0.117) (layer Dwgs.User) (width 0.005))
  (fp_line (start 3.3861 -0.117) (end 3.4461 -0.117) (layer Dwgs.User) (width 0.005))
  (fp_line (start 4.4839 -0.037) (end 4.5439 -0.037) (layer Dwgs.User) (width 0.005))
  (fp_line (start 4.4839 -0.037) (end 4.4839 -0.117) (layer Dwgs.User) (width 0.005))
  (fp_line (start 4.5439 -0.037) (end 4.5439 -0.117) (layer Dwgs.User) (width 0.005))
  (fp_line (start 4.4839 -0.117) (end 4.5439 -0.117) (layer Dwgs.User) (width 0.005))
  (fp_line (start 4.3841 -0.037) (end 4.4441 -0.037) (layer Dwgs.User) (width 0.005))
  (fp_line (start 4.3841 -0.037) (end 4.3841 -0.117) (layer Dwgs.User) (width 0.005))
  (fp_line (start 4.4441 -0.037) (end 4.4441 -0.117) (layer Dwgs.User) (width 0.005))
  (fp_line (start 4.3841 -0.117) (end 4.4441 -0.117) (layer Dwgs.User) (width 0.005))
  (fp_line (start 4.2843 -0.037) (end 4.3443 -0.037) (layer Dwgs.User) (width 0.005))
  (fp_line (start 4.2843 -0.037) (end 4.2843 -0.117) (layer Dwgs.User) (width 0.005))
  (fp_line (start 4.3443 -0.037) (end 4.3443 -0.117) (layer Dwgs.User) (width 0.005))
  (fp_line (start 4.2843 -0.117) (end 4.3443 -0.117) (layer Dwgs.User) (width 0.005))
  (fp_line (start 4.5837 -0.037) (end 4.6437 -0.037) (layer Dwgs.User) (width 0.005))
  (fp_line (start 4.5837 -0.037) (end 4.5837 -0.117) (layer Dwgs.User) (width 0.005))
  (fp_line (start 4.6437 -0.037) (end 4.6437 -0.117) (layer Dwgs.User) (width 0.005))
  (fp_line (start 4.5837 -0.117) (end 4.6437 -0.117) (layer Dwgs.User) (width 0.005))
  (fp_line (start 3.8851 -0.037) (end 3.9451 -0.037) (layer Dwgs.User) (width 0.005))
  (fp_line (start 3.8851 -0.037) (end 3.8851 -0.117) (layer Dwgs.User) (width 0.005))
  (fp_line (start 3.9451 -0.037) (end 3.9451 -0.117) (layer Dwgs.User) (width 0.005))
  (fp_line (start 3.8851 -0.117) (end 3.9451 -0.117) (layer Dwgs.User) (width 0.005))
  (fp_line (start 4.1845 -0.037) (end 4.2445 -0.037) (layer Dwgs.User) (width 0.005))
  (fp_line (start 4.1845 -0.037) (end 4.1845 -0.117) (layer Dwgs.User) (width 0.005))
  (fp_line (start 4.2445 -0.037) (end 4.2445 -0.117) (layer Dwgs.User) (width 0.005))
  (fp_line (start 4.1845 -0.117) (end 4.2445 -0.117) (layer Dwgs.User) (width 0.005))
  (fp_line (start 3.9849 -0.037) (end 4.0449 -0.037) (layer Dwgs.User) (width 0.005))
  (fp_line (start 3.9849 -0.037) (end 3.9849 -0.117) (layer Dwgs.User) (width 0.005))
  (fp_line (start 4.0449 -0.037) (end 4.0449 -0.117) (layer Dwgs.User) (width 0.005))
  (fp_line (start 3.9849 -0.117) (end 4.0449 -0.117) (layer Dwgs.User) (width 0.005))
  (fp_line (start 4.0847 -0.037) (end 4.1447 -0.037) (layer Dwgs.User) (width 0.005))
  (fp_line (start 4.0847 -0.037) (end 4.0847 -0.117) (layer Dwgs.User) (width 0.005))
  (fp_line (start 4.1447 -0.037) (end 4.1447 -0.117) (layer Dwgs.User) (width 0.005))
  (fp_line (start 4.0847 -0.117) (end 4.1447 -0.117) (layer Dwgs.User) (width 0.005))
  (fp_line (start 3.7853 -0.037) (end 3.8453 -0.037) (layer Dwgs.User) (width 0.005))
  (fp_line (start 3.7853 -0.037) (end 3.7853 -0.117) (layer Dwgs.User) (width 0.005))
  (fp_line (start 3.8453 -0.037) (end 3.8453 -0.117) (layer Dwgs.User) (width 0.005))
  (fp_line (start 3.7853 -0.117) (end 3.8453 -0.117) (layer Dwgs.User) (width 0.005))
  (fp_line (start 3.6855 -0.037) (end 3.7455 -0.037) (layer Dwgs.User) (width 0.005))
  (fp_line (start 3.6855 -0.037) (end 3.6855 -0.117) (layer Dwgs.User) (width 0.005))
  (fp_line (start 3.7455 -0.037) (end 3.7455 -0.117) (layer Dwgs.User) (width 0.005))
  (fp_line (start 3.6855 -0.117) (end 3.7455 -0.117) (layer Dwgs.User) (width 0.005))
  (fp_line (start 3.5857 -0.037) (end 3.6457 -0.037) (layer Dwgs.User) (width 0.005))
  (fp_line (start 3.5857 -0.037) (end 3.5857 -0.117) (layer Dwgs.User) (width 0.005))
  (fp_line (start 3.6457 -0.037) (end 3.6457 -0.117) (layer Dwgs.User) (width 0.005))
  (fp_line (start 3.5857 -0.117) (end 3.6457 -0.117) (layer Dwgs.User) (width 0.005))
  (fp_line (start 3.4859 -0.037) (end 3.5459 -0.037) (layer Dwgs.User) (width 0.005))
  (fp_line (start 3.4859 -0.037) (end 3.4859 -0.117) (layer Dwgs.User) (width 0.005))
  (fp_line (start 3.5459 -0.037) (end 3.5459 -0.117) (layer Dwgs.User) (width 0.005))
  (fp_line (start 3.4859 -0.117) (end 3.5459 -0.117) (layer Dwgs.User) (width 0.005))
  (fp_line (start 2.71661 -0.037) (end 2.77661 -0.037) (layer Dwgs.User) (width 0.005))
  (fp_line (start 2.71661 -0.037) (end 2.71661 -0.117) (layer Dwgs.User) (width 0.005))
  (fp_line (start 2.77661 -0.037) (end 2.77661 -0.117) (layer Dwgs.User) (width 0.005))
  (fp_line (start 2.71661 -0.117) (end 2.77661 -0.117) (layer Dwgs.User) (width 0.005))
  (fp_line (start 2.82311 -0.037) (end 2.88311 -0.037) (layer Dwgs.User) (width 0.005))
  (fp_line (start 2.82311 -0.037) (end 2.82311 -0.117) (layer Dwgs.User) (width 0.005))
  (fp_line (start 2.88311 -0.037) (end 2.88311 -0.117) (layer Dwgs.User) (width 0.005))
  (fp_line (start 2.82311 -0.117) (end 2.88311 -0.117) (layer Dwgs.User) (width 0.005))
  (fp_line (start 2.50461 -0.037) (end 2.56461 -0.037) (layer Dwgs.User) (width 0.005))
  (fp_line (start 2.50461 -0.037) (end 2.50461 -0.117) (layer Dwgs.User) (width 0.005))
  (fp_line (start 2.56461 -0.037) (end 2.56461 -0.117) (layer Dwgs.User) (width 0.005))
  (fp_line (start 2.50461 -0.117) (end 2.56461 -0.117) (layer Dwgs.User) (width 0.005))
  (fp_line (start 2.39861 -0.037) (end 2.45861 -0.037) (layer Dwgs.User) (width 0.005))
  (fp_line (start 2.39861 -0.037) (end 2.39861 -0.117) (layer Dwgs.User) (width 0.005))
  (fp_line (start 2.45861 -0.037) (end 2.45861 -0.117) (layer Dwgs.User) (width 0.005))
  (fp_line (start 2.39861 -0.117) (end 2.45861 -0.117) (layer Dwgs.User) (width 0.005))
  (fp_line (start 2.29261 -0.037) (end 2.35261 -0.037) (layer Dwgs.User) (width 0.005))
  (fp_line (start 2.29261 -0.037) (end 2.29261 -0.117) (layer Dwgs.User) (width 0.005))
  (fp_line (start 2.35261 -0.037) (end 2.35261 -0.117) (layer Dwgs.User) (width 0.005))
  (fp_line (start 2.29261 -0.117) (end 2.35261 -0.117) (layer Dwgs.User) (width 0.005))
  (fp_line (start 2.17661 -0.037) (end 2.23661 -0.037) (layer Dwgs.User) (width 0.005))
  (fp_line (start 2.17661 -0.037) (end 2.17661 -0.117) (layer Dwgs.User) (width 0.005))
  (fp_line (start 2.23661 -0.037) (end 2.23661 -0.117) (layer Dwgs.User) (width 0.005))
  (fp_line (start 2.17661 -0.117) (end 2.23661 -0.117) (layer Dwgs.User) (width 0.005))
  (fp_line (start 2.07061 -0.037) (end 2.13061 -0.037) (layer Dwgs.User) (width 0.005))
  (fp_line (start 2.07061 -0.037) (end 2.07061 -0.117) (layer Dwgs.User) (width 0.005))
  (fp_line (start 2.13061 -0.037) (end 2.13061 -0.117) (layer Dwgs.User) (width 0.005))
  (fp_line (start 2.07061 -0.117) (end 2.13061 -0.117) (layer Dwgs.User) (width 0.005))
  (fp_line (start 0.35361 -4.883) (end 0.41361 -4.883) (layer Dwgs.User) (width 0.005))
  (fp_line (start 0.35361 -4.883) (end 0.35361 -4.963) (layer Dwgs.User) (width 0.005))
  (fp_line (start 0.41361 -4.883) (end 0.41361 -4.963) (layer Dwgs.User) (width 0.005))
  (fp_line (start 0.35361 -4.963) (end 0.41361 -4.963) (layer Dwgs.User) (width 0.005))
  (fp_line (start 1.75261 -0.037) (end 1.81261 -0.037) (layer Dwgs.User) (width 0.005))
  (fp_line (start 1.75261 -0.037) (end 1.75261 -0.117) (layer Dwgs.User) (width 0.005))
  (fp_line (start 1.81261 -0.037) (end 1.81261 -0.117) (layer Dwgs.User) (width 0.005))
  (fp_line (start 1.75261 -0.117) (end 1.81261 -0.117) (layer Dwgs.User) (width 0.005))
  (fp_line (start 1.64661 -0.037) (end 1.70661 -0.037) (layer Dwgs.User) (width 0.005))
  (fp_line (start 1.64661 -0.037) (end 1.64661 -0.117) (layer Dwgs.User) (width 0.005))
  (fp_line (start 1.70661 -0.037) (end 1.70661 -0.117) (layer Dwgs.User) (width 0.005))
  (fp_line (start 1.64661 -0.117) (end 1.70661 -0.117) (layer Dwgs.User) (width 0.005))
  (fp_line (start 1.22261 -0.037) (end 1.28261 -0.037) (layer Dwgs.User) (width 0.005))
  (fp_line (start 1.22261 -0.037) (end 1.22261 -0.117) (layer Dwgs.User) (width 0.005))
  (fp_line (start 1.28261 -0.037) (end 1.28261 -0.117) (layer Dwgs.User) (width 0.005))
  (fp_line (start 1.22261 -0.117) (end 1.28261 -0.117) (layer Dwgs.User) (width 0.005))
  (fp_line (start 1.54061 -0.037) (end 1.60061 -0.037) (layer Dwgs.User) (width 0.005))
  (fp_line (start 1.54061 -0.037) (end 1.54061 -0.117) (layer Dwgs.User) (width 0.005))
  (fp_line (start 1.60061 -0.037) (end 1.60061 -0.117) (layer Dwgs.User) (width 0.005))
  (fp_line (start 1.54061 -0.117) (end 1.60061 -0.117) (layer Dwgs.User) (width 0.005))
  (fp_line (start 1.11611 -0.037) (end 1.17611 -0.037) (layer Dwgs.User) (width 0.005))
  (fp_line (start 1.11611 -0.037) (end 1.11611 -0.117) (layer Dwgs.User) (width 0.005))
  (fp_line (start 1.17611 -0.037) (end 1.17611 -0.117) (layer Dwgs.User) (width 0.005))
  (fp_line (start 1.11611 -0.117) (end 1.17611 -0.117) (layer Dwgs.User) (width 0.005))
  (fp_line (start 4.883 -1.39746) (end 4.963 -1.39746) (layer Dwgs.User) (width 0.005))
  (fp_line (start 4.883 -1.39746) (end 4.883 -1.45746) (layer Dwgs.User) (width 0.005))
  (fp_line (start 4.963 -1.39746) (end 4.963 -1.45746) (layer Dwgs.User) (width 0.005))
  (fp_line (start 4.883 -1.45746) (end 4.963 -1.45746) (layer Dwgs.User) (width 0.005))
  (fp_line (start 4.883 -1.70996) (end 4.963 -1.70996) (layer Dwgs.User) (width 0.005))
  (fp_line (start 4.883 -1.70996) (end 4.883 -1.76996) (layer Dwgs.User) (width 0.005))
  (fp_line (start 4.963 -1.70996) (end 4.963 -1.76996) (layer Dwgs.User) (width 0.005))
  (fp_line (start 4.883 -1.76996) (end 4.963 -1.76996) (layer Dwgs.User) (width 0.005))
  (fp_line (start 1.85861 -0.037) (end 1.91861 -0.037) (layer Dwgs.User) (width 0.005))
  (fp_line (start 1.85861 -0.037) (end 1.85861 -0.117) (layer Dwgs.User) (width 0.005))
  (fp_line (start 1.91861 -0.037) (end 1.91861 -0.117) (layer Dwgs.User) (width 0.005))
  (fp_line (start 1.85861 -0.117) (end 1.91861 -0.117) (layer Dwgs.User) (width 0.005))
  (fp_line (start 4.883 -1.49746) (end 4.963 -1.49746) (layer Dwgs.User) (width 0.005))
  (fp_line (start 4.883 -1.49746) (end 4.883 -1.55746) (layer Dwgs.User) (width 0.005))
  (fp_line (start 4.963 -1.49746) (end 4.963 -1.55746) (layer Dwgs.User) (width 0.005))
  (fp_line (start 4.883 -1.55746) (end 4.963 -1.55746) (layer Dwgs.User) (width 0.005))
  (fp_line (start 4.883 -1.60346) (end 4.963 -1.60346) (layer Dwgs.User) (width 0.005))
  (fp_line (start 4.883 -1.60346) (end 4.883 -1.66346) (layer Dwgs.User) (width 0.005))
  (fp_line (start 4.963 -1.60346) (end 4.963 -1.66346) (layer Dwgs.User) (width 0.005))
  (fp_line (start 4.883 -1.66346) (end 4.963 -1.66346) (layer Dwgs.User) (width 0.005))
  (fp_line (start 1.96461 -0.037) (end 2.02461 -0.037) (layer Dwgs.User) (width 0.005))
  (fp_line (start 1.96461 -0.037) (end 1.96461 -0.117) (layer Dwgs.User) (width 0.005))
  (fp_line (start 2.02461 -0.037) (end 2.02461 -0.117) (layer Dwgs.User) (width 0.005))
  (fp_line (start 1.96461 -0.117) (end 2.02461 -0.117) (layer Dwgs.User) (width 0.005))
  (fp_line (start 2.43839 -4.883) (end 2.49839 -4.883) (layer Dwgs.User) (width 0.005))
  (fp_line (start 2.43839 -4.883) (end 2.43839 -4.963) (layer Dwgs.User) (width 0.005))
  (fp_line (start 2.49839 -4.883) (end 2.49839 -4.963) (layer Dwgs.User) (width 0.005))
  (fp_line (start 2.43839 -4.963) (end 2.49839 -4.963) (layer Dwgs.User) (width 0.005))
  (fp_line (start 2.54439 -4.883) (end 2.60439 -4.883) (layer Dwgs.User) (width 0.005))
  (fp_line (start 2.54439 -4.883) (end 2.54439 -4.963) (layer Dwgs.User) (width 0.005))
  (fp_line (start 2.60439 -4.883) (end 2.60439 -4.963) (layer Dwgs.User) (width 0.005))
  (fp_line (start 2.54439 -4.963) (end 2.60439 -4.963) (layer Dwgs.User) (width 0.005))
  (fp_line (start 2.22589 -4.883) (end 2.28589 -4.883) (layer Dwgs.User) (width 0.005))
  (fp_line (start 2.22589 -4.883) (end 2.22589 -4.963) (layer Dwgs.User) (width 0.005))
  (fp_line (start 2.28589 -4.883) (end 2.28589 -4.963) (layer Dwgs.User) (width 0.005))
  (fp_line (start 2.22589 -4.963) (end 2.28589 -4.963) (layer Dwgs.User) (width 0.005))
  (fp_line (start 2.33189 -4.883) (end 2.39189 -4.883) (layer Dwgs.User) (width 0.005))
  (fp_line (start 2.33189 -4.883) (end 2.33189 -4.963) (layer Dwgs.User) (width 0.005))
  (fp_line (start 2.39189 -4.883) (end 2.39189 -4.963) (layer Dwgs.User) (width 0.005))
  (fp_line (start 2.33189 -4.963) (end 2.39189 -4.963) (layer Dwgs.User) (width 0.005))
  (fp_line (start 2.01339 -4.883) (end 2.07339 -4.883) (layer Dwgs.User) (width 0.005))
  (fp_line (start 2.01339 -4.883) (end 2.01339 -4.963) (layer Dwgs.User) (width 0.005))
  (fp_line (start 2.07339 -4.883) (end 2.07339 -4.963) (layer Dwgs.User) (width 0.005))
  (fp_line (start 2.01339 -4.963) (end 2.07339 -4.963) (layer Dwgs.User) (width 0.005))
  (fp_line (start 2.11989 -4.883) (end 2.17989 -4.883) (layer Dwgs.User) (width 0.005))
  (fp_line (start 2.11989 -4.883) (end 2.11989 -4.963) (layer Dwgs.User) (width 0.005))
  (fp_line (start 2.17989 -4.883) (end 2.17989 -4.963) (layer Dwgs.User) (width 0.005))
  (fp_line (start 2.11989 -4.963) (end 2.17989 -4.963) (layer Dwgs.User) (width 0.005))
  (fp_line (start 1.90739 -4.883) (end 1.96739 -4.883) (layer Dwgs.User) (width 0.005))
  (fp_line (start 1.90739 -4.883) (end 1.90739 -4.963) (layer Dwgs.User) (width 0.005))
  (fp_line (start 1.96739 -4.883) (end 1.96739 -4.963) (layer Dwgs.User) (width 0.005))
  (fp_line (start 1.90739 -4.963) (end 1.96739 -4.963) (layer Dwgs.User) (width 0.005))
  (fp_line (start 1.80139 -4.883) (end 1.86139 -4.883) (layer Dwgs.User) (width 0.005))
  (fp_line (start 1.80139 -4.883) (end 1.80139 -4.963) (layer Dwgs.User) (width 0.005))
  (fp_line (start 1.86139 -4.883) (end 1.86139 -4.963) (layer Dwgs.User) (width 0.005))
  (fp_line (start 1.80139 -4.963) (end 1.86139 -4.963) (layer Dwgs.User) (width 0.005))
  (fp_line (start 2.61061 -0.037) (end 2.67061 -0.037) (layer Dwgs.User) (width 0.005))
  (fp_line (start 2.61061 -0.037) (end 2.61061 -0.117) (layer Dwgs.User) (width 0.005))
  (fp_line (start 2.67061 -0.037) (end 2.67061 -0.117) (layer Dwgs.User) (width 0.005))
  (fp_line (start 2.61061 -0.117) (end 2.67061 -0.117) (layer Dwgs.User) (width 0.005))
  (fp_line (start 2.92911 -0.037) (end 2.98911 -0.037) (layer Dwgs.User) (width 0.005))
  (fp_line (start 2.92911 -0.037) (end 2.92911 -0.117) (layer Dwgs.User) (width 0.005))
  (fp_line (start 2.98911 -0.037) (end 2.98911 -0.117) (layer Dwgs.User) (width 0.005))
  (fp_line (start 2.92911 -0.117) (end 2.98911 -0.117) (layer Dwgs.User) (width 0.005))
  (fp_line (start 0.24761 -0.037) (end 0.30761 -0.037) (layer Dwgs.User) (width 0.005))
  (fp_line (start 0.24761 -0.037) (end 0.24761 -0.117) (layer Dwgs.User) (width 0.005))
  (fp_line (start 0.30761 -0.037) (end 0.30761 -0.117) (layer Dwgs.User) (width 0.005))
  (fp_line (start 0.24761 -0.117) (end 0.30761 -0.117) (layer Dwgs.User) (width 0.005))
  (fp_line (start 0.46972 -4.883) (end 0.52972 -4.883) (layer Dwgs.User) (width 0.005))
  (fp_line (start 0.46972 -4.883) (end 0.46972 -4.963) (layer Dwgs.User) (width 0.005))
  (fp_line (start 0.52972 -4.883) (end 0.52972 -4.963) (layer Dwgs.User) (width 0.005))
  (fp_line (start 0.46972 -4.963) (end 0.52972 -4.963) (layer Dwgs.User) (width 0.005))
  (fp_line (start 4.883 -0.67346) (end 4.963 -0.67346) (layer Dwgs.User) (width 0.005))
  (fp_line (start 4.883 -0.67346) (end 4.883 -0.73346) (layer Dwgs.User) (width 0.005))
  (fp_line (start 4.963 -0.67346) (end 4.963 -0.73346) (layer Dwgs.User) (width 0.005))
  (fp_line (start 4.883 -0.73346) (end 4.963 -0.73346) (layer Dwgs.User) (width 0.005))
  (fp_line (start 4.883 -0.57346) (end 4.963 -0.57346) (layer Dwgs.User) (width 0.005))
  (fp_line (start 4.883 -0.57346) (end 4.883 -0.63346) (layer Dwgs.User) (width 0.005))
  (fp_line (start 4.963 -0.57346) (end 4.963 -0.63346) (layer Dwgs.User) (width 0.005))
  (fp_line (start 4.883 -0.63346) (end 4.963 -0.63346) (layer Dwgs.User) (width 0.005))
  (fp_line (start 4.883 -0.36146) (end 4.963 -0.36146) (layer Dwgs.User) (width 0.005))
  (fp_line (start 4.883 -0.36146) (end 4.883 -0.42146) (layer Dwgs.User) (width 0.005))
  (fp_line (start 4.963 -0.36146) (end 4.963 -0.42146) (layer Dwgs.User) (width 0.005))
  (fp_line (start 4.883 -0.42146) (end 4.963 -0.42146) (layer Dwgs.User) (width 0.005))
  (fp_line (start 4.883 -0.46746) (end 4.963 -0.46746) (layer Dwgs.User) (width 0.005))
  (fp_line (start 4.883 -0.46746) (end 4.883 -0.52746) (layer Dwgs.User) (width 0.005))
  (fp_line (start 4.963 -0.46746) (end 4.963 -0.52746) (layer Dwgs.User) (width 0.005))
  (fp_line (start 4.883 -0.52746) (end 4.963 -0.52746) (layer Dwgs.User) (width 0.005))
  (fp_line (start 4.883 -1.08546) (end 4.963 -1.08546) (layer Dwgs.User) (width 0.005))
  (fp_line (start 4.883 -1.08546) (end 4.883 -1.14546) (layer Dwgs.User) (width 0.005))
  (fp_line (start 4.963 -1.08546) (end 4.963 -1.14546) (layer Dwgs.User) (width 0.005))
  (fp_line (start 4.883 -1.14546) (end 4.963 -1.14546) (layer Dwgs.User) (width 0.005))
  (fp_line (start 4.883 -0.77946) (end 4.963 -0.77946) (layer Dwgs.User) (width 0.005))
  (fp_line (start 4.883 -0.77946) (end 4.883 -0.83946) (layer Dwgs.User) (width 0.005))
  (fp_line (start 4.963 -0.77946) (end 4.963 -0.83946) (layer Dwgs.User) (width 0.005))
  (fp_line (start 4.883 -0.83946) (end 4.963 -0.83946) (layer Dwgs.User) (width 0.005))
  (fp_line (start 4.883 -0.98546) (end 4.963 -0.98546) (layer Dwgs.User) (width 0.005))
  (fp_line (start 4.883 -0.98546) (end 4.883 -1.04546) (layer Dwgs.User) (width 0.005))
  (fp_line (start 4.963 -0.98546) (end 4.963 -1.04546) (layer Dwgs.User) (width 0.005))
  (fp_line (start 4.883 -1.04546) (end 4.963 -1.04546) (layer Dwgs.User) (width 0.005))
  (fp_line (start 4.883 -1.29146) (end 4.963 -1.29146) (layer Dwgs.User) (width 0.005))
  (fp_line (start 4.883 -1.29146) (end 4.883 -1.35146) (layer Dwgs.User) (width 0.005))
  (fp_line (start 4.963 -1.29146) (end 4.963 -1.35146) (layer Dwgs.User) (width 0.005))
  (fp_line (start 4.883 -1.35146) (end 4.963 -1.35146) (layer Dwgs.User) (width 0.005))
  (fp_line (start 3.03561 -0.037) (end 3.09561 -0.037) (layer Dwgs.User) (width 0.005))
  (fp_line (start 3.03561 -0.037) (end 3.03561 -0.117) (layer Dwgs.User) (width 0.005))
  (fp_line (start 3.09561 -0.037) (end 3.09561 -0.117) (layer Dwgs.User) (width 0.005))
  (fp_line (start 3.03561 -0.117) (end 3.09561 -0.117) (layer Dwgs.User) (width 0.005))
  (fp_line (start 4.883 -1.19146) (end 4.963 -1.19146) (layer Dwgs.User) (width 0.005))
  (fp_line (start 4.883 -1.19146) (end 4.883 -1.25146) (layer Dwgs.User) (width 0.005))
  (fp_line (start 4.963 -1.19146) (end 4.963 -1.25146) (layer Dwgs.User) (width 0.005))
  (fp_line (start 4.883 -1.25146) (end 4.963 -1.25146) (layer Dwgs.User) (width 0.005))
  (fp_line (start 4.883 -0.87946) (end 4.963 -0.87946) (layer Dwgs.User) (width 0.005))
  (fp_line (start 4.883 -0.87946) (end 4.883 -0.93946) (layer Dwgs.User) (width 0.005))
  (fp_line (start 4.963 -0.87946) (end 4.963 -0.93946) (layer Dwgs.User) (width 0.005))
  (fp_line (start 4.883 -0.93946) (end 4.963 -0.93946) (layer Dwgs.User) (width 0.005))
  (fp_line (start 4.883 -1.97035) (end 4.963 -1.97035) (layer Dwgs.User) (width 0.005))
  (fp_line (start 4.883 -1.97035) (end 4.883 -2.03035) (layer Dwgs.User) (width 0.005))
  (fp_line (start 4.963 -1.97035) (end 4.963 -2.03035) (layer Dwgs.User) (width 0.005))
  (fp_line (start 4.883 -2.03035) (end 4.963 -2.03035) (layer Dwgs.User) (width 0.005))
  (fp_line (start 4.883 -1.81596) (end 4.963 -1.81596) (layer Dwgs.User) (width 0.005))
  (fp_line (start 4.883 -1.81596) (end 4.883 -1.87596) (layer Dwgs.User) (width 0.005))
  (fp_line (start 4.963 -1.81596) (end 4.963 -1.87596) (layer Dwgs.User) (width 0.005))
  (fp_line (start 4.883 -1.87596) (end 4.963 -1.87596) (layer Dwgs.User) (width 0.005))
  (fp_line (start 4.883 -2.18235) (end 4.963 -2.18235) (layer Dwgs.User) (width 0.005))
  (fp_line (start 4.883 -2.18235) (end 4.883 -2.24235) (layer Dwgs.User) (width 0.005))
  (fp_line (start 4.963 -2.18235) (end 4.963 -2.24235) (layer Dwgs.User) (width 0.005))
  (fp_line (start 4.883 -2.24235) (end 4.963 -2.24235) (layer Dwgs.User) (width 0.005))
  (fp_line (start 4.883 -2.07635) (end 4.963 -2.07635) (layer Dwgs.User) (width 0.005))
  (fp_line (start 4.883 -2.07635) (end 4.883 -2.13635) (layer Dwgs.User) (width 0.005))
  (fp_line (start 4.963 -2.07635) (end 4.963 -2.13635) (layer Dwgs.User) (width 0.005))
  (fp_line (start 4.883 -2.13635) (end 4.963 -2.13635) (layer Dwgs.User) (width 0.005))
  (fp_line (start 1.637 -4.883) (end 1.697 -4.883) (layer Dwgs.User) (width 0.005))
  (fp_line (start 1.637 -4.883) (end 1.637 -4.963) (layer Dwgs.User) (width 0.005))
  (fp_line (start 1.697 -4.883) (end 1.697 -4.963) (layer Dwgs.User) (width 0.005))
  (fp_line (start 1.637 -4.963) (end 1.697 -4.963) (layer Dwgs.User) (width 0.005))
  (fp_line (start 0.68222 -4.883) (end 0.74222 -4.883) (layer Dwgs.User) (width 0.005))
  (fp_line (start 0.68222 -4.883) (end 0.68222 -4.963) (layer Dwgs.User) (width 0.005))
  (fp_line (start 0.74222 -4.883) (end 0.74222 -4.963) (layer Dwgs.User) (width 0.005))
  (fp_line (start 0.68222 -4.963) (end 0.74222 -4.963) (layer Dwgs.User) (width 0.005))
  (fp_line (start 1.15461 -4.883) (end 1.21461 -4.883) (layer Dwgs.User) (width 0.005))
  (fp_line (start 1.15461 -4.883) (end 1.15461 -4.963) (layer Dwgs.User) (width 0.005))
  (fp_line (start 1.21461 -4.883) (end 1.21461 -4.963) (layer Dwgs.User) (width 0.005))
  (fp_line (start 1.15461 -4.963) (end 1.21461 -4.963) (layer Dwgs.User) (width 0.005))
  (fp_line (start 0.78822 -4.883) (end 0.84822 -4.883) (layer Dwgs.User) (width 0.005))
  (fp_line (start 0.78822 -4.883) (end 0.78822 -4.963) (layer Dwgs.User) (width 0.005))
  (fp_line (start 0.84822 -4.883) (end 0.84822 -4.963) (layer Dwgs.User) (width 0.005))
  (fp_line (start 0.78822 -4.963) (end 0.84822 -4.963) (layer Dwgs.User) (width 0.005))
  (fp_line (start 1.26061 -4.883) (end 1.32061 -4.883) (layer Dwgs.User) (width 0.005))
  (fp_line (start 1.26061 -4.883) (end 1.26061 -4.963) (layer Dwgs.User) (width 0.005))
  (fp_line (start 1.32061 -4.883) (end 1.32061 -4.963) (layer Dwgs.User) (width 0.005))
  (fp_line (start 1.26061 -4.963) (end 1.32061 -4.963) (layer Dwgs.User) (width 0.005))
  (fp_line (start 1.36661 -4.883) (end 1.42661 -4.883) (layer Dwgs.User) (width 0.005))
  (fp_line (start 1.36661 -4.883) (end 1.36661 -4.963) (layer Dwgs.User) (width 0.005))
  (fp_line (start 1.42661 -4.883) (end 1.42661 -4.963) (layer Dwgs.User) (width 0.005))
  (fp_line (start 1.36661 -4.963) (end 1.42661 -4.963) (layer Dwgs.User) (width 0.005))
  (fp_line (start 1.00022 -4.883) (end 1.06022 -4.883) (layer Dwgs.User) (width 0.005))
  (fp_line (start 1.00022 -4.883) (end 1.00022 -4.963) (layer Dwgs.User) (width 0.005))
  (fp_line (start 1.06022 -4.883) (end 1.06022 -4.963) (layer Dwgs.User) (width 0.005))
  (fp_line (start 1.00022 -4.963) (end 1.06022 -4.963) (layer Dwgs.User) (width 0.005))
  (fp_line (start 1.531 -4.883) (end 1.591 -4.883) (layer Dwgs.User) (width 0.005))
  (fp_line (start 1.531 -4.883) (end 1.531 -4.963) (layer Dwgs.User) (width 0.005))
  (fp_line (start 1.591 -4.883) (end 1.591 -4.963) (layer Dwgs.User) (width 0.005))
  (fp_line (start 1.531 -4.963) (end 1.591 -4.963) (layer Dwgs.User) (width 0.005))
  (fp_line (start 0.89422 -4.883) (end 0.95422 -4.883) (layer Dwgs.User) (width 0.005))
  (fp_line (start 0.89422 -4.883) (end 0.89422 -4.963) (layer Dwgs.User) (width 0.005))
  (fp_line (start 0.95422 -4.883) (end 0.95422 -4.963) (layer Dwgs.User) (width 0.005))
  (fp_line (start 0.89422 -4.963) (end 0.95422 -4.963) (layer Dwgs.User) (width 0.005))
  (fp_line (start -4.3 -7.1) (end -4.3 2.5) (layer F.SilkS) (width 0.1))
  (fp_line (start 8.5 -7.1) (end -4.3 -7.1) (layer F.SilkS) (width 0.1))
  (fp_line (start 8.5 2.5) (end 8.5 -7.1) (layer F.SilkS) (width 0.1))
  (fp_line (start -4.3 2.5) (end 8.5 2.5) (layer F.SilkS) (width 0.1))
  (pad 0 smd circle (at 3.2 -4) (size 0.5 0.5) (layers F.Cu F.Paste F.Mask))
  (pad 0 smd circle (at 4 -4) (size 0.5 0.5) (layers F.Cu F.Paste F.Mask))
  (pad 0 smd circle (at 2.4 -4) (size 0.5 0.5) (layers F.Cu F.Paste F.Mask))
  (pad 0 smd circle (at 1.6 -4) (size 0.5 0.5) (layers F.Cu F.Paste F.Mask))
  (pad 0 smd circle (at 0.8 -4) (size 0.5 0.5) (layers F.Cu F.Paste F.Mask))
  (pad 0 smd circle (at 0.8 -3.2) (size 0.5 0.5) (layers F.Cu F.Paste F.Mask))
  (pad 0 smd circle (at 1.6 -3.2) (size 0.5 0.5) (layers F.Cu F.Paste F.Mask))
  (pad 0 smd circle (at 2.4 -3.2) (size 0.5 0.5) (layers F.Cu F.Paste F.Mask))
  (pad 0 smd circle (at 3.2 -3.2) (size 0.5 0.5) (layers F.Cu F.Paste F.Mask))
  (pad 0 smd circle (at 4 -3.2) (size 0.5 0.5) (layers F.Cu F.Paste F.Mask))
  (pad 0 smd circle (at 2.4 -2.4) (size 0.5 0.5) (layers F.Cu F.Paste F.Mask))
  (pad 0 smd circle (at 3.2 -2.4) (size 0.5 0.5) (layers F.Cu F.Paste F.Mask))
  (pad 0 smd circle (at 1.6 -2.4) (size 0.5 0.5) (layers F.Cu F.Paste F.Mask))
  (pad 0 smd circle (at 0.8 -2.4) (size 0.5 0.5) (layers F.Cu F.Paste F.Mask))
  (pad 0 smd circle (at 0.8 -1.6) (size 0.5 0.5) (layers F.Cu F.Paste F.Mask))
  (pad 0 smd circle (at 1.6 -1.6) (size 0.5 0.5) (layers F.Cu F.Paste F.Mask))
  (pad 0 smd circle (at 2.4 -1.6) (size 0.5 0.5) (layers F.Cu F.Paste F.Mask))
  (pad 0 smd circle (at 4 -1.6) (size 0.5 0.5) (layers F.Cu F.Paste F.Mask))
  (pad 0 smd circle (at 4 -2.4) (size 0.5 0.5) (layers F.Cu F.Paste F.Mask))
  (pad 0 smd circle (at 3.2 -1.6) (size 0.5 0.5) (layers F.Cu F.Paste F.Mask))
  (pad 0 smd circle (at 4 -0.8) (size 0.5 0.5) (layers F.Cu F.Paste F.Mask))
  (pad 0 smd circle (at 3.2 -0.8) (size 0.5 0.5) (layers F.Cu F.Paste F.Mask))
  (pad 0 smd circle (at 2.4 -0.8) (size 0.5 0.5) (layers F.Cu F.Paste F.Mask))
  (pad 0 smd circle (at 1.6 -0.8) (size 0.5 0.5) (layers F.Cu F.Paste F.Mask))
  (pad 0 smd rect (at 2.5 -2.5) (size 5 5) (layers F.Cu F.Paste F.Mask))
  (pad 1 smd rect (at 0.28 1.15 90) (size 0.3 0.15) (layers F.Cu F.Paste F.Mask))
  (pad 2 smd roundrect (at 0.38 2.26 90) (size 0.3 0.3) (layers F.Cu F.Paste F.Mask) (roundrect_rratio 0.25))
  (pad 3 smd roundrect (at 0.5 1.85 90) (size 0.3 0.15) (layers F.Cu F.Paste F.Mask) (roundrect_rratio 0.25))
  (pad 1 smd rect (at 0.6 1.15 90) (size 0.3 0.15) (layers F.Cu F.Paste F.Mask))
  (pad 3 smd rect (at 0.73 1.85 90) (size 0.3 0.15) (layers F.Cu F.Paste F.Mask))
  (pad 3 smd rect (at 0.83 1.85 90) (size 0.3 0.15) (layers F.Cu F.Paste F.Mask))
  (pad 1 smd rect (at 0.94 1.15 90) (size 0.3 0.15) (layers F.Cu F.Paste F.Mask))
  (pad 1 smd roundrect (at 1.04 1.15 90) (size 0.3 0.15) (layers F.Cu F.Paste F.Mask) (roundrect_rratio 0.25))
  (pad 3 smd rect (at 1.14 1.85 90) (size 0.3 0.15) (layers F.Cu F.Paste F.Mask))
  (pad 3 smd roundrect (at 1.22 1.85 90) (size 0.3 0.15) (layers F.Cu F.Paste F.Mask) (roundrect_rratio 0.25))
  (pad 1 smd rect (at 1.36 1.15 90) (size 0.3 0.15) (layers F.Cu F.Paste F.Mask))
  (pad 1 smd roundrect (at 1.47 1.15 90) (size 0.3 0.15) (layers F.Cu F.Paste F.Mask) (roundrect_rratio 0.25))
  (pad 13 smd roundrect (at 1.57 1.85 90) (size 0.3 0.15) (layers F.Cu F.Paste F.Mask) (roundrect_rratio 0.25))
  (pad 14 smd roundrect (at 1.65 2.25 90) (size 0.3 0.12) (layers F.Cu F.Paste F.Mask) (roundrect_rratio 0.25))
  (pad 15 smd roundrect (at 1.78 1.15 90) (size 0.3 0.15) (layers F.Cu F.Paste F.Mask) (roundrect_rratio 0.25))
  (pad 16 smd roundrect (at 1.88 1.85 90) (size 0.3 0.15) (layers F.Cu F.Paste F.Mask) (roundrect_rratio 0.25))
  (pad 17 smd roundrect (at 2.05 1.15 90) (size 0.3 0.15) (layers F.Cu F.Paste F.Mask) (roundrect_rratio 0.25))
  (pad 18 smd roundrect (at 2.1 2.25 90) (size 0.3 0.12) (layers F.Cu F.Paste F.Mask) (roundrect_rratio 0.25))
  (pad 19 smd roundrect (at 2.21 1.85 90) (size 0.3 0.15) (layers F.Cu F.Paste F.Mask) (roundrect_rratio 0.25))
  (pad 20 smd roundrect (at 2.325 1.15 90) (size 0.3 0.15) (layers F.Cu F.Paste F.Mask) (roundrect_rratio 0.25))
  (pad 20 smd rect (at 2.44 1.15 90) (size 0.3 0.15) (layers F.Cu F.Paste F.Mask))
  (pad 22 smd roundrect (at 2.54 1.85 90) (size 0.3 0.15) (layers F.Cu F.Paste F.Mask) (roundrect_rratio 0.25))
  (pad 22 smd rect (at 2.64 1.85 90) (size 0.3 0.15) (layers F.Cu F.Paste F.Mask))
  (pad 22 smd rect (at 2.74 1.85 90) (size 0.3 0.15) (layers F.Cu F.Paste F.Mask))
  (pad 22 smd roundrect (at 2.84 1.85 90) (size 0.3 0.15) (layers F.Cu F.Paste F.Mask) (roundrect_rratio 0.25))
  (pad 20 smd rect (at 2.95 1.15 90) (size 0.3 0.15) (layers F.Cu F.Paste F.Mask))
  (pad 20 smd roundrect (at 3.05 1.15 90) (size 0.3 0.15) (layers F.Cu F.Paste F.Mask) (roundrect_rratio 0.25))
  (pad 28 smd roundrect (at 3.41 1.15 90) (size 0.3 0.15) (layers F.Cu F.Paste F.Mask) (roundrect_rratio 0.25))
  (pad 28 smd rect (at 3.51 1.15 90) (size 0.3 0.15) (layers F.Cu F.Paste F.Mask))
  (pad 30 smd roundrect (at 3.61 1.85 90) (size 0.3 0.15) (layers F.Cu F.Paste F.Mask) (roundrect_rratio 0.25))
  (pad 30 smd rect (at 3.76 1.85 90) (size 0.3 0.25) (layers F.Cu F.Paste F.Mask))
  (pad 28 smd roundrect (at 3.81 1.15 90) (size 0.3 0.15) (layers F.Cu F.Paste F.Mask) (roundrect_rratio 0.25))
  (pad 30 smd rect (at 3.91 1.85 90) (size 0.3 0.15) (layers F.Cu F.Paste F.Mask))
  (pad 30 smd roundrect (at 4.01 1.85 90) (size 0.3 0.15) (layers F.Cu F.Paste F.Mask) (roundrect_rratio 0.25))
  (pad 35 smd roundrect (at 4.09 2.25 90) (size 0.3 0.2) (layers F.Cu F.Paste F.Mask) (roundrect_rratio 0.25))
  (pad 36 smd roundrect (at 4.37 2.25 90) (size 0.3 0.15) (layers F.Cu F.Paste F.Mask) (roundrect_rratio 0.25))
  (pad 37 smd roundrect (at 4.62 2.25 90) (size 0.3 0.15) (layers F.Cu F.Paste F.Mask) (roundrect_rratio 0.25))
  (pad 38 smd roundrect (at 4.87 2.25 90) (size 0.3 0.15) (layers F.Cu F.Paste F.Mask) (roundrect_rratio 0.25))
  (pad 39 smd roundrect (at 5.12 2.25 90) (size 0.3 0.15) (layers F.Cu F.Paste F.Mask) (roundrect_rratio 0.25))
  (pad 40 smd roundrect (at 5.37 2.25 90) (size 0.3 0.15) (layers F.Cu F.Paste F.Mask) (roundrect_rratio 0.25))
  (pad 41 smd rect (at 6.8 0.22) (size 0.3 0.15) (layers F.Cu F.Paste F.Mask))
  (pad 42 smd roundrect (at 6.2 -0.21) (size 0.3 0.15) (layers F.Cu F.Paste F.Mask) (roundrect_rratio 0.25))
  (pad 43 smd roundrect (at 8.2 0.4) (size 0.3 0.12) (layers F.Cu F.Paste F.Mask) (roundrect_rratio 0.25))
  (pad 44 smd roundrect (at 8.2 0.15) (size 0.3 0.12) (layers F.Cu F.Paste F.Mask) (roundrect_rratio 0.25))
  (pad 45 smd roundrect (at 8.2 -0.1) (size 0.3 0.12) (layers F.Cu F.Paste F.Mask) (roundrect_rratio 0.25))
  (pad 46 smd roundrect (at 8.2 -0.35) (size 0.3 0.12) (layers F.Cu F.Paste F.Mask) (roundrect_rratio 0.25))
  (pad 47 smd roundrect (at 8.2 -0.6) (size 0.3 0.12) (layers F.Cu F.Paste F.Mask) (roundrect_rratio 0.25))
  (pad 48 smd roundrect (at 8.2 -0.85) (size 0.3 0.12) (layers F.Cu F.Paste F.Mask) (roundrect_rratio 0.25))
  (pad 49 smd roundrect (at 8.2 -1.1) (size 0.3 0.12) (layers F.Cu F.Paste F.Mask) (roundrect_rratio 0.25))
  (pad 50 smd roundrect (at 8.2 -1.35) (size 0.3 0.12) (layers F.Cu F.Paste F.Mask) (roundrect_rratio 0.25))
  (pad 51 smd roundrect (at 8.2 -1.6) (size 0.3 0.12) (layers F.Cu F.Paste F.Mask) (roundrect_rratio 0.25))
  (pad 52 smd roundrect (at 8.2 -1.85) (size 0.3 0.12) (layers F.Cu F.Paste F.Mask) (roundrect_rratio 0.25))
  (pad 42 smd rect (at 6.2 -1.63) (size 0.3 0.15) (layers F.Cu F.Paste F.Mask))
  (pad 41 smd rect (at 6.8 -1.75) (size 0.3 0.15) (layers F.Cu F.Paste F.Mask))
  (pad 41 smd rect (at 6.8 -1.85) (size 0.3 0.15) (layers F.Cu F.Paste F.Mask))
  (pad 42 smd rect (at 6.2 -2) (size 0.3 0.15) (layers F.Cu F.Paste F.Mask))
  (pad 41 smd rect (at 6.8 -2.1) (size 0.3 0.15) (layers F.Cu F.Paste F.Mask))
  (pad 42 smd roundrect (at 6.2 -2.2) (size 0.3 0.15) (layers F.Cu F.Paste F.Mask) (roundrect_rratio 0.25))
  (pad 59 smd roundrect (at 8.2 -2.35) (size 0.3 0.12) (layers F.Cu F.Paste F.Mask) (roundrect_rratio 0.25))
  (pad 60 smd roundrect (at 8.2 -2.57) (size 0.3 0.12) (layers F.Cu F.Paste F.Mask) (roundrect_rratio 0.25))
  (pad 61 smd roundrect (at 8.2 -2.79) (size 0.3 0.12) (layers F.Cu F.Paste F.Mask) (roundrect_rratio 0.25))
  (pad 62 smd roundrect (at 8.2 -3.01) (size 0.3 0.12) (layers F.Cu F.Paste F.Mask) (roundrect_rratio 0.25))
  (pad 63 smd roundrect (at 8.2 -3.23) (size 0.3 0.12) (layers F.Cu F.Paste F.Mask) (roundrect_rratio 0.25))
  (pad 64 smd roundrect (at 8.2 -3.45) (size 0.3 0.12) (layers F.Cu F.Paste F.Mask) (roundrect_rratio 0.25))
  (pad 65 smd roundrect (at 8.2 -3.67) (size 0.3 0.12) (layers F.Cu F.Paste F.Mask) (roundrect_rratio 0.25))
  (pad 66 smd roundrect (at 7.4 -3.6) (size 0.3 0.15) (layers F.Cu F.Paste F.Mask) (roundrect_rratio 0.25))
  (pad 67 smd roundrect (at 8.2 -3.92) (size 0.3 0.15) (layers F.Cu F.Paste F.Mask) (roundrect_rratio 0.25))
  (pad 68 smd roundrect (at 7.4 -3.85) (size 0.3 0.15) (layers F.Cu F.Paste F.Mask) (roundrect_rratio 0.25))
  (pad 69 smd roundrect (at 8.2 -4.17) (size 0.3 0.15) (layers F.Cu F.Paste F.Mask) (roundrect_rratio 0.25))
  (pad 70 smd roundrect (at 7.4 -4.1) (size 0.3 0.15) (layers F.Cu F.Paste F.Mask) (roundrect_rratio 0.25))
  (pad 41 smd rect (at 6.8 -4.1) (size 0.3 0.15) (layers F.Cu F.Paste F.Mask))
  (pad 72 smd roundrect (at 7.4 -4.45) (size 0.3 0.3) (layers F.Cu F.Paste F.Mask) (roundrect_rratio 0.25))
  (pad 41 smd rect (at 6.8 -4.4) (size 0.3 0.15) (layers F.Cu F.Paste F.Mask))
  (pad 41 smd rect (at 6.8 -4.55) (size 0.3 0.15) (layers F.Cu F.Paste F.Mask))
  (pad 42 smd rect (at 6.2 -4.45) (size 0.3 0.15) (layers F.Cu F.Paste F.Mask))
  (pad 42 smd rect (at 6.2 -4.71) (size 0.3 0.15) (layers F.Cu F.Paste F.Mask))
  (pad 77 smd roundrect (at 5 -6.15 90) (size 0.3 0.15) (layers F.Cu F.Paste F.Mask) (roundrect_rratio 0.25))
  (pad 78 smd roundrect (at 5.05 -6.85 90) (size 0.3 0.3) (layers F.Cu F.Paste F.Mask) (roundrect_rratio 0.25))
  (pad 79 smd roundrect (at 4.71 -6.85 90) (size 0.3 0.15) (layers F.Cu F.Paste F.Mask) (roundrect_rratio 0.25))
  (pad 80 smd roundrect (at 4.46 -6.85 90) (size 0.3 0.15) (layers F.Cu F.Paste F.Mask) (roundrect_rratio 0.25))
  (pad 81 smd roundrect (at 4.21 -6.85 90) (size 0.3 0.15) (layers F.Cu F.Paste F.Mask) (roundrect_rratio 0.25))
  (pad 77 smd rect (at 4.11 -6.15 90) (size 0.3 0.15) (layers F.Cu F.Paste F.Mask))
  (pad 77 smd roundrect (at 4.01 -6.15 90) (size 0.3 0.15) (layers F.Cu F.Paste F.Mask) (roundrect_rratio 0.25))
  (pad 84 smd roundrect (at 3.9116 -6.85 90) (size 0.3 0.15) (layers F.Cu F.Paste F.Mask) (roundrect_rratio 0.25))
  (pad 84 smd roundrect (at 3.81 -6.85 90) (size 0.3 0.15) (layers F.Cu F.Paste F.Mask) (roundrect_rratio 0.25))
  (pad 86 smd roundrect (at 2.56 -6.85 90) (size 0.3 0.15) (layers F.Cu F.Paste F.Mask) (roundrect_rratio 0.25))
  (pad 86 smd rect (at 2.46 -6.85 90) (size 0.3 0.15) (layers F.Cu F.Paste F.Mask))
  (pad 88 smd roundrect (at 2.33 -6.15 90) (size 0.3 0.15) (layers F.Cu F.Paste F.Mask) (roundrect_rratio 0.25))
  (pad 88 smd rect (at 2.25 -6.15 90) (size 0.3 0.15) (layers F.Cu F.Paste F.Mask))
  (pad 88 smd rect (at 2.13 -6.15 90) (size 0.3 0.15) (layers F.Cu F.Paste F.Mask))
  (pad 88 smd rect (at 2.03 -6.15 90) (size 0.3 0.15) (layers F.Cu F.Paste F.Mask))
  (pad 86 smd rect (at 1.93 -6.85 90) (size 0.3 0.15) (layers F.Cu F.Paste F.Mask))
  (pad 86 smd roundrect (at 1.85 -6.85 90) (size 0.3 0.15) (layers F.Cu F.Paste F.Mask) (roundrect_rratio 0.25))
  (pad 88 smd roundrect (at 1.67 -6.15 90) (size 0.3 0.15) (layers F.Cu F.Paste F.Mask) (roundrect_rratio 0.25))
  (pad 95 smd roundrect (at 1.58 -6.85 90) (size 0.3 0.15) (layers F.Cu F.Paste F.Mask) (roundrect_rratio 0.25))
  (pad 96 smd roundrect (at 1.4 -6.15 90) (size 0.3 0.15) (layers F.Cu F.Paste F.Mask) (roundrect_rratio 0.25))
  (pad 97 smd roundrect (at 1.3 -6.85 90) (size 0.3 0.15) (layers F.Cu F.Paste F.Mask) (roundrect_rratio 0.25))
  (pad 97 smd rect (at 1.2 -6.85 90) (size 0.3 0.15) (layers F.Cu F.Paste F.Mask))
  (pad 99 smd roundrect (at 1.01 -6.15 90) (size 0.3 0.15) (layers F.Cu F.Paste F.Mask) (roundrect_rratio 0.25))
  (pad 99 smd rect (at 0.91 -6.15 90) (size 0.3 0.15) (layers F.Cu F.Paste F.Mask))
  (pad 97 smd rect (at 0.82 -6.85 90) (size 0.3 0.15) (layers F.Cu F.Paste F.Mask))
  (pad 97 smd roundrect (at 0.71 -6.85 90) (size 0.3 0.15) (layers F.Cu F.Paste F.Mask) (roundrect_rratio 0.25))
  (pad 99 smd rect (at 0.61 -6.15 90) (size 0.3 0.15) (layers F.Cu F.Paste F.Mask))
  (pad 99 smd rect (at 0.51 -6.15 90) (size 0.3 0.15) (layers F.Cu F.Paste F.Mask))
  (pad 105 smd roundrect (at 0.38 -6.85 90) (size 0.3 0.15) (layers F.Cu F.Paste F.Mask) (roundrect_rratio 0.25))
  (pad 99 smd roundrect (at 0.28 -6.15 90) (size 0.3 0.15) (layers F.Cu F.Paste F.Mask) (roundrect_rratio 0.25))
  (pad 107 smd roundrect (at -3.51 -6.65 333) (size 0.3 0.12) (layers F.Cu F.Paste F.Mask) (roundrect_rratio 0.25))
  (pad 108 smd roundrect (at -3.61 -6.43 333) (size 0.3 0.12) (layers F.Cu F.Paste F.Mask) (roundrect_rratio 0.25))
  (pad 109 smd roundrect (at -3.7 -6.21 337) (size 0.3 0.12) (layers F.Cu F.Paste F.Mask) (roundrect_rratio 0.25))
  (pad 110 smd roundrect (at -3.79 -5.98 339) (size 0.3 0.12) (layers F.Cu F.Paste F.Mask) (roundrect_rratio 0.25))
  (pad 111 smd roundrect (at -3.87 -5.75 341) (size 0.3 0.12) (layers F.Cu F.Paste F.Mask) (roundrect_rratio 0.25))
  (pad 112 smd roundrect (at -3.94 -5.52 343) (size 0.3 0.12) (layers F.Cu F.Paste F.Mask) (roundrect_rratio 0.25))
  (pad 113 smd roundrect (at -4 -5.29 345) (size 0.3 0.12) (layers F.Cu F.Paste F.Mask) (roundrect_rratio 0.25))
  (pad 114 smd roundrect (at -4 -5.02) (size 0.3 0.12) (layers F.Cu F.Paste F.Mask) (roundrect_rratio 0.25))
  (pad 115 smd roundrect (at -4 -4.8) (size 0.3 0.12) (layers F.Cu F.Paste F.Mask) (roundrect_rratio 0.25))
  (pad 116 smd roundrect (at -4 -4.58) (size 0.3 0.12) (layers F.Cu F.Paste F.Mask) (roundrect_rratio 0.25))
  (pad 117 smd roundrect (at -4 -4.36) (size 0.3 0.12) (layers F.Cu F.Paste F.Mask) (roundrect_rratio 0.25))
  (pad 118 smd roundrect (at -4 -4.14) (size 0.3 0.12) (layers F.Cu F.Paste F.Mask) (roundrect_rratio 0.25))
  (pad 119 smd roundrect (at -4 -3.92) (size 0.3 0.12) (layers F.Cu F.Paste F.Mask) (roundrect_rratio 0.25))
  (pad 120 smd roundrect (at -4 -3.7) (size 0.3 0.12) (layers F.Cu F.Paste F.Mask) (roundrect_rratio 0.25))
  (pad 121 smd roundrect (at -4 -3.48) (size 0.3 0.12) (layers F.Cu F.Paste F.Mask) (roundrect_rratio 0.25))
  (pad 122 smd roundrect (at -4 -3.26) (size 0.3 0.12) (layers F.Cu F.Paste F.Mask) (roundrect_rratio 0.25))
  (pad 123 smd roundrect (at -4 -3.04) (size 0.3 0.12) (layers F.Cu F.Paste F.Mask) (roundrect_rratio 0.25))
  (pad 124 smd roundrect (at -4 -2.82) (size 0.3 0.12) (layers F.Cu F.Paste F.Mask) (roundrect_rratio 0.25))
  (pad 125 smd rect (at -1.8 -2.7) (size 0.3 0.15) (layers F.Cu F.Paste F.Mask))
  (pad 126 smd rect (at -1.2 -2.61) (size 0.3 0.15) (layers F.Cu F.Paste F.Mask))
  (pad 127 smd rect (at -2.4 -2.5) (size 0.3 0.15) (layers F.Cu F.Paste F.Mask))
  (pad 126 smd rect (at -1.2 -2.39) (size 0.3 0.15) (layers F.Cu F.Paste F.Mask))
  (pad 125 smd rect (at -1.8 -2.29) (size 0.3 0.15) (layers F.Cu F.Paste F.Mask))
  (pad 130 smd roundrect (at -4 -2.19) (size 0.3 0.12) (layers F.Cu F.Paste F.Mask) (roundrect_rratio 0.25))
  (pad 131 smd roundrect (at -4 -1.97) (size 0.3 0.12) (layers F.Cu F.Paste F.Mask) (roundrect_rratio 0.25))
  (pad 132 smd roundrect (at -4 -1.75) (size 0.3 0.12) (layers F.Cu F.Paste F.Mask) (roundrect_rratio 0.25))
  (pad 133 smd roundrect (at -4 -1.53) (size 0.3 0.12) (layers F.Cu F.Paste F.Mask) (roundrect_rratio 0.25))
  (pad 134 smd roundrect (at -4 -1.31) (size 0.3 0.12) (layers F.Cu F.Paste F.Mask) (roundrect_rratio 0.25))
  (pad 135 smd roundrect (at -4 -1.09) (size 0.3 0.12) (layers F.Cu F.Paste F.Mask) (roundrect_rratio 0.25))
  (pad 136 smd roundrect (at -4 -0.87) (size 0.3 0.12) (layers F.Cu F.Paste F.Mask) (roundrect_rratio 0.25))
  (pad 137 smd roundrect (at -4 -0.65) (size 0.3 0.12) (layers F.Cu F.Paste F.Mask) (roundrect_rratio 0.25))
  (pad 138 smd roundrect (at -4 -0.43) (size 0.3 0.12) (layers F.Cu F.Paste F.Mask) (roundrect_rratio 0.25))
  (pad 139 smd roundrect (at -4 -0.21) (size 0.3 0.12) (layers F.Cu F.Paste F.Mask) (roundrect_rratio 0.25))
  (pad 140 smd roundrect (at -4 0.01) (size 0.3 0.12) (layers F.Cu F.Paste F.Mask) (roundrect_rratio 0.25))
  (pad 141 smd roundrect (at -4 0.28 15) (size 0.3 0.12) (layers F.Cu F.Paste F.Mask) (roundrect_rratio 0.25))
  (pad 142 smd roundrect (at -3.94 0.51 17) (size 0.3 0.12) (layers F.Cu F.Paste F.Mask) (roundrect_rratio 0.25))
  (pad 143 smd roundrect (at -3.87 0.74 19) (size 0.3 0.12) (layers F.Cu F.Paste F.Mask) (roundrect_rratio 0.25))
  (pad 144 smd roundrect (at -3.79 0.97 21) (size 0.3 0.12) (layers F.Cu F.Paste F.Mask) (roundrect_rratio 0.25))
  (pad 145 smd roundrect (at -3.7 1.2 23) (size 0.3 0.12) (layers F.Cu F.Paste F.Mask) (roundrect_rratio 0.25))
  (pad 146 smd roundrect (at -3.61 1.42 25) (size 0.3 0.12) (layers F.Cu F.Paste F.Mask) (roundrect_rratio 0.25))
  (pad 147 smd roundrect (at -3.51 1.64 27) (size 0.3 0.12) (layers F.Cu F.Paste F.Mask) (roundrect_rratio 0.25))
  (pad 3 smd roundrect (at 0.6 1.85 90) (size 0.3 1.2) (layers F.Cu F.Paste F.Mask) (roundrect_rratio 0.25))
  (pad 1 smd roundrect (at 0.7 1.15 90) (size 0.3 1.4) (layers F.Cu F.Paste F.Mask) (roundrect_rratio 0.25))
  (pad 20 smd roundrect (at 2.7 1.15 90) (size 0.3 0.6) (layers F.Cu F.Paste F.Mask) (roundrect_rratio 0.25))
  (pad 28 smd roundrect (at 3.63 1.15 90) (size 0.3 0.5) (layers F.Cu F.Paste F.Mask) (roundrect_rratio 0.25))
  (pad 99 smd rect (at 0.6604 -6.15 90) (size 0.3 0.8) (layers F.Cu F.Paste F.Mask))
  (pad 97 smd rect (at 1.016 -6.85 90) (size 0.3 0.6) (layers F.Cu F.Paste F.Mask))
  (pad 88 smd rect (at 1.9 -6.15 90) (size 0.3 0.5) (layers F.Cu F.Paste F.Mask))
  (pad 86 smd rect (at 2.2352 -6.85 90) (size 0.3 0.6) (layers F.Cu F.Paste F.Mask))
  (pad 42 smd rect (at 6.2 -2.3) (size 0.3 5) (layers F.Cu F.Paste F.Mask))
  (pad 125 smd rect (at -1.8 -2.4892) (size 0.3 0.4) (layers F.Cu F.Paste F.Mask))
  (pad 126 smd rect (at -1.2 -2.4892) (size 0.3 0.4) (layers F.Cu F.Paste F.Mask))
  (pad 41 smd rect (at 6.8 -2.3) (size 0.3 5) (layers F.Cu F.Paste F.Mask))
  (pad 77 smd roundrect (at 4.6 -6.15 90) (size 0.3 1) (layers F.Cu F.Paste F.Mask) (roundrect_rratio 0.25))
  (pad 0 smd circle (at 0.8 -0.8) (size 0.5 0.5) (layers F.Cu F.Paste F.Mask))
)
