(module MPPC (layer F.Cu) (tedit 5DD7FE1F)
  (fp_text reference REF** (at 0 -1.9) (layer F.SilkS)
    (effects (font (size 1 1) (thickness 0.05)))
  )
  (fp_text value MPPC (at 0 -3) (layer F.Fab)
    (effects (font (size 1 1) (thickness 0.05)))
  )
  (fp_line (start -1.925871 0.211575) (end -2.425871 0.211575) (layer F.SilkS) (width 0.08))
  (fp_line (start -2.175871 0.561575) (end -2.175871 0.211575) (layer F.SilkS) (width 0.08))
  (fp_line (start -2.425871 0.211575) (end -2.175871 -0.188425) (layer F.SilkS) (width 0.08))
  (fp_line (start -2.175871 -0.188425) (end -1.925871 0.211575) (layer F.SilkS) (width 0.08))
  (fp_line (start -1.925871 -0.238425) (end -2.425871 -0.238425) (layer F.SilkS) (width 0.08))
  (fp_line (start -2.175871 -0.588425) (end -2.175871 -0.188425) (layer F.SilkS) (width 0.08))
  (fp_line (start -0.65 -0.65) (end 0.65 -0.65) (layer F.CrtYd) (width 0.05))
  (fp_line (start 0.65 -0.65) (end 0.65 0.65) (layer F.CrtYd) (width 0.05))
  (fp_line (start 0.65 0.65) (end -0.65 0.65) (layer F.CrtYd) (width 0.05))
  (fp_line (start -0.65 0.65) (end -0.65 -0.65) (layer F.CrtYd) (width 0.05))
  (fp_line (start -1.6 -1.05) (end 1.05 -1.05) (layer F.SilkS) (width 0.1))
  (fp_line (start 1.05 1.05) (end -1.6 1.05) (layer F.SilkS) (width 0.1))
  (fp_line (start -0.25 0) (end 0.25 0) (layer F.SilkS) (width 0.1))
  (fp_line (start 0 -0.25) (end 0 0.25) (layer F.SilkS) (width 0.1))
  (pad 1 smd roundrect (at 0.85 -0.55) (size 0.8 0.6) (layers F.Cu F.Paste F.Mask) (roundrect_rratio 0.25))
  (pad 2 smd rect (at -1.35 -0.55) (size 0.8 0.6) (layers F.Cu F.Paste F.Mask))
  (pad 3 smd rect (at -1.35 0.55) (size 0.8 0.6) (layers F.Cu F.Paste F.Mask))
  (pad 4 smd rect (at 0.85 0.55) (size 0.8 0.6) (layers F.Cu F.Paste F.Mask))
)
