(module OPA3355 (layer F.Cu) (tedit 60CB4D57)
  (attr smd)
  (fp_text reference REF** (at -1.397 2.413 90) (layer F.SilkS)
    (effects (font (size 1 1) (thickness 0.1)))
  )
  (fp_text value OPA3355 (at 5.207 2.794 90) (layer F.Fab)
    (effects (font (size 1 1) (thickness 0.05)))
  )
  (fp_line (start -0.5 6.75) (end -0.5 -1) (layer F.CrtYd) (width 0.1))
  (fp_line (start 4.5 6.75) (end -0.5 6.75) (layer F.CrtYd) (width 0.1))
  (fp_line (start 4.5 -1) (end 4.5 6.75) (layer F.CrtYd) (width 0.1))
  (fp_line (start -0.5 -1) (end 4.5 -1) (layer F.CrtYd) (width 0.1))
  (fp_circle (center 0.5842 3.9624) (end 1.0414 4.3434) (layer F.SilkS) (width 0.2))
  (fp_line (start -0.0254 4.6228) (end -0.0254 0.9398) (layer F.SilkS) (width 0.1))
  (fp_line (start 3.9116 4.6228) (end -0.0254 4.6228) (layer F.SilkS) (width 0.1))
  (fp_line (start 3.9116 0.9398) (end 3.9116 4.6228) (layer F.SilkS) (width 0.1))
  (fp_line (start 0 0.9398) (end 3.9116 0.9398) (layer F.SilkS) (width 0.1))
  (pad 1 smd rect (at 0 5.6) (size 0.35 1.6) (layers F.Cu F.Paste F.Mask))
  (pad 2 smd rect (at 0.65 5.6) (size 0.35 1.6) (layers F.Cu F.Paste F.Mask))
  (pad 3 smd rect (at 1.3 5.6) (size 0.35 1.6) (layers F.Cu F.Paste F.Mask))
  (pad 4 smd rect (at 1.95 5.6) (size 0.35 1.6) (layers F.Cu F.Paste F.Mask))
  (pad 5 smd rect (at 2.6 5.6) (size 0.35 1.6) (layers F.Cu F.Paste F.Mask))
  (pad 6 smd rect (at 3.25 5.6) (size 0.35 1.6) (layers F.Cu F.Paste F.Mask))
  (pad 7 smd rect (at 3.9 5.6) (size 0.35 1.6) (layers F.Cu F.Paste F.Mask))
  (pad 8 smd rect (at 3.9 0) (size 0.35 1.6) (layers F.Cu F.Paste F.Mask))
  (pad 9 smd rect (at 3.25 0) (size 0.35 1.6) (layers F.Cu F.Paste F.Mask))
  (pad 10 smd rect (at 2.6 0) (size 0.35 1.6) (layers F.Cu F.Paste F.Mask))
  (pad 11 smd rect (at 1.95 0) (size 0.35 1.6) (layers F.Cu F.Paste F.Mask))
  (pad 12 smd rect (at 1.3 0) (size 0.35 1.6) (layers F.Cu F.Paste F.Mask))
  (pad 13 smd rect (at 0.65 0) (size 0.35 1.6) (layers F.Cu F.Paste F.Mask))
  (pad 14 smd rect (at 0 0) (size 0.35 1.6) (layers F.Cu F.Paste F.Mask))
)
