(module R_0603 (layer F.Cu) (tedit 5DA96DEF)
  (descr "Resistor SMD 0603, reflow soldering, Vishay (see dcrcw.pdf)")
  (tags "resistor 0603")
  (attr smd)
  (fp_text reference REF** (at 0 -1.25) (layer F.SilkS)
    (effects (font (size 0.6 0.6) (thickness 0.1)))
  )
  (fp_text value R_0603 (at 0 1.5) (layer F.Fab)
    (effects (font (size 0.6 0.6) (thickness 0.1)))
  )
  (fp_line (start -0.5 -0.675) (end 0.5 -0.675) (layer F.SilkS) (width 0.15))
  (fp_line (start 0.5 0.675) (end -0.5 0.675) (layer F.SilkS) (width 0.15))
  (fp_line (start 1.3 -0.8) (end 1.3 0.8) (layer F.CrtYd) (width 0.05))
  (fp_line (start -1.3 -0.8) (end -1.3 0.8) (layer F.CrtYd) (width 0.05))
  (fp_line (start -1.3 0.8) (end 1.3 0.8) (layer F.CrtYd) (width 0.05))
  (fp_line (start -1.3 -0.8) (end 1.3 -0.8) (layer F.CrtYd) (width 0.05))
  (fp_line (start -0.8 -0.4) (end 0.8 -0.4) (layer F.Fab) (width 0.1))
  (fp_line (start 0.8 -0.4) (end 0.8 0.4) (layer F.Fab) (width 0.1))
  (fp_line (start 0.8 0.4) (end -0.8 0.4) (layer F.Fab) (width 0.1))
  (fp_line (start -0.8 0.4) (end -0.8 -0.4) (layer F.Fab) (width 0.1))
  (pad 2 smd rect (at 0.75 0) (size 0.5 0.9) (layers F.Cu F.Paste F.Mask))
  (pad 1 smd rect (at -0.75 0) (size 0.5 0.9) (layers F.Cu F.Paste F.Mask))
  (model Resistors_SMD.3dshapes/R_0603.wrl
    (at (xyz 0 0 0))
    (scale (xyz 1 1 1))
    (rotate (xyz 0 0 0))
  )
)
