(module SI514 (layer F.Cu) (tedit 580F553B)
  (fp_text reference REF** (at 3.5 0 90) (layer F.SilkS)
    (effects (font (size 1 1) (thickness 0.15)))
  )
  (fp_text value SI514 (at -3.25 0 90) (layer F.Fab)
    (effects (font (size 1 1) (thickness 0.15)))
  )
  (fp_line (start 2.5 2.75) (end 2.5 -2.75) (layer F.SilkS) (width 0.15))
  (fp_line (start 2.5 -2.75) (end -2.5 -2.75) (layer F.SilkS) (width 0.15))
  (fp_line (start -2.5 -2.75) (end -2.5 2.25) (layer F.SilkS) (width 0.15))
  (fp_line (start -2.5 2.25) (end -2 2.75) (layer F.SilkS) (width 0.15))
  (fp_line (start -2 2.75) (end 2.5 2.75) (layer F.SilkS) (width 0.15))
  (pad 1 smd rect (at -1.27 1.3 90) (size 1.7 0.8) (layers F.Cu F.Paste F.Mask))
  (pad 2 smd rect (at 0 1.3 90) (size 1.7 0.8) (layers F.Cu F.Paste F.Mask))
  (pad 3 smd rect (at 1.27 1.3 90) (size 1.7 0.8) (layers F.Cu F.Paste F.Mask))
  (pad 4 smd rect (at 1.27 -1.3 90) (size 1.7 0.8) (layers F.Cu F.Paste F.Mask))
  (pad 5 smd rect (at 0 -1.3 90) (size 1.7 0.8) (layers F.Cu F.Paste F.Mask))
  (pad 6 smd rect (at -1.27 -1.3 90) (size 1.7 0.8) (layers F.Cu F.Paste F.Mask))
)
