(module SOIC-8 (layer F.Cu) (tedit 5C41E5A6)
  (attr smd)
  (fp_text reference REF** (at -2.65 0 90) (layer F.SilkS)
    (effects (font (size 1 1) (thickness 0.15)))
  )
  (fp_text value SOIC-8 (at 2.5146 0 90) (layer F.Fab)
    (effects (font (size 1 1) (thickness 0.15)))
  )
  (fp_line (start -1.8 3.7) (end -1.8 -3.7) (layer F.CrtYd) (width 0.05))
  (fp_line (start 1.8 3.7) (end -1.8 3.7) (layer F.CrtYd) (width 0.05))
  (fp_line (start 1.8 -3.7) (end 1.8 3.7) (layer F.CrtYd) (width 0.05))
  (fp_line (start -1.8 -3.7) (end 1.8 -3.7) (layer F.CrtYd) (width 0.05))
  (fp_line (start 1.65 3.55) (end -0.85 3.55) (layer F.SilkS) (width 0.15))
  (fp_line (start 1.65 -3.55) (end 1.65 3.55) (layer F.SilkS) (width 0.15))
  (fp_line (start -1.65 -3.55) (end 1.65 -3.55) (layer F.SilkS) (width 0.15))
  (fp_line (start -1.65 2.75) (end -1.65 -3.55) (layer F.SilkS) (width 0.15))
  (fp_line (start -0.85 3.55) (end -1.65 2.75) (layer F.SilkS) (width 0.15))
  (pad 4 smd rect (at 0.975 2.25) (size 0.35 1.6) (layers F.Cu F.Paste F.Mask))
  (pad 5 smd rect (at 0.975 -2.25) (size 0.35 1.6) (layers F.Cu F.Paste F.Mask))
  (pad 3 smd rect (at 0.325 2.25) (size 0.35 1.6) (layers F.Cu F.Paste F.Mask))
  (pad 6 smd rect (at 0.325 -2.25) (size 0.35 1.6) (layers F.Cu F.Paste F.Mask))
  (pad 2 smd rect (at -0.325 2.25) (size 0.35 1.6) (layers F.Cu F.Paste F.Mask))
  (pad 7 smd rect (at -0.325 -2.25) (size 0.35 1.6) (layers F.Cu F.Paste F.Mask))
  (pad 1 smd rect (at -0.975 2.25) (size 0.35 1.6) (layers F.Cu F.Paste F.Mask))
  (pad 8 smd rect (at -0.975 -2.25) (size 0.35 1.6) (layers F.Cu F.Paste F.Mask))
)
