(module TPS7A7001 (layer F.Cu) (tedit 5DBD948D)
  (fp_text reference REF** (at -3.5 0 90) (layer F.SilkS)
    (effects (font (size 1 1) (thickness 0.15)))
  )
  (fp_text value TPS7A7001 (at 3.5 0 90) (layer F.Fab)
    (effects (font (size 1 1) (thickness 0.15)))
  )
  (fp_poly (pts (xy -1.524 -1.27) (xy 1.778 -1.27) (xy 1.778 1.27) (xy -1.778 1.27)
    (xy -1.778 -1.27) (xy -1.6256 -1.27)) (layer B.Mask) (width 0.15))
  (fp_line (start 2.6 2.75) (end 2.6 -2.75) (layer F.SilkS) (width 0.15))
  (fp_line (start -2.6 3.45) (end -2.6 -2.75) (layer F.SilkS) (width 0.15))
  (fp_line (start 2.75 3.55) (end 2.75 -3.55) (layer F.CrtYd) (width 0.05))
  (fp_line (start -2.75 3.55) (end -2.75 -3.55) (layer F.CrtYd) (width 0.05))
  (fp_line (start -2.75 -3.55) (end 2.75 -3.55) (layer F.CrtYd) (width 0.05))
  (fp_line (start -2.75 3.55) (end 2.75 3.55) (layer F.CrtYd) (width 0.05))
  (pad 8 smd rect (at 0 0) (size 3 2.5) (layers B.Cu F.Paste F.Mask))
  (pad 1 smd rect (at -1.905 2.875 90) (size 2.2 0.5) (layers F.Cu F.Paste F.Mask)
    (solder_mask_margin 0.07) (solder_paste_margin -0.025))
  (pad 2 smd rect (at -0.635 2.875 90) (size 2.2 0.5) (layers F.Cu F.Paste F.Mask)
    (solder_mask_margin 0.07) (solder_paste_margin -0.025))
  (pad 3 smd rect (at 0.635 2.875 90) (size 2.2 0.5) (layers F.Cu F.Paste F.Mask)
    (solder_mask_margin 0.07) (solder_paste_margin -0.025))
  (pad 4 smd rect (at 1.905 2.875 90) (size 2.2 0.5) (layers F.Cu F.Paste F.Mask)
    (solder_mask_margin 0.07) (solder_paste_margin -0.025))
  (pad 5 smd rect (at 1.905 -2.875 90) (size 2.2 0.5) (layers F.Cu F.Paste F.Mask)
    (solder_mask_margin 0.07) (solder_paste_margin -0.025))
  (pad 6 smd rect (at 0.635 -2.875 90) (size 2.2 0.5) (layers F.Cu F.Paste F.Mask)
    (solder_mask_margin 0.07) (solder_paste_margin -0.025))
  (pad 7 smd rect (at -0.635 -2.875 90) (size 2.2 0.5) (layers F.Cu F.Paste F.Mask)
    (solder_mask_margin 0.07) (solder_paste_margin -0.025))
  (pad 8 smd rect (at -1.905 -2.875 90) (size 2.2 0.5) (layers F.Cu F.Paste F.Mask)
    (solder_mask_margin 0.07) (solder_paste_margin -0.025))
  (pad 8 smd rect (at 0 0 90) (size 2.4 3.1) (layers F.Cu F.Paste F.Mask)
    (zone_connect 2))
  (pad 8 thru_hole rect (at 0 0.65 90) (size 0.5 0.5) (drill 0.25) (layers *.Cu F.Mask)
    (zone_connect 2))
  (pad 8 thru_hole rect (at -1.3 0.65 90) (size 0.5 0.5) (drill 0.25) (layers *.Cu F.Mask)
    (zone_connect 2))
  (pad 8 thru_hole rect (at 1.3 0.65 90) (size 0.5 0.5) (drill 0.25) (layers *.Cu F.Mask)
    (zone_connect 2))
  (pad 8 thru_hole rect (at 1.3 -0.65 90) (size 0.5 0.5) (drill 0.25) (layers *.Cu F.Mask)
    (zone_connect 2))
  (pad 8 thru_hole rect (at 0 -0.65 90) (size 0.5 0.5) (drill 0.25) (layers *.Cu F.Mask)
    (zone_connect 2))
  (pad 8 thru_hole rect (at -1.3 -0.65 90) (size 0.5 0.5) (drill 0.25) (layers *.Cu F.Mask)
    (zone_connect 2))
)
