(module TSSOP-16 (layer F.Cu) (tedit 5DA9AE17)
  (descr "16-Lead Plastic Thin Shrink Small Outline (ST)-4.4 mm Body [TSSOP] (see Microchip Packaging Specification 00000049BS.pdf)")
  (tags "SSOP 0.65")
  (attr smd)
  (fp_text reference REF** (at 0 -3.55) (layer F.SilkS)
    (effects (font (size 1 1) (thickness 0.15)))
  )
  (fp_text value TSSOP-16_4.4x5mm_Pitch0.65mm (at 3.55 0 90) (layer F.Fab)
    (effects (font (size 1 1) (thickness 0.15)))
  )
  (fp_line (start -3.775 -2.725) (end 2.2 -2.725) (layer F.SilkS) (width 0.15))
  (fp_line (start -2.2 2.725) (end 2.2 2.725) (layer F.SilkS) (width 0.15))
  (fp_line (start -3.95 2.8) (end 3.95 2.8) (layer F.CrtYd) (width 0.05))
  (fp_line (start -3.95 -2.8) (end 3.95 -2.8) (layer F.CrtYd) (width 0.05))
  (fp_line (start 3.95 -2.8) (end 3.95 2.8) (layer F.CrtYd) (width 0.05))
  (fp_line (start -3.95 -2.8) (end -3.95 2.8) (layer F.CrtYd) (width 0.05))
  (pad 1 smd rect (at -2.95 -2.275) (size 1.6 0.35) (layers F.Cu F.Paste F.Mask)
    (solder_mask_margin 0.07) (solder_paste_margin -0.025))
  (pad 2 smd rect (at -2.95 -1.625) (size 1.6 0.35) (layers F.Cu F.Paste F.Mask)
    (solder_mask_margin 0.07) (solder_paste_margin -0.025))
  (pad 3 smd rect (at -2.95 -0.975) (size 1.6 0.35) (layers F.Cu F.Paste F.Mask)
    (solder_mask_margin 0.07) (solder_paste_margin -0.025))
  (pad 4 smd rect (at -2.95 -0.325) (size 1.6 0.35) (layers F.Cu F.Paste F.Mask)
    (solder_mask_margin 0.07) (solder_paste_margin -0.025))
  (pad 5 smd rect (at -2.95 0.325) (size 1.6 0.35) (layers F.Cu F.Paste F.Mask)
    (solder_mask_margin 0.07) (solder_paste_margin -0.025))
  (pad 6 smd rect (at -2.95 0.975) (size 1.6 0.35) (layers F.Cu F.Paste F.Mask)
    (solder_mask_margin 0.07) (solder_paste_margin -0.025))
  (pad 7 smd rect (at -2.95 1.625) (size 1.6 0.35) (layers F.Cu F.Paste F.Mask)
    (solder_mask_margin 0.07) (solder_paste_margin -0.025))
  (pad 8 smd rect (at -2.95 2.275) (size 1.6 0.35) (layers F.Cu F.Paste F.Mask)
    (solder_mask_margin 0.07) (solder_paste_margin -0.025))
  (pad 9 smd rect (at 2.95 2.275) (size 1.6 0.35) (layers F.Cu F.Paste F.Mask)
    (solder_mask_margin 0.07) (solder_paste_margin -0.025))
  (pad 10 smd rect (at 2.95 1.625) (size 1.6 0.35) (layers F.Cu F.Paste F.Mask)
    (solder_mask_margin 0.07) (solder_paste_margin -0.025))
  (pad 11 smd rect (at 2.95 0.975) (size 1.6 0.35) (layers F.Cu F.Paste F.Mask)
    (solder_mask_margin 0.07) (solder_paste_margin -0.025))
  (pad 12 smd rect (at 2.95 0.325) (size 1.6 0.35) (layers F.Cu F.Paste F.Mask)
    (solder_mask_margin 0.07) (solder_paste_margin -0.025))
  (pad 13 smd rect (at 2.95 -0.325) (size 1.6 0.35) (layers F.Cu F.Paste F.Mask)
    (solder_mask_margin 0.07) (solder_paste_margin -0.025))
  (pad 14 smd rect (at 2.95 -0.975) (size 1.6 0.35) (layers F.Cu F.Paste F.Mask)
    (solder_mask_margin 0.07) (solder_paste_margin -0.025))
  (pad 15 smd rect (at 2.95 -1.625) (size 1.6 0.35) (layers F.Cu F.Paste F.Mask)
    (solder_mask_margin 0.07) (solder_paste_margin -0.025))
  (pad 16 smd rect (at 2.95 -2.275) (size 1.6 0.35) (layers F.Cu F.Paste F.Mask)
    (solder_mask_margin 0.07) (solder_paste_margin -0.025))
  (model Housings_SSOP.3dshapes/TSSOP-16_4.4x5mm_Pitch0.65mm.wrl
    (at (xyz 0 0 0))
    (scale (xyz 1 1 1))
    (rotate (xyz 0 0 0))
  )
)
