(module LTC6248 (layer F.Cu) (tedit 598C5282)
  (fp_text reference REF** (at -1.225 0.775 90) (layer F.SilkS)
    (effects (font (size 1 1) (thickness 0.15)))
  )
  (fp_text value LTC6248 (at 3.475 0.975 90) (layer F.Fab)
    (effects (font (size 1 1) (thickness 0.15)))
  )
  (fp_line (start -0.2 1.95) (end -0.2 0.7) (layer F.SilkS) (width 0.05))
  (fp_line (start 2.15 1.95) (end -0.2 1.95) (layer F.SilkS) (width 0.05))
  (fp_line (start 2.15 0.7) (end 2.15 1.95) (layer F.SilkS) (width 0.05))
  (fp_line (start -0.2 0.7) (end 2.15 0.7) (layer F.SilkS) (width 0.05))
  (fp_circle (center 0 1.75) (end 0.05 1.85) (layer F.SilkS) (width 0.05))
  (pad 8 smd rect (at 0 0) (size 0.4 1.22) (layers F.Cu F.Paste F.Mask))
  (pad 7 smd rect (at 0.65 0) (size 0.4 1.22) (layers F.Cu F.Paste F.Mask))
  (pad 6 smd rect (at 1.3 0) (size 0.4 1.22) (layers F.Cu F.Paste F.Mask))
  (pad 5 smd rect (at 1.95 0) (size 0.4 1.22) (layers F.Cu F.Paste F.Mask))
  (pad 4 smd rect (at 1.95 2.62) (size 0.4 1.22) (layers F.Cu F.Paste F.Mask))
  (pad 3 smd rect (at 1.3 2.62) (size 0.4 1.22) (layers F.Cu F.Paste F.Mask))
  (pad 2 smd rect (at 0.65 2.62) (size 0.4 1.22) (layers F.Cu F.Paste F.Mask))
  (pad 1 smd rect (at 0 2.62) (size 0.4 1.22) (layers F.Cu F.Paste F.Mask))
)
