(module MAX6120 (layer F.Cu) (tedit 598C4C14)
  (fp_text reference REF** (at -0.05 -2.05) (layer F.SilkS)
    (effects (font (size 1 1) (thickness 0.15)))
  )
  (fp_text value MAX6120 (at 0.05 1.95) (layer F.Fab)
    (effects (font (size 1 1) (thickness 0.15)))
  )
  (fp_line (start -1.5 0.6) (end -1.5 -0.6) (layer F.SilkS) (width 0.05))
  (fp_line (start 1.5 0.6) (end -1.5 0.6) (layer F.SilkS) (width 0.05))
  (fp_line (start 1.5 -0.6) (end 1.5 0.6) (layer F.SilkS) (width 0.05))
  (fp_line (start -1.5 -0.6) (end 1.5 -0.6) (layer F.SilkS) (width 0.05))
  (fp_circle (center -1.25 0.35) (end -1.15 0.5) (layer F.SilkS) (width 0.05))
  (pad 2 smd rect (at 1 0.9) (size 0.5 0.6) (layers F.Cu F.Paste F.Mask))
  (pad 1 smd rect (at -1 0.9) (size 0.5 0.6) (layers F.Cu F.Paste F.Mask))
  (pad 3 smd rect (at 0 -0.9) (size 0.5 0.6) (layers F.Cu F.Paste F.Mask))
)
