EESchema Schematic File Version 4
LIBS:BGASocket-cache
EELAYER 26 0
EELAYER END
$Descr A4 11693 8268
encoding utf-8
Sheet 6 7
Title "ADC driver"
Date ""
Rev ""
Comp "KIP, Uni-Heidelberg"
Comment1 ""
Comment2 ""
Comment3 ""
Comment4 ""
$EndDescr
$Comp
L device:R R58
U 1 1 5E2BB562
P 3750 2500
F 0 "R58" V 3800 2650 50  0000 C CNN
F 1 "600" V 3750 2500 50  0000 C CNN
F 2 "Resistors_SMD:R_0603" V 3680 2500 50  0001 C CNN
F 3 "" H 3750 2500 50  0000 C CNN
	1    3750 2500
	0    1    1    0   
$EndComp
$Comp
L KLauS-Custom:LM7705 U10
U 1 1 5E2BB69C
P 4950 2050
F 0 "U10" H 4950 2165 50  0000 C CNN
F 1 "LM7705" H 4950 2074 50  0000 C CNN
F 2 "KLauS-Custom:SOIC-8" H 4950 2050 50  0001 C CNN
F 3 "" H 4950 2050 50  0001 C CNN
	1    4950 2050
	1    0    0    -1  
$EndComp
$Comp
L device:C C87
U 1 1 5E2BB797
P 4400 2750
F 0 "C87" H 4515 2796 50  0000 L CNN
F 1 "0.1u" H 4515 2705 50  0000 L CNN
F 2 "Capacitors_SMD:C_0603" H 4438 2600 50  0001 C CNN
F 3 "" H 4400 2750 50  0000 C CNN
	1    4400 2750
	1    0    0    -1  
$EndComp
Wire Wire Line
	4400 2600 4400 2500
Connection ~ 4400 2500
Wire Wire Line
	4400 2500 4500 2500
$Comp
L device:R R63
U 1 1 5E2BB80B
P 4150 2400
F 0 "R63" V 4200 2550 50  0000 C CNN
F 1 "0" V 4150 2400 50  0000 C CNN
F 2 "Resistors_SMD:R_0603" V 4080 2400 50  0001 C CNN
F 3 "" H 4150 2400 50  0000 C CNN
	1    4150 2400
	0    1    1    0   
$EndComp
$Comp
L device:C C90
U 1 1 5E2BB869
P 4950 1550
F 0 "C90" V 4900 1650 50  0000 C CNN
F 1 "0.22u" V 4900 1400 50  0000 C CNN
F 2 "Capacitors_SMD:C_0603" H 4988 1400 50  0001 C CNN
F 3 "" H 4950 1550 50  0000 C CNN
	1    4950 1550
	0    1    1    0   
$EndComp
$Comp
L device:C C91
U 1 1 5E2BB963
P 4950 1750
F 0 "C91" V 4900 1850 50  0000 C CNN
F 1 "4.7u" V 4900 1600 50  0000 C CNN
F 2 "Capacitors_SMD:C_0603" H 4988 1600 50  0001 C CNN
F 3 "" H 4950 1750 50  0000 C CNN
	1    4950 1750
	0    1    1    0   
$EndComp
Wire Wire Line
	4500 2200 4400 2200
Wire Wire Line
	4400 2200 4400 1750
Wire Wire Line
	4400 1550 4800 1550
Wire Wire Line
	4800 1750 4400 1750
Connection ~ 4400 1750
Wire Wire Line
	4400 1750 4400 1550
Wire Wire Line
	5100 1750 5500 1750
Wire Wire Line
	5500 1750 5500 2200
Wire Wire Line
	5500 2200 5400 2200
Wire Wire Line
	5500 1750 5500 1550
Wire Wire Line
	5500 1550 5100 1550
Connection ~ 5500 1750
$Comp
L device:C C94
U 1 1 5E2BBB95
P 5750 2050
F 0 "C94" H 5865 2096 50  0000 L CNN
F 1 "22u" H 5865 2005 50  0000 L CNN
F 2 "Capacitors_SMD:C_0603" H 5788 1900 50  0001 C CNN
F 3 "" H 5750 2050 50  0000 C CNN
	1    5750 2050
	1    0    0    -1  
$EndComp
$Comp
L device:C C96
U 1 1 5E2BBC10
P 6100 2050
F 0 "C96" H 6215 2096 50  0000 L CNN
F 1 "100n" H 6215 2005 50  0000 L CNN
F 2 "Capacitors_SMD:C_0603" H 6138 1900 50  0001 C CNN
F 3 "" H 6100 2050 50  0000 C CNN
	1    6100 2050
	1    0    0    -1  
$EndComp
Wire Wire Line
	5400 2300 5750 2300
Wire Wire Line
	6100 2300 6100 2200
Wire Wire Line
	5750 2200 5750 2300
Connection ~ 5750 2300
Wire Wire Line
	5750 2300 6100 2300
$Comp
L power:GNDA #PWR0148
U 1 1 5E2BBE4A
P 6100 1900
F 0 "#PWR0148" H 6100 1650 50  0001 C CNN
F 1 "GNDA" H 6105 1727 50  0000 C CNN
F 2 "" H 6100 1900 50  0000 C CNN
F 3 "" H 6100 1900 50  0000 C CNN
	1    6100 1900
	-1   0    0    1   
$EndComp
$Comp
L power:GNDA #PWR0146
U 1 1 5E2BBE94
P 5750 1900
F 0 "#PWR0146" H 5750 1650 50  0001 C CNN
F 1 "GNDA" H 5755 1727 50  0000 C CNN
F 2 "" H 5750 1900 50  0000 C CNN
F 3 "" H 5750 1900 50  0000 C CNN
	1    5750 1900
	-1   0    0    1   
$EndComp
$Comp
L power:GNDA #PWR0137
U 1 1 5E2BBEDE
P 4300 2300
F 0 "#PWR0137" H 4300 2050 50  0001 C CNN
F 1 "GNDA" V 4305 2173 50  0000 R CNN
F 2 "" H 4300 2300 50  0000 C CNN
F 3 "" H 4300 2300 50  0000 C CNN
	1    4300 2300
	0    1    1    0   
$EndComp
$Comp
L power:GNDA #PWR0145
U 1 1 5E2BBF20
P 5400 2500
F 0 "#PWR0145" H 5400 2250 50  0001 C CNN
F 1 "GNDA" H 5405 2327 50  0000 C CNN
F 2 "" H 5400 2500 50  0000 C CNN
F 3 "" H 5400 2500 50  0000 C CNN
	1    5400 2500
	1    0    0    -1  
$EndComp
Wire Wire Line
	4500 2300 4300 2300
$Comp
L power:GNDA #PWR0138
U 1 1 5E2BC092
P 4400 2900
F 0 "#PWR0138" H 4400 2650 50  0001 C CNN
F 1 "GNDA" H 4405 2727 50  0000 C CNN
F 2 "" H 4400 2900 50  0000 C CNN
F 3 "" H 4400 2900 50  0000 C CNN
	1    4400 2900
	1    0    0    -1  
$EndComp
$Comp
L power:GNDA #PWR0135
U 1 1 5E2BC0D0
P 4000 2400
F 0 "#PWR0135" H 4000 2150 50  0001 C CNN
F 1 "GNDA" V 4005 2273 50  0000 R CNN
F 2 "" H 4000 2400 50  0000 C CNN
F 3 "" H 4000 2400 50  0000 C CNN
	1    4000 2400
	0    1    1    0   
$EndComp
$Comp
L device:C C95
U 1 1 5E2BC143
P 5750 2650
F 0 "C95" H 5865 2696 50  0000 L CNN
F 1 "100n" H 5865 2605 50  0000 L CNN
F 2 "Capacitors_SMD:C_0603" H 5788 2500 50  0001 C CNN
F 3 "" H 5750 2650 50  0000 C CNN
	1    5750 2650
	1    0    0    -1  
$EndComp
$Comp
L device:C C97
U 1 1 5E2BC17F
P 6100 2650
F 0 "C97" H 6215 2696 50  0000 L CNN
F 1 "1u" H 6215 2605 50  0000 L CNN
F 2 "Capacitors_SMD:C_0603" H 6138 2500 50  0001 C CNN
F 3 "" H 6100 2650 50  0000 C CNN
	1    6100 2650
	1    0    0    -1  
$EndComp
$Comp
L device:C C99
U 1 1 5E2BC1AD
P 6450 2650
F 0 "C99" H 6565 2696 50  0000 L CNN
F 1 "10u" H 6565 2605 50  0000 L CNN
F 2 "Capacitors_SMD:C_0603" H 6488 2500 50  0001 C CNN
F 3 "" H 6450 2650 50  0000 C CNN
	1    6450 2650
	1    0    0    -1  
$EndComp
Wire Wire Line
	5400 2400 5750 2400
Wire Wire Line
	6450 2400 6450 2500
Wire Wire Line
	6100 2500 6100 2400
Connection ~ 6100 2400
Wire Wire Line
	6100 2400 6450 2400
Wire Wire Line
	5750 2500 5750 2400
Connection ~ 5750 2400
Wire Wire Line
	5750 2400 6100 2400
$Comp
L power:GNDA #PWR0150
U 1 1 5E2BC755
P 6450 2800
F 0 "#PWR0150" H 6450 2550 50  0001 C CNN
F 1 "GNDA" H 6455 2627 50  0000 C CNN
F 2 "" H 6450 2800 50  0000 C CNN
F 3 "" H 6450 2800 50  0000 C CNN
	1    6450 2800
	1    0    0    -1  
$EndComp
$Comp
L power:GNDA #PWR0149
U 1 1 5E2BC798
P 6100 2800
F 0 "#PWR0149" H 6100 2550 50  0001 C CNN
F 1 "GNDA" H 6105 2627 50  0000 C CNN
F 2 "" H 6100 2800 50  0000 C CNN
F 3 "" H 6100 2800 50  0000 C CNN
	1    6100 2800
	1    0    0    -1  
$EndComp
$Comp
L power:GNDA #PWR0147
U 1 1 5E2BC7DB
P 5750 2800
F 0 "#PWR0147" H 5750 2550 50  0001 C CNN
F 1 "GNDA" H 5755 2627 50  0000 C CNN
F 2 "" H 5750 2800 50  0000 C CNN
F 3 "" H 5750 2800 50  0000 C CNN
	1    5750 2800
	1    0    0    -1  
$EndComp
Wire Wire Line
	4300 2400 4500 2400
Wire Wire Line
	3900 2500 4050 2500
Wire Wire Line
	3450 2500 3600 2500
$Comp
L power_special:VCCA33 #PWR0131
U 1 1 5E2BD0E6
P 3450 2500
F 0 "#PWR0131" H 3450 2350 50  0001 C CNN
F 1 "VCCA33" H 3467 2673 50  0000 C CNN
F 2 "" H 3450 2500 50  0000 C CNN
F 3 "" H 3450 2500 50  0000 C CNN
	1    3450 2500
	1    0    0    -1  
$EndComp
Text Notes 3500 1900 0    50   ~ 0
-0.2V supply
$Comp
L KLauS-Custom:THS4551 U11
U 1 1 5E2BEFB7
P 5000 4800
F 0 "U11" H 5150 5150 50  0000 C CNN
F 1 "THS4554" H 5250 5050 50  0000 C CNN
F 2 "KLauS-Custom:SOIC-8" H 5000 4700 50  0001 C CNN
F 3 "" H 5000 4700 50  0000 C CNN
	1    5000 4800
	1    0    0    -1  
$EndComp
Wire Wire Line
	5000 5250 5000 5100
$Comp
L power_special:VCCA33 #PWR0143
U 1 1 5E2BF3D5
P 5000 4500
F 0 "#PWR0143" H 5000 4350 50  0001 C CNN
F 1 "VCCA33" H 5017 4673 50  0000 C CNN
F 2 "" H 5000 4500 50  0000 C CNN
F 3 "" H 5000 4500 50  0000 C CNN
	1    5000 4500
	1    0    0    -1  
$EndComp
Text Label 5000 5250 1    50   ~ 0
VEE
$Comp
L power_special:VCCA33 #PWR0144
U 1 1 5E2BF47C
P 5100 5200
F 0 "#PWR0144" H 5100 5050 50  0001 C CNN
F 1 "VCCA33" V 5117 5328 50  0000 L CNN
F 2 "" H 5100 5200 50  0000 C CNN
F 3 "" H 5100 5200 50  0000 C CNN
	1    5100 5200
	0    1    1    0   
$EndComp
Wire Wire Line
	5100 5100 5100 5200
Wire Wire Line
	4500 4800 4700 4800
Text Label 4500 4800 0    50   ~ 0
VCM
$Comp
L device:R R64
U 1 1 5E2BFBC2
P 5000 4200
F 0 "R64" V 4950 4350 50  0000 C CNN
F 1 "1k" V 4950 4050 50  0000 C CNN
F 2 "Resistors_SMD:R_0603" V 4930 4200 50  0001 C CNN
F 3 "" H 5000 4200 50  0000 C CNN
	1    5000 4200
	0    1    1    0   
$EndComp
$Comp
L device:R R65
U 1 1 5E2BFD01
P 5050 5350
F 0 "R65" V 5000 5500 50  0000 C CNN
F 1 "1k" V 5000 5200 50  0000 C CNN
F 2 "Resistors_SMD:R_0603" V 4980 5350 50  0001 C CNN
F 3 "" H 5050 5350 50  0000 C CNN
	1    5050 5350
	0    1    1    0   
$EndComp
$Comp
L device:C C92
U 1 1 5E2BFDE6
P 5000 4050
F 0 "C92" V 4950 4200 50  0000 C CNN
F 1 "1n" V 4950 3900 50  0000 C CNN
F 2 "Capacitors_SMD:C_0603" H 5038 3900 50  0001 C CNN
F 3 "" H 5000 4050 50  0000 C CNN
	1    5000 4050
	0    1    1    0   
$EndComp
$Comp
L device:C C93
U 1 1 5E2BFE60
P 5050 5500
F 0 "C93" V 5000 5350 50  0000 C CNN
F 1 "1n" V 5000 5650 50  0000 C CNN
F 2 "Capacitors_SMD:C_0603" H 5088 5350 50  0001 C CNN
F 3 "" H 5050 5500 50  0000 C CNN
	1    5050 5500
	0    -1   -1   0   
$EndComp
Wire Wire Line
	4700 4600 4600 4600
Wire Wire Line
	4600 4600 4600 4200
Wire Wire Line
	4600 4050 4850 4050
Wire Wire Line
	4850 4200 4600 4200
Connection ~ 4600 4200
Wire Wire Line
	4600 4200 4600 4050
Wire Wire Line
	4700 5000 4600 5000
Wire Wire Line
	4600 5000 4600 5350
Wire Wire Line
	4600 5500 4900 5500
Wire Wire Line
	4900 5350 4600 5350
Connection ~ 4600 5350
Wire Wire Line
	4600 5350 4600 5500
$Comp
L device:R R66
U 1 1 5E2C3837
P 5750 4600
F 0 "R66" V 5700 4750 50  0000 C CNN
F 1 "0" V 5700 4450 50  0000 C CNN
F 2 "Resistors_SMD:R_0603" V 5680 4600 50  0001 C CNN
F 3 "" H 5750 4600 50  0000 C CNN
	1    5750 4600
	0    1    1    0   
$EndComp
$Comp
L device:R R67
U 1 1 5E2C38D9
P 5750 5000
F 0 "R67" V 5700 5150 50  0000 C CNN
F 1 "0" V 5700 4850 50  0000 C CNN
F 2 "Resistors_SMD:R_0603" V 5680 5000 50  0001 C CNN
F 3 "" H 5750 5000 50  0000 C CNN
	1    5750 5000
	0    1    1    0   
$EndComp
Wire Wire Line
	5600 4600 5500 4600
Wire Wire Line
	5600 5000 5500 5000
Wire Wire Line
	5900 4600 6000 4600
Wire Wire Line
	6000 4600 6000 4200
Wire Wire Line
	5150 4050 6000 4050
Wire Wire Line
	5150 4200 6000 4200
Connection ~ 6000 4200
Wire Wire Line
	6000 4200 6000 4050
Wire Wire Line
	5900 5000 6000 5000
Wire Wire Line
	6000 5000 6000 5350
Wire Wire Line
	5200 5500 6000 5500
Wire Wire Line
	5200 5350 6000 5350
Connection ~ 6000 5350
Wire Wire Line
	6000 5350 6000 5500
$Comp
L device:R R69
U 1 1 5E2C8513
P 6350 4600
F 0 "R69" V 6300 4750 50  0000 C CNN
F 1 "49(DNP)" V 6300 4450 50  0000 C CNN
F 2 "Resistors_SMD:R_0603" V 6280 4600 50  0001 C CNN
F 3 "" H 6350 4600 50  0000 C CNN
	1    6350 4600
	0    1    1    0   
$EndComp
$Comp
L device:R R70
U 1 1 5E2C8567
P 6350 5000
F 0 "R70" V 6300 5150 50  0000 C CNN
F 1 "49(DNP)" V 6300 4850 50  0000 C CNN
F 2 "Resistors_SMD:R_0603" V 6280 5000 50  0001 C CNN
F 3 "" H 6350 5000 50  0000 C CNN
	1    6350 5000
	0    1    1    0   
$EndComp
$Comp
L device:C C101
U 1 1 5E2C8668
P 6750 4800
F 0 "C101" H 6865 4846 50  0000 L CNN
F 1 "10p" H 6865 4755 50  0000 L CNN
F 2 "Capacitors_SMD:C_0603" H 6788 4650 50  0001 C CNN
F 3 "" H 6750 4800 50  0000 C CNN
	1    6750 4800
	1    0    0    -1  
$EndComp
$Comp
L device:C C102
U 1 1 5E2C86DE
P 6750 5200
F 0 "C102" H 6865 5246 50  0000 L CNN
F 1 "1n" H 6865 5155 50  0000 L CNN
F 2 "Capacitors_SMD:C_0603" H 6788 5050 50  0001 C CNN
F 3 "" H 6750 5200 50  0000 C CNN
	1    6750 5200
	1    0    0    -1  
$EndComp
$Comp
L device:C C100
U 1 1 5E2C8732
P 6750 4400
F 0 "C100" H 6865 4446 50  0000 L CNN
F 1 "1n" H 6865 4355 50  0000 L CNN
F 2 "Capacitors_SMD:C_0603" H 6788 4250 50  0001 C CNN
F 3 "" H 6750 4400 50  0000 C CNN
	1    6750 4400
	1    0    0    -1  
$EndComp
Wire Wire Line
	6200 4600 6000 4600
Connection ~ 6000 4600
Wire Wire Line
	6200 5000 6000 5000
Connection ~ 6000 5000
Wire Wire Line
	6500 4600 6750 4600
Wire Wire Line
	6750 4600 6750 4650
Wire Wire Line
	6750 4550 6750 4600
Connection ~ 6750 4600
Wire Wire Line
	6500 5000 6750 5000
Wire Wire Line
	6750 4950 6750 5000
Connection ~ 6750 5000
Wire Wire Line
	6750 5000 6750 5050
$Comp
L power:GNDA #PWR0152
U 1 1 5E2CCF56
P 6750 5350
F 0 "#PWR0152" H 6750 5100 50  0001 C CNN
F 1 "GNDA" H 6755 5177 50  0000 C CNN
F 2 "" H 6750 5350 50  0000 C CNN
F 3 "" H 6750 5350 50  0000 C CNN
	1    6750 5350
	1    0    0    -1  
$EndComp
$Comp
L power:GNDA #PWR0151
U 1 1 5E2CCF8F
P 6750 4250
F 0 "#PWR0151" H 6750 4000 50  0001 C CNN
F 1 "GNDA" H 6755 4077 50  0000 C CNN
F 2 "" H 6750 4250 50  0000 C CNN
F 3 "" H 6750 4250 50  0000 C CNN
	1    6750 4250
	-1   0    0    1   
$EndComp
$Comp
L device:R R61
U 1 1 5E2CD19B
P 4100 4600
F 0 "R61" V 4050 4750 50  0000 C CNN
F 1 "1k" V 4050 4450 50  0000 C CNN
F 2 "Resistors_SMD:R_0603" V 4030 4600 50  0001 C CNN
F 3 "" H 4100 4600 50  0000 C CNN
	1    4100 4600
	0    1    1    0   
$EndComp
$Comp
L device:R R62
U 1 1 5E2CD20F
P 4100 5000
F 0 "R62" V 4050 5150 50  0000 C CNN
F 1 "1k" V 4050 4850 50  0000 C CNN
F 2 "Resistors_SMD:R_0603" V 4030 5000 50  0001 C CNN
F 3 "" H 4100 5000 50  0000 C CNN
	1    4100 5000
	0    1    1    0   
$EndComp
$Comp
L device:R R59
U 1 1 5E2CD297
P 3750 4350
F 0 "R59" V 3650 4350 50  0000 C CNN
F 1 "51" V 3750 4350 50  0000 C CNN
F 2 "Resistors_SMD:R_0603" V 3680 4350 50  0001 C CNN
F 3 "" H 3750 4350 50  0000 C CNN
	1    3750 4350
	1    0    0    -1  
$EndComp
$Comp
L power:GNDA #PWR0132
U 1 1 5E2CD34F
P 3750 4200
F 0 "#PWR0132" H 3750 3950 50  0001 C CNN
F 1 "GNDA" H 3755 4027 50  0000 C CNN
F 2 "" H 3750 4200 50  0000 C CNN
F 3 "" H 3750 4200 50  0000 C CNN
	1    3750 4200
	-1   0    0    1   
$EndComp
$Comp
L device:R R60
U 1 1 5E2CD480
P 3800 5250
F 0 "R60" V 3700 5250 50  0000 C CNN
F 1 "51" V 3800 5250 50  0000 C CNN
F 2 "Resistors_SMD:R_0603" V 3730 5250 50  0001 C CNN
F 3 "" H 3800 5250 50  0000 C CNN
	1    3800 5250
	1    0    0    -1  
$EndComp
$Comp
L power:GNDA #PWR0133
U 1 1 5E2CD4EC
P 3800 5400
F 0 "#PWR0133" H 3800 5150 50  0001 C CNN
F 1 "GNDA" H 3805 5227 50  0000 C CNN
F 2 "" H 3800 5400 50  0000 C CNN
F 3 "" H 3800 5400 50  0000 C CNN
	1    3800 5400
	1    0    0    -1  
$EndComp
Wire Wire Line
	4250 4600 4600 4600
Connection ~ 4600 4600
Wire Wire Line
	4250 5000 4600 5000
Connection ~ 4600 5000
Wire Wire Line
	3950 5000 3800 5000
Wire Wire Line
	3800 5000 3800 5100
Wire Wire Line
	3750 4500 3750 4600
Wire Wire Line
	3750 4600 3950 4600
$Comp
L KLauS-Custom:BNC P9
U 1 1 5E2D1399
P 3300 4600
F 0 "P9" H 3401 4484 50  0000 L CNN
F 1 "BNC" H 3401 4575 50  0000 L CNN
F 2 "KLauS-Custom:BNC_SMA" H 3300 4600 50  0001 C CNN
F 3 "" H 3300 4600 50  0000 C CNN
	1    3300 4600
	-1   0    0    1   
$EndComp
$Comp
L KLauS-Custom:BNC P10
U 1 1 5E2D1A13
P 3300 5000
F 0 "P10" H 3450 5050 50  0000 C CNN
F 1 "BNC" H 3450 4950 50  0000 C CNN
F 2 "KLauS-Custom:BNC_SMA" H 3300 5000 50  0001 C CNN
F 3 "" H 3300 5000 50  0000 C CNN
	1    3300 5000
	-1   0    0    -1  
$EndComp
$Comp
L power:GNDA #PWR0130
U 1 1 5E2D1C84
P 3300 5200
F 0 "#PWR0130" H 3300 4950 50  0001 C CNN
F 1 "GNDA" H 3305 5027 50  0000 C CNN
F 2 "" H 3300 5200 50  0000 C CNN
F 3 "" H 3300 5200 50  0000 C CNN
	1    3300 5200
	1    0    0    -1  
$EndComp
$Comp
L power:GNDA #PWR0129
U 1 1 5E2D1CC9
P 3300 4400
F 0 "#PWR0129" H 3300 4150 50  0001 C CNN
F 1 "GNDA" H 3305 4227 50  0000 C CNN
F 2 "" H 3300 4400 50  0000 C CNN
F 3 "" H 3300 4400 50  0000 C CNN
	1    3300 4400
	-1   0    0    1   
$EndComp
Wire Wire Line
	3450 4600 3750 4600
Connection ~ 3750 4600
Wire Wire Line
	3450 5000 3800 5000
Connection ~ 3800 5000
$Comp
L KLauS-Custom:BNC P12
U 1 1 5E2D4427
P 7400 5000
F 0 "P12" H 7501 4976 50  0000 L CNN
F 1 "BNC" H 7501 4885 50  0000 L CNN
F 2 "KLauS-Custom:BNC_SMA" H 7400 5000 50  0001 C CNN
F 3 "" H 7400 5000 50  0000 C CNN
	1    7400 5000
	1    0    0    -1  
$EndComp
$Comp
L KLauS-Custom:BNC P11
U 1 1 5E2D44C9
P 7400 4600
F 0 "P11" H 7501 4484 50  0000 L CNN
F 1 "BNC" H 7501 4575 50  0000 L CNN
F 2 "KLauS-Custom:BNC_SMA" H 7400 4600 50  0001 C CNN
F 3 "" H 7400 4600 50  0000 C CNN
	1    7400 4600
	1    0    0    1   
$EndComp
Wire Wire Line
	6750 4600 7250 4600
Wire Wire Line
	6750 5000 7250 5000
$Comp
L power:GNDA #PWR0154
U 1 1 5E2D6D8E
P 7400 5200
F 0 "#PWR0154" H 7400 4950 50  0001 C CNN
F 1 "GNDA" H 7405 5027 50  0000 C CNN
F 2 "" H 7400 5200 50  0000 C CNN
F 3 "" H 7400 5200 50  0000 C CNN
	1    7400 5200
	1    0    0    -1  
$EndComp
$Comp
L power:GNDA #PWR0153
U 1 1 5E2D6DD7
P 7400 4400
F 0 "#PWR0153" H 7400 4150 50  0001 C CNN
F 1 "GNDA" H 7405 4227 50  0000 C CNN
F 2 "" H 7400 4400 50  0000 C CNN
F 3 "" H 7400 4400 50  0000 C CNN
	1    7400 4400
	-1   0    0    1   
$EndComp
$Comp
L device:C C86
U 1 1 5E2D6F94
P 4050 2750
F 0 "C86" H 4165 2796 50  0000 L CNN
F 1 "10u" H 4165 2705 50  0000 L CNN
F 2 "Capacitors_SMD:C_0603" H 4088 2600 50  0001 C CNN
F 3 "" H 4050 2750 50  0000 C CNN
	1    4050 2750
	1    0    0    -1  
$EndComp
$Comp
L power:GNDA #PWR0136
U 1 1 5E2D6FEE
P 4050 2900
F 0 "#PWR0136" H 4050 2650 50  0001 C CNN
F 1 "GNDA" H 4055 2727 50  0000 C CNN
F 2 "" H 4050 2900 50  0000 C CNN
F 3 "" H 4050 2900 50  0000 C CNN
	1    4050 2900
	1    0    0    -1  
$EndComp
Wire Wire Line
	4050 2600 4050 2500
Connection ~ 4050 2500
Wire Wire Line
	4050 2500 4400 2500
$Comp
L device:C C88
U 1 1 5E2D8835
P 4400 6050
F 0 "C88" H 4515 6096 50  0000 L CNN
F 1 "10u" H 4515 6005 50  0000 L CNN
F 2 "Capacitors_SMD:C_0603" H 4438 5900 50  0001 C CNN
F 3 "" H 4400 6050 50  0000 C CNN
	1    4400 6050
	1    0    0    -1  
$EndComp
$Comp
L device:C C89
U 1 1 5E2D88A7
P 4850 6050
F 0 "C89" H 4965 6096 50  0000 L CNN
F 1 "0.1u" H 4965 6005 50  0000 L CNN
F 2 "Capacitors_SMD:C_0603" H 4888 5900 50  0001 C CNN
F 3 "" H 4850 6050 50  0000 C CNN
	1    4850 6050
	1    0    0    -1  
$EndComp
$Comp
L power:GNDA #PWR0140
U 1 1 5E2D8923
P 4400 6200
F 0 "#PWR0140" H 4400 5950 50  0001 C CNN
F 1 "GNDA" H 4405 6027 50  0000 C CNN
F 2 "" H 4400 6200 50  0000 C CNN
F 3 "" H 4400 6200 50  0000 C CNN
	1    4400 6200
	1    0    0    -1  
$EndComp
$Comp
L power:GNDA #PWR0142
U 1 1 5E2D8972
P 4850 6200
F 0 "#PWR0142" H 4850 5950 50  0001 C CNN
F 1 "GNDA" H 4855 6027 50  0000 C CNN
F 2 "" H 4850 6200 50  0000 C CNN
F 3 "" H 4850 6200 50  0000 C CNN
	1    4850 6200
	1    0    0    -1  
$EndComp
$Comp
L power_special:VCCA33 #PWR0139
U 1 1 5E2D89C1
P 4400 5900
F 0 "#PWR0139" H 4400 5750 50  0001 C CNN
F 1 "VCCA33" H 4417 6073 50  0000 C CNN
F 2 "" H 4400 5900 50  0000 C CNN
F 3 "" H 4400 5900 50  0000 C CNN
	1    4400 5900
	1    0    0    -1  
$EndComp
$Comp
L power_special:VCCA33 #PWR0141
U 1 1 5E2D8A10
P 4850 5900
F 0 "#PWR0141" H 4850 5750 50  0001 C CNN
F 1 "VCCA33" H 4867 6073 50  0000 C CNN
F 2 "" H 4850 5900 50  0000 C CNN
F 3 "" H 4850 5900 50  0000 C CNN
	1    4850 5900
	1    0    0    -1  
$EndComp
$Comp
L device:R R57
U 1 1 5E2D8B4D
P 3500 5850
F 0 "R57" V 3400 5850 50  0000 C CNN
F 1 "1k" V 3600 5850 50  0000 C CNN
F 2 "Resistors_SMD:R_0603" V 3430 5850 50  0001 C CNN
F 3 "" H 3500 5850 50  0000 C CNN
	1    3500 5850
	0    1    1    0   
$EndComp
$Comp
L device:C C85
U 1 1 5E2D8BE9
P 3850 6050
F 0 "C85" H 3965 6096 50  0000 L CNN
F 1 "1n" H 3965 6005 50  0000 L CNN
F 2 "Capacitors_SMD:C_0603" H 3888 5900 50  0001 C CNN
F 3 "" H 3850 6050 50  0000 C CNN
	1    3850 6050
	1    0    0    -1  
$EndComp
$Comp
L power:GNDA #PWR0134
U 1 1 5E2DA4B1
P 3850 6200
F 0 "#PWR0134" H 3850 5950 50  0001 C CNN
F 1 "GNDA" H 3855 6027 50  0000 C CNN
F 2 "" H 3850 6200 50  0000 C CNN
F 3 "" H 3850 6200 50  0000 C CNN
	1    3850 6200
	1    0    0    -1  
$EndComp
Wire Wire Line
	3650 5850 3850 5850
Wire Wire Line
	3850 5850 3850 5900
Wire Wire Line
	3150 5850 3350 5850
Text Label 3700 5850 0    50   ~ 0
VCM
Text HLabel 3150 5850 0    50   Input ~ 0
REF_VCM
Text Label 4400 4600 0    50   ~ 0
vip
Text Label 4400 5000 0    50   ~ 0
vin
$Comp
L device:R R68
U 1 1 5E2DEC6C
P 5800 5850
F 0 "R68" V 5700 5850 50  0000 C CNN
F 1 "500(DNP)" V 5900 5850 50  0000 C CNN
F 2 "Resistors_SMD:R_0603" V 5730 5850 50  0001 C CNN
F 3 "" H 5800 5850 50  0000 C CNN
	1    5800 5850
	0    1    1    0   
$EndComp
$Comp
L device:R R71
U 1 1 5E2DECE8
P 6700 5850
F 0 "R71" V 6600 5850 50  0000 C CNN
F 1 "500(DNP)" V 6800 5850 50  0000 C CNN
F 2 "Resistors_SMD:R_0603" V 6630 5850 50  0001 C CNN
F 3 "" H 6700 5850 50  0000 C CNN
	1    6700 5850
	0    1    1    0   
$EndComp
$Comp
L device:C C98
U 1 1 5E2DED60
P 6250 5850
F 0 "C98" V 6350 5750 50  0000 C CNN
F 1 "68p(DNP)" V 6100 5850 50  0000 C CNN
F 2 "Capacitors_SMD:C_0603" H 6288 5700 50  0001 C CNN
F 3 "" H 6250 5850 50  0000 C CNN
	1    6250 5850
	0    -1   -1   0   
$EndComp
Wire Wire Line
	5950 5850 6100 5850
Wire Wire Line
	6400 5850 6550 5850
Wire Wire Line
	7050 5850 6850 5850
Wire Wire Line
	5450 5850 5650 5850
Text Label 5450 5850 0    50   ~ 0
vip
Text Label 6900 5850 0    50   ~ 0
vin
Text Label 7050 4600 0    50   ~ 0
ADCp
Text Label 7050 5000 0    50   ~ 0
ADCn
Text HLabel 8200 4600 2    50   Output ~ 0
ADCp
Text HLabel 8200 5000 2    50   Output ~ 0
ADCn
Text Notes 3550 3700 0    50   ~ 0
ADC driver for the ADC test
Connection ~ 6450 2400
$Comp
L conn:CONN_01X03 P18
U 1 1 5C5A91FF
P 6900 2200
F 0 "P18" V 6865 2012 50  0000 R CNN
F 1 "CONN_01X03" V 6774 2012 50  0000 R CNN
F 2 "KLauS-Custom:CONN_01X3" H 6900 2200 50  0001 C CNN
F 3 "" H 6900 2200 50  0000 C CNN
	1    6900 2200
	0    -1   -1   0   
$EndComp
Wire Wire Line
	6800 2400 6450 2400
$Comp
L power:GNDA #PWR0160
U 1 1 5C5ACB06
P 7000 2400
F 0 "#PWR0160" H 7000 2150 50  0001 C CNN
F 1 "GNDA" H 7005 2227 50  0000 C CNN
F 2 "" H 7000 2400 50  0000 C CNN
F 3 "" H 7000 2400 50  0000 C CNN
	1    7000 2400
	1    0    0    -1  
$EndComp
Text Notes 7200 5600 0    50   ~ 0
If the reference voltage is aplied externally, remove resistor R69,R70
Text Notes 6650 2000 0    50   ~ 0
Jumper to select -0.2V or GND as the Vss of THS4551
Wire Wire Line
	6900 2750 6900 2400
Text Label 6900 2750 1    50   ~ 0
VEE
Text Label 3500 4600 0    50   ~ 0
Vi_P
Text Label 3500 5000 0    50   ~ 0
Vi_N
$EndSCHEMATC
