EESchema Schematic File Version 4
LIBS:BGASocket-cache
EELAYER 26 0
EELAYER END
$Descr A4 11693 8268
encoding utf-8
Sheet 1 7
Title "Testboard for the KLauS-BGA with socket"
Date ""
Rev ""
Comp "KIP, Uni-Heidelberg"
Comment1 ""
Comment2 ""
Comment3 ""
Comment4 ""
$EndDescr
Wire Wire Line
	1250 1100 1400 1100
$Comp
L power:GNDA #PWR02
U 1 1 5C3EFF53
P 1250 1200
F 0 "#PWR02" H 1250 950 50  0001 C CNN
F 1 "GNDA" V 1250 1050 50  0000 R CNN
F 2 "" H 1250 1200 50  0000 C CNN
F 3 "" H 1250 1200 50  0000 C CNN
	1    1250 1200
	0    1    1    0   
$EndComp
$Comp
L power_special:VCCD33 #PWR021
U 1 1 5C3F0093
P 2050 2200
F 0 "#PWR021" H 2050 2050 50  0001 C CNN
F 1 "VCCD33" V 2050 2350 50  0000 L CNN
F 2 "" H 2050 2200 50  0000 C CNN
F 3 "" H 2050 2200 50  0000 C CNN
	1    2050 2200
	0    1    1    0   
$EndComp
$Comp
L power_special:VCCD18 #PWR019
U 1 1 5C3F00C4
P 2050 2000
F 0 "#PWR019" H 2050 1850 50  0001 C CNN
F 1 "VCCD18" V 2050 2150 50  0000 L CNN
F 2 "" H 2050 2000 50  0000 C CNN
F 3 "" H 2050 2000 50  0000 C CNN
	1    2050 2000
	0    1    1    0   
$EndComp
Wire Wire Line
	1250 1200 1350 1200
Wire Wire Line
	1350 1200 1350 1300
Wire Wire Line
	1350 1400 1400 1400
Connection ~ 1350 1200
Wire Wire Line
	1350 1200 1400 1200
Wire Wire Line
	1350 1300 1400 1300
Connection ~ 1350 1300
Wire Wire Line
	1350 1300 1350 1400
$Comp
L power:GNDA #PWR014
U 1 1 5C3F013E
P 2050 1200
F 0 "#PWR014" H 2050 950 50  0001 C CNN
F 1 "GNDA" V 2050 1050 50  0000 R CNN
F 2 "" H 2050 1200 50  0000 C CNN
F 3 "" H 2050 1200 50  0000 C CNN
	1    2050 1200
	0    -1   -1   0   
$EndComp
Wire Wire Line
	2050 1200 1900 1200
Wire Wire Line
	2050 1300 1900 1300
$Comp
L power:GNDA #PWR016
U 1 1 5C3F01E8
P 2050 1400
F 0 "#PWR016" H 2050 1150 50  0001 C CNN
F 1 "GNDA" V 2050 1250 50  0000 R CNN
F 2 "" H 2050 1400 50  0000 C CNN
F 3 "" H 2050 1400 50  0000 C CNN
	1    2050 1400
	0    -1   -1   0   
$EndComp
$Comp
L power:GNDD #PWR020
U 1 1 5C3F02AA
P 2050 2100
F 0 "#PWR020" H 2050 1850 50  0001 C CNN
F 1 "GNDD" V 2050 1950 50  0000 R CNN
F 2 "" H 2050 2100 50  0000 C CNN
F 3 "" H 2050 2100 50  0000 C CNN
	1    2050 2100
	0    -1   -1   0   
$EndComp
$Comp
L power:GNDD #PWR018
U 1 1 5C3F02D8
P 2050 1800
F 0 "#PWR018" H 2050 1550 50  0001 C CNN
F 1 "GNDD" V 2050 1650 50  0000 R CNN
F 2 "" H 2050 1800 50  0000 C CNN
F 3 "" H 2050 1800 50  0000 C CNN
	1    2050 1800
	0    -1   -1   0   
$EndComp
$Comp
L power:GNDD #PWR06
U 1 1 5C3F0306
P 1250 2100
F 0 "#PWR06" H 1250 1850 50  0001 C CNN
F 1 "GNDD" V 1250 1950 50  0000 R CNN
F 2 "" H 1250 2100 50  0000 C CNN
F 3 "" H 1250 2100 50  0000 C CNN
	1    1250 2100
	0    1    1    0   
$EndComp
$Comp
L power:GNDD #PWR04
U 1 1 5C3F0330
P 1250 1800
F 0 "#PWR04" H 1250 1550 50  0001 C CNN
F 1 "GNDD" V 1250 1650 50  0000 R CNN
F 2 "" H 1250 1800 50  0000 C CNN
F 3 "" H 1250 1800 50  0000 C CNN
	1    1250 1800
	0    1    1    0   
$EndComp
$Comp
L power_special:VCCD18 #PWR05
U 1 1 5C3F0348
P 1250 1900
F 0 "#PWR05" H 1250 1750 50  0001 C CNN
F 1 "VCCD18" V 1250 2050 50  0000 L CNN
F 2 "" H 1250 1900 50  0000 C CNN
F 3 "" H 1250 1900 50  0000 C CNN
	1    1250 1900
	0    -1   -1   0   
$EndComp
Wire Wire Line
	2050 2200 1900 2200
Wire Wire Line
	2050 2100 1900 2100
Wire Wire Line
	2050 2000 1950 2000
Wire Wire Line
	1900 1900 1950 1900
Wire Wire Line
	1950 1900 1950 2000
Connection ~ 1950 2000
Wire Wire Line
	1950 2000 1900 2000
Wire Wire Line
	2050 1800 1900 1800
Wire Wire Line
	1400 1800 1250 1800
Wire Wire Line
	1400 1900 1350 1900
Wire Wire Line
	1400 2000 1350 2000
Wire Wire Line
	1350 2000 1350 1900
Connection ~ 1350 1900
Wire Wire Line
	1350 1900 1250 1900
Wire Wire Line
	1250 2100 1350 2100
Wire Wire Line
	1350 2100 1350 2200
Wire Wire Line
	1350 2200 1400 2200
Connection ~ 1350 2100
Wire Wire Line
	1350 2100 1400 2100
Wire Wire Line
	2000 1700 1900 1700
Wire Wire Line
	1300 1700 1400 1700
Wire Wire Line
	1900 1500 1950 1500
Wire Wire Line
	1950 1500 1950 1600
Wire Wire Line
	1950 1600 1900 1600
Connection ~ 1950 1500
Wire Wire Line
	1950 1500 2050 1500
Wire Wire Line
	2050 1400 1900 1400
$Comp
L power_special:VCCA18 #PWR03
U 1 1 5C3F2870
P 1250 1500
F 0 "#PWR03" H 1250 1350 50  0001 C CNN
F 1 "VCCA18" V 1250 1650 50  0000 L CNN
F 2 "" H 1250 1500 50  0000 C CNN
F 3 "" H 1250 1500 50  0000 C CNN
	1    1250 1500
	0    -1   -1   0   
$EndComp
Wire Wire Line
	1250 1500 1350 1500
Wire Wire Line
	1350 1500 1350 1600
Wire Wire Line
	1350 1600 1400 1600
Connection ~ 1350 1500
Wire Wire Line
	1350 1500 1400 1500
NoConn ~ 2000 1700
NoConn ~ 1300 1700
Wire Wire Line
	2050 1100 1900 1100
Text Label 1250 1100 0    50   ~ 0
HV
Text Label 1950 1100 0    50   ~ 0
HV
Wire Wire Line
	3000 1100 3300 1100
$Comp
L power:GNDD #PWR023
U 1 1 5C400ACF
P 3000 1100
F 0 "#PWR023" H 3000 850 50  0001 C CNN
F 1 "GNDD" V 3000 950 50  0000 R CNN
F 2 "" H 3000 1100 50  0000 C CNN
F 3 "" H 3000 1100 50  0000 C CNN
	1    3000 1100
	0    1    1    0   
$EndComp
Text Label 2850 1200 0    50   ~ 0
FIFO_ETRG_P
Wire Wire Line
	2850 1200 3300 1200
Wire Wire Line
	2850 1300 3300 1300
Wire Wire Line
	2850 1400 3300 1400
Wire Wire Line
	2850 1500 3300 1500
Wire Wire Line
	2850 1800 3300 1800
Wire Wire Line
	2850 1900 3300 1900
Wire Wire Line
	2850 2000 3300 2000
Wire Wire Line
	2850 2100 3300 2100
Wire Wire Line
	2850 2200 3300 2200
Wire Wire Line
	2850 2300 3300 2300
Wire Wire Line
	3800 2300 4250 2300
Wire Wire Line
	3800 2200 4250 2200
Wire Wire Line
	3800 2100 4250 2100
Wire Wire Line
	3800 2000 4250 2000
Wire Wire Line
	3800 1900 4250 1900
Wire Wire Line
	3800 1800 4250 1800
Wire Wire Line
	3800 1700 4250 1700
Wire Wire Line
	3800 1600 4250 1600
Wire Wire Line
	3800 1500 4250 1500
Wire Wire Line
	3800 1400 4250 1400
Wire Wire Line
	3800 1300 4250 1300
Wire Wire Line
	3800 1200 4250 1200
Wire Wire Line
	3800 1100 4250 1100
Text Label 2850 1300 0    50   ~ 0
FIFO_ETRG_N
Text Label 2850 1400 0    50   ~ 0
CLK_P
Text Label 2850 1500 0    50   ~ 0
CLK_N
Text Label 2850 1800 0    50   ~ 0
i2cB_SCL
Text Label 2850 1900 0    50   ~ 0
i2cA_SCL
Text Label 2850 2000 0    50   ~ 0
FIFO_full
Text Label 2850 2100 0    50   ~ 0
SDO
Text Label 2850 2200 0    50   ~ 0
SCLK
Text Label 2850 2300 0    50   ~ 0
CS
Text Label 3850 2300 0    50   ~ 0
OTRG
Text Label 3850 2200 0    50   ~ 0
SRST
Text Label 3850 2100 0    50   ~ 0
SDI
Text Label 3850 2000 0    50   ~ 0
ACQ_EN
Text Label 3850 1900 0    50   ~ 0
i2cA_SDA
Text Label 3850 1800 0    50   ~ 0
i2cB_SDA
Text Label 3850 1700 0    50   ~ 0
reset
Text Label 3850 1600 0    50   ~ 0
TXD_N
Text Label 3850 1500 0    50   ~ 0
TXD_P
Text Label 3850 1400 0    50   ~ 0
T0_ETRG_N
Text Label 3850 1300 0    50   ~ 0
T0_ETRG_P
Text Label 3850 1200 0    50   ~ 0
FE_ETRG_N
Text Label 3850 1100 0    50   ~ 0
FE_ETRG_P
$Comp
L power:GNDD #PWR024
U 1 1 5C4258DD
P 3000 1600
F 0 "#PWR024" H 3000 1350 50  0001 C CNN
F 1 "GNDD" V 3000 1450 50  0000 R CNN
F 2 "" H 3000 1600 50  0000 C CNN
F 3 "" H 3000 1600 50  0000 C CNN
	1    3000 1600
	0    1    1    0   
$EndComp
Wire Wire Line
	3250 1600 3250 1700
Wire Wire Line
	3250 1700 3300 1700
Wire Wire Line
	3000 1600 3250 1600
Connection ~ 3250 1600
Wire Wire Line
	3250 1600 3300 1600
Text Notes 900  2400 0    50   ~ 0
Check Vera's interface board design carefully!
$Sheet
S 9300 1000 1150 3700
U 5C429F60
F0 "SiPM_Connection" 50
F1 "SiPM_Connection.sch" 50
F2 "HV" I L 9300 1250 50 
F3 "SiPM[1]" O R 10450 1100 50 
F4 "SiPM[2]" O R 10450 1200 50 
F5 "SiPM[3]" O R 10450 1300 50 
F6 "SiPM[4]" O R 10450 1400 50 
F7 "SiPM[5]" O R 10450 1500 50 
F8 "SiPM[6]" O R 10450 1600 50 
F9 "SiPM[7]" O R 10450 1700 50 
F10 "SiPM[8]" O R 10450 1800 50 
F11 "SiPM[9]" O R 10450 1900 50 
F12 "SiPM[10]" O R 10450 2000 50 
F13 "SiPM[11]" O R 10450 2100 50 
F14 "SiPM[13]" O R 10450 2300 50 
F15 "SiPM[14]" O R 10450 2400 50 
F16 "SiPM[15]" O R 10450 2500 50 
F17 "SiPM[16]" O R 10450 2600 50 
F18 "SiPM[17]" O R 10450 2700 50 
F19 "SiPM[18]" O R 10450 2800 50 
F20 "SiPM[12]" O R 10450 2200 50 
F21 "SiPM[19]" O R 10450 2900 50 
F22 "SiPM[20]" O R 10450 3000 50 
F23 "SiPM[21]" O R 10450 3100 50 
F24 "SiPM[22]" O R 10450 3200 50 
F25 "SiPM[23]" O R 10450 3300 50 
F26 "SiPM[24]" O R 10450 3400 50 
F27 "SiPM[25]" O R 10450 3500 50 
F28 "SiPM[26]" O R 10450 3600 50 
F29 "SiPM[27]" O R 10450 3700 50 
F30 "SiPM[28]" O R 10450 3800 50 
F31 "SiPM[29]" O R 10450 3900 50 
F32 "SiPM[30]" O R 10450 4000 50 
F33 "SiPM[31]" O R 10450 4100 50 
F34 "SiPM[32]" O R 10450 4200 50 
F35 "SiPM[33]" O R 10450 4300 50 
F36 "SiPM[34]" O R 10450 4400 50 
F37 "SiPM[35]" O R 10450 4500 50 
F38 "SiPM[36]" O R 10450 4600 50 
$EndSheet
Wire Wire Line
	9050 1250 9300 1250
Text Label 9050 1250 0    50   ~ 0
HV
Wire Wire Line
	4750 4700 4300 4700
Wire Wire Line
	4750 4800 4300 4800
Wire Wire Line
	4750 4900 4300 4900
Wire Wire Line
	4750 5000 4300 5000
Wire Wire Line
	4750 5100 4300 5100
Wire Wire Line
	4750 5200 4300 5200
Wire Wire Line
	4750 5300 4300 5300
Wire Wire Line
	4750 5400 4300 5400
Wire Wire Line
	4750 5500 4300 5500
Wire Wire Line
	4750 5600 4300 5600
Text Label 4350 4700 0    50   ~ 0
TXD_P
Text Label 4350 4800 0    50   ~ 0
TXD_N
Text Label 4350 4900 0    50   ~ 0
CLK_P
Text Label 4350 5000 0    50   ~ 0
CLK_N
Text Label 4350 5100 0    50   ~ 0
T0_ETRG_P
Text Label 4350 5200 0    50   ~ 0
T0_ETRG_N
Text Label 4350 5300 0    50   ~ 0
FIFO_ETRG_P
Text Label 4350 5400 0    50   ~ 0
FIFO_ETRG_N
Text Label 4350 5500 0    50   ~ 0
FE_ETRG_P
Text Label 4350 5600 0    50   ~ 0
FE_ETRG_N
Wire Wire Line
	4300 5800 4750 5800
Wire Wire Line
	4750 5900 4300 5900
Wire Wire Line
	4750 6000 4300 6000
Wire Wire Line
	2500 5900 2850 5900
Wire Wire Line
	2500 5800 2850 5800
Wire Wire Line
	2500 5700 2850 5700
Wire Wire Line
	2500 5600 2850 5600
Wire Wire Line
	2500 5500 2850 5500
Wire Wire Line
	2500 5400 2850 5400
Wire Wire Line
	2500 5300 2850 5300
Wire Wire Line
	2500 5200 2850 5200
Text Label 4400 5800 0    50   ~ 0
OTRG
Text Label 2500 5900 0    50   ~ 0
CS
Text Label 2500 5800 0    50   ~ 0
SDI
Text Label 2500 5700 0    50   ~ 0
SCLK
Text Label 2500 5600 0    50   ~ 0
SRST
Text Label 2500 5500 0    50   ~ 0
SDO
Text Label 2500 5400 0    50   ~ 0
ACQ_EN
Text Label 2500 5300 0    50   ~ 0
FIFO_full
Text Label 2500 5200 0    50   ~ 0
reset
Text Label 2500 5000 0    50   ~ 0
i2cB_SDA
Text Label 2500 4900 0    50   ~ 0
i2cB_SCL
Text Label 2500 4800 0    50   ~ 0
i2cA_SDA
Text Label 2500 4700 0    50   ~ 0
i2cA_SCL
$Comp
L device:R R6
U 1 1 5C8AC835
P 2050 4200
F 0 "R6" V 2100 4050 50  0000 C CNN
F 1 "4.7k" V 2050 4200 50  0000 C CNN
F 2 "Resistors_SMD:R_0603" V 1980 4200 50  0001 C CNN
F 3 "" H 2050 4200 50  0000 C CNN
	1    2050 4200
	0    1    1    0   
$EndComp
$Comp
L device:R R7
U 1 1 5C8AC8E7
P 2050 4300
F 0 "R7" V 2100 4150 50  0000 C CNN
F 1 "4.7k" V 2050 4300 50  0000 C CNN
F 2 "Resistors_SMD:R_0603" V 1980 4300 50  0001 C CNN
F 3 "" H 2050 4300 50  0000 C CNN
	1    2050 4300
	0    1    1    0   
$EndComp
$Comp
L device:R R8
U 1 1 5C8AC901
P 2050 4400
F 0 "R8" V 2100 4250 50  0000 C CNN
F 1 "4.7k" V 2050 4400 50  0000 C CNN
F 2 "Resistors_SMD:R_0603" V 1980 4400 50  0001 C CNN
F 3 "" H 2050 4400 50  0000 C CNN
	1    2050 4400
	0    1    1    0   
$EndComp
$Comp
L device:R R9
U 1 1 5C8AC91D
P 2050 4500
F 0 "R9" V 2100 4350 50  0000 C CNN
F 1 "4.7k" V 2050 4500 50  0000 C CNN
F 2 "Resistors_SMD:R_0603" V 1980 4500 50  0001 C CNN
F 3 "" H 2050 4500 50  0000 C CNN
	1    2050 4500
	0    1    1    0   
$EndComp
$Comp
L device:R R10
U 1 1 5C8AC93F
P 2050 4600
F 0 "R10" V 2100 4450 50  0000 C CNN
F 1 "4.7k" V 2050 4600 50  0000 C CNN
F 2 "Resistors_SMD:R_0603" V 1980 4600 50  0001 C CNN
F 3 "" H 2050 4600 50  0000 C CNN
	1    2050 4600
	0    1    1    0   
$EndComp
Wire Wire Line
	2200 4200 2850 4200
Wire Wire Line
	2200 4300 2850 4300
Wire Wire Line
	2200 4400 2850 4400
Wire Wire Line
	2200 4500 2850 4500
Wire Wire Line
	2200 4600 2850 4600
$Comp
L power:GNDD #PWR08
U 1 1 5C8BFAC1
P 1750 4200
F 0 "#PWR08" H 1750 3950 50  0001 C CNN
F 1 "GNDD" V 1755 4072 50  0000 R CNN
F 2 "" H 1750 4200 50  0000 C CNN
F 3 "" H 1750 4200 50  0000 C CNN
	1    1750 4200
	0    1    1    0   
$EndComp
$Comp
L power:GNDD #PWR09
U 1 1 5C8BFB01
P 1750 4300
F 0 "#PWR09" H 1750 4050 50  0001 C CNN
F 1 "GNDD" V 1755 4172 50  0000 R CNN
F 2 "" H 1750 4300 50  0000 C CNN
F 3 "" H 1750 4300 50  0000 C CNN
	1    1750 4300
	0    1    1    0   
$EndComp
$Comp
L power:GNDD #PWR010
U 1 1 5C8BFB1C
P 1750 4400
F 0 "#PWR010" H 1750 4150 50  0001 C CNN
F 1 "GNDD" V 1755 4272 50  0000 R CNN
F 2 "" H 1750 4400 50  0000 C CNN
F 3 "" H 1750 4400 50  0000 C CNN
	1    1750 4400
	0    1    1    0   
$EndComp
$Comp
L power:GNDD #PWR011
U 1 1 5C8BFB37
P 1750 4500
F 0 "#PWR011" H 1750 4250 50  0001 C CNN
F 1 "GNDD" V 1755 4372 50  0000 R CNN
F 2 "" H 1750 4500 50  0000 C CNN
F 3 "" H 1750 4500 50  0000 C CNN
	1    1750 4500
	0    1    1    0   
$EndComp
$Comp
L power:GNDD #PWR012
U 1 1 5C8BFB52
P 1750 4600
F 0 "#PWR012" H 1750 4350 50  0001 C CNN
F 1 "GNDD" V 1755 4472 50  0000 R CNN
F 2 "" H 1750 4600 50  0000 C CNN
F 3 "" H 1750 4600 50  0000 C CNN
	1    1750 4600
	0    1    1    0   
$EndComp
Wire Wire Line
	1750 4200 1900 4200
Wire Wire Line
	1750 4300 1900 4300
Wire Wire Line
	1750 4400 1900 4400
Wire Wire Line
	1750 4500 1900 4500
Wire Wire Line
	1750 4600 1900 4600
$Comp
L device:C C1
U 1 1 5C8D4634
P 1200 5650
F 0 "C1" H 1250 5750 50  0000 L CNN
F 1 "100p" H 1250 5550 50  0000 L CNN
F 2 "Capacitors_SMD:C_0603" H 1238 5500 50  0001 C CNN
F 3 "" H 1200 5650 50  0000 C CNN
	1    1200 5650
	1    0    0    -1  
$EndComp
$Comp
L device:C C2
U 1 1 5C8D4969
P 1500 5650
F 0 "C2" H 1550 5750 50  0000 L CNN
F 1 "10p" H 1550 5550 50  0000 L CNN
F 2 "Capacitors_SMD:C_0603" H 1538 5500 50  0001 C CNN
F 3 "" H 1500 5650 50  0000 C CNN
	1    1500 5650
	1    0    0    -1  
$EndComp
$Comp
L device:C C3
U 1 1 5C8D4A56
P 1800 5650
F 0 "C3" H 1850 5750 50  0000 L CNN
F 1 "10p" H 1850 5550 50  0000 L CNN
F 2 "Capacitors_SMD:C_0603" H 1838 5500 50  0001 C CNN
F 3 "" H 1800 5650 50  0000 C CNN
	1    1800 5650
	1    0    0    -1  
$EndComp
$Comp
L device:C C4
U 1 1 5C8D4A84
P 2100 5650
F 0 "C4" H 2150 5750 50  0000 L CNN
F 1 "10p" H 2150 5550 50  0000 L CNN
F 2 "Capacitors_SMD:C_0603" H 2138 5500 50  0001 C CNN
F 3 "" H 2100 5650 50  0000 C CNN
	1    2100 5650
	1    0    0    -1  
$EndComp
$Comp
L power:GNDD #PWR01
U 1 1 5C8D4AD0
P 1200 5800
F 0 "#PWR01" H 1200 5550 50  0001 C CNN
F 1 "GNDD" H 1205 5627 50  0000 C CNN
F 2 "" H 1200 5800 50  0000 C CNN
F 3 "" H 1200 5800 50  0000 C CNN
	1    1200 5800
	1    0    0    -1  
$EndComp
$Comp
L power:GNDD #PWR07
U 1 1 5C8D4B3A
P 1500 5800
F 0 "#PWR07" H 1500 5550 50  0001 C CNN
F 1 "GNDD" H 1505 5627 50  0000 C CNN
F 2 "" H 1500 5800 50  0000 C CNN
F 3 "" H 1500 5800 50  0000 C CNN
	1    1500 5800
	1    0    0    -1  
$EndComp
$Comp
L power:GNDD #PWR013
U 1 1 5C8D4B80
P 1800 5800
F 0 "#PWR013" H 1800 5550 50  0001 C CNN
F 1 "GNDD" H 1805 5627 50  0000 C CNN
F 2 "" H 1800 5800 50  0000 C CNN
F 3 "" H 1800 5800 50  0000 C CNN
	1    1800 5800
	1    0    0    -1  
$EndComp
$Comp
L power:GNDD #PWR022
U 1 1 5C8D4BC6
P 2100 5800
F 0 "#PWR022" H 2100 5550 50  0001 C CNN
F 1 "GNDD" H 2105 5627 50  0000 C CNN
F 2 "" H 2100 5800 50  0000 C CNN
F 3 "" H 2100 5800 50  0000 C CNN
	1    2100 5800
	1    0    0    -1  
$EndComp
Wire Wire Line
	1500 5300 1500 5500
Wire Wire Line
	1800 5300 1800 5500
Wire Wire Line
	2100 5300 2100 5500
Text Label 1500 5450 1    50   ~ 0
PLL1
Text Label 1800 5450 1    50   ~ 0
PLL2
Text Label 2100 5450 1    50   ~ 0
PLL3
Wire Wire Line
	4750 4200 4300 4200
Wire Wire Line
	4750 4300 4300 4300
Wire Wire Line
	4750 4400 4300 4400
Wire Wire Line
	4750 4500 4300 4500
Text Label 4350 4200 0    50   ~ 0
PLL0
Text Label 4350 4300 0    50   ~ 0
PLL1
Text Label 4350 4400 0    50   ~ 0
PLL2
Text Label 4350 4500 0    50   ~ 0
PLL3
Wire Wire Line
	2500 3900 2850 3900
Wire Wire Line
	2500 3800 2850 3800
Wire Wire Line
	2500 3700 2850 3700
Wire Wire Line
	2500 3600 2850 3600
Wire Wire Line
	2500 3500 2850 3500
Wire Wire Line
	2500 3400 2850 3400
Wire Wire Line
	2500 3300 2850 3300
Wire Wire Line
	4750 3300 4300 3300
Wire Wire Line
	4750 3400 4300 3400
Text Label 2500 3300 0    50   ~ 0
REF_1p2
Text Label 2500 3400 0    50   ~ 0
VREF_ADC
Text Label 2500 3500 0    50   ~ 0
VREF_VCC
Text Label 2500 3600 0    50   ~ 0
VREF_VCM
Text Label 2500 3800 0    50   ~ 0
ADCp
Text Label 2500 3900 0    50   ~ 0
ADCn
Text Label 2500 4000 0    50   ~ 0
IN_CALIB
Text Label 4350 3300 0    50   ~ 0
AMON1
Text Label 4350 3400 0    50   ~ 0
AMON2
$Comp
L device:R R2
U 1 1 5C9321F3
P 1450 3400
F 0 "R2" V 1500 3250 50  0000 C CNN
F 1 "51" V 1450 3400 50  0000 C CNN
F 2 "Resistors_SMD:R_0603" V 1380 3400 50  0001 C CNN
F 3 "" H 1450 3400 50  0000 C CNN
	1    1450 3400
	0    1    1    0   
$EndComp
Wire Wire Line
	800  3400 1300 3400
Wire Wire Line
	2100 3400 1600 3400
$Comp
L device:R R3
U 1 1 5C944648
P 1450 3500
F 0 "R3" V 1500 3350 50  0000 C CNN
F 1 "51" V 1450 3500 50  0000 C CNN
F 2 "Resistors_SMD:R_0603" V 1380 3500 50  0001 C CNN
F 3 "" H 1450 3500 50  0000 C CNN
	1    1450 3500
	0    1    1    0   
$EndComp
Wire Wire Line
	800  3500 1300 3500
Wire Wire Line
	2100 3500 1600 3500
$Comp
L device:R R4
U 1 1 5C94AD02
P 1450 3600
F 0 "R4" V 1500 3450 50  0000 C CNN
F 1 "51" V 1450 3600 50  0000 C CNN
F 2 "Resistors_SMD:R_0603" V 1380 3600 50  0001 C CNN
F 3 "" H 1450 3600 50  0000 C CNN
	1    1450 3600
	0    1    1    0   
$EndComp
Wire Wire Line
	800  3600 1300 3600
Wire Wire Line
	2100 3600 1600 3600
$Comp
L device:R R5
U 1 1 5C94AD0B
P 1450 3700
F 0 "R5" V 1500 3550 50  0000 C CNN
F 1 "51" V 1450 3700 50  0000 C CNN
F 2 "Resistors_SMD:R_0603" V 1380 3700 50  0001 C CNN
F 3 "" H 1450 3700 50  0000 C CNN
	1    1450 3700
	0    1    1    0   
$EndComp
Wire Wire Line
	800  3700 1300 3700
Wire Wire Line
	2100 3700 1600 3700
Text Label 800  3400 0    50   ~ 0
CLK_P
Text Label 800  3500 0    50   ~ 0
T0_ETRG_P
Text Label 800  3600 0    50   ~ 0
FIFO_ETRG_P
Text Label 800  3700 0    50   ~ 0
FE_ETRG_P
Text Label 1650 3400 0    50   ~ 0
CLK_N
Text Label 1650 3500 0    50   ~ 0
T0_ETRG_N
Text Label 1650 3600 0    50   ~ 0
FIFO_ETRG_N
Text Label 1650 3700 0    50   ~ 0
FE_ETRG_N
$Sheet
S 6100 1000 1950 600 
U 5C3FB4A5
F0 "Refs_Buffers" 50
F1 "Refs_Buffers.sch" 50
F2 "REF_VCC" O R 8050 1150 50 
F3 "REF_VCM" O R 8050 1250 50 
F4 "REF_1p2" O R 8050 1350 50 
F5 "REF_ADC" O R 8050 1450 50 
$EndSheet
Wire Wire Line
	5950 4300 6150 4300
Wire Wire Line
	5950 4400 6150 4400
Wire Wire Line
	5950 4500 6150 4500
Wire Wire Line
	5950 4600 6150 4600
Wire Wire Line
	5950 4700 6150 4700
Wire Wire Line
	5950 4800 6150 4800
Wire Wire Line
	5950 4900 6150 4900
Wire Wire Line
	5950 5000 6150 5000
Wire Wire Line
	5950 5100 6150 5100
Wire Wire Line
	5950 5200 6150 5200
Wire Wire Line
	5950 5300 6150 5300
Wire Wire Line
	5950 5400 6150 5400
Wire Wire Line
	5950 5500 6150 5500
Wire Wire Line
	5950 5600 6150 5600
Wire Wire Line
	5950 5700 6150 5700
Wire Wire Line
	5950 5800 6150 5800
Wire Wire Line
	5950 5900 6150 5900
Wire Wire Line
	5950 6000 6150 6000
Wire Wire Line
	7750 6000 7550 6000
Wire Wire Line
	7550 5900 7750 5900
Wire Wire Line
	7550 5800 7750 5800
Wire Wire Line
	7550 5700 7750 5700
Wire Wire Line
	7550 5600 7750 5600
Wire Wire Line
	7550 5500 7750 5500
Wire Wire Line
	7550 5400 7750 5400
Wire Wire Line
	7550 5300 7750 5300
Wire Wire Line
	7550 5200 7750 5200
Wire Wire Line
	7550 5100 7750 5100
Wire Wire Line
	7550 5000 7750 5000
Wire Wire Line
	7550 4900 7750 4900
Wire Wire Line
	7550 4800 7750 4800
Wire Wire Line
	7550 4700 7750 4700
Wire Wire Line
	7550 4600 7750 4600
Wire Wire Line
	7550 4500 7750 4500
Wire Wire Line
	7550 4400 7750 4400
Wire Wire Line
	7550 4300 7750 4300
Text Label 5950 4300 0    50   ~ 0
SiPM[1]
Text Label 5950 4400 0    50   ~ 0
SiPM[2]
Text Label 5950 4500 0    50   ~ 0
SiPM[3]
Text Label 5950 4600 0    50   ~ 0
SiPM[4]
Text Label 5950 4700 0    50   ~ 0
SiPM[5]
Text Label 5950 4800 0    50   ~ 0
SiPM[6]
Text Label 5950 4900 0    50   ~ 0
SiPM[7]
Text Label 5950 5000 0    50   ~ 0
SiPM[8]
Text Label 5950 5100 0    50   ~ 0
SiPM[9]
Text Label 5950 5200 0    50   ~ 0
SiPM[10]
Text Label 5950 5300 0    50   ~ 0
SiPM[11]
Text Label 5950 5400 0    50   ~ 0
SiPM[12]
Text Label 5950 5500 0    50   ~ 0
SiPM[13]
Text Label 5950 5600 0    50   ~ 0
SiPM[14]
Text Label 5950 5700 0    50   ~ 0
SiPM[15]
Text Label 5950 5800 0    50   ~ 0
SiPM[16]
Text Label 5950 5900 0    50   ~ 0
SiPM[17]
Text Label 5950 6000 0    50   ~ 0
SiPM[18]
Text Label 7550 4300 0    50   ~ 0
SiPM[19]
Text Label 7550 4400 0    50   ~ 0
SiPM[20]
Text Label 7550 4500 0    50   ~ 0
SiPM[21]
Text Label 7550 4600 0    50   ~ 0
SiPM[22]
Text Label 7550 4700 0    50   ~ 0
SiPM[23]
Text Label 7550 4800 0    50   ~ 0
SiPM[24]
Text Label 7550 4900 0    50   ~ 0
SiPM[25]
Text Label 7550 5000 0    50   ~ 0
SiPM[26]
Text Label 7550 5100 0    50   ~ 0
SiPM[27]
Text Label 7550 5200 0    50   ~ 0
SiPM[28]
Text Label 7550 5300 0    50   ~ 0
SiPM[29]
Text Label 7550 5400 0    50   ~ 0
SiPM[30]
Text Label 7550 5500 0    50   ~ 0
SiPM[31]
Text Label 7550 5600 0    50   ~ 0
SiPM[32]
Text Label 7550 5700 0    50   ~ 0
SiPM[33]
Text Label 7550 5800 0    50   ~ 0
SiPM[34]
Text Label 7550 5900 0    50   ~ 0
SiPM[35]
Text Label 7550 6000 0    50   ~ 0
SiPM[36]
$Comp
L conn:CONN_02X13 P2
U 1 1 5C40FEAB
P 3550 1700
F 0 "P2" H 3550 2515 50  0000 C CNN
F 1 "CONN_02X13" H 3550 2424 50  0000 C CNN
F 2 "KLauS-Custom:Conn_2X13" H 3550 550 50  0001 C CNN
F 3 "" H 3550 550 50  0000 C CNN
	1    3550 1700
	1    0    0    -1  
$EndComp
$Comp
L conn:CONN_02X12 P1
U 1 1 5C40FFF6
P 1650 1650
F 0 "P1" H 1650 2415 50  0000 C CNN
F 1 "CONN_02X12" H 1650 2324 50  0000 C CNN
F 2 "KLauS-Custom:Conn_2X12" H 1650 450 50  0001 C CNN
F 3 "" H 1650 450 50  0000 C CNN
	1    1650 1650
	1    0    0    -1  
$EndComp
$Comp
L power_special:VCCA33 #PWR015
U 1 1 5C3F0031
P 2050 1300
F 0 "#PWR015" H 2050 1150 50  0001 C CNN
F 1 "VCCA33" V 2050 1450 50  0000 L CNN
F 2 "" H 2050 1300 50  0000 C CNN
F 3 "" H 2050 1300 50  0000 C CNN
	1    2050 1300
	0    1    1    0   
$EndComp
$Comp
L KLauS-ASIC:KLauS-ASIC U1
U 1 1 5C4106AD
P 6850 4150
F 0 "U1" H 6850 4265 50  0000 C CNN
F 1 "KLauS-ASIC" H 6850 4174 50  0000 C CNN
F 2 "KLauS-BGA:KLauS-BGA" H 6850 4150 50  0001 C CNN
F 3 "" H 6850 4150 50  0001 C CNN
	1    6850 4150
	1    0    0    -1  
$EndComp
$Comp
L KLauS-ASIC:KLauS-ASIC U1
U 2 1 5C41081A
P 3550 3150
F 0 "U1" H 3575 3265 50  0000 C CNN
F 1 "KLauS-ASIC" H 3575 3174 50  0000 C CNN
F 2 "KLauS-BGA:KLauS-BGA" H 3550 3150 50  0001 C CNN
F 3 "" H 3550 3150 50  0001 C CNN
	2    3550 3150
	1    0    0    -1  
$EndComp
$Comp
L power_special:VCCA18 #PWR017
U 1 1 5C412737
P 2050 1500
F 0 "#PWR017" H 2050 1350 50  0001 C CNN
F 1 "VCCA18" V 2050 1650 50  0000 L CNN
F 2 "" H 2050 1500 50  0000 C CNN
F 3 "" H 2050 1500 50  0000 C CNN
	1    2050 1500
	0    1    1    0   
$EndComp
$Sheet
S 8800 5600 1950 500 
U 5C437AA2
F0 "Power" 50
F1 "Power.sch" 50
$EndSheet
$Comp
L device:R R1
U 1 1 5E2039D3
P 1200 5250
F 0 "R1" V 1300 5250 50  0000 C CNN
F 1 "51" V 1200 5250 50  0000 C CNN
F 2 "Resistors_SMD:R_0603" V 1130 5250 50  0001 C CNN
F 3 "" H 1200 5250 50  0000 C CNN
	1    1200 5250
	-1   0    0    1   
$EndComp
Wire Wire Line
	1200 5400 1200 5450
Wire Wire Line
	1200 4950 1200 5100
Text Label 1200 5100 1    50   ~ 0
PLL0
$Sheet
S 6100 2700 1950 850 
U 5E232F61
F0 "Monitor" 50
F1 "Monitor.sch" 50
F2 "AMON1" I L 6100 2850 50 
F3 "AMON2" I L 6100 3000 50 
F4 "PLLVCTRL" I L 6100 3150 50 
F5 "HV" I L 6100 3300 50 
F6 "PLLVC" I L 6100 3450 50 
$EndSheet
Wire Wire Line
	5700 2850 6100 2850
Wire Wire Line
	5700 3000 6100 3000
Wire Wire Line
	5700 3150 6100 3150
Wire Wire Line
	5700 3300 6100 3300
Text Label 5700 3300 0    50   ~ 0
HV
Text Label 5700 3150 0    50   ~ 0
PLLVCTRL
Text Label 5700 3000 0    50   ~ 0
AMON2
Text Label 5700 2850 0    50   ~ 0
AMON1
Wire Wire Line
	800  5450 1200 5450
Connection ~ 1200 5450
Wire Wire Line
	1200 5450 1200 5500
Text Label 800  5450 0    50   ~ 0
PLLVCTRL
Wire Wire Line
	8400 1150 8050 1150
Wire Wire Line
	8400 1250 8050 1250
Wire Wire Line
	8400 1350 8050 1350
Wire Wire Line
	8400 1450 8050 1450
Text Label 8100 1150 0    50   ~ 0
VREF_VCC
Text Label 8100 1250 0    50   ~ 0
VREF_VCM
Text Label 8100 1350 0    50   ~ 0
REF_1p2
Text Label 8100 1450 0    50   ~ 0
VREF_ADC
$Sheet
S 6100 2000 1950 500 
U 5E2BA6AD
F0 "ADC_driver" 50
F1 "ADC_Driver.sch" 50
F2 "REF_VCM" I L 6100 2250 50 
F3 "ADCp" O R 8050 2150 50 
F4 "ADCn" O R 8050 2350 50 
$EndSheet
Wire Wire Line
	5750 2250 6100 2250
Wire Wire Line
	8400 2150 8050 2150
Wire Wire Line
	8400 2350 8050 2350
Text Label 5750 2250 0    50   ~ 0
VREF_VCM
Text Label 8100 2150 0    50   ~ 0
ADCp
Text Label 8100 2350 0    50   ~ 0
ADCn
$Comp
L Mechanical:MountingHole H1
U 1 1 5E347D9F
P 1150 6450
F 0 "H1" H 1249 6503 60  0000 L CNN
F 1 "MountingHole" H 1249 6397 60  0000 L CNN
F 2 "MountingHoles-Custom:Mountinghole_3mm_NP" H 1150 6450 60  0001 C CNN
F 3 "" H 1150 6450 60  0001 C CNN
	1    1150 6450
	1    0    0    -1  
$EndComp
$Comp
L Mechanical:MountingHole H2
U 1 1 5E347E75
P 1150 6750
F 0 "H2" H 1249 6803 60  0000 L CNN
F 1 "MountingHole" H 1249 6697 60  0000 L CNN
F 2 "MountingHoles-Custom:Mountinghole_3mm_NP" H 1150 6750 60  0001 C CNN
F 3 "" H 1150 6750 60  0001 C CNN
	1    1150 6750
	1    0    0    -1  
$EndComp
$Comp
L Mechanical:MountingHole H3
U 1 1 5E347EDB
P 1150 7050
F 0 "H3" H 1249 7103 60  0000 L CNN
F 1 "MountingHole" H 1249 6997 60  0000 L CNN
F 2 "MountingHoles-Custom:Mountinghole_3mm_NP" H 1150 7050 60  0001 C CNN
F 3 "" H 1150 7050 60  0001 C CNN
	1    1150 7050
	1    0    0    -1  
$EndComp
$Comp
L Mechanical:MountingHole H4
U 1 1 5E347F1B
P 1150 7350
F 0 "H4" H 1249 7403 60  0000 L CNN
F 1 "MountingHole" H 1249 7297 60  0000 L CNN
F 2 "MountingHoles-Custom:Mountinghole_3mm_NP" H 1150 7350 60  0001 C CNN
F 3 "" H 1150 7350 60  0001 C CNN
	1    1150 7350
	1    0    0    -1  
$EndComp
$Comp
L Mechanical:REFDES REF1
U 1 1 5E347FD8
P 2700 6450
F 0 "REF1" H 2840 6503 60  0000 L CNN
F 1 "REFDES" H 2840 6397 60  0000 L CNN
F 2 "MountingHoles-Custom:REF_marker" H 2700 6450 60  0001 C CNN
F 3 "" H 2700 6450 60  0001 C CNN
	1    2700 6450
	1    0    0    -1  
$EndComp
$Comp
L Mechanical:REFDES REF2
U 1 1 5E3480D7
P 2700 6750
F 0 "REF2" H 2840 6803 60  0000 L CNN
F 1 "REFDES" H 2840 6697 60  0000 L CNN
F 2 "MountingHoles-Custom:REF_marker" H 2700 6750 60  0001 C CNN
F 3 "" H 2700 6750 60  0001 C CNN
	1    2700 6750
	1    0    0    -1  
$EndComp
$Comp
L Mechanical:REFDES REF3
U 1 1 5E34813B
P 2700 7050
F 0 "REF3" H 2840 7103 60  0000 L CNN
F 1 "REFDES" H 2840 6997 60  0000 L CNN
F 2 "MountingHoles-Custom:REF_marker" H 2700 7050 60  0001 C CNN
F 3 "" H 2700 7050 60  0001 C CNN
	1    2700 7050
	1    0    0    -1  
$EndComp
$Comp
L Mechanical:REFDES REF4
U 1 1 5E348189
P 2700 7350
F 0 "REF4" H 2840 7403 60  0000 L CNN
F 1 "REFDES" H 2840 7297 60  0000 L CNN
F 2 "MountingHoles-Custom:REF_marker" H 2700 7350 60  0001 C CNN
F 3 "" H 2700 7350 60  0001 C CNN
	1    2700 7350
	1    0    0    -1  
$EndComp
$Comp
L KLauS-Custom:BNC P13
U 1 1 5E35C813
P 850 4000
F 0 "P13" H 1000 4050 50  0000 C CNN
F 1 "BNC" H 1000 3900 50  0000 C CNN
F 2 "KLauS-Custom:BNC_SMA" H 850 4000 50  0001 C CNN
F 3 "" H 850 4000 50  0000 C CNN
	1    850  4000
	-1   0    0    -1  
$EndComp
$Comp
L device:R R76
U 1 1 5E35CA58
P 1200 4200
F 0 "R76" V 1300 4200 50  0000 C CNN
F 1 "51" V 1200 4200 50  0000 C CNN
F 2 "Resistors_SMD:R_0603" V 1130 4200 50  0001 C CNN
F 3 "" H 1200 4200 50  0000 C CNN
	1    1200 4200
	-1   0    0    1   
$EndComp
Wire Wire Line
	1000 4000 1200 4000
Wire Wire Line
	1200 4050 1200 4000
Connection ~ 1200 4000
Wire Wire Line
	1200 4000 2850 4000
$Comp
L device:R R77
U 1 1 5C48DF08
P 2050 4700
F 0 "R77" V 2100 4550 50  0000 C CNN
F 1 "4.7k" V 2050 4700 50  0000 C CNN
F 2 "Resistors_SMD:R_0603" V 1980 4700 50  0001 C CNN
F 3 "" H 2050 4700 50  0000 C CNN
	1    2050 4700
	0    1    1    0   
$EndComp
$Comp
L device:R R78
U 1 1 5C48DF5A
P 2050 4800
F 0 "R78" V 2100 4650 50  0000 C CNN
F 1 "4.7k" V 2050 4800 50  0000 C CNN
F 2 "Resistors_SMD:R_0603" V 1980 4800 50  0001 C CNN
F 3 "" H 2050 4800 50  0000 C CNN
	1    2050 4800
	0    1    1    0   
$EndComp
$Comp
L device:R R79
U 1 1 5C48DFAE
P 2050 4900
F 0 "R79" V 2100 4750 50  0000 C CNN
F 1 "4.7k" V 2050 4900 50  0000 C CNN
F 2 "Resistors_SMD:R_0603" V 1980 4900 50  0001 C CNN
F 3 "" H 2050 4900 50  0000 C CNN
	1    2050 4900
	0    1    1    0   
$EndComp
$Comp
L device:R R80
U 1 1 5C48E004
P 2050 5000
F 0 "R80" V 2100 4850 50  0000 C CNN
F 1 "4.7k" V 2050 5000 50  0000 C CNN
F 2 "Resistors_SMD:R_0603" V 1980 5000 50  0001 C CNN
F 3 "" H 2050 5000 50  0000 C CNN
	1    2050 5000
	0    1    1    0   
$EndComp
Wire Wire Line
	2200 4700 2850 4700
Wire Wire Line
	2200 4800 2850 4800
Wire Wire Line
	2200 4900 2850 4900
Wire Wire Line
	2200 5000 2850 5000
Wire Wire Line
	1900 4700 1800 4700
Wire Wire Line
	1800 4700 1800 4800
Wire Wire Line
	1800 5000 1900 5000
Wire Wire Line
	1900 4900 1800 4900
Connection ~ 1800 4900
Wire Wire Line
	1800 4900 1800 5000
Wire Wire Line
	1900 4800 1800 4800
Connection ~ 1800 4800
Wire Wire Line
	1800 4800 1800 4850
$Comp
L power_special:VCCD33 #PWR0159
U 1 1 5C4EEDEB
P 1750 4850
F 0 "#PWR0159" H 1750 4700 50  0001 C CNN
F 1 "VCCD33" V 1750 4950 50  0000 L CNN
F 2 "" H 1750 4850 50  0000 C CNN
F 3 "" H 1750 4850 50  0000 C CNN
	1    1750 4850
	0    -1   -1   0   
$EndComp
Wire Wire Line
	1750 4850 1800 4850
Connection ~ 1800 4850
Wire Wire Line
	1800 4850 1800 4900
$Comp
L Mechanical:TP1 P14
U 1 1 5C5933DB
P 4950 5800
F 0 "P14" H 5100 5700 50  0000 L CNN
F 1 "TP1" H 4950 5800 50  0000 L CNN
F 2 "MountingHoles-Custom:TP1" H 4950 5800 50  0001 C CNN
F 3 "" H 4950 5800 50  0001 C CNN
	1    4950 5800
	1    0    0    -1  
$EndComp
$Comp
L Mechanical:TP1 P15
U 1 1 5C593543
P 4950 6100
F 0 "P15" H 5100 6000 50  0000 L CNN
F 1 "TP1" H 4950 6100 50  0000 L CNN
F 2 "MountingHoles-Custom:TP1" H 4950 6100 50  0001 C CNN
F 3 "" H 4950 6100 50  0001 C CNN
	1    4950 6100
	1    0    0    1   
$EndComp
$Comp
L power:GNDA #PWR0155
U 1 1 5C4D3A8E
P 2500 3700
F 0 "#PWR0155" H 2500 3450 50  0001 C CNN
F 1 "GNDA" V 2500 3550 50  0000 R CNN
F 2 "" H 2500 3700 50  0000 C CNN
F 3 "" H 2500 3700 50  0000 C CNN
	1    2500 3700
	0    1    1    0   
$EndComp
Wire Wire Line
	10650 4600 10450 4600
Wire Wire Line
	10450 4500 10650 4500
Wire Wire Line
	10450 4400 10650 4400
Wire Wire Line
	10450 4300 10650 4300
Wire Wire Line
	10450 4200 10650 4200
Wire Wire Line
	10450 4100 10650 4100
Wire Wire Line
	10450 4000 10650 4000
Wire Wire Line
	10450 3900 10650 3900
Wire Wire Line
	10450 3800 10650 3800
Wire Wire Line
	10450 3700 10650 3700
Wire Wire Line
	10450 3600 10650 3600
Wire Wire Line
	10450 3500 10650 3500
Wire Wire Line
	10450 3400 10650 3400
Wire Wire Line
	10450 3300 10650 3300
Wire Wire Line
	10450 3200 10650 3200
Wire Wire Line
	10450 3100 10650 3100
Wire Wire Line
	10450 3000 10650 3000
Wire Wire Line
	10450 2900 10650 2900
Text Label 10450 2900 0    50   ~ 0
SiPM[19]
Text Label 10450 3000 0    50   ~ 0
SiPM[20]
Text Label 10450 3100 0    50   ~ 0
SiPM[21]
Text Label 10450 3200 0    50   ~ 0
SiPM[22]
Text Label 10450 3300 0    50   ~ 0
SiPM[23]
Text Label 10450 3400 0    50   ~ 0
SiPM[24]
Text Label 10450 3500 0    50   ~ 0
SiPM[25]
Text Label 10450 3600 0    50   ~ 0
SiPM[26]
Text Label 10450 3700 0    50   ~ 0
SiPM[27]
Text Label 10450 3800 0    50   ~ 0
SiPM[28]
Text Label 10450 3900 0    50   ~ 0
SiPM[29]
Text Label 10450 4000 0    50   ~ 0
SiPM[30]
Text Label 10450 4100 0    50   ~ 0
SiPM[31]
Text Label 10450 4200 0    50   ~ 0
SiPM[32]
Text Label 10450 4300 0    50   ~ 0
SiPM[33]
Text Label 10450 4400 0    50   ~ 0
SiPM[34]
Text Label 10450 4500 0    50   ~ 0
SiPM[35]
Text Label 10450 4600 0    50   ~ 0
SiPM[36]
Wire Wire Line
	10450 1100 10650 1100
Wire Wire Line
	10450 1200 10650 1200
Wire Wire Line
	10450 1300 10650 1300
Wire Wire Line
	10450 1400 10650 1400
Wire Wire Line
	10450 1500 10650 1500
Wire Wire Line
	10450 1600 10650 1600
Wire Wire Line
	10450 1700 10650 1700
Wire Wire Line
	10450 1800 10650 1800
Wire Wire Line
	10450 1900 10650 1900
Wire Wire Line
	10450 2000 10650 2000
Wire Wire Line
	10450 2100 10650 2100
Wire Wire Line
	10450 2200 10650 2200
Wire Wire Line
	10450 2300 10650 2300
Wire Wire Line
	10450 2400 10650 2400
Wire Wire Line
	10450 2500 10650 2500
Wire Wire Line
	10450 2600 10650 2600
Wire Wire Line
	10450 2700 10650 2700
Wire Wire Line
	10450 2800 10650 2800
Text Label 10450 1100 0    50   ~ 0
SiPM[1]
Text Label 10450 1200 0    50   ~ 0
SiPM[2]
Text Label 10450 1300 0    50   ~ 0
SiPM[3]
Text Label 10450 1400 0    50   ~ 0
SiPM[4]
Text Label 10450 1500 0    50   ~ 0
SiPM[5]
Text Label 10450 1600 0    50   ~ 0
SiPM[6]
Text Label 10450 1700 0    50   ~ 0
SiPM[7]
Text Label 10450 1800 0    50   ~ 0
SiPM[8]
Text Label 10450 1900 0    50   ~ 0
SiPM[9]
Text Label 10450 2000 0    50   ~ 0
SiPM[10]
Text Label 10450 2100 0    50   ~ 0
SiPM[11]
Text Label 10450 2200 0    50   ~ 0
SiPM[12]
Text Label 10450 2300 0    50   ~ 0
SiPM[13]
Text Label 10450 2400 0    50   ~ 0
SiPM[14]
Text Label 10450 2500 0    50   ~ 0
SiPM[15]
Text Label 10450 2600 0    50   ~ 0
SiPM[16]
Text Label 10450 2700 0    50   ~ 0
SiPM[17]
Text Label 10450 2800 0    50   ~ 0
SiPM[18]
$Sheet
S 4700 6650 1300 500 
U 5C48C56A
F0 "Scintillator" 50
F1 "Scintillator.sch" 50
F2 "HV" I L 4700 6900 50 
F3 "SiPM0" O R 6000 6800 50 
F4 "SiPM1" O R 6000 7000 50 
$EndSheet
Wire Wire Line
	4450 6900 4700 6900
Text Label 4450 6900 0    50   ~ 0
HV
Text Label 6400 6800 2    50   ~ 0
SiPM[18]
Text Label 6400 7000 2    50   ~ 0
SiPM[19]
Wire Wire Line
	6000 6800 6400 6800
Wire Wire Line
	6000 7000 6400 7000
Wire Wire Line
	5700 3450 6100 3450
Text Label 5700 3450 0    50   ~ 0
PLL1
$Comp
L power:GNDA #PWR0157
U 1 1 5C5A2615
P 1200 4350
F 0 "#PWR0157" H 1200 4100 50  0001 C CNN
F 1 "GNDA" H 1205 4177 50  0000 C CNN
F 2 "" H 1200 4350 50  0000 C CNN
F 3 "" H 1200 4350 50  0000 C CNN
	1    1200 4350
	1    0    0    -1  
$EndComp
$Comp
L power:GNDA #PWR0158
U 1 1 5C5A269D
P 850 4200
F 0 "#PWR0158" H 850 3950 50  0001 C CNN
F 1 "GNDA" H 855 4027 50  0000 C CNN
F 2 "" H 850 4200 50  0000 C CNN
F 3 "" H 850 4200 50  0000 C CNN
	1    850  4200
	1    0    0    -1  
$EndComp
$EndSCHEMATC
