EESchema Schematic File Version 4
LIBS:BGASocket-cache
EELAYER 26 0
EELAYER END
$Descr A4 11693 8268
encoding utf-8
Sheet 7 7
Title "Scintillator and SiPM mounted on board"
Date "2019-01-18"
Rev ""
Comp "KIP, Uni-Heidelberg"
Comment1 ""
Comment2 ""
Comment3 ""
Comment4 ""
$EndDescr
NoConn ~ 6100 2500
NoConn ~ 5350 2500
$Comp
L device:R R74
U 1 1 5E30E29E
P 6500 2600
F 0 "R74" V 6293 2600 50  0000 C CNN
F 1 "0(DNP)" V 6384 2600 50  0000 C CNN
F 2 "Resistors_SMD:R_0603" V 6430 2600 50  0001 C CNN
F 3 "" H 6500 2600 50  0000 C CNN
	1    6500 2600
	0    1    1    0   
$EndComp
$Comp
L device:R R72
U 1 1 5E30E2F9
P 4950 2600
F 0 "R72" V 4743 2600 50  0000 C CNN
F 1 "1k(DNP)" V 4834 2600 50  0000 C CNN
F 2 "Resistors_SMD:R_0603" V 4880 2600 50  0001 C CNN
F 3 "" H 4950 2600 50  0000 C CNN
	1    4950 2600
	0    1    1    0   
$EndComp
Wire Wire Line
	5100 2600 5200 2600
Wire Wire Line
	6100 2600 6350 2600
Wire Wire Line
	7000 2600 6650 2600
Text HLabel 7000 2600 2    50   Output ~ 0
P1
NoConn ~ 6100 3300
NoConn ~ 5350 3300
$Comp
L device:R R75
U 1 1 5E30E46D
P 6500 3400
F 0 "R75" V 6293 3400 50  0000 C CNN
F 1 "0(DNP)" V 6384 3400 50  0000 C CNN
F 2 "Resistors_SMD:R_0603" V 6430 3400 50  0001 C CNN
F 3 "" H 6500 3400 50  0000 C CNN
	1    6500 3400
	0    1    1    0   
$EndComp
$Comp
L device:R R73
U 1 1 5E30E474
P 4950 3400
F 0 "R73" V 4743 3400 50  0000 C CNN
F 1 "1k(DNP)" V 4834 3400 50  0000 C CNN
F 2 "Resistors_SMD:R_0603" V 4880 3400 50  0001 C CNN
F 3 "" H 4950 3400 50  0000 C CNN
	1    4950 3400
	0    1    1    0   
$EndComp
Wire Wire Line
	5100 3400 5200 3400
Wire Wire Line
	6100 3400 6350 3400
Wire Wire Line
	7000 3400 6650 3400
Text HLabel 7000 3400 2    50   Output ~ 0
P2
$Comp
L device:C C103
U 1 1 5E3109B1
P 5200 2300
F 0 "C103" H 5315 2346 50  0000 L CNN
F 1 "100p/100V" H 5315 2255 50  0000 L CNN
F 2 "Capacitors_SMD:C_0603" H 5238 2150 50  0001 C CNN
F 3 "" H 5200 2300 50  0000 C CNN
	1    5200 2300
	1    0    0    -1  
$EndComp
$Comp
L device:C C104
U 1 1 5E310A12
P 5200 3700
F 0 "C104" H 5315 3746 50  0000 L CNN
F 1 "100p/100V" H 5315 3655 50  0000 L CNN
F 2 "Capacitors_SMD:C_0603" H 5238 3550 50  0001 C CNN
F 3 "" H 5200 3700 50  0000 C CNN
	1    5200 3700
	1    0    0    -1  
$EndComp
$Comp
L power:GNDA #PWR0156
U 1 1 5E310AC3
P 5200 3850
F 0 "#PWR0156" H 5200 3600 50  0001 C CNN
F 1 "GNDA" H 5205 3677 50  0000 C CNN
F 2 "" H 5200 3850 50  0000 C CNN
F 3 "" H 5200 3850 50  0000 C CNN
	1    5200 3850
	1    0    0    -1  
$EndComp
$Comp
L power:GNDA #PWR0155
U 1 1 5E310AFD
P 5200 2150
F 0 "#PWR0155" H 5200 1900 50  0001 C CNN
F 1 "GNDA" H 5205 1977 50  0000 C CNN
F 2 "" H 5200 2150 50  0000 C CNN
F 3 "" H 5200 2150 50  0000 C CNN
	1    5200 2150
	-1   0    0    1   
$EndComp
Wire Wire Line
	5200 2450 5200 2600
Connection ~ 5200 2600
Wire Wire Line
	5200 2600 5350 2600
Wire Wire Line
	5200 3550 5200 3400
Connection ~ 5200 3400
Wire Wire Line
	5200 3400 5350 3400
Wire Wire Line
	4800 2600 4650 2600
Wire Wire Line
	4650 2600 4650 3000
Wire Wire Line
	4650 3400 4800 3400
Wire Wire Line
	4650 3000 4400 3000
Connection ~ 4650 3000
Wire Wire Line
	4650 3000 4650 3400
Text HLabel 4400 3000 0    50   Input ~ 0
HV
Text Notes 4650 4350 0    50   ~ 0
The resistors and capacitors should stay away from the scintillator area.
$Comp
L KLauS-Custom:SiPM_SMD U13
U 1 1 5E37E55E
P 5750 2350
F 0 "U13" H 5725 2465 50  0000 C CNN
F 1 "SiPM_SMD" H 5725 2374 50  0000 C CNN
F 2 "KLauS-Custom:SiPM" H 5750 2350 50  0001 C CNN
F 3 "" H 5750 2350 50  0001 C CNN
	1    5750 2350
	1    0    0    -1  
$EndComp
$Comp
L KLauS-Custom:SiPM_SMD U14
U 1 1 5E37E60A
P 5750 3150
F 0 "U14" H 5725 3265 50  0000 C CNN
F 1 "SiPM_SMD" H 5725 3174 50  0000 C CNN
F 2 "KLauS-Custom:SiPM" H 5750 3150 50  0001 C CNN
F 3 "" H 5750 3150 50  0001 C CNN
	1    5750 3150
	1    0    0    -1  
$EndComp
$EndSCHEMATC
