EESchema Schematic File Version 4
LIBS:BGASocket-cache
EELAYER 26 0
EELAYER END
$Descr A4 11693 8268
encoding utf-8
Sheet 5 7
Title "Monitors for the FE, PLL"
Date ""
Rev ""
Comp "KIP, Uni-Heidelberg"
Comment1 ""
Comment2 ""
Comment3 ""
Comment4 ""
$EndDescr
$Comp
L KLauS-Custom:OPA4354 U9
U 1 1 5E232FDB
P 5200 2450
F 0 "U9" H 5200 2565 50  0000 C CNN
F 1 "OPA4354" H 5200 2474 50  0000 C CNN
F 2 "KLauS-Custom:SOIC-14" H 5200 2450 50  0001 C CNN
F 3 "" H 5200 2450 50  0001 C CNN
	1    5200 2450
	1    0    0    -1  
$EndComp
$Comp
L power_special:VCCA33 #PWR0120
U 1 1 5E23317B
P 4500 2900
F 0 "#PWR0120" H 4500 2750 50  0001 C CNN
F 1 "VCCA33" V 4518 3027 50  0000 L CNN
F 2 "" H 4500 2900 50  0000 C CNN
F 3 "" H 4500 2900 50  0000 C CNN
	1    4500 2900
	0    -1   -1   0   
$EndComp
Wire Wire Line
	4500 2900 4700 2900
$Comp
L power:GNDA #PWR0127
U 1 1 5E2331FC
P 5900 2900
F 0 "#PWR0127" H 5900 2650 50  0001 C CNN
F 1 "GNDA" V 5905 2772 50  0000 R CNN
F 2 "" H 5900 2900 50  0000 C CNN
F 3 "" H 5900 2900 50  0000 C CNN
	1    5900 2900
	0    -1   -1   0   
$EndComp
Wire Wire Line
	5900 2900 5700 2900
Wire Wire Line
	3950 2800 4700 2800
Wire Wire Line
	4700 2600 4600 2600
Wire Wire Line
	4600 2600 4600 2700
Wire Wire Line
	4600 2700 4700 2700
Wire Wire Line
	4250 2700 4600 2700
Connection ~ 4600 2700
Wire Wire Line
	3950 3000 4700 3000
Wire Wire Line
	4700 3100 4600 3100
Wire Wire Line
	4600 3100 4600 3200
Wire Wire Line
	4600 3200 4700 3200
Wire Wire Line
	4250 3200 4600 3200
Connection ~ 4600 3200
Wire Wire Line
	5700 2700 5800 2700
Wire Wire Line
	5700 2600 5800 2600
Wire Wire Line
	5800 2600 5800 2700
Wire Wire Line
	5700 3100 5800 3100
Wire Wire Line
	5700 3200 5800 3200
Wire Wire Line
	5800 3200 5800 3100
Text HLabel 3950 2800 0    50   Input ~ 0
AMON1
Text HLabel 3950 3000 0    50   Input ~ 0
AMON2
Text HLabel 3950 5100 0    50   Input ~ 0
PLLVCTRL
Text HLabel 7250 3000 2    50   Input ~ 0
HV
$Comp
L device:R R56
U 1 1 5E233E2A
P 6600 3000
F 0 "R56" V 6650 3200 50  0000 C CNN
F 1 "0(DNP)" V 6550 3250 50  0000 C CNN
F 2 "Resistors_SMD:R_0603" V 6530 3000 50  0001 C CNN
F 3 "" H 6600 3000 50  0000 C CNN
	1    6600 3000
	0    1    1    0   
$EndComp
Text Notes 6450 3300 0    50   ~ 0
REMEMBER DO UN-SOLDER THIS RESISTOR\nEVERYTIME AFTER MEASUREMENTS
$Comp
L KLauS-Custom:BNC P5
U 1 1 5E2352EC
P 4250 3750
F 0 "P5" H 4351 3726 50  0000 L CNN
F 1 "BNC" H 4351 3635 50  0000 L CNN
F 2 "KLauS-Custom:BNC_SMA" H 4250 3750 50  0001 C CNN
F 3 "" H 4250 3750 50  0000 C CNN
	1    4250 3750
	1    0    0    -1  
$EndComp
$Comp
L KLauS-Custom:BNC P6
U 1 1 5E2354A5
P 4950 3750
F 0 "P6" H 5051 3726 50  0000 L CNN
F 1 "BNC" H 5051 3635 50  0000 L CNN
F 2 "KLauS-Custom:BNC_SMA" H 4950 3750 50  0001 C CNN
F 3 "" H 4950 3750 50  0000 C CNN
	1    4950 3750
	1    0    0    -1  
$EndComp
$Comp
L KLauS-Custom:BNC P7
U 1 1 5E235509
P 4700 5750
F 0 "P7" H 4801 5726 50  0000 L CNN
F 1 "BNC" H 4801 5635 50  0000 L CNN
F 2 "KLauS-Custom:BNC_SMA" H 4700 5750 50  0001 C CNN
F 3 "" H 4700 5750 50  0000 C CNN
	1    4700 5750
	1    0    0    -1  
$EndComp
$Comp
L KLauS-Custom:BNC P8
U 1 1 5E235568
P 6350 3750
F 0 "P8" H 6451 3726 50  0000 L CNN
F 1 "BNC" H 6451 3635 50  0000 L CNN
F 2 "KLauS-Custom:BNC_SMA" H 6350 3750 50  0001 C CNN
F 3 "" H 6350 3750 50  0000 C CNN
	1    6350 3750
	1    0    0    -1  
$EndComp
$Comp
L power:GNDA #PWR0128
U 1 1 5E2355D9
P 6350 3950
F 0 "#PWR0128" H 6350 3700 50  0001 C CNN
F 1 "GNDA" H 6355 3777 50  0000 C CNN
F 2 "" H 6350 3950 50  0000 C CNN
F 3 "" H 6350 3950 50  0000 C CNN
	1    6350 3950
	1    0    0    -1  
$EndComp
$Comp
L power:GNDA #PWR0123
U 1 1 5E235641
P 4950 3950
F 0 "#PWR0123" H 4950 3700 50  0001 C CNN
F 1 "GNDA" H 4955 3777 50  0000 C CNN
F 2 "" H 4950 3950 50  0000 C CNN
F 3 "" H 4950 3950 50  0000 C CNN
	1    4950 3950
	1    0    0    -1  
$EndComp
$Comp
L power:GNDA #PWR0119
U 1 1 5E235675
P 4250 3950
F 0 "#PWR0119" H 4250 3700 50  0001 C CNN
F 1 "GNDA" H 4255 3777 50  0000 C CNN
F 2 "" H 4250 3950 50  0000 C CNN
F 3 "" H 4250 3950 50  0000 C CNN
	1    4250 3950
	1    0    0    -1  
$EndComp
Wire Wire Line
	3800 3750 4100 3750
Wire Wire Line
	4550 3750 4800 3750
Wire Wire Line
	4300 5750 4550 5750
Wire Wire Line
	5950 3750 6200 3750
Text Label 4250 2700 0    50   ~ 0
MON1
Text Label 4250 3200 0    50   ~ 0
MON2
Text Label 5950 3750 0    50   ~ 0
INDC
Text Label 4300 5750 0    50   ~ 0
VCTRL
Text Label 4550 3750 0    50   ~ 0
MON2
Text Label 3800 3750 0    50   ~ 0
MON1
Wire Wire Line
	5800 3200 6000 3200
Connection ~ 5800 3200
Text Label 5850 3200 0    50   ~ 0
INDC
Wire Wire Line
	7250 3000 6750 3000
Wire Wire Line
	5700 3000 6450 3000
$Comp
L device:C C83
U 1 1 5E2391D6
P 4800 1800
F 0 "C83" H 4915 1846 50  0000 L CNN
F 1 "100n" H 4915 1755 50  0000 L CNN
F 2 "Capacitors_SMD:C_0603" H 4838 1650 50  0001 C CNN
F 3 "" H 4800 1800 50  0000 C CNN
	1    4800 1800
	1    0    0    -1  
$EndComp
$Comp
L device:C C84
U 1 1 5E239309
P 5250 1800
F 0 "C84" H 5365 1846 50  0000 L CNN
F 1 "10u" H 5365 1755 50  0000 L CNN
F 2 "Capacitors_SMD:C_0603" H 5288 1650 50  0001 C CNN
F 3 "" H 5250 1800 50  0000 C CNN
	1    5250 1800
	1    0    0    -1  
$EndComp
$Comp
L power:GNDA #PWR0125
U 1 1 5E239353
P 5250 1950
F 0 "#PWR0125" H 5250 1700 50  0001 C CNN
F 1 "GNDA" H 5255 1777 50  0000 C CNN
F 2 "" H 5250 1950 50  0000 C CNN
F 3 "" H 5250 1950 50  0000 C CNN
	1    5250 1950
	1    0    0    -1  
$EndComp
$Comp
L power:GNDA #PWR0122
U 1 1 5E23938D
P 4800 1950
F 0 "#PWR0122" H 4800 1700 50  0001 C CNN
F 1 "GNDA" H 4805 1777 50  0000 C CNN
F 2 "" H 4800 1950 50  0000 C CNN
F 3 "" H 4800 1950 50  0000 C CNN
	1    4800 1950
	1    0    0    -1  
$EndComp
$Comp
L power_special:VCCA33 #PWR0124
U 1 1 5E2393CE
P 5250 1650
F 0 "#PWR0124" H 5250 1500 50  0001 C CNN
F 1 "VCCA33" H 5267 1823 50  0000 C CNN
F 2 "" H 5250 1650 50  0000 C CNN
F 3 "" H 5250 1650 50  0000 C CNN
	1    5250 1650
	1    0    0    -1  
$EndComp
$Comp
L power_special:VCCA33 #PWR0121
U 1 1 5E239408
P 4800 1650
F 0 "#PWR0121" H 4800 1500 50  0001 C CNN
F 1 "VCCA33" H 4817 1823 50  0000 C CNN
F 2 "" H 4800 1650 50  0000 C CNN
F 3 "" H 4800 1650 50  0000 C CNN
	1    4800 1650
	1    0    0    -1  
$EndComp
$Comp
L KLauS-Custom:OPA2354 U2
U 1 1 5C46C7F5
P 4900 4750
F 0 "U2" H 5150 4887 60  0000 C CNN
F 1 "OPA2354" H 5150 4781 60  0000 C CNN
F 2 "KLauS-Custom:OPA2354" H 4950 4750 60  0001 C CNN
F 3 "" H 4950 4750 60  0001 C CNN
	1    4900 4750
	1    0    0    -1  
$EndComp
$Comp
L device:R R72
U 1 1 5C46DAE5
P 4300 5100
F 0 "R72" V 4350 5300 50  0000 C CNN
F 1 "0(DNP)" V 4250 5350 50  0000 C CNN
F 2 "Resistors_SMD:R_0603" V 4230 5100 50  0001 C CNN
F 3 "" H 4300 5100 50  0000 C CNN
	1    4300 5100
	0    1    1    0   
$EndComp
$Comp
L device:R R73
U 1 1 5C46DB61
P 6000 5200
F 0 "R73" V 6050 5400 50  0000 C CNN
F 1 "0(DNP)" V 5950 5450 50  0000 C CNN
F 2 "Resistors_SMD:R_0603" V 5930 5200 50  0001 C CNN
F 3 "" H 6000 5200 50  0000 C CNN
	1    6000 5200
	0    1    1    0   
$EndComp
Wire Wire Line
	4450 5100 4700 5100
Wire Wire Line
	4350 4900 4600 4900
Wire Wire Line
	4600 4900 4600 5000
Wire Wire Line
	4600 5000 4700 5000
Connection ~ 4600 4900
Wire Wire Line
	4600 4900 4700 4900
Wire Wire Line
	5600 5200 5850 5200
Wire Wire Line
	5600 5100 5700 5100
Wire Wire Line
	5600 5000 5700 5000
Wire Wire Line
	5700 5000 5700 5100
Connection ~ 5700 5100
Wire Wire Line
	5700 5100 6150 5100
$Comp
L power:GNDD #PWR0126
U 1 1 5C4704EE
P 4700 5200
F 0 "#PWR0126" H 4700 4950 50  0001 C CNN
F 1 "GNDD" H 4705 5027 50  0000 C CNN
F 2 "" H 4700 5200 50  0000 C CNN
F 3 "" H 4700 5200 50  0000 C CNN
	1    4700 5200
	1    0    0    -1  
$EndComp
$Comp
L power_special:VCCD33 #PWR0156
U 1 1 5C4705AE
P 5600 4900
F 0 "#PWR0156" H 5600 4750 50  0001 C CNN
F 1 "VCCD33" H 5617 5073 50  0000 C CNN
F 2 "" H 5600 4900 50  0000 C CNN
F 3 "" H 5600 4900 50  0000 C CNN
	1    5600 4900
	1    0    0    -1  
$EndComp
Wire Wire Line
	5700 2800 6200 2800
Wire Wire Line
	5800 2600 6200 2600
Connection ~ 5800 2600
$Comp
L Mechanical:TP1 P20
U 1 1 5C472BB2
P 6400 2500
F 0 "P20" H 6527 2451 50  0000 L CNN
F 1 "TP1" H 6527 2360 50  0000 L CNN
F 2 "MountingHoles-Custom:TP1" H 6400 2500 50  0001 C CNN
F 3 "" H 6400 2500 50  0001 C CNN
	1    6400 2500
	1    0    0    -1  
$EndComp
$Comp
L Mechanical:TP1 P21
U 1 1 5C472C18
P 6400 2700
F 0 "P21" H 6527 2651 50  0000 L CNN
F 1 "TP1" H 6527 2560 50  0000 L CNN
F 2 "MountingHoles-Custom:TP1" H 6400 2700 50  0001 C CNN
F 3 "" H 6400 2700 50  0001 C CNN
	1    6400 2700
	1    0    0    -1  
$EndComp
Wire Wire Line
	3950 5100 4150 5100
Text Notes 6700 2700 0    50   ~ 0
Free buffer
Text HLabel 6550 5200 2    50   Input ~ 0
PLLVC
Wire Wire Line
	6550 5200 6150 5200
Text Label 4350 4900 0    50   ~ 0
VCTRL
Text Label 6150 5100 2    50   ~ 0
VC
$Comp
L KLauS-Custom:BNC P19
U 1 1 5C475B0C
P 5900 5750
F 0 "P19" H 6001 5726 50  0000 L CNN
F 1 "BNC" H 6001 5635 50  0000 L CNN
F 2 "KLauS-Custom:BNC_SMA" H 5900 5750 50  0001 C CNN
F 3 "" H 5900 5750 50  0000 C CNN
	1    5900 5750
	1    0    0    -1  
$EndComp
Wire Wire Line
	5500 5750 5750 5750
Text Label 5500 5750 0    50   ~ 0
VC
$Comp
L device:C C103
U 1 1 5C476643
P 7450 5050
F 0 "C103" H 7565 5096 50  0000 L CNN
F 1 "100n" H 7565 5005 50  0000 L CNN
F 2 "Capacitors_SMD:C_0603" H 7488 4900 50  0001 C CNN
F 3 "" H 7450 5050 50  0000 C CNN
	1    7450 5050
	1    0    0    -1  
$EndComp
$Comp
L device:C C104
U 1 1 5C476709
P 7900 5050
F 0 "C104" H 8015 5096 50  0000 L CNN
F 1 "10u" H 8015 5005 50  0000 L CNN
F 2 "Capacitors_SMD:C_0603" H 7938 4900 50  0001 C CNN
F 3 "" H 7900 5050 50  0000 C CNN
	1    7900 5050
	1    0    0    -1  
$EndComp
$Comp
L power:GNDD #PWR0161
U 1 1 5C476850
P 5900 5950
F 0 "#PWR0161" H 5900 5700 50  0001 C CNN
F 1 "GNDD" H 5905 5777 50  0000 C CNN
F 2 "" H 5900 5950 50  0000 C CNN
F 3 "" H 5900 5950 50  0000 C CNN
	1    5900 5950
	1    0    0    -1  
$EndComp
$Comp
L power:GNDD #PWR0162
U 1 1 5C4768A2
P 4700 5950
F 0 "#PWR0162" H 4700 5700 50  0001 C CNN
F 1 "GNDD" H 4705 5777 50  0000 C CNN
F 2 "" H 4700 5950 50  0000 C CNN
F 3 "" H 4700 5950 50  0000 C CNN
	1    4700 5950
	1    0    0    -1  
$EndComp
$Comp
L power:GNDD #PWR0163
U 1 1 5C476934
P 7900 5200
F 0 "#PWR0163" H 7900 4950 50  0001 C CNN
F 1 "GNDD" H 7905 5027 50  0000 C CNN
F 2 "" H 7900 5200 50  0000 C CNN
F 3 "" H 7900 5200 50  0000 C CNN
	1    7900 5200
	1    0    0    -1  
$EndComp
$Comp
L power:GNDD #PWR0164
U 1 1 5C476986
P 7450 5200
F 0 "#PWR0164" H 7450 4950 50  0001 C CNN
F 1 "GNDD" H 7455 5027 50  0000 C CNN
F 2 "" H 7450 5200 50  0000 C CNN
F 3 "" H 7450 5200 50  0000 C CNN
	1    7450 5200
	1    0    0    -1  
$EndComp
$Comp
L power_special:VCCD33 #PWR0165
U 1 1 5C476A33
P 7900 4900
F 0 "#PWR0165" H 7900 4750 50  0001 C CNN
F 1 "VCCD33" H 7917 5073 50  0000 C CNN
F 2 "" H 7900 4900 50  0000 C CNN
F 3 "" H 7900 4900 50  0000 C CNN
	1    7900 4900
	1    0    0    -1  
$EndComp
$Comp
L power_special:VCCD33 #PWR0166
U 1 1 5C476A85
P 7450 4900
F 0 "#PWR0166" H 7450 4750 50  0001 C CNN
F 1 "VCCD33" H 7467 5073 50  0000 C CNN
F 2 "" H 7450 4900 50  0000 C CNN
F 3 "" H 7450 4900 50  0000 C CNN
	1    7450 4900
	1    0    0    -1  
$EndComp
$EndSCHEMATC
