EESchema Schematic File Version 4
LIBS:BGASocket-cache
EELAYER 26 0
EELAYER END
$Descr A4 11693 8268
encoding utf-8
Sheet 4 7
Title "SiPM conection"
Date ""
Rev ""
Comp "KIP, Uni-Heidelberg"
Comment1 ""
Comment2 ""
Comment3 ""
Comment4 ""
$EndDescr
$Comp
L KLauS-ASIC:KLauS-ASIC U1
U 3 1 5C437B15
P 6900 950
F 0 "U1" H 6900 1065 50  0000 C CNN
F 1 "KLauS-ASIC" H 6900 974 50  0000 C CNN
F 2 "KLauS-BGA:KLauS-BGA" H 6900 950 50  0001 C CNN
F 3 "" H 6900 950 50  0001 C CNN
	3    6900 950 
	1    0    0    -1  
$EndComp
$Comp
L KLauS-ASIC:KLauS-ASIC U1
U 4 1 5C437C45
P 4250 950
F 0 "U1" H 4250 1065 50  0000 C CNN
F 1 "KLauS-ASIC" H 4250 974 50  0000 C CNN
F 2 "KLauS-BGA:KLauS-BGA" H 4250 950 50  0001 C CNN
F 3 "" H 4250 950 50  0001 C CNN
	4    4250 950 
	1    0    0    -1  
$EndComp
$Comp
L KLauS-ASIC:KLauS-ASIC U1
U 5 1 5C437CB0
P 1850 950
F 0 "U1" H 1850 1065 50  0000 C CNN
F 1 "KLauS-ASIC" H 1850 974 50  0000 C CNN
F 2 "KLauS-BGA:KLauS-BGA" H 1850 950 50  0001 C CNN
F 3 "" H 1850 950 50  0001 C CNN
	5    1850 950 
	1    0    0    -1  
$EndComp
$Comp
L power_special:VCCA18 #PWR086
U 1 1 5C4380E2
P 950 1100
F 0 "#PWR086" H 950 950 50  0001 C CNN
F 1 "VCCA18" V 950 1250 50  0000 L CNN
F 2 "" H 950 1100 50  0000 C CNN
F 3 "" H 950 1100 50  0000 C CNN
	1    950  1100
	0    -1   -1   0   
$EndComp
Wire Wire Line
	950  1100 1100 1100
Wire Wire Line
	1100 1100 1100 1200
Wire Wire Line
	1100 6200 1200 6200
Connection ~ 1100 1100
Wire Wire Line
	1100 1100 1200 1100
Wire Wire Line
	1200 6100 1100 6100
Connection ~ 1100 6100
Wire Wire Line
	1100 6100 1100 6200
Wire Wire Line
	1200 6000 1100 6000
Connection ~ 1100 6000
Wire Wire Line
	1100 6000 1100 6100
Wire Wire Line
	1200 5900 1100 5900
Connection ~ 1100 5900
Wire Wire Line
	1100 5900 1100 6000
Wire Wire Line
	1200 5800 1100 5800
Connection ~ 1100 5800
Wire Wire Line
	1100 5800 1100 5900
Wire Wire Line
	1200 5700 1100 5700
Connection ~ 1100 5700
Wire Wire Line
	1100 5700 1100 5800
Wire Wire Line
	1200 5600 1100 5600
Connection ~ 1100 5600
Wire Wire Line
	1100 5600 1100 5700
Wire Wire Line
	1200 5500 1100 5500
Connection ~ 1100 5500
Wire Wire Line
	1100 5500 1100 5600
Wire Wire Line
	1200 5400 1100 5400
Connection ~ 1100 5400
Wire Wire Line
	1100 5400 1100 5500
Wire Wire Line
	1200 5300 1100 5300
Connection ~ 1100 5300
Wire Wire Line
	1100 5300 1100 5400
Wire Wire Line
	1200 5200 1100 5200
Connection ~ 1100 5200
Wire Wire Line
	1100 5200 1100 5300
Wire Wire Line
	1200 5100 1100 5100
Connection ~ 1100 5100
Wire Wire Line
	1100 5100 1100 5200
Wire Wire Line
	1200 5000 1100 5000
Connection ~ 1100 5000
Wire Wire Line
	1100 5000 1100 5100
Wire Wire Line
	1200 4900 1100 4900
Connection ~ 1100 4900
Wire Wire Line
	1100 4900 1100 5000
Wire Wire Line
	1200 4800 1100 4800
Connection ~ 1100 4800
Wire Wire Line
	1100 4800 1100 4900
Wire Wire Line
	1200 4700 1100 4700
Connection ~ 1100 4700
Wire Wire Line
	1100 4700 1100 4800
Wire Wire Line
	1200 4600 1100 4600
Connection ~ 1100 4600
Wire Wire Line
	1100 4600 1100 4700
Wire Wire Line
	1200 4500 1100 4500
Connection ~ 1100 4500
Wire Wire Line
	1100 4500 1100 4600
Wire Wire Line
	1200 4400 1100 4400
Connection ~ 1100 4400
Wire Wire Line
	1100 4400 1100 4500
Wire Wire Line
	1200 4300 1100 4300
Connection ~ 1100 4300
Wire Wire Line
	1100 4300 1100 4400
Wire Wire Line
	1200 4200 1100 4200
Connection ~ 1100 4200
Wire Wire Line
	1100 4200 1100 4300
Wire Wire Line
	1200 4100 1100 4100
Connection ~ 1100 4100
Wire Wire Line
	1100 4100 1100 4200
Wire Wire Line
	1200 4000 1100 4000
Connection ~ 1100 4000
Wire Wire Line
	1100 4000 1100 4100
Wire Wire Line
	1200 3900 1100 3900
Connection ~ 1100 3900
Wire Wire Line
	1100 3900 1100 4000
Wire Wire Line
	1200 3800 1100 3800
Connection ~ 1100 3800
Wire Wire Line
	1100 3800 1100 3900
Wire Wire Line
	1200 3700 1100 3700
Connection ~ 1100 3700
Wire Wire Line
	1100 3700 1100 3800
Wire Wire Line
	1200 3600 1100 3600
Connection ~ 1100 3600
Wire Wire Line
	1100 3600 1100 3700
Wire Wire Line
	1200 3500 1100 3500
Connection ~ 1100 3500
Wire Wire Line
	1100 3500 1100 3600
Wire Wire Line
	1200 3400 1100 3400
Connection ~ 1100 3400
Wire Wire Line
	1100 3400 1100 3500
Wire Wire Line
	1200 3300 1100 3300
Connection ~ 1100 3300
Wire Wire Line
	1100 3300 1100 3400
Wire Wire Line
	1200 3200 1100 3200
Connection ~ 1100 3200
Wire Wire Line
	1100 3200 1100 3300
Wire Wire Line
	1200 3100 1100 3100
Connection ~ 1100 3100
Wire Wire Line
	1100 3100 1100 3200
Wire Wire Line
	1200 3000 1100 3000
Connection ~ 1100 3000
Wire Wire Line
	1100 3000 1100 3100
Wire Wire Line
	1200 2900 1100 2900
Connection ~ 1100 2900
Wire Wire Line
	1100 2900 1100 3000
Wire Wire Line
	1200 2800 1100 2800
Connection ~ 1100 2800
Wire Wire Line
	1100 2800 1100 2900
Wire Wire Line
	1100 2700 1200 2700
Connection ~ 1100 2700
Wire Wire Line
	1100 2700 1100 2800
Wire Wire Line
	1200 2600 1100 2600
Connection ~ 1100 2600
Wire Wire Line
	1100 2600 1100 2700
Wire Wire Line
	1200 2500 1100 2500
Connection ~ 1100 2500
Wire Wire Line
	1100 2500 1100 2600
Wire Wire Line
	1200 2400 1100 2400
Connection ~ 1100 2400
Wire Wire Line
	1100 2400 1100 2500
Wire Wire Line
	1200 2300 1100 2300
Connection ~ 1100 2300
Wire Wire Line
	1100 2300 1100 2400
Wire Wire Line
	1200 2200 1100 2200
Connection ~ 1100 2200
Wire Wire Line
	1100 2200 1100 2300
Wire Wire Line
	1200 2100 1100 2100
Connection ~ 1100 2100
Wire Wire Line
	1100 2100 1100 2200
Wire Wire Line
	1200 2000 1100 2000
Connection ~ 1100 2000
Wire Wire Line
	1100 2000 1100 2100
Wire Wire Line
	1200 1900 1100 1900
Connection ~ 1100 1900
Wire Wire Line
	1100 1900 1100 2000
Wire Wire Line
	1200 1800 1100 1800
Connection ~ 1100 1800
Wire Wire Line
	1100 1800 1100 1900
Wire Wire Line
	1200 1700 1100 1700
Connection ~ 1100 1700
Wire Wire Line
	1100 1700 1100 1800
Wire Wire Line
	1200 1600 1100 1600
Connection ~ 1100 1600
Wire Wire Line
	1100 1600 1100 1700
Wire Wire Line
	1200 1500 1100 1500
Connection ~ 1100 1500
Wire Wire Line
	1100 1500 1100 1600
Wire Wire Line
	1200 1400 1100 1400
Connection ~ 1100 1400
Wire Wire Line
	1100 1400 1100 1500
Wire Wire Line
	1200 1300 1100 1300
Connection ~ 1100 1300
Wire Wire Line
	1100 1300 1100 1400
Wire Wire Line
	1200 1200 1100 1200
Connection ~ 1100 1200
Wire Wire Line
	1100 1200 1100 1300
$Comp
L power_special:VCCA18 #PWR091
U 1 1 5C4766C2
P 2600 1000
F 0 "#PWR091" H 2600 850 50  0001 C CNN
F 1 "VCCA18" H 2617 1173 50  0000 C CNN
F 2 "" H 2600 1000 50  0000 C CNN
F 3 "" H 2600 1000 50  0000 C CNN
	1    2600 1000
	1    0    0    -1  
$EndComp
Wire Wire Line
	2600 1000 2600 1100
Wire Wire Line
	2600 1300 2500 1300
Wire Wire Line
	2500 1200 2600 1200
Connection ~ 2600 1200
Wire Wire Line
	2600 1200 2600 1300
Wire Wire Line
	2500 1100 2600 1100
Connection ~ 2600 1100
Wire Wire Line
	2600 1100 2600 1200
$Comp
L power_special:VCCA33 #PWR092
U 1 1 5C481F5A
P 2700 1500
F 0 "#PWR092" H 2700 1350 50  0001 C CNN
F 1 "VCCA33" V 2700 1600 50  0000 L CNN
F 2 "" H 2700 1500 50  0000 C CNN
F 3 "" H 2700 1500 50  0000 C CNN
	1    2700 1500
	0    1    1    0   
$EndComp
Wire Wire Line
	2700 1500 2600 1500
Wire Wire Line
	2600 1500 2600 1600
Wire Wire Line
	2600 4500 2500 4500
Connection ~ 2600 1500
Wire Wire Line
	2600 1500 2500 1500
Wire Wire Line
	2500 4400 2600 4400
Connection ~ 2600 4400
Wire Wire Line
	2600 4400 2600 4500
Wire Wire Line
	2500 4300 2600 4300
Connection ~ 2600 4300
Wire Wire Line
	2600 4300 2600 4400
Wire Wire Line
	2500 4200 2600 4200
Connection ~ 2600 4200
Wire Wire Line
	2600 4200 2600 4300
Wire Wire Line
	2500 4100 2600 4100
Connection ~ 2600 4100
Wire Wire Line
	2600 4100 2600 4200
Wire Wire Line
	2500 4000 2600 4000
Connection ~ 2600 4000
Wire Wire Line
	2600 4000 2600 4100
Wire Wire Line
	2500 3900 2600 3900
Connection ~ 2600 3900
Wire Wire Line
	2600 3900 2600 4000
Wire Wire Line
	2500 3800 2600 3800
Connection ~ 2600 3800
Wire Wire Line
	2600 3800 2600 3900
Wire Wire Line
	2500 3700 2600 3700
Connection ~ 2600 3700
Wire Wire Line
	2600 3700 2600 3800
Wire Wire Line
	2500 3600 2600 3600
Connection ~ 2600 3600
Wire Wire Line
	2600 3600 2600 3700
Wire Wire Line
	2500 3500 2600 3500
Connection ~ 2600 3500
Wire Wire Line
	2600 3500 2600 3600
Wire Wire Line
	2500 3400 2600 3400
Connection ~ 2600 3400
Wire Wire Line
	2600 3400 2600 3500
Wire Wire Line
	2500 3300 2600 3300
Connection ~ 2600 3300
Wire Wire Line
	2600 3300 2600 3400
Wire Wire Line
	2500 3200 2600 3200
Connection ~ 2600 3200
Wire Wire Line
	2600 3200 2600 3300
Wire Wire Line
	2500 3100 2600 3100
Connection ~ 2600 3100
Wire Wire Line
	2600 3100 2600 3200
Wire Wire Line
	2500 3000 2600 3000
Connection ~ 2600 3000
Wire Wire Line
	2600 3000 2600 3100
Wire Wire Line
	2500 2900 2600 2900
Connection ~ 2600 2900
Wire Wire Line
	2600 2900 2600 3000
Wire Wire Line
	2500 2800 2600 2800
Connection ~ 2600 2800
Wire Wire Line
	2600 2800 2600 2900
Wire Wire Line
	2500 2700 2600 2700
Connection ~ 2600 2700
Wire Wire Line
	2600 2700 2600 2800
Wire Wire Line
	2500 2600 2600 2600
Connection ~ 2600 2600
Wire Wire Line
	2600 2600 2600 2700
Wire Wire Line
	2500 2500 2600 2500
Connection ~ 2600 2500
Wire Wire Line
	2600 2500 2600 2600
Wire Wire Line
	2500 2400 2600 2400
Connection ~ 2600 2400
Wire Wire Line
	2600 2400 2600 2500
Wire Wire Line
	2500 2300 2600 2300
Connection ~ 2600 2300
Wire Wire Line
	2600 2300 2600 2400
Wire Wire Line
	2500 2200 2600 2200
Connection ~ 2600 2200
Wire Wire Line
	2600 2200 2600 2300
Wire Wire Line
	2500 2100 2600 2100
Connection ~ 2600 2100
Wire Wire Line
	2600 2100 2600 2200
Wire Wire Line
	2500 2000 2600 2000
Connection ~ 2600 2000
Wire Wire Line
	2600 2000 2600 2100
Wire Wire Line
	2500 1900 2600 1900
Connection ~ 2600 1900
Wire Wire Line
	2600 1900 2600 2000
Wire Wire Line
	2500 1800 2600 1800
Connection ~ 2600 1800
Wire Wire Line
	2600 1800 2600 1900
Wire Wire Line
	2500 1700 2600 1700
Connection ~ 2600 1700
Wire Wire Line
	2600 1700 2600 1800
Wire Wire Line
	2500 1600 2600 1600
Connection ~ 2600 1600
Wire Wire Line
	2600 1600 2600 1700
$Comp
L power:GNDD #PWR095
U 1 1 5C52F892
P 3400 1100
F 0 "#PWR095" H 3400 850 50  0001 C CNN
F 1 "GNDD" V 3400 1000 50  0000 R CNN
F 2 "" H 3400 1100 50  0000 C CNN
F 3 "" H 3400 1100 50  0000 C CNN
	1    3400 1100
	0    1    1    0   
$EndComp
Wire Wire Line
	3400 1100 3500 1100
Wire Wire Line
	3500 1100 3500 1200
Wire Wire Line
	3500 6200 3600 6200
Connection ~ 3500 1100
Wire Wire Line
	3500 1100 3600 1100
Wire Wire Line
	3600 1200 3500 1200
Connection ~ 3500 1200
Wire Wire Line
	3500 1200 3500 1300
Wire Wire Line
	3600 1300 3500 1300
Connection ~ 3500 1300
Wire Wire Line
	3500 1300 3500 1400
Wire Wire Line
	3600 1400 3500 1400
Connection ~ 3500 1400
Wire Wire Line
	3500 1400 3500 1500
Wire Wire Line
	3600 1500 3500 1500
Connection ~ 3500 1500
Wire Wire Line
	3500 1500 3500 1600
Wire Wire Line
	3600 1600 3500 1600
Connection ~ 3500 1600
Wire Wire Line
	3500 1600 3500 1700
Wire Wire Line
	3600 1700 3500 1700
Connection ~ 3500 1700
Wire Wire Line
	3500 1700 3500 1800
Wire Wire Line
	3600 1800 3500 1800
Connection ~ 3500 1800
Wire Wire Line
	3500 1800 3500 1900
Wire Wire Line
	3600 1900 3500 1900
Connection ~ 3500 1900
Wire Wire Line
	3500 1900 3500 2000
Wire Wire Line
	3600 2000 3500 2000
Connection ~ 3500 2000
Wire Wire Line
	3500 2000 3500 2100
Wire Wire Line
	3600 2100 3500 2100
Connection ~ 3500 2100
Wire Wire Line
	3500 2100 3500 2200
Wire Wire Line
	3600 2200 3500 2200
Connection ~ 3500 2200
Wire Wire Line
	3500 2200 3500 2300
Wire Wire Line
	3600 2300 3500 2300
Connection ~ 3500 2300
Wire Wire Line
	3500 2300 3500 2400
Wire Wire Line
	3600 2400 3500 2400
Connection ~ 3500 2400
Wire Wire Line
	3500 2400 3500 2500
Wire Wire Line
	3600 2500 3500 2500
Connection ~ 3500 2500
Wire Wire Line
	3500 2500 3500 2600
Wire Wire Line
	3600 2600 3500 2600
Connection ~ 3500 2600
Wire Wire Line
	3500 2600 3500 2700
Wire Wire Line
	3600 2700 3500 2700
Connection ~ 3500 2700
Wire Wire Line
	3500 2700 3500 2800
Wire Wire Line
	3600 2800 3500 2800
Connection ~ 3500 2800
Wire Wire Line
	3500 2800 3500 2900
Wire Wire Line
	3600 2900 3500 2900
Connection ~ 3500 2900
Wire Wire Line
	3500 2900 3500 3000
Wire Wire Line
	3600 3000 3500 3000
Connection ~ 3500 3000
Wire Wire Line
	3500 3000 3500 3100
Wire Wire Line
	3600 3100 3500 3100
Connection ~ 3500 3100
Wire Wire Line
	3500 3100 3500 3200
Wire Wire Line
	3600 3200 3500 3200
Connection ~ 3500 3200
Wire Wire Line
	3500 3200 3500 3300
Wire Wire Line
	3600 3300 3500 3300
Connection ~ 3500 3300
Wire Wire Line
	3500 3300 3500 3400
Wire Wire Line
	3600 3400 3500 3400
Connection ~ 3500 3400
Wire Wire Line
	3500 3400 3500 3500
Wire Wire Line
	3600 3500 3500 3500
Connection ~ 3500 3500
Wire Wire Line
	3500 3500 3500 3600
Wire Wire Line
	3600 3600 3500 3600
Connection ~ 3500 3600
Wire Wire Line
	3500 3600 3500 3700
Wire Wire Line
	3600 3700 3500 3700
Connection ~ 3500 3700
Wire Wire Line
	3500 3700 3500 3800
Wire Wire Line
	3600 3800 3500 3800
Connection ~ 3500 3800
Wire Wire Line
	3500 3800 3500 3900
Wire Wire Line
	3600 3900 3500 3900
Connection ~ 3500 3900
Wire Wire Line
	3500 3900 3500 4000
Wire Wire Line
	3600 4000 3500 4000
Connection ~ 3500 4000
Wire Wire Line
	3500 4000 3500 4100
Wire Wire Line
	3600 4100 3500 4100
Connection ~ 3500 4100
Wire Wire Line
	3500 4100 3500 4200
Wire Wire Line
	3600 4200 3500 4200
Connection ~ 3500 4200
Wire Wire Line
	3500 4200 3500 4300
Wire Wire Line
	3600 4300 3500 4300
Connection ~ 3500 4300
Wire Wire Line
	3500 4300 3500 4400
Wire Wire Line
	3600 4400 3500 4400
Connection ~ 3500 4400
Wire Wire Line
	3500 4400 3500 4500
Wire Wire Line
	3600 4500 3500 4500
Connection ~ 3500 4500
Wire Wire Line
	3500 4500 3500 4600
Wire Wire Line
	3600 4600 3500 4600
Connection ~ 3500 4600
Wire Wire Line
	3500 4600 3500 4700
Wire Wire Line
	3600 4700 3500 4700
Connection ~ 3500 4700
Wire Wire Line
	3500 4700 3500 4800
Wire Wire Line
	3600 4800 3500 4800
Connection ~ 3500 4800
Wire Wire Line
	3500 4800 3500 4900
Wire Wire Line
	3600 4900 3500 4900
Connection ~ 3500 4900
Wire Wire Line
	3500 4900 3500 5000
Wire Wire Line
	3600 5000 3500 5000
Connection ~ 3500 5000
Wire Wire Line
	3500 5000 3500 5100
Wire Wire Line
	3600 5100 3500 5100
Connection ~ 3500 5100
Wire Wire Line
	3500 5100 3500 5200
Wire Wire Line
	3600 5200 3500 5200
Connection ~ 3500 5200
Wire Wire Line
	3500 5200 3500 5300
Wire Wire Line
	3600 5300 3500 5300
Connection ~ 3500 5300
Wire Wire Line
	3500 5300 3500 5400
Wire Wire Line
	3600 5400 3500 5400
Connection ~ 3500 5400
Wire Wire Line
	3500 5400 3500 5500
Wire Wire Line
	3600 5500 3500 5500
Connection ~ 3500 5500
Wire Wire Line
	3500 5500 3500 5600
Wire Wire Line
	3600 5600 3500 5600
Connection ~ 3500 5600
Wire Wire Line
	3500 5600 3500 5700
Wire Wire Line
	3600 5700 3500 5700
Connection ~ 3500 5700
Wire Wire Line
	3500 5700 3500 5800
Wire Wire Line
	3600 5800 3500 5800
Connection ~ 3500 5800
Wire Wire Line
	3500 5800 3500 5900
Wire Wire Line
	3600 5900 3500 5900
Connection ~ 3500 5900
Wire Wire Line
	3500 5900 3500 6000
Wire Wire Line
	3600 6000 3500 6000
Connection ~ 3500 6000
Wire Wire Line
	3500 6000 3500 6100
Wire Wire Line
	3600 6100 3500 6100
Connection ~ 3500 6100
Wire Wire Line
	3500 6100 3500 6200
$Comp
L power:GNDD #PWR098
U 1 1 5C7956EE
P 5100 1100
F 0 "#PWR098" H 5100 850 50  0001 C CNN
F 1 "GNDD" V 5100 1000 50  0000 R CNN
F 2 "" H 5100 1100 50  0000 C CNN
F 3 "" H 5100 1100 50  0000 C CNN
	1    5100 1100
	0    -1   -1   0   
$EndComp
Wire Wire Line
	5100 1100 5000 1100
Wire Wire Line
	5000 1100 5000 1200
Wire Wire Line
	5000 2000 4900 2000
Connection ~ 5000 1100
Wire Wire Line
	5000 1100 4900 1100
Wire Wire Line
	4900 1900 5000 1900
Connection ~ 5000 1900
Wire Wire Line
	5000 1900 5000 2000
Wire Wire Line
	4900 1800 5000 1800
Connection ~ 5000 1800
Wire Wire Line
	5000 1800 5000 1900
Wire Wire Line
	4900 1700 5000 1700
Connection ~ 5000 1700
Wire Wire Line
	5000 1700 5000 1800
Wire Wire Line
	4900 1600 5000 1600
Connection ~ 5000 1600
Wire Wire Line
	5000 1600 5000 1700
Wire Wire Line
	4900 1500 5000 1500
Connection ~ 5000 1500
Wire Wire Line
	5000 1500 5000 1600
Wire Wire Line
	4900 1400 5000 1400
Connection ~ 5000 1400
Wire Wire Line
	5000 1400 5000 1500
Wire Wire Line
	4900 1300 5000 1300
Connection ~ 5000 1300
Wire Wire Line
	5000 1300 5000 1400
Wire Wire Line
	4900 1200 5000 1200
Connection ~ 5000 1200
Wire Wire Line
	5000 1200 5000 1300
$Comp
L power_special:VCCD18 #PWR099
U 1 1 5C84216B
P 5100 2250
F 0 "#PWR099" H 5100 2100 50  0001 C CNN
F 1 "VCCD18" V 5100 2350 50  0000 L CNN
F 2 "" H 5100 2250 50  0000 C CNN
F 3 "" H 5100 2250 50  0000 C CNN
	1    5100 2250
	0    1    1    0   
$EndComp
Wire Wire Line
	5100 2250 5000 2250
Wire Wire Line
	5000 5250 4900 5250
Connection ~ 5000 2250
Wire Wire Line
	5000 2250 4900 2250
Wire Wire Line
	4900 5150 5000 5150
Connection ~ 5000 5150
Wire Wire Line
	5000 5150 5000 5250
Wire Wire Line
	4900 5050 5000 5050
Connection ~ 5000 5050
Wire Wire Line
	5000 5050 5000 5150
Wire Wire Line
	4900 4950 5000 4950
Connection ~ 5000 4950
Wire Wire Line
	5000 4950 5000 5050
Wire Wire Line
	4900 4850 5000 4850
Connection ~ 5000 4850
Wire Wire Line
	5000 4850 5000 4950
Wire Wire Line
	4900 4750 5000 4750
Connection ~ 5000 4750
Wire Wire Line
	5000 4750 5000 4850
Wire Wire Line
	4900 4650 5000 4650
Connection ~ 5000 4650
Wire Wire Line
	5000 4650 5000 4750
Wire Wire Line
	4900 4550 5000 4550
Connection ~ 5000 4550
Wire Wire Line
	5000 4550 5000 4650
Wire Wire Line
	4900 4450 5000 4450
Connection ~ 5000 4450
Wire Wire Line
	5000 4450 5000 4550
Wire Wire Line
	4900 4350 5000 4350
Connection ~ 5000 4350
Wire Wire Line
	5000 4350 5000 4450
Wire Wire Line
	4900 4250 5000 4250
Connection ~ 5000 4250
Wire Wire Line
	5000 4250 5000 4350
Wire Wire Line
	4900 4150 5000 4150
Connection ~ 5000 4150
Wire Wire Line
	5000 4150 5000 4250
Wire Wire Line
	4900 4050 5000 4050
Connection ~ 5000 4050
Wire Wire Line
	5000 4050 5000 4150
Wire Wire Line
	4900 3950 5000 3950
Connection ~ 5000 3950
Wire Wire Line
	5000 3950 5000 4050
Wire Wire Line
	4900 3850 5000 3850
Connection ~ 5000 3850
Wire Wire Line
	5000 3850 5000 3950
Wire Wire Line
	4900 3750 5000 3750
Connection ~ 5000 3750
Wire Wire Line
	5000 3750 5000 3850
Wire Wire Line
	4900 3650 5000 3650
Connection ~ 5000 3650
Wire Wire Line
	5000 3650 5000 3750
Wire Wire Line
	4900 3550 5000 3550
Connection ~ 5000 3550
Wire Wire Line
	5000 3550 5000 3650
Wire Wire Line
	4900 3450 5000 3450
Connection ~ 5000 3450
Wire Wire Line
	5000 3450 5000 3550
Wire Wire Line
	4900 3350 5000 3350
Wire Wire Line
	5000 2250 5000 2350
Connection ~ 5000 3350
Wire Wire Line
	5000 3350 5000 3450
Wire Wire Line
	4900 3250 5000 3250
Connection ~ 5000 3250
Wire Wire Line
	5000 3250 5000 3350
Wire Wire Line
	4900 3150 5000 3150
Connection ~ 5000 3150
Wire Wire Line
	5000 3150 5000 3250
Wire Wire Line
	4900 3050 5000 3050
Connection ~ 5000 3050
Wire Wire Line
	5000 3050 5000 3150
Wire Wire Line
	4900 2950 5000 2950
Connection ~ 5000 2950
Wire Wire Line
	5000 2950 5000 3050
Wire Wire Line
	4900 2850 5000 2850
Connection ~ 5000 2850
Wire Wire Line
	5000 2850 5000 2950
Wire Wire Line
	4900 2750 5000 2750
Connection ~ 5000 2750
Wire Wire Line
	5000 2750 5000 2850
Wire Wire Line
	4900 2650 5000 2650
Connection ~ 5000 2650
Wire Wire Line
	5000 2650 5000 2750
Wire Wire Line
	4900 2550 5000 2550
Connection ~ 5000 2550
Wire Wire Line
	5000 2550 5000 2650
Wire Wire Line
	4900 2450 5000 2450
Connection ~ 5000 2450
Wire Wire Line
	5000 2450 5000 2550
Wire Wire Line
	4900 2350 5000 2350
Connection ~ 5000 2350
Wire Wire Line
	5000 2350 5000 2450
$Comp
L power_special:VCCD33 #PWR0100
U 1 1 5CAF0A23
P 5100 5400
F 0 "#PWR0100" H 5100 5250 50  0001 C CNN
F 1 "VCCD33" V 5100 5500 50  0000 L CNN
F 2 "" H 5100 5400 50  0000 C CNN
F 3 "" H 5100 5400 50  0000 C CNN
	1    5100 5400
	0    1    1    0   
$EndComp
Wire Wire Line
	5100 5400 5000 5400
Wire Wire Line
	5000 5400 5000 5500
Wire Wire Line
	5000 6200 4900 6200
Connection ~ 5000 5400
Wire Wire Line
	5000 5400 4900 5400
Wire Wire Line
	4900 6100 5000 6100
Connection ~ 5000 6100
Wire Wire Line
	5000 6100 5000 6200
Wire Wire Line
	4900 6000 5000 6000
Connection ~ 5000 6000
Wire Wire Line
	5000 6000 5000 6100
Wire Wire Line
	4900 5900 5000 5900
Connection ~ 5000 5900
Wire Wire Line
	5000 5900 5000 6000
Wire Wire Line
	4900 5800 5000 5800
Connection ~ 5000 5800
Wire Wire Line
	5000 5800 5000 5900
Wire Wire Line
	4900 5700 5000 5700
Connection ~ 5000 5700
Wire Wire Line
	5000 5700 5000 5800
Wire Wire Line
	4900 5600 5000 5600
Connection ~ 5000 5600
Wire Wire Line
	5000 5600 5000 5700
Wire Wire Line
	4900 5500 5000 5500
Connection ~ 5000 5500
Wire Wire Line
	5000 5500 5000 5600
$Comp
L power:GNDA #PWR0101
U 1 1 5CBE9318
P 6050 1100
F 0 "#PWR0101" H 6050 850 50  0001 C CNN
F 1 "GNDA" V 6050 1000 50  0000 R CNN
F 2 "" H 6050 1100 50  0000 C CNN
F 3 "" H 6050 1100 50  0000 C CNN
	1    6050 1100
	0    1    1    0   
$EndComp
$Comp
L power:GNDA #PWR0102
U 1 1 5CBE935B
P 7750 1100
F 0 "#PWR0102" H 7750 850 50  0001 C CNN
F 1 "GNDA" V 7750 1000 50  0000 R CNN
F 2 "" H 7750 1100 50  0000 C CNN
F 3 "" H 7750 1100 50  0000 C CNN
	1    7750 1100
	0    -1   -1   0   
$EndComp
Wire Wire Line
	6050 1100 6150 1100
Wire Wire Line
	6150 1100 6150 1200
Wire Wire Line
	6150 6200 6250 6200
Connection ~ 6150 1100
Wire Wire Line
	6150 1100 6250 1100
Wire Wire Line
	6250 6100 6150 6100
Connection ~ 6150 6100
Wire Wire Line
	6150 6100 6150 6200
Wire Wire Line
	6250 6000 6150 6000
Connection ~ 6150 6000
Wire Wire Line
	6150 6000 6150 6100
Wire Wire Line
	6250 5900 6150 5900
Connection ~ 6150 5900
Wire Wire Line
	6150 5900 6150 6000
Wire Wire Line
	6250 5800 6150 5800
Connection ~ 6150 5800
Wire Wire Line
	6150 5800 6150 5900
Wire Wire Line
	6250 5700 6150 5700
Connection ~ 6150 5700
Wire Wire Line
	6150 5700 6150 5800
Wire Wire Line
	6250 5600 6150 5600
Connection ~ 6150 5600
Wire Wire Line
	6150 5600 6150 5700
Wire Wire Line
	6250 5500 6150 5500
Connection ~ 6150 5500
Wire Wire Line
	6150 5500 6150 5600
Wire Wire Line
	6250 5400 6150 5400
Connection ~ 6150 5400
Wire Wire Line
	6150 5400 6150 5500
Wire Wire Line
	6250 5300 6150 5300
Connection ~ 6150 5300
Wire Wire Line
	6150 5300 6150 5400
Wire Wire Line
	6250 5200 6150 5200
Connection ~ 6150 5200
Wire Wire Line
	6150 5200 6150 5300
Wire Wire Line
	6250 5100 6150 5100
Connection ~ 6150 5100
Wire Wire Line
	6150 5100 6150 5200
Wire Wire Line
	6250 5000 6150 5000
Connection ~ 6150 5000
Wire Wire Line
	6150 5000 6150 5100
Wire Wire Line
	6250 4900 6150 4900
Connection ~ 6150 4900
Wire Wire Line
	6150 4900 6150 5000
Wire Wire Line
	6250 4800 6150 4800
Connection ~ 6150 4800
Wire Wire Line
	6150 4800 6150 4900
Wire Wire Line
	6250 4700 6150 4700
Connection ~ 6150 4700
Wire Wire Line
	6150 4700 6150 4800
Wire Wire Line
	6250 4600 6150 4600
Connection ~ 6150 4600
Wire Wire Line
	6150 4600 6150 4700
Wire Wire Line
	6250 4500 6150 4500
Connection ~ 6150 4500
Wire Wire Line
	6150 4500 6150 4600
Wire Wire Line
	6250 4400 6150 4400
Connection ~ 6150 4400
Wire Wire Line
	6150 4400 6150 4500
Wire Wire Line
	6250 4300 6150 4300
Connection ~ 6150 4300
Wire Wire Line
	6150 4300 6150 4400
Wire Wire Line
	6250 4200 6150 4200
Connection ~ 6150 4200
Wire Wire Line
	6150 4200 6150 4300
Wire Wire Line
	6250 4100 6150 4100
Connection ~ 6150 4100
Wire Wire Line
	6150 4100 6150 4200
Wire Wire Line
	6250 4000 6150 4000
Connection ~ 6150 4000
Wire Wire Line
	6150 4000 6150 4100
Wire Wire Line
	6250 3900 6150 3900
Connection ~ 6150 3900
Wire Wire Line
	6150 3900 6150 4000
Wire Wire Line
	6250 3800 6150 3800
Connection ~ 6150 3800
Wire Wire Line
	6150 3800 6150 3900
Wire Wire Line
	6250 3700 6150 3700
Connection ~ 6150 3700
Wire Wire Line
	6150 3700 6150 3800
Wire Wire Line
	6250 3600 6150 3600
Connection ~ 6150 3600
Wire Wire Line
	6150 3600 6150 3700
Wire Wire Line
	6250 3500 6150 3500
Connection ~ 6150 3500
Wire Wire Line
	6150 3500 6150 3600
Wire Wire Line
	6250 3400 6150 3400
Connection ~ 6150 3400
Wire Wire Line
	6150 3400 6150 3500
Wire Wire Line
	6250 3300 6150 3300
Connection ~ 6150 3300
Wire Wire Line
	6150 3300 6150 3400
Wire Wire Line
	6250 3200 6150 3200
Connection ~ 6150 3200
Wire Wire Line
	6150 3200 6150 3300
Wire Wire Line
	6250 3100 6150 3100
Connection ~ 6150 3100
Wire Wire Line
	6150 3100 6150 3200
Wire Wire Line
	6250 3000 6150 3000
Connection ~ 6150 3000
Wire Wire Line
	6150 3000 6150 3100
Wire Wire Line
	6250 2900 6150 2900
Connection ~ 6150 2900
Wire Wire Line
	6150 2900 6150 3000
Wire Wire Line
	6250 2800 6150 2800
Connection ~ 6150 2800
Wire Wire Line
	6150 2800 6150 2900
Wire Wire Line
	6250 2700 6150 2700
Connection ~ 6150 2700
Wire Wire Line
	6150 2700 6150 2800
Wire Wire Line
	6250 2600 6150 2600
Connection ~ 6150 2600
Wire Wire Line
	6150 2600 6150 2700
Wire Wire Line
	6250 2500 6150 2500
Connection ~ 6150 2500
Wire Wire Line
	6150 2500 6150 2600
Wire Wire Line
	6250 2400 6150 2400
Connection ~ 6150 2400
Wire Wire Line
	6150 2400 6150 2500
Wire Wire Line
	6250 2300 6150 2300
Connection ~ 6150 2300
Wire Wire Line
	6150 2300 6150 2400
Wire Wire Line
	6250 2200 6150 2200
Connection ~ 6150 2200
Wire Wire Line
	6150 2200 6150 2300
Wire Wire Line
	6250 2100 6150 2100
Connection ~ 6150 2100
Wire Wire Line
	6150 2100 6150 2200
Wire Wire Line
	6250 2000 6150 2000
Connection ~ 6150 2000
Wire Wire Line
	6150 2000 6150 2100
Wire Wire Line
	6250 1900 6150 1900
Connection ~ 6150 1900
Wire Wire Line
	6150 1900 6150 2000
Wire Wire Line
	6250 1800 6150 1800
Connection ~ 6150 1800
Wire Wire Line
	6150 1800 6150 1900
Wire Wire Line
	6250 1700 6150 1700
Connection ~ 6150 1700
Wire Wire Line
	6150 1700 6150 1800
Wire Wire Line
	6250 1600 6150 1600
Connection ~ 6150 1600
Wire Wire Line
	6150 1600 6150 1700
Wire Wire Line
	6250 1500 6150 1500
Connection ~ 6150 1500
Wire Wire Line
	6150 1500 6150 1600
Wire Wire Line
	6250 1400 6150 1400
Connection ~ 6150 1400
Wire Wire Line
	6150 1400 6150 1500
Wire Wire Line
	6250 1300 6150 1300
Connection ~ 6150 1300
Wire Wire Line
	6150 1300 6150 1400
Wire Wire Line
	6250 1200 6150 1200
Connection ~ 6150 1200
Wire Wire Line
	6150 1200 6150 1300
Wire Wire Line
	7750 1100 7650 1100
Wire Wire Line
	7650 1100 7650 1200
Wire Wire Line
	7650 6200 7550 6200
Connection ~ 7650 1100
Wire Wire Line
	7650 1100 7550 1100
Wire Wire Line
	7550 6100 7650 6100
Connection ~ 7650 6100
Wire Wire Line
	7650 6100 7650 6200
Wire Wire Line
	7550 6000 7650 6000
Connection ~ 7650 6000
Wire Wire Line
	7650 6000 7650 6100
Wire Wire Line
	7550 5900 7650 5900
Connection ~ 7650 5900
Wire Wire Line
	7650 5900 7650 6000
Wire Wire Line
	7550 5800 7650 5800
Connection ~ 7650 5800
Wire Wire Line
	7650 5800 7650 5900
Wire Wire Line
	7550 5700 7650 5700
Connection ~ 7650 5700
Wire Wire Line
	7650 5700 7650 5800
Wire Wire Line
	7550 5600 7650 5600
Connection ~ 7650 5600
Wire Wire Line
	7650 5600 7650 5700
Wire Wire Line
	7550 5500 7650 5500
Connection ~ 7650 5500
Wire Wire Line
	7650 5500 7650 5600
Wire Wire Line
	7550 5400 7650 5400
Connection ~ 7650 5400
Wire Wire Line
	7650 5400 7650 5500
Wire Wire Line
	7550 5300 7650 5300
Connection ~ 7650 5300
Wire Wire Line
	7650 5300 7650 5400
Wire Wire Line
	7550 5200 7650 5200
Connection ~ 7650 5200
Wire Wire Line
	7650 5200 7650 5300
Wire Wire Line
	7550 5100 7650 5100
Connection ~ 7650 5100
Wire Wire Line
	7650 5100 7650 5200
Wire Wire Line
	7550 5000 7650 5000
Connection ~ 7650 5000
Wire Wire Line
	7650 5000 7650 5100
Wire Wire Line
	7550 4900 7650 4900
Connection ~ 7650 4900
Wire Wire Line
	7650 4900 7650 5000
Wire Wire Line
	7550 4800 7650 4800
Connection ~ 7650 4800
Wire Wire Line
	7650 4800 7650 4900
Wire Wire Line
	7550 4700 7650 4700
Connection ~ 7650 4700
Wire Wire Line
	7650 4700 7650 4800
Wire Wire Line
	7550 4600 7650 4600
Connection ~ 7650 4600
Wire Wire Line
	7650 4600 7650 4700
Wire Wire Line
	7550 4500 7650 4500
Connection ~ 7650 4500
Wire Wire Line
	7650 4500 7650 4600
Wire Wire Line
	7550 4400 7650 4400
Connection ~ 7650 4400
Wire Wire Line
	7650 4400 7650 4500
Wire Wire Line
	7550 4300 7650 4300
Connection ~ 7650 4300
Wire Wire Line
	7650 4300 7650 4400
Wire Wire Line
	7550 4200 7650 4200
Connection ~ 7650 4200
Wire Wire Line
	7650 4200 7650 4300
Wire Wire Line
	7550 4100 7650 4100
Connection ~ 7650 4100
Wire Wire Line
	7650 4100 7650 4200
Wire Wire Line
	7550 4000 7650 4000
Connection ~ 7650 4000
Wire Wire Line
	7650 4000 7650 4100
Wire Wire Line
	7550 3900 7650 3900
Connection ~ 7650 3900
Wire Wire Line
	7650 3900 7650 4000
Wire Wire Line
	7550 3800 7650 3800
Connection ~ 7650 3800
Wire Wire Line
	7650 3800 7650 3900
Wire Wire Line
	7550 3700 7650 3700
Connection ~ 7650 3700
Wire Wire Line
	7650 3700 7650 3800
Wire Wire Line
	7550 3600 7650 3600
Connection ~ 7650 3600
Wire Wire Line
	7650 3600 7650 3700
Wire Wire Line
	7550 3500 7650 3500
Connection ~ 7650 3500
Wire Wire Line
	7650 3500 7650 3600
Wire Wire Line
	7550 3400 7650 3400
Connection ~ 7650 3400
Wire Wire Line
	7650 3400 7650 3500
Wire Wire Line
	7550 3300 7650 3300
Connection ~ 7650 3300
Wire Wire Line
	7650 3300 7650 3400
Wire Wire Line
	7550 3200 7650 3200
Connection ~ 7650 3200
Wire Wire Line
	7650 3200 7650 3300
Wire Wire Line
	7550 3100 7650 3100
Connection ~ 7650 3100
Wire Wire Line
	7650 3100 7650 3200
Wire Wire Line
	7550 3000 7650 3000
Connection ~ 7650 3000
Wire Wire Line
	7650 3000 7650 3100
Wire Wire Line
	7550 2900 7650 2900
Connection ~ 7650 2900
Wire Wire Line
	7650 2900 7650 3000
Wire Wire Line
	7550 2800 7650 2800
Connection ~ 7650 2800
Wire Wire Line
	7650 2800 7650 2900
Wire Wire Line
	7550 2700 7650 2700
Connection ~ 7650 2700
Wire Wire Line
	7650 2700 7650 2800
Wire Wire Line
	7550 2600 7650 2600
Connection ~ 7650 2600
Wire Wire Line
	7650 2600 7650 2700
Wire Wire Line
	7550 2500 7650 2500
Connection ~ 7650 2500
Wire Wire Line
	7650 2500 7650 2600
Wire Wire Line
	7550 2400 7650 2400
Connection ~ 7650 2400
Wire Wire Line
	7650 2400 7650 2500
Wire Wire Line
	7550 2300 7650 2300
Connection ~ 7650 2300
Wire Wire Line
	7650 2300 7650 2400
Wire Wire Line
	7550 2200 7650 2200
Connection ~ 7650 2200
Wire Wire Line
	7650 2200 7650 2300
Wire Wire Line
	7550 2100 7650 2100
Connection ~ 7650 2100
Wire Wire Line
	7650 2100 7650 2200
Wire Wire Line
	7550 2000 7650 2000
Connection ~ 7650 2000
Wire Wire Line
	7650 2000 7650 2100
Wire Wire Line
	7550 1900 7650 1900
Connection ~ 7650 1900
Wire Wire Line
	7650 1900 7650 2000
Wire Wire Line
	7550 1800 7650 1800
Connection ~ 7650 1800
Wire Wire Line
	7650 1800 7650 1900
Wire Wire Line
	7550 1700 7650 1700
Connection ~ 7650 1700
Wire Wire Line
	7650 1700 7650 1800
Wire Wire Line
	7550 1600 7650 1600
Connection ~ 7650 1600
Wire Wire Line
	7650 1600 7650 1700
Wire Wire Line
	7550 1500 7650 1500
Connection ~ 7650 1500
Wire Wire Line
	7650 1500 7650 1600
Wire Wire Line
	7550 1400 7650 1400
Connection ~ 7650 1400
Wire Wire Line
	7650 1400 7650 1500
Wire Wire Line
	7550 1300 7650 1300
Connection ~ 7650 1300
Wire Wire Line
	7650 1300 7650 1400
Wire Wire Line
	7550 1200 7650 1200
Connection ~ 7650 1200
Wire Wire Line
	7650 1200 7650 1300
$Comp
L device:C C60
U 1 1 5DF1AF40
P 8850 2000
F 0 "C60" H 8965 2046 50  0000 L CNN
F 1 "0.1u" H 8965 1955 50  0000 L CNN
F 2 "Capacitors_SMD:C_0603" H 8888 1850 50  0001 C CNN
F 3 "" H 8850 2000 50  0000 C CNN
	1    8850 2000
	1    0    0    -1  
$EndComp
$Comp
L device:C C68
U 1 1 5DF1AFD0
P 9300 2000
F 0 "C68" H 9415 2046 50  0000 L CNN
F 1 "1u" H 9415 1955 50  0000 L CNN
F 2 "Capacitors_SMD:C_0603" H 9338 1850 50  0001 C CNN
F 3 "" H 9300 2000 50  0000 C CNN
	1    9300 2000
	1    0    0    -1  
$EndComp
$Comp
L device:C C76
U 1 1 5DF1AFF8
P 9700 2000
F 0 "C76" H 9815 2046 50  0000 L CNN
F 1 "10u" H 9815 1955 50  0000 L CNN
F 2 "Capacitors_SMD:C_0603" H 9738 1850 50  0001 C CNN
F 3 "" H 9700 2000 50  0000 C CNN
	1    9700 2000
	1    0    0    -1  
$EndComp
Wire Wire Line
	8850 2150 9300 2150
Wire Wire Line
	9300 2150 9700 2150
Connection ~ 9300 2150
$Comp
L power:GNDA #PWR0106
U 1 1 5DFA6468
P 10000 2150
F 0 "#PWR0106" H 10000 1900 50  0001 C CNN
F 1 "GNDA" V 10000 2050 50  0000 R CNN
F 2 "" H 10000 2150 50  0000 C CNN
F 3 "" H 10000 2150 50  0000 C CNN
	1    10000 2150
	0    -1   -1   0   
$EndComp
Wire Wire Line
	10000 2150 9700 2150
Connection ~ 9700 2150
$Comp
L power_special:VCCA33 #PWR0105
U 1 1 5DFEBDCB
P 10000 1850
F 0 "#PWR0105" H 10000 1700 50  0001 C CNN
F 1 "VCCA33" V 10000 1950 50  0000 L CNN
F 2 "" H 10000 1850 50  0000 C CNN
F 3 "" H 10000 1850 50  0000 C CNN
	1    10000 1850
	0    1    1    0   
$EndComp
Wire Wire Line
	10000 1850 9700 1850
Wire Wire Line
	9700 1850 9300 1850
Connection ~ 9700 1850
Wire Wire Line
	9300 1850 8850 1850
Connection ~ 9300 1850
$Comp
L device:C C59
U 1 1 5E10441A
P 8850 1500
F 0 "C59" H 8965 1546 50  0000 L CNN
F 1 "0.1u" H 8965 1455 50  0000 L CNN
F 2 "Capacitors_SMD:C_0603" H 8888 1350 50  0001 C CNN
F 3 "" H 8850 1500 50  0000 C CNN
	1    8850 1500
	1    0    0    -1  
$EndComp
$Comp
L device:C C67
U 1 1 5E104421
P 9300 1500
F 0 "C67" H 9415 1546 50  0000 L CNN
F 1 "1u" H 9415 1455 50  0000 L CNN
F 2 "Capacitors_SMD:C_0603" H 9338 1350 50  0001 C CNN
F 3 "" H 9300 1500 50  0000 C CNN
	1    9300 1500
	1    0    0    -1  
$EndComp
$Comp
L device:C C75
U 1 1 5E104428
P 9700 1500
F 0 "C75" H 9815 1546 50  0000 L CNN
F 1 "10u" H 9815 1455 50  0000 L CNN
F 2 "Capacitors_SMD:C_0603" H 9738 1350 50  0001 C CNN
F 3 "" H 9700 1500 50  0000 C CNN
	1    9700 1500
	1    0    0    -1  
$EndComp
Wire Wire Line
	8850 1650 9300 1650
Wire Wire Line
	9300 1650 9700 1650
Connection ~ 9300 1650
$Comp
L power:GNDA #PWR0104
U 1 1 5E104432
P 10000 1650
F 0 "#PWR0104" H 10000 1400 50  0001 C CNN
F 1 "GNDA" V 10000 1550 50  0000 R CNN
F 2 "" H 10000 1650 50  0000 C CNN
F 3 "" H 10000 1650 50  0000 C CNN
	1    10000 1650
	0    -1   -1   0   
$EndComp
Wire Wire Line
	10000 1650 9700 1650
Connection ~ 9700 1650
$Comp
L power_special:VCCA33 #PWR0103
U 1 1 5E10443A
P 10000 1350
F 0 "#PWR0103" H 10000 1200 50  0001 C CNN
F 1 "VCCA33" V 10000 1450 50  0000 L CNN
F 2 "" H 10000 1350 50  0000 C CNN
F 3 "" H 10000 1350 50  0000 C CNN
	1    10000 1350
	0    1    1    0   
$EndComp
Wire Wire Line
	10000 1350 9700 1350
Wire Wire Line
	9700 1350 9300 1350
Connection ~ 9700 1350
Wire Wire Line
	9300 1350 8850 1350
Connection ~ 9300 1350
$Comp
L device:C C62
U 1 1 5E14C2A2
P 8850 3000
F 0 "C62" H 8965 3046 50  0000 L CNN
F 1 "0.1u" H 8965 2955 50  0000 L CNN
F 2 "Capacitors_SMD:C_0603" H 8888 2850 50  0001 C CNN
F 3 "" H 8850 3000 50  0000 C CNN
	1    8850 3000
	1    0    0    -1  
$EndComp
$Comp
L device:C C70
U 1 1 5E14C2A9
P 9300 3000
F 0 "C70" H 9415 3046 50  0000 L CNN
F 1 "1u" H 9415 2955 50  0000 L CNN
F 2 "Capacitors_SMD:C_0603" H 9338 2850 50  0001 C CNN
F 3 "" H 9300 3000 50  0000 C CNN
	1    9300 3000
	1    0    0    -1  
$EndComp
$Comp
L device:C C78
U 1 1 5E14C2B0
P 9700 3000
F 0 "C78" H 9815 3046 50  0000 L CNN
F 1 "10u" H 9815 2955 50  0000 L CNN
F 2 "Capacitors_SMD:C_0603" H 9738 2850 50  0001 C CNN
F 3 "" H 9700 3000 50  0000 C CNN
	1    9700 3000
	1    0    0    -1  
$EndComp
Wire Wire Line
	8850 3150 9300 3150
Wire Wire Line
	9300 3150 9700 3150
Connection ~ 9300 3150
$Comp
L power:GNDA #PWR0110
U 1 1 5E14C2BA
P 10000 3150
F 0 "#PWR0110" H 10000 2900 50  0001 C CNN
F 1 "GNDA" V 10000 3050 50  0000 R CNN
F 2 "" H 10000 3150 50  0000 C CNN
F 3 "" H 10000 3150 50  0000 C CNN
	1    10000 3150
	0    -1   -1   0   
$EndComp
Wire Wire Line
	10000 3150 9700 3150
Connection ~ 9700 3150
Wire Wire Line
	10000 2850 9700 2850
Wire Wire Line
	9700 2850 9300 2850
Connection ~ 9700 2850
Wire Wire Line
	9300 2850 8850 2850
Connection ~ 9300 2850
$Comp
L device:C C61
U 1 1 5E14C2CD
P 8850 2500
F 0 "C61" H 8965 2546 50  0000 L CNN
F 1 "0.1u" H 8965 2455 50  0000 L CNN
F 2 "Capacitors_SMD:C_0603" H 8888 2350 50  0001 C CNN
F 3 "" H 8850 2500 50  0000 C CNN
	1    8850 2500
	1    0    0    -1  
$EndComp
$Comp
L device:C C69
U 1 1 5E14C2D4
P 9300 2500
F 0 "C69" H 9415 2546 50  0000 L CNN
F 1 "1u" H 9415 2455 50  0000 L CNN
F 2 "Capacitors_SMD:C_0603" H 9338 2350 50  0001 C CNN
F 3 "" H 9300 2500 50  0000 C CNN
	1    9300 2500
	1    0    0    -1  
$EndComp
$Comp
L device:C C77
U 1 1 5E14C2DB
P 9700 2500
F 0 "C77" H 9815 2546 50  0000 L CNN
F 1 "10u" H 9815 2455 50  0000 L CNN
F 2 "Capacitors_SMD:C_0603" H 9738 2350 50  0001 C CNN
F 3 "" H 9700 2500 50  0000 C CNN
	1    9700 2500
	1    0    0    -1  
$EndComp
Wire Wire Line
	8850 2650 9300 2650
Wire Wire Line
	9300 2650 9700 2650
Connection ~ 9300 2650
$Comp
L power:GNDA #PWR0108
U 1 1 5E14C2E5
P 10000 2650
F 0 "#PWR0108" H 10000 2400 50  0001 C CNN
F 1 "GNDA" V 10000 2550 50  0000 R CNN
F 2 "" H 10000 2650 50  0000 C CNN
F 3 "" H 10000 2650 50  0000 C CNN
	1    10000 2650
	0    -1   -1   0   
$EndComp
Wire Wire Line
	10000 2650 9700 2650
Connection ~ 9700 2650
Wire Wire Line
	10000 2350 9700 2350
Wire Wire Line
	9700 2350 9300 2350
Connection ~ 9700 2350
Wire Wire Line
	9300 2350 8850 2350
Connection ~ 9300 2350
$Comp
L power_special:VCCA18 #PWR0107
U 1 1 5E196B21
P 10000 2350
F 0 "#PWR0107" H 10000 2200 50  0001 C CNN
F 1 "VCCA18" V 10000 2450 50  0000 L CNN
F 2 "" H 10000 2350 50  0000 C CNN
F 3 "" H 10000 2350 50  0000 C CNN
	1    10000 2350
	0    1    1    0   
$EndComp
$Comp
L power_special:VCCA18 #PWR0109
U 1 1 5E196B7F
P 10000 2850
F 0 "#PWR0109" H 10000 2700 50  0001 C CNN
F 1 "VCCA18" V 10000 2950 50  0000 L CNN
F 2 "" H 10000 2850 50  0000 C CNN
F 3 "" H 10000 2850 50  0000 C CNN
	1    10000 2850
	0    1    1    0   
$EndComp
$Comp
L device:C C64
U 1 1 5E1982B4
P 8850 4050
F 0 "C64" H 8965 4096 50  0000 L CNN
F 1 "0.1u" H 8965 4005 50  0000 L CNN
F 2 "Capacitors_SMD:C_0603" H 8888 3900 50  0001 C CNN
F 3 "" H 8850 4050 50  0000 C CNN
	1    8850 4050
	1    0    0    -1  
$EndComp
$Comp
L device:C C72
U 1 1 5E1982BB
P 9300 4050
F 0 "C72" H 9415 4096 50  0000 L CNN
F 1 "1u" H 9415 4005 50  0000 L CNN
F 2 "Capacitors_SMD:C_0603" H 9338 3900 50  0001 C CNN
F 3 "" H 9300 4050 50  0000 C CNN
	1    9300 4050
	1    0    0    -1  
$EndComp
$Comp
L device:C C80
U 1 1 5E1982C2
P 9700 4050
F 0 "C80" H 9815 4096 50  0000 L CNN
F 1 "10u" H 9815 4005 50  0000 L CNN
F 2 "Capacitors_SMD:C_0603" H 9738 3900 50  0001 C CNN
F 3 "" H 9700 4050 50  0000 C CNN
	1    9700 4050
	1    0    0    -1  
$EndComp
Wire Wire Line
	8850 4200 9300 4200
Wire Wire Line
	9300 4200 9700 4200
Connection ~ 9300 4200
Wire Wire Line
	10000 4200 9700 4200
Connection ~ 9700 4200
Wire Wire Line
	10000 3900 9700 3900
Wire Wire Line
	9700 3900 9300 3900
Connection ~ 9700 3900
Wire Wire Line
	9300 3900 8850 3900
Connection ~ 9300 3900
$Comp
L device:C C63
U 1 1 5E1982DF
P 8850 3550
F 0 "C63" H 8965 3596 50  0000 L CNN
F 1 "0.1u" H 8965 3505 50  0000 L CNN
F 2 "Capacitors_SMD:C_0603" H 8888 3400 50  0001 C CNN
F 3 "" H 8850 3550 50  0000 C CNN
	1    8850 3550
	1    0    0    -1  
$EndComp
$Comp
L device:C C71
U 1 1 5E1982E6
P 9300 3550
F 0 "C71" H 9415 3596 50  0000 L CNN
F 1 "1u" H 9415 3505 50  0000 L CNN
F 2 "Capacitors_SMD:C_0603" H 9338 3400 50  0001 C CNN
F 3 "" H 9300 3550 50  0000 C CNN
	1    9300 3550
	1    0    0    -1  
$EndComp
$Comp
L device:C C79
U 1 1 5E1982ED
P 9700 3550
F 0 "C79" H 9815 3596 50  0000 L CNN
F 1 "10u" H 9815 3505 50  0000 L CNN
F 2 "Capacitors_SMD:C_0603" H 9738 3400 50  0001 C CNN
F 3 "" H 9700 3550 50  0000 C CNN
	1    9700 3550
	1    0    0    -1  
$EndComp
Wire Wire Line
	8850 3700 9300 3700
Wire Wire Line
	9300 3700 9700 3700
Connection ~ 9300 3700
Wire Wire Line
	10000 3700 9700 3700
Connection ~ 9700 3700
Wire Wire Line
	10000 3400 9700 3400
Wire Wire Line
	9700 3400 9300 3400
Connection ~ 9700 3400
Wire Wire Line
	9300 3400 8850 3400
Connection ~ 9300 3400
$Comp
L device:C C66
U 1 1 5E19830A
P 8850 5050
F 0 "C66" H 8965 5096 50  0000 L CNN
F 1 "0.1u" H 8965 5005 50  0000 L CNN
F 2 "Capacitors_SMD:C_0603" H 8888 4900 50  0001 C CNN
F 3 "" H 8850 5050 50  0000 C CNN
	1    8850 5050
	1    0    0    -1  
$EndComp
$Comp
L device:C C74
U 1 1 5E198311
P 9300 5050
F 0 "C74" H 9415 5096 50  0000 L CNN
F 1 "1u" H 9415 5005 50  0000 L CNN
F 2 "Capacitors_SMD:C_0603" H 9338 4900 50  0001 C CNN
F 3 "" H 9300 5050 50  0000 C CNN
	1    9300 5050
	1    0    0    -1  
$EndComp
$Comp
L device:C C82
U 1 1 5E198318
P 9700 5050
F 0 "C82" H 9815 5096 50  0000 L CNN
F 1 "10u" H 9815 5005 50  0000 L CNN
F 2 "Capacitors_SMD:C_0603" H 9738 4900 50  0001 C CNN
F 3 "" H 9700 5050 50  0000 C CNN
	1    9700 5050
	1    0    0    -1  
$EndComp
Wire Wire Line
	8850 5200 9300 5200
Wire Wire Line
	9300 5200 9700 5200
Connection ~ 9300 5200
Wire Wire Line
	10000 5200 9700 5200
Connection ~ 9700 5200
Wire Wire Line
	10000 4900 9700 4900
Wire Wire Line
	9700 4900 9300 4900
Connection ~ 9700 4900
Wire Wire Line
	9300 4900 8850 4900
Connection ~ 9300 4900
$Comp
L device:C C65
U 1 1 5E19832F
P 8850 4550
F 0 "C65" H 8965 4596 50  0000 L CNN
F 1 "0.1u" H 8965 4505 50  0000 L CNN
F 2 "Capacitors_SMD:C_0603" H 8888 4400 50  0001 C CNN
F 3 "" H 8850 4550 50  0000 C CNN
	1    8850 4550
	1    0    0    -1  
$EndComp
$Comp
L device:C C73
U 1 1 5E198336
P 9300 4550
F 0 "C73" H 9415 4596 50  0000 L CNN
F 1 "1u" H 9415 4505 50  0000 L CNN
F 2 "Capacitors_SMD:C_0603" H 9338 4400 50  0001 C CNN
F 3 "" H 9300 4550 50  0000 C CNN
	1    9300 4550
	1    0    0    -1  
$EndComp
$Comp
L device:C C81
U 1 1 5E19833D
P 9700 4550
F 0 "C81" H 9815 4596 50  0000 L CNN
F 1 "10u" H 9815 4505 50  0000 L CNN
F 2 "Capacitors_SMD:C_0603" H 9738 4400 50  0001 C CNN
F 3 "" H 9700 4550 50  0000 C CNN
	1    9700 4550
	1    0    0    -1  
$EndComp
Wire Wire Line
	8850 4700 9300 4700
Wire Wire Line
	9300 4700 9700 4700
Connection ~ 9300 4700
Wire Wire Line
	10000 4700 9700 4700
Connection ~ 9700 4700
Wire Wire Line
	10000 4400 9700 4400
Wire Wire Line
	9700 4400 9300 4400
Connection ~ 9700 4400
Wire Wire Line
	9300 4400 8850 4400
Connection ~ 9300 4400
$Comp
L power:GNDD #PWR0118
U 1 1 5E1E8FEF
P 10000 5200
F 0 "#PWR0118" H 10000 4950 50  0001 C CNN
F 1 "GNDD" V 10000 5100 50  0000 R CNN
F 2 "" H 10000 5200 50  0000 C CNN
F 3 "" H 10000 5200 50  0000 C CNN
	1    10000 5200
	0    -1   -1   0   
$EndComp
$Comp
L power:GNDD #PWR0116
U 1 1 5E1E913F
P 10000 4700
F 0 "#PWR0116" H 10000 4450 50  0001 C CNN
F 1 "GNDD" V 10000 4600 50  0000 R CNN
F 2 "" H 10000 4700 50  0000 C CNN
F 3 "" H 10000 4700 50  0000 C CNN
	1    10000 4700
	0    -1   -1   0   
$EndComp
$Comp
L power:GNDD #PWR0114
U 1 1 5E1E9180
P 10000 4200
F 0 "#PWR0114" H 10000 3950 50  0001 C CNN
F 1 "GNDD" V 10000 4100 50  0000 R CNN
F 2 "" H 10000 4200 50  0000 C CNN
F 3 "" H 10000 4200 50  0000 C CNN
	1    10000 4200
	0    -1   -1   0   
$EndComp
$Comp
L power:GNDD #PWR0112
U 1 1 5E1E91C1
P 10000 3700
F 0 "#PWR0112" H 10000 3450 50  0001 C CNN
F 1 "GNDD" V 10000 3600 50  0000 R CNN
F 2 "" H 10000 3700 50  0000 C CNN
F 3 "" H 10000 3700 50  0000 C CNN
	1    10000 3700
	0    -1   -1   0   
$EndComp
$Comp
L power_special:VCCD18 #PWR0111
U 1 1 5E1E92B1
P 10000 3400
F 0 "#PWR0111" H 10000 3250 50  0001 C CNN
F 1 "VCCD18" V 10000 3500 50  0000 L CNN
F 2 "" H 10000 3400 50  0000 C CNN
F 3 "" H 10000 3400 50  0000 C CNN
	1    10000 3400
	0    1    1    0   
$EndComp
$Comp
L power_special:VCCD18 #PWR0113
U 1 1 5E1E93A5
P 10000 3900
F 0 "#PWR0113" H 10000 3750 50  0001 C CNN
F 1 "VCCD18" V 10000 4000 50  0000 L CNN
F 2 "" H 10000 3900 50  0000 C CNN
F 3 "" H 10000 3900 50  0000 C CNN
	1    10000 3900
	0    1    1    0   
$EndComp
$Comp
L power_special:VCCD33 #PWR0115
U 1 1 5E1E9484
P 10000 4400
F 0 "#PWR0115" H 10000 4250 50  0001 C CNN
F 1 "VCCD33" V 10000 4500 50  0000 L CNN
F 2 "" H 10000 4400 50  0000 C CNN
F 3 "" H 10000 4400 50  0000 C CNN
	1    10000 4400
	0    1    1    0   
$EndComp
$Comp
L power_special:VCCD33 #PWR0117
U 1 1 5E1E9542
P 10000 4900
F 0 "#PWR0117" H 10000 4750 50  0001 C CNN
F 1 "VCCD33" V 10000 5000 50  0000 L CNN
F 2 "" H 10000 4900 50  0000 C CNN
F 3 "" H 10000 4900 50  0000 C CNN
	1    10000 4900
	0    1    1    0   
$EndComp
$Comp
L device:C C55
U 1 1 5E1EA724
P 1450 7100
F 0 "C55" H 1565 7146 50  0000 L CNN
F 1 "47u" H 1565 7055 50  0000 L CNN
F 2 "Capacitors_SMD:C_0805" H 1488 6950 50  0001 C CNN
F 3 "" H 1450 7100 50  0000 C CNN
	1    1450 7100
	1    0    0    -1  
$EndComp
$Comp
L device:C C56
U 1 1 5E1EA82C
P 2200 7100
F 0 "C56" H 2315 7146 50  0000 L CNN
F 1 "47u" H 2315 7055 50  0000 L CNN
F 2 "Capacitors_SMD:C_0805" H 2238 6950 50  0001 C CNN
F 3 "" H 2200 7100 50  0000 C CNN
	1    2200 7100
	1    0    0    -1  
$EndComp
$Comp
L device:C C57
U 1 1 5E1EA8CD
P 2900 7100
F 0 "C57" H 3015 7146 50  0000 L CNN
F 1 "47u" H 3015 7055 50  0000 L CNN
F 2 "Capacitors_SMD:C_0805" H 2938 6950 50  0001 C CNN
F 3 "" H 2900 7100 50  0000 C CNN
	1    2900 7100
	1    0    0    -1  
$EndComp
$Comp
L device:C C58
U 1 1 5E1EA971
P 3600 7100
F 0 "C58" H 3715 7146 50  0000 L CNN
F 1 "47u" H 3715 7055 50  0000 L CNN
F 2 "Capacitors_SMD:C_0805" H 3638 6950 50  0001 C CNN
F 3 "" H 3600 7100 50  0000 C CNN
	1    3600 7100
	1    0    0    -1  
$EndComp
$Comp
L power:GNDD #PWR094
U 1 1 5E1EAA12
P 2900 7250
F 0 "#PWR094" H 2900 7000 50  0001 C CNN
F 1 "GNDD" H 2905 7077 50  0000 C CNN
F 2 "" H 2900 7250 50  0000 C CNN
F 3 "" H 2900 7250 50  0000 C CNN
	1    2900 7250
	1    0    0    -1  
$EndComp
$Comp
L power:GNDD #PWR097
U 1 1 5E1EAA91
P 3600 7250
F 0 "#PWR097" H 3600 7000 50  0001 C CNN
F 1 "GNDD" H 3605 7077 50  0000 C CNN
F 2 "" H 3600 7250 50  0000 C CNN
F 3 "" H 3600 7250 50  0000 C CNN
	1    3600 7250
	1    0    0    -1  
$EndComp
$Comp
L power:GNDA #PWR090
U 1 1 5E1EAB64
P 2200 7250
F 0 "#PWR090" H 2200 7000 50  0001 C CNN
F 1 "GNDA" H 2205 7077 50  0000 C CNN
F 2 "" H 2200 7250 50  0000 C CNN
F 3 "" H 2200 7250 50  0000 C CNN
	1    2200 7250
	1    0    0    -1  
$EndComp
$Comp
L power:GNDA #PWR088
U 1 1 5E1EABE3
P 1450 7250
F 0 "#PWR088" H 1450 7000 50  0001 C CNN
F 1 "GNDA" H 1455 7077 50  0000 C CNN
F 2 "" H 1450 7250 50  0000 C CNN
F 3 "" H 1450 7250 50  0000 C CNN
	1    1450 7250
	1    0    0    -1  
$EndComp
$Comp
L power_special:VCCA18 #PWR087
U 1 1 5E1EAD32
P 1450 6950
F 0 "#PWR087" H 1450 6800 50  0001 C CNN
F 1 "VCCA18" H 1467 7123 50  0000 C CNN
F 2 "" H 1450 6950 50  0000 C CNN
F 3 "" H 1450 6950 50  0000 C CNN
	1    1450 6950
	1    0    0    -1  
$EndComp
$Comp
L power_special:VCCA33 #PWR089
U 1 1 5E1EADF7
P 2200 6950
F 0 "#PWR089" H 2200 6800 50  0001 C CNN
F 1 "VCCA33" H 2217 7123 50  0000 C CNN
F 2 "" H 2200 6950 50  0000 C CNN
F 3 "" H 2200 6950 50  0000 C CNN
	1    2200 6950
	1    0    0    -1  
$EndComp
$Comp
L power_special:VCCD18 #PWR093
U 1 1 5E1EAECA
P 2900 6950
F 0 "#PWR093" H 2900 6800 50  0001 C CNN
F 1 "VCCD18" H 2917 7123 50  0000 C CNN
F 2 "" H 2900 6950 50  0000 C CNN
F 3 "" H 2900 6950 50  0000 C CNN
	1    2900 6950
	1    0    0    -1  
$EndComp
$Comp
L power_special:VCCD33 #PWR096
U 1 1 5E1EAFA4
P 3600 6950
F 0 "#PWR096" H 3600 6800 50  0001 C CNN
F 1 "VCCD33" H 3617 7123 50  0000 C CNN
F 2 "" H 3600 6950 50  0000 C CNN
F 3 "" H 3600 6950 50  0000 C CNN
	1    3600 6950
	1    0    0    -1  
$EndComp
$EndSCHEMATC
