EESchema Schematic File Version 4
LIBS:BGASocket-cache
EELAYER 26 0
EELAYER END
$Descr A4 11693 8268
encoding utf-8
Sheet 7 7
Title ""
Date ""
Rev ""
Comp ""
Comment1 ""
Comment2 ""
Comment3 ""
Comment4 ""
$EndDescr
$Comp
L KLauS-Custom:SiPM_SMD U3
U 1 1 5C48C604
P 5900 2250
F 0 "U3" H 5875 2365 50  0000 C CNN
F 1 "SiPM_SMD" H 5875 2274 50  0000 C CNN
F 2 "KLauS-Custom:SiPM" H 5900 2250 50  0001 C CNN
F 3 "" H 5900 2250 50  0001 C CNN
	1    5900 2250
	1    0    0    -1  
$EndComp
$Comp
L device:R R74
U 1 1 5C48C670
P 5050 2500
F 0 "R74" V 4843 2500 50  0000 C CNN
F 1 "1k(DNP)" V 4934 2500 50  0000 C CNN
F 2 "Resistors_SMD:R_0603" V 4980 2500 50  0001 C CNN
F 3 "" H 5050 2500 50  0000 C CNN
	1    5050 2500
	0    1    1    0   
$EndComp
$Comp
L device:R R81
U 1 1 5C48C703
P 6700 2500
F 0 "R81" V 6493 2500 50  0000 C CNN
F 1 "0(DNP)" V 6584 2500 50  0000 C CNN
F 2 "Resistors_SMD:R_0603" V 6630 2500 50  0001 C CNN
F 3 "" H 6700 2500 50  0000 C CNN
	1    6700 2500
	0    1    1    0   
$EndComp
Wire Wire Line
	5200 2500 5350 2500
Wire Wire Line
	6250 2500 6550 2500
Wire Wire Line
	7150 2500 6850 2500
Wire Wire Line
	4600 2500 4900 2500
NoConn ~ 5500 2400
NoConn ~ 6250 2400
Text Label 4600 2500 0    50   ~ 0
HV
$Comp
L KLauS-Custom:SiPM_SMD U7
U 1 1 5C48C849
P 5900 3150
F 0 "U7" H 5875 3265 50  0000 C CNN
F 1 "SiPM_SMD" H 5875 3174 50  0000 C CNN
F 2 "KLauS-Custom:SiPM" H 5900 3150 50  0001 C CNN
F 3 "" H 5900 3150 50  0001 C CNN
	1    5900 3150
	1    0    0    -1  
$EndComp
$Comp
L device:R R75
U 1 1 5C48C850
P 5050 3400
F 0 "R75" V 4843 3400 50  0000 C CNN
F 1 "1k(DNP)" V 4934 3400 50  0000 C CNN
F 2 "Resistors_SMD:R_0603" V 4980 3400 50  0001 C CNN
F 3 "" H 5050 3400 50  0000 C CNN
	1    5050 3400
	0    1    1    0   
$EndComp
$Comp
L device:R R82
U 1 1 5C48C857
P 6700 3400
F 0 "R82" V 6493 3400 50  0000 C CNN
F 1 "0(DNP)" V 6584 3400 50  0000 C CNN
F 2 "Resistors_SMD:R_0603" V 6630 3400 50  0001 C CNN
F 3 "" H 6700 3400 50  0000 C CNN
	1    6700 3400
	0    1    1    0   
$EndComp
Wire Wire Line
	5200 3400 5350 3400
Wire Wire Line
	6250 3400 6550 3400
Wire Wire Line
	7150 3400 6850 3400
Wire Wire Line
	4600 3400 4900 3400
NoConn ~ 5500 3300
NoConn ~ 6250 3300
Text Label 4600 3400 0    50   ~ 0
HV
Text HLabel 7150 2500 2    50   Output ~ 0
SiPM0
Text HLabel 7150 3400 2    50   Output ~ 0
SiPM1
Text HLabel 4600 2950 0    50   Input ~ 0
HV
$Comp
L device:C C105
U 1 1 5C4C8CC9
P 5350 2750
F 0 "C105" H 5465 2796 50  0000 L CNN
F 1 "100n/100V" H 5465 2705 50  0000 L CNN
F 2 "Capacitors_SMD:C_0603" H 5388 2600 50  0001 C CNN
F 3 "" H 5350 2750 50  0000 C CNN
	1    5350 2750
	1    0    0    -1  
$EndComp
$Comp
L device:C C106
U 1 1 5C4C8D2C
P 5350 3650
F 0 "C106" H 5465 3696 50  0000 L CNN
F 1 "100n/100V" H 5465 3605 50  0000 L CNN
F 2 "Capacitors_SMD:C_0603" H 5388 3500 50  0001 C CNN
F 3 "" H 5350 3650 50  0000 C CNN
	1    5350 3650
	1    0    0    -1  
$EndComp
$Comp
L power:GNDA #PWR0167
U 1 1 5C4C8DDC
P 5350 3800
F 0 "#PWR0167" H 5350 3550 50  0001 C CNN
F 1 "GNDA" H 5355 3627 50  0000 C CNN
F 2 "" H 5350 3800 50  0000 C CNN
F 3 "" H 5350 3800 50  0000 C CNN
	1    5350 3800
	1    0    0    -1  
$EndComp
$Comp
L power:GNDA #PWR0168
U 1 1 5C4C8E16
P 5350 2900
F 0 "#PWR0168" H 5350 2650 50  0001 C CNN
F 1 "GNDA" H 5355 2727 50  0000 C CNN
F 2 "" H 5350 2900 50  0000 C CNN
F 3 "" H 5350 2900 50  0000 C CNN
	1    5350 2900
	1    0    0    -1  
$EndComp
Wire Wire Line
	5350 2600 5350 2500
Connection ~ 5350 2500
Wire Wire Line
	5350 2500 5500 2500
Wire Wire Line
	5350 3500 5350 3400
Connection ~ 5350 3400
Wire Wire Line
	5350 3400 5500 3400
$EndSCHEMATC
