EESchema Schematic File Version 4
LIBS:BGASocket-cache
EELAYER 26 0
EELAYER END
$Descr A4 11693 8268
encoding utf-8
Sheet 2 7
Title ""
Date ""
Rev ""
Comp "KIP, Uni-Heidelberg"
Comment1 ""
Comment2 ""
Comment3 ""
Comment4 ""
$EndDescr
Text HLabel 9300 1250 0    50   Input ~ 0
HV
$Comp
L device:R R11
U 1 1 5C42A0C6
P 1450 1150
F 0 "R11" V 1400 1300 39  0000 C CNN
F 1 "1k" V 1450 1150 28  0000 C CNN
F 2 "Resistors_SMD:R_0603" V 1380 1150 50  0001 C CNN
F 3 "" H 1450 1150 50  0000 C CNN
	1    1450 1150
	0    1    1    0   
$EndComp
$Comp
L device:C C5
U 1 1 5C42A1AE
P 1450 1300
F 0 "C5" V 1400 1450 39  0000 C CNN
F 1 "100n/100V" V 1500 1100 28  0000 C CNN
F 2 "Capacitors_SMD:C_0603" H 1488 1150 50  0001 C CNN
F 3 "" H 1450 1300 50  0000 C CNN
	1    1450 1300
	0    1    1    0   
$EndComp
$Comp
L power:GNDA #PWR025
U 1 1 5C42A39B
P 1150 1300
F 0 "#PWR025" H 1150 1050 50  0001 C CNN
F 1 "GNDA" V 1155 1173 50  0000 R CNN
F 2 "" H 1150 1300 50  0000 C CNN
F 3 "" H 1150 1300 50  0000 C CNN
	1    1150 1300
	0    1    1    0   
$EndComp
Text Label 1150 1150 0    50   ~ 0
HV
$Comp
L device:R R12
U 1 1 5C42A8B6
P 1450 1450
F 0 "R12" V 1400 1600 39  0000 C CNN
F 1 "1k" V 1450 1450 28  0000 C CNN
F 2 "Resistors_SMD:R_0603" V 1380 1450 50  0001 C CNN
F 3 "" H 1450 1450 50  0000 C CNN
	1    1450 1450
	0    1    1    0   
$EndComp
$Comp
L device:C C6
U 1 1 5C42A8BD
P 1450 1600
F 0 "C6" V 1400 1750 39  0000 C CNN
F 1 "100n/100V" V 1500 1400 28  0000 C CNN
F 2 "Capacitors_SMD:C_0603" H 1488 1450 50  0001 C CNN
F 3 "" H 1450 1600 50  0000 C CNN
	1    1450 1600
	0    1    1    0   
$EndComp
$Comp
L power:GNDA #PWR026
U 1 1 5C42A8C4
P 1150 1600
F 0 "#PWR026" H 1150 1350 50  0001 C CNN
F 1 "GNDA" V 1155 1473 50  0000 R CNN
F 2 "" H 1150 1600 50  0000 C CNN
F 3 "" H 1150 1600 50  0000 C CNN
	1    1150 1600
	0    1    1    0   
$EndComp
Text Label 1150 1450 0    50   ~ 0
HV
$Comp
L device:R R13
U 1 1 5C42AA2E
P 1450 1750
F 0 "R13" V 1400 1900 39  0000 C CNN
F 1 "1k" V 1450 1750 28  0000 C CNN
F 2 "Resistors_SMD:R_0603" V 1380 1750 50  0001 C CNN
F 3 "" H 1450 1750 50  0000 C CNN
	1    1450 1750
	0    1    1    0   
$EndComp
$Comp
L device:C C7
U 1 1 5C42AA35
P 1450 1900
F 0 "C7" V 1400 2050 39  0000 C CNN
F 1 "100n/100V" V 1500 1700 28  0000 C CNN
F 2 "Capacitors_SMD:C_0603" H 1488 1750 50  0001 C CNN
F 3 "" H 1450 1900 50  0000 C CNN
	1    1450 1900
	0    1    1    0   
$EndComp
$Comp
L power:GNDA #PWR027
U 1 1 5C42AA3C
P 1150 1900
F 0 "#PWR027" H 1150 1650 50  0001 C CNN
F 1 "GNDA" V 1155 1773 50  0000 R CNN
F 2 "" H 1150 1900 50  0000 C CNN
F 3 "" H 1150 1900 50  0000 C CNN
	1    1150 1900
	0    1    1    0   
$EndComp
Text Label 1150 1750 0    50   ~ 0
HV
$Comp
L device:R R14
U 1 1 5C42AA4A
P 1450 2050
F 0 "R14" V 1400 2200 39  0000 C CNN
F 1 "1k" V 1450 2050 28  0000 C CNN
F 2 "Resistors_SMD:R_0603" V 1380 2050 50  0001 C CNN
F 3 "" H 1450 2050 50  0000 C CNN
	1    1450 2050
	0    1    1    0   
$EndComp
$Comp
L device:C C8
U 1 1 5C42AA51
P 1450 2200
F 0 "C8" V 1400 2350 39  0000 C CNN
F 1 "100n/100V" V 1500 2000 28  0000 C CNN
F 2 "Capacitors_SMD:C_0603" H 1488 2050 50  0001 C CNN
F 3 "" H 1450 2200 50  0000 C CNN
	1    1450 2200
	0    1    1    0   
$EndComp
$Comp
L power:GNDA #PWR028
U 1 1 5C42AA58
P 1150 2200
F 0 "#PWR028" H 1150 1950 50  0001 C CNN
F 1 "GNDA" V 1155 2073 50  0000 R CNN
F 2 "" H 1150 2200 50  0000 C CNN
F 3 "" H 1150 2200 50  0000 C CNN
	1    1150 2200
	0    1    1    0   
$EndComp
Text Label 1150 2050 0    50   ~ 0
HV
$Comp
L device:R R15
U 1 1 5C42AF16
P 1450 2350
F 0 "R15" V 1400 2500 39  0000 C CNN
F 1 "1k" V 1450 2350 28  0000 C CNN
F 2 "Resistors_SMD:R_0603" V 1380 2350 50  0001 C CNN
F 3 "" H 1450 2350 50  0000 C CNN
	1    1450 2350
	0    1    1    0   
$EndComp
$Comp
L device:C C9
U 1 1 5C42AF1D
P 1450 2500
F 0 "C9" V 1400 2650 39  0000 C CNN
F 1 "100n/100V" V 1500 2300 28  0000 C CNN
F 2 "Capacitors_SMD:C_0603" H 1488 2350 50  0001 C CNN
F 3 "" H 1450 2500 50  0000 C CNN
	1    1450 2500
	0    1    1    0   
$EndComp
$Comp
L power:GNDA #PWR029
U 1 1 5C42AF24
P 1150 2500
F 0 "#PWR029" H 1150 2250 50  0001 C CNN
F 1 "GNDA" V 1155 2373 50  0000 R CNN
F 2 "" H 1150 2500 50  0000 C CNN
F 3 "" H 1150 2500 50  0000 C CNN
	1    1150 2500
	0    1    1    0   
$EndComp
Text Label 1150 2350 0    50   ~ 0
HV
$Comp
L device:R R16
U 1 1 5C42AF32
P 1450 2650
F 0 "R16" V 1400 2800 39  0000 C CNN
F 1 "1k" V 1450 2650 28  0000 C CNN
F 2 "Resistors_SMD:R_0603" V 1380 2650 50  0001 C CNN
F 3 "" H 1450 2650 50  0000 C CNN
	1    1450 2650
	0    1    1    0   
$EndComp
$Comp
L device:C C10
U 1 1 5C42AF39
P 1450 2800
F 0 "C10" V 1400 2950 39  0000 C CNN
F 1 "100n/100V" V 1500 2600 28  0000 C CNN
F 2 "Capacitors_SMD:C_0603" H 1488 2650 50  0001 C CNN
F 3 "" H 1450 2800 50  0000 C CNN
	1    1450 2800
	0    1    1    0   
$EndComp
$Comp
L power:GNDA #PWR030
U 1 1 5C42AF40
P 1150 2800
F 0 "#PWR030" H 1150 2550 50  0001 C CNN
F 1 "GNDA" V 1155 2673 50  0000 R CNN
F 2 "" H 1150 2800 50  0000 C CNN
F 3 "" H 1150 2800 50  0000 C CNN
	1    1150 2800
	0    1    1    0   
$EndComp
Text Label 1150 2650 0    50   ~ 0
HV
$Comp
L device:R R17
U 1 1 5C42AF4E
P 1450 2950
F 0 "R17" V 1400 3100 39  0000 C CNN
F 1 "1k" V 1450 2950 28  0000 C CNN
F 2 "Resistors_SMD:R_0603" V 1380 2950 50  0001 C CNN
F 3 "" H 1450 2950 50  0000 C CNN
	1    1450 2950
	0    1    1    0   
$EndComp
$Comp
L device:C C11
U 1 1 5C42AF55
P 1450 3100
F 0 "C11" V 1400 3250 39  0000 C CNN
F 1 "100n/100V" V 1500 2900 28  0000 C CNN
F 2 "Capacitors_SMD:C_0603" H 1488 2950 50  0001 C CNN
F 3 "" H 1450 3100 50  0000 C CNN
	1    1450 3100
	0    1    1    0   
$EndComp
$Comp
L power:GNDA #PWR031
U 1 1 5C42AF5C
P 1150 3100
F 0 "#PWR031" H 1150 2850 50  0001 C CNN
F 1 "GNDA" V 1155 2973 50  0000 R CNN
F 2 "" H 1150 3100 50  0000 C CNN
F 3 "" H 1150 3100 50  0000 C CNN
	1    1150 3100
	0    1    1    0   
$EndComp
Text Label 1150 2950 0    50   ~ 0
HV
$Comp
L device:R R18
U 1 1 5C42AF6A
P 1450 3250
F 0 "R18" V 1400 3400 39  0000 C CNN
F 1 "1k" V 1450 3250 28  0000 C CNN
F 2 "Resistors_SMD:R_0603" V 1380 3250 50  0001 C CNN
F 3 "" H 1450 3250 50  0000 C CNN
	1    1450 3250
	0    1    1    0   
$EndComp
$Comp
L device:C C12
U 1 1 5C42AF71
P 1450 3400
F 0 "C12" V 1400 3550 39  0000 C CNN
F 1 "100n/100V" V 1500 3200 28  0000 C CNN
F 2 "Capacitors_SMD:C_0603" H 1488 3250 50  0001 C CNN
F 3 "" H 1450 3400 50  0000 C CNN
	1    1450 3400
	0    1    1    0   
$EndComp
$Comp
L power:GNDA #PWR032
U 1 1 5C42AF78
P 1150 3400
F 0 "#PWR032" H 1150 3150 50  0001 C CNN
F 1 "GNDA" V 1155 3273 50  0000 R CNN
F 2 "" H 1150 3400 50  0000 C CNN
F 3 "" H 1150 3400 50  0000 C CNN
	1    1150 3400
	0    1    1    0   
$EndComp
Text Label 1150 3250 0    50   ~ 0
HV
$Comp
L device:R R19
U 1 1 5C42C1E6
P 1450 3550
F 0 "R19" V 1400 3700 39  0000 C CNN
F 1 "1k" V 1450 3550 28  0000 C CNN
F 2 "Resistors_SMD:R_0603" V 1380 3550 50  0001 C CNN
F 3 "" H 1450 3550 50  0000 C CNN
	1    1450 3550
	0    1    1    0   
$EndComp
$Comp
L device:C C13
U 1 1 5C42C1ED
P 1450 3700
F 0 "C13" V 1400 3850 39  0000 C CNN
F 1 "100n/100V" V 1500 3500 28  0000 C CNN
F 2 "Capacitors_SMD:C_0603" H 1488 3550 50  0001 C CNN
F 3 "" H 1450 3700 50  0000 C CNN
	1    1450 3700
	0    1    1    0   
$EndComp
$Comp
L power:GNDA #PWR033
U 1 1 5C42C1F4
P 1150 3700
F 0 "#PWR033" H 1150 3450 50  0001 C CNN
F 1 "GNDA" V 1155 3573 50  0000 R CNN
F 2 "" H 1150 3700 50  0000 C CNN
F 3 "" H 1150 3700 50  0000 C CNN
	1    1150 3700
	0    1    1    0   
$EndComp
Text Label 1150 3550 0    50   ~ 0
HV
$Comp
L device:R R20
U 1 1 5C42C202
P 1450 3850
F 0 "R20" V 1400 4000 39  0000 C CNN
F 1 "1k" V 1450 3850 28  0000 C CNN
F 2 "Resistors_SMD:R_0603" V 1380 3850 50  0001 C CNN
F 3 "" H 1450 3850 50  0000 C CNN
	1    1450 3850
	0    1    1    0   
$EndComp
$Comp
L device:C C14
U 1 1 5C42C209
P 1450 4000
F 0 "C14" V 1400 4150 39  0000 C CNN
F 1 "100n/100V" V 1500 3800 28  0000 C CNN
F 2 "Capacitors_SMD:C_0603" H 1488 3850 50  0001 C CNN
F 3 "" H 1450 4000 50  0000 C CNN
	1    1450 4000
	0    1    1    0   
$EndComp
$Comp
L power:GNDA #PWR034
U 1 1 5C42C210
P 1150 4000
F 0 "#PWR034" H 1150 3750 50  0001 C CNN
F 1 "GNDA" V 1155 3873 50  0000 R CNN
F 2 "" H 1150 4000 50  0000 C CNN
F 3 "" H 1150 4000 50  0000 C CNN
	1    1150 4000
	0    1    1    0   
$EndComp
Text Label 1150 3850 0    50   ~ 0
HV
$Comp
L device:R R21
U 1 1 5C42C21E
P 1450 4150
F 0 "R21" V 1400 4300 39  0000 C CNN
F 1 "1k" V 1450 4150 28  0000 C CNN
F 2 "Resistors_SMD:R_0603" V 1380 4150 50  0001 C CNN
F 3 "" H 1450 4150 50  0000 C CNN
	1    1450 4150
	0    1    1    0   
$EndComp
$Comp
L device:C C15
U 1 1 5C42C225
P 1450 4300
F 0 "C15" V 1400 4450 39  0000 C CNN
F 1 "100n/100V" V 1500 4100 28  0000 C CNN
F 2 "Capacitors_SMD:C_0603" H 1488 4150 50  0001 C CNN
F 3 "" H 1450 4300 50  0000 C CNN
	1    1450 4300
	0    1    1    0   
$EndComp
$Comp
L power:GNDA #PWR035
U 1 1 5C42C22C
P 1150 4300
F 0 "#PWR035" H 1150 4050 50  0001 C CNN
F 1 "GNDA" V 1155 4173 50  0000 R CNN
F 2 "" H 1150 4300 50  0000 C CNN
F 3 "" H 1150 4300 50  0000 C CNN
	1    1150 4300
	0    1    1    0   
$EndComp
Text Label 1150 4150 0    50   ~ 0
HV
$Comp
L device:R R22
U 1 1 5C42C23A
P 1450 4450
F 0 "R22" V 1400 4600 39  0000 C CNN
F 1 "1k" V 1450 4450 28  0000 C CNN
F 2 "Resistors_SMD:R_0603" V 1380 4450 50  0001 C CNN
F 3 "" H 1450 4450 50  0000 C CNN
	1    1450 4450
	0    1    1    0   
$EndComp
$Comp
L device:C C16
U 1 1 5C42C241
P 1450 4600
F 0 "C16" V 1400 4750 39  0000 C CNN
F 1 "100n/100V" V 1500 4400 28  0000 C CNN
F 2 "Capacitors_SMD:C_0603" H 1488 4450 50  0001 C CNN
F 3 "" H 1450 4600 50  0000 C CNN
	1    1450 4600
	0    1    1    0   
$EndComp
$Comp
L power:GNDA #PWR036
U 1 1 5C42C248
P 1150 4600
F 0 "#PWR036" H 1150 4350 50  0001 C CNN
F 1 "GNDA" V 1155 4473 50  0000 R CNN
F 2 "" H 1150 4600 50  0000 C CNN
F 3 "" H 1150 4600 50  0000 C CNN
	1    1150 4600
	0    1    1    0   
$EndComp
Text Label 1150 4450 0    50   ~ 0
HV
$Comp
L device:R R23
U 1 1 5C42C256
P 1450 4750
F 0 "R23" V 1400 4900 39  0000 C CNN
F 1 "1k" V 1450 4750 28  0000 C CNN
F 2 "Resistors_SMD:R_0603" V 1380 4750 50  0001 C CNN
F 3 "" H 1450 4750 50  0000 C CNN
	1    1450 4750
	0    1    1    0   
$EndComp
$Comp
L device:C C17
U 1 1 5C42C25D
P 1450 4900
F 0 "C17" V 1400 5050 39  0000 C CNN
F 1 "100n/100V" V 1500 4700 28  0000 C CNN
F 2 "Capacitors_SMD:C_0603" H 1488 4750 50  0001 C CNN
F 3 "" H 1450 4900 50  0000 C CNN
	1    1450 4900
	0    1    1    0   
$EndComp
$Comp
L power:GNDA #PWR037
U 1 1 5C42C264
P 1150 4900
F 0 "#PWR037" H 1150 4650 50  0001 C CNN
F 1 "GNDA" V 1155 4773 50  0000 R CNN
F 2 "" H 1150 4900 50  0000 C CNN
F 3 "" H 1150 4900 50  0000 C CNN
	1    1150 4900
	0    1    1    0   
$EndComp
Text Label 1150 4750 0    50   ~ 0
HV
$Comp
L device:R R24
U 1 1 5C42C272
P 1450 5050
F 0 "R24" V 1400 5200 39  0000 C CNN
F 1 "1k" V 1450 5050 28  0000 C CNN
F 2 "Resistors_SMD:R_0603" V 1380 5050 50  0001 C CNN
F 3 "" H 1450 5050 50  0000 C CNN
	1    1450 5050
	0    1    1    0   
$EndComp
$Comp
L device:C C18
U 1 1 5C42C279
P 1450 5200
F 0 "C18" V 1400 5350 39  0000 C CNN
F 1 "100n/100V" V 1500 5000 28  0000 C CNN
F 2 "Capacitors_SMD:C_0603" H 1488 5050 50  0001 C CNN
F 3 "" H 1450 5200 50  0000 C CNN
	1    1450 5200
	0    1    1    0   
$EndComp
$Comp
L power:GNDA #PWR038
U 1 1 5C42C280
P 1150 5200
F 0 "#PWR038" H 1150 4950 50  0001 C CNN
F 1 "GNDA" V 1155 5073 50  0000 R CNN
F 2 "" H 1150 5200 50  0000 C CNN
F 3 "" H 1150 5200 50  0000 C CNN
	1    1150 5200
	0    1    1    0   
$EndComp
Text Label 1150 5050 0    50   ~ 0
HV
$Comp
L device:R R25
U 1 1 5C42C28E
P 1450 5350
F 0 "R25" V 1400 5500 39  0000 C CNN
F 1 "1k" V 1450 5350 28  0000 C CNN
F 2 "Resistors_SMD:R_0603" V 1380 5350 50  0001 C CNN
F 3 "" H 1450 5350 50  0000 C CNN
	1    1450 5350
	0    1    1    0   
$EndComp
$Comp
L device:C C19
U 1 1 5C42C295
P 1450 5500
F 0 "C19" V 1400 5650 39  0000 C CNN
F 1 "100n/100V" V 1500 5300 28  0000 C CNN
F 2 "Capacitors_SMD:C_0603" H 1488 5350 50  0001 C CNN
F 3 "" H 1450 5500 50  0000 C CNN
	1    1450 5500
	0    1    1    0   
$EndComp
$Comp
L power:GNDA #PWR039
U 1 1 5C42C29C
P 1150 5500
F 0 "#PWR039" H 1150 5250 50  0001 C CNN
F 1 "GNDA" V 1155 5373 50  0000 R CNN
F 2 "" H 1150 5500 50  0000 C CNN
F 3 "" H 1150 5500 50  0000 C CNN
	1    1150 5500
	0    1    1    0   
$EndComp
Text Label 1150 5350 0    50   ~ 0
HV
$Comp
L device:R R26
U 1 1 5C42C2AA
P 1450 5650
F 0 "R26" V 1400 5800 39  0000 C CNN
F 1 "1k" V 1450 5650 28  0000 C CNN
F 2 "Resistors_SMD:R_0603" V 1380 5650 50  0001 C CNN
F 3 "" H 1450 5650 50  0000 C CNN
	1    1450 5650
	0    1    1    0   
$EndComp
$Comp
L device:C C20
U 1 1 5C42C2B1
P 1450 5800
F 0 "C20" V 1400 5950 39  0000 C CNN
F 1 "100n/100V" V 1500 5600 28  0000 C CNN
F 2 "Capacitors_SMD:C_0603" H 1488 5650 50  0001 C CNN
F 3 "" H 1450 5800 50  0000 C CNN
	1    1450 5800
	0    1    1    0   
$EndComp
$Comp
L power:GNDA #PWR040
U 1 1 5C42C2B8
P 1150 5800
F 0 "#PWR040" H 1150 5550 50  0001 C CNN
F 1 "GNDA" V 1155 5673 50  0000 R CNN
F 2 "" H 1150 5800 50  0000 C CNN
F 3 "" H 1150 5800 50  0000 C CNN
	1    1150 5800
	0    1    1    0   
$EndComp
Text Label 1150 5650 0    50   ~ 0
HV
$Comp
L device:R R27
U 1 1 5C42F6A4
P 1450 5950
F 0 "R27" V 1400 6100 39  0000 C CNN
F 1 "1k" V 1450 5950 28  0000 C CNN
F 2 "Resistors_SMD:R_0603" V 1380 5950 50  0001 C CNN
F 3 "" H 1450 5950 50  0000 C CNN
	1    1450 5950
	0    1    1    0   
$EndComp
$Comp
L device:C C21
U 1 1 5C42F6AB
P 1450 6100
F 0 "C21" V 1400 6250 39  0000 C CNN
F 1 "100n/100V" V 1500 5900 28  0000 C CNN
F 2 "Capacitors_SMD:C_0603" H 1488 5950 50  0001 C CNN
F 3 "" H 1450 6100 50  0000 C CNN
	1    1450 6100
	0    1    1    0   
$EndComp
$Comp
L power:GNDA #PWR041
U 1 1 5C42F6B2
P 1150 6100
F 0 "#PWR041" H 1150 5850 50  0001 C CNN
F 1 "GNDA" V 1155 5973 50  0000 R CNN
F 2 "" H 1150 6100 50  0000 C CNN
F 3 "" H 1150 6100 50  0000 C CNN
	1    1150 6100
	0    1    1    0   
$EndComp
Text Label 1150 5950 0    50   ~ 0
HV
$Comp
L device:R R28
U 1 1 5C42F6C0
P 1450 6250
F 0 "R28" V 1400 6400 39  0000 C CNN
F 1 "1k" V 1450 6250 28  0000 C CNN
F 2 "Resistors_SMD:R_0603" V 1380 6250 50  0001 C CNN
F 3 "" H 1450 6250 50  0000 C CNN
	1    1450 6250
	0    1    1    0   
$EndComp
$Comp
L device:C C22
U 1 1 5C42F6C7
P 1450 6400
F 0 "C22" V 1400 6550 39  0000 C CNN
F 1 "100n/100V" V 1500 6200 28  0000 C CNN
F 2 "Capacitors_SMD:C_0603" H 1488 6250 50  0001 C CNN
F 3 "" H 1450 6400 50  0000 C CNN
	1    1450 6400
	0    1    1    0   
$EndComp
$Comp
L power:GNDA #PWR042
U 1 1 5C42F6CE
P 1150 6400
F 0 "#PWR042" H 1150 6150 50  0001 C CNN
F 1 "GNDA" V 1155 6273 50  0000 R CNN
F 2 "" H 1150 6400 50  0000 C CNN
F 3 "" H 1150 6400 50  0000 C CNN
	1    1150 6400
	0    1    1    0   
$EndComp
Text Label 1150 6250 0    50   ~ 0
HV
Entry Wire Line
	1950 1150 2050 1250
Entry Wire Line
	1950 1450 2050 1550
Entry Wire Line
	1950 2050 2050 2150
Entry Wire Line
	1950 1750 2050 1850
Entry Wire Line
	1950 2350 2050 2450
Entry Wire Line
	1950 2650 2050 2750
Entry Wire Line
	1950 2950 2050 3050
Entry Wire Line
	1950 3250 2050 3350
Entry Wire Line
	1950 3550 2050 3650
Entry Wire Line
	1950 3850 2050 3950
Entry Wire Line
	1950 4150 2050 4250
Entry Wire Line
	1950 4450 2050 4550
Entry Wire Line
	1950 4750 2050 4850
Entry Wire Line
	1950 5050 2050 5150
Entry Wire Line
	1950 5350 2050 5450
Entry Wire Line
	1950 5650 2050 5750
Entry Wire Line
	1950 5950 2050 6050
Entry Wire Line
	1950 6250 2050 6350
Entry Wire Line
	2400 900  2500 1000
Entry Wire Line
	2400 1000 2500 1100
Entry Wire Line
	2400 1100 2500 1200
Entry Wire Line
	2400 1200 2500 1300
Entry Wire Line
	2400 1300 2500 1400
Entry Wire Line
	2400 1400 2500 1500
Entry Wire Line
	2400 1500 2500 1600
Entry Wire Line
	2400 1600 2500 1700
Entry Wire Line
	2400 1700 2500 1800
Entry Wire Line
	2400 1800 2500 1900
Entry Wire Line
	2400 1900 2500 2000
Entry Wire Line
	2400 2000 2500 2100
Entry Wire Line
	2400 2100 2500 2200
Entry Wire Line
	2400 2200 2500 2300
Entry Wire Line
	2400 2300 2500 2400
Entry Wire Line
	2400 2400 2500 2500
Entry Wire Line
	2400 2500 2500 2600
Entry Wire Line
	2400 2600 2500 2700
$Comp
L device:R R29
U 1 1 5C7A52EF
P 5100 1150
F 0 "R29" V 5050 1300 39  0000 C CNN
F 1 "1k" V 5100 1150 28  0000 C CNN
F 2 "Resistors_SMD:R_0603" V 5030 1150 50  0001 C CNN
F 3 "" H 5100 1150 50  0000 C CNN
	1    5100 1150
	0    1    1    0   
$EndComp
$Comp
L device:C C23
U 1 1 5C7A52F6
P 5100 1300
F 0 "C23" V 5050 1450 39  0000 C CNN
F 1 "100n/100V" V 5150 1100 28  0000 C CNN
F 2 "Capacitors_SMD:C_0603" H 5138 1150 50  0001 C CNN
F 3 "" H 5100 1300 50  0000 C CNN
	1    5100 1300
	0    1    1    0   
$EndComp
$Comp
L power:GNDA #PWR047
U 1 1 5C7A52FD
P 4800 1300
F 0 "#PWR047" H 4800 1050 50  0001 C CNN
F 1 "GNDA" V 4805 1173 50  0000 R CNN
F 2 "" H 4800 1300 50  0000 C CNN
F 3 "" H 4800 1300 50  0000 C CNN
	1    4800 1300
	0    1    1    0   
$EndComp
Text Label 4800 1150 0    50   ~ 0
HV
$Comp
L device:R R30
U 1 1 5C7A530A
P 5100 1450
F 0 "R30" V 5050 1600 39  0000 C CNN
F 1 "1k" V 5100 1450 28  0000 C CNN
F 2 "Resistors_SMD:R_0603" V 5030 1450 50  0001 C CNN
F 3 "" H 5100 1450 50  0000 C CNN
	1    5100 1450
	0    1    1    0   
$EndComp
$Comp
L device:C C24
U 1 1 5C7A5311
P 5100 1600
F 0 "C24" V 5050 1750 39  0000 C CNN
F 1 "100n/100V" V 5150 1400 28  0000 C CNN
F 2 "Capacitors_SMD:C_0603" H 5138 1450 50  0001 C CNN
F 3 "" H 5100 1600 50  0000 C CNN
	1    5100 1600
	0    1    1    0   
$EndComp
$Comp
L power:GNDA #PWR048
U 1 1 5C7A5318
P 4800 1600
F 0 "#PWR048" H 4800 1350 50  0001 C CNN
F 1 "GNDA" V 4805 1473 50  0000 R CNN
F 2 "" H 4800 1600 50  0000 C CNN
F 3 "" H 4800 1600 50  0000 C CNN
	1    4800 1600
	0    1    1    0   
$EndComp
Text Label 4800 1450 0    50   ~ 0
HV
$Comp
L device:R R31
U 1 1 5C7A5325
P 5100 1750
F 0 "R31" V 5050 1900 39  0000 C CNN
F 1 "1k" V 5100 1750 28  0000 C CNN
F 2 "Resistors_SMD:R_0603" V 5030 1750 50  0001 C CNN
F 3 "" H 5100 1750 50  0000 C CNN
	1    5100 1750
	0    1    1    0   
$EndComp
$Comp
L device:C C25
U 1 1 5C7A532C
P 5100 1900
F 0 "C25" V 5050 2050 39  0000 C CNN
F 1 "100n/100V" V 5150 1700 28  0000 C CNN
F 2 "Capacitors_SMD:C_0603" H 5138 1750 50  0001 C CNN
F 3 "" H 5100 1900 50  0000 C CNN
	1    5100 1900
	0    1    1    0   
$EndComp
$Comp
L power:GNDA #PWR049
U 1 1 5C7A5333
P 4800 1900
F 0 "#PWR049" H 4800 1650 50  0001 C CNN
F 1 "GNDA" V 4805 1773 50  0000 R CNN
F 2 "" H 4800 1900 50  0000 C CNN
F 3 "" H 4800 1900 50  0000 C CNN
	1    4800 1900
	0    1    1    0   
$EndComp
Text Label 4800 1750 0    50   ~ 0
HV
$Comp
L device:R R32
U 1 1 5C7A5340
P 5100 2050
F 0 "R32" V 5050 2200 39  0000 C CNN
F 1 "1k" V 5100 2050 28  0000 C CNN
F 2 "Resistors_SMD:R_0603" V 5030 2050 50  0001 C CNN
F 3 "" H 5100 2050 50  0000 C CNN
	1    5100 2050
	0    1    1    0   
$EndComp
$Comp
L device:C C26
U 1 1 5C7A5347
P 5100 2200
F 0 "C26" V 5050 2350 39  0000 C CNN
F 1 "100n/100V" V 5150 2000 28  0000 C CNN
F 2 "Capacitors_SMD:C_0603" H 5138 2050 50  0001 C CNN
F 3 "" H 5100 2200 50  0000 C CNN
	1    5100 2200
	0    1    1    0   
$EndComp
$Comp
L power:GNDA #PWR050
U 1 1 5C7A534E
P 4800 2200
F 0 "#PWR050" H 4800 1950 50  0001 C CNN
F 1 "GNDA" V 4805 2073 50  0000 R CNN
F 2 "" H 4800 2200 50  0000 C CNN
F 3 "" H 4800 2200 50  0000 C CNN
	1    4800 2200
	0    1    1    0   
$EndComp
Text Label 4800 2050 0    50   ~ 0
HV
$Comp
L device:R R33
U 1 1 5C7A535B
P 5100 2350
F 0 "R33" V 5050 2500 39  0000 C CNN
F 1 "1k" V 5100 2350 28  0000 C CNN
F 2 "Resistors_SMD:R_0603" V 5030 2350 50  0001 C CNN
F 3 "" H 5100 2350 50  0000 C CNN
	1    5100 2350
	0    1    1    0   
$EndComp
$Comp
L device:C C27
U 1 1 5C7A5362
P 5100 2500
F 0 "C27" V 5050 2650 39  0000 C CNN
F 1 "100n/100V" V 5150 2300 28  0000 C CNN
F 2 "Capacitors_SMD:C_0603" H 5138 2350 50  0001 C CNN
F 3 "" H 5100 2500 50  0000 C CNN
	1    5100 2500
	0    1    1    0   
$EndComp
$Comp
L power:GNDA #PWR051
U 1 1 5C7A5369
P 4800 2500
F 0 "#PWR051" H 4800 2250 50  0001 C CNN
F 1 "GNDA" V 4805 2373 50  0000 R CNN
F 2 "" H 4800 2500 50  0000 C CNN
F 3 "" H 4800 2500 50  0000 C CNN
	1    4800 2500
	0    1    1    0   
$EndComp
Text Label 4800 2350 0    50   ~ 0
HV
$Comp
L device:R R34
U 1 1 5C7A5376
P 5100 2650
F 0 "R34" V 5050 2800 39  0000 C CNN
F 1 "1k" V 5100 2650 28  0000 C CNN
F 2 "Resistors_SMD:R_0603" V 5030 2650 50  0001 C CNN
F 3 "" H 5100 2650 50  0000 C CNN
	1    5100 2650
	0    1    1    0   
$EndComp
$Comp
L device:C C28
U 1 1 5C7A537D
P 5100 2800
F 0 "C28" V 5050 2950 39  0000 C CNN
F 1 "100n/100V" V 5150 2600 28  0000 C CNN
F 2 "Capacitors_SMD:C_0603" H 5138 2650 50  0001 C CNN
F 3 "" H 5100 2800 50  0000 C CNN
	1    5100 2800
	0    1    1    0   
$EndComp
$Comp
L power:GNDA #PWR052
U 1 1 5C7A5384
P 4800 2800
F 0 "#PWR052" H 4800 2550 50  0001 C CNN
F 1 "GNDA" V 4805 2673 50  0000 R CNN
F 2 "" H 4800 2800 50  0000 C CNN
F 3 "" H 4800 2800 50  0000 C CNN
	1    4800 2800
	0    1    1    0   
$EndComp
Text Label 4800 2650 0    50   ~ 0
HV
$Comp
L device:R R35
U 1 1 5C7A5391
P 5100 2950
F 0 "R35" V 5050 3100 39  0000 C CNN
F 1 "1k" V 5100 2950 28  0000 C CNN
F 2 "Resistors_SMD:R_0603" V 5030 2950 50  0001 C CNN
F 3 "" H 5100 2950 50  0000 C CNN
	1    5100 2950
	0    1    1    0   
$EndComp
$Comp
L device:C C29
U 1 1 5C7A5398
P 5100 3100
F 0 "C29" V 5050 3250 39  0000 C CNN
F 1 "100n/100V" V 5150 2900 28  0000 C CNN
F 2 "Capacitors_SMD:C_0603" H 5138 2950 50  0001 C CNN
F 3 "" H 5100 3100 50  0000 C CNN
	1    5100 3100
	0    1    1    0   
$EndComp
$Comp
L power:GNDA #PWR053
U 1 1 5C7A539F
P 4800 3100
F 0 "#PWR053" H 4800 2850 50  0001 C CNN
F 1 "GNDA" V 4805 2973 50  0000 R CNN
F 2 "" H 4800 3100 50  0000 C CNN
F 3 "" H 4800 3100 50  0000 C CNN
	1    4800 3100
	0    1    1    0   
$EndComp
Text Label 4800 2950 0    50   ~ 0
HV
$Comp
L device:R R36
U 1 1 5C7A53AC
P 5100 3250
F 0 "R36" V 5050 3400 39  0000 C CNN
F 1 "1k" V 5100 3250 28  0000 C CNN
F 2 "Resistors_SMD:R_0603" V 5030 3250 50  0001 C CNN
F 3 "" H 5100 3250 50  0000 C CNN
	1    5100 3250
	0    1    1    0   
$EndComp
$Comp
L device:C C30
U 1 1 5C7A53B3
P 5100 3400
F 0 "C30" V 5050 3550 39  0000 C CNN
F 1 "100n/100V" V 5150 3200 28  0000 C CNN
F 2 "Capacitors_SMD:C_0603" H 5138 3250 50  0001 C CNN
F 3 "" H 5100 3400 50  0000 C CNN
	1    5100 3400
	0    1    1    0   
$EndComp
$Comp
L power:GNDA #PWR054
U 1 1 5C7A53BA
P 4800 3400
F 0 "#PWR054" H 4800 3150 50  0001 C CNN
F 1 "GNDA" V 4805 3273 50  0000 R CNN
F 2 "" H 4800 3400 50  0000 C CNN
F 3 "" H 4800 3400 50  0000 C CNN
	1    4800 3400
	0    1    1    0   
$EndComp
Text Label 4800 3250 0    50   ~ 0
HV
$Comp
L device:R R37
U 1 1 5C7A53C7
P 5100 3550
F 0 "R37" V 5050 3700 39  0000 C CNN
F 1 "1k" V 5100 3550 28  0000 C CNN
F 2 "Resistors_SMD:R_0603" V 5030 3550 50  0001 C CNN
F 3 "" H 5100 3550 50  0000 C CNN
	1    5100 3550
	0    1    1    0   
$EndComp
$Comp
L device:C C31
U 1 1 5C7A53CE
P 5100 3700
F 0 "C31" V 5050 3850 39  0000 C CNN
F 1 "100n/100V" V 5150 3500 28  0000 C CNN
F 2 "Capacitors_SMD:C_0603" H 5138 3550 50  0001 C CNN
F 3 "" H 5100 3700 50  0000 C CNN
	1    5100 3700
	0    1    1    0   
$EndComp
$Comp
L power:GNDA #PWR055
U 1 1 5C7A53D5
P 4800 3700
F 0 "#PWR055" H 4800 3450 50  0001 C CNN
F 1 "GNDA" V 4805 3573 50  0000 R CNN
F 2 "" H 4800 3700 50  0000 C CNN
F 3 "" H 4800 3700 50  0000 C CNN
	1    4800 3700
	0    1    1    0   
$EndComp
Text Label 4800 3550 0    50   ~ 0
HV
$Comp
L device:R R38
U 1 1 5C7A53E2
P 5100 3850
F 0 "R38" V 5050 4000 39  0000 C CNN
F 1 "1k" V 5100 3850 28  0000 C CNN
F 2 "Resistors_SMD:R_0603" V 5030 3850 50  0001 C CNN
F 3 "" H 5100 3850 50  0000 C CNN
	1    5100 3850
	0    1    1    0   
$EndComp
$Comp
L device:C C32
U 1 1 5C7A53E9
P 5100 4000
F 0 "C32" V 5050 4150 39  0000 C CNN
F 1 "100n/100V" V 5150 3800 28  0000 C CNN
F 2 "Capacitors_SMD:C_0603" H 5138 3850 50  0001 C CNN
F 3 "" H 5100 4000 50  0000 C CNN
	1    5100 4000
	0    1    1    0   
$EndComp
$Comp
L power:GNDA #PWR056
U 1 1 5C7A53F0
P 4800 4000
F 0 "#PWR056" H 4800 3750 50  0001 C CNN
F 1 "GNDA" V 4805 3873 50  0000 R CNN
F 2 "" H 4800 4000 50  0000 C CNN
F 3 "" H 4800 4000 50  0000 C CNN
	1    4800 4000
	0    1    1    0   
$EndComp
Text Label 4800 3850 0    50   ~ 0
HV
$Comp
L device:R R39
U 1 1 5C7A53FD
P 5100 4150
F 0 "R39" V 5050 4300 39  0000 C CNN
F 1 "1k" V 5100 4150 28  0000 C CNN
F 2 "Resistors_SMD:R_0603" V 5030 4150 50  0001 C CNN
F 3 "" H 5100 4150 50  0000 C CNN
	1    5100 4150
	0    1    1    0   
$EndComp
$Comp
L device:C C33
U 1 1 5C7A5404
P 5100 4300
F 0 "C33" V 5050 4450 39  0000 C CNN
F 1 "100n/100V" V 5150 4100 28  0000 C CNN
F 2 "Capacitors_SMD:C_0603" H 5138 4150 50  0001 C CNN
F 3 "" H 5100 4300 50  0000 C CNN
	1    5100 4300
	0    1    1    0   
$EndComp
$Comp
L power:GNDA #PWR057
U 1 1 5C7A540B
P 4800 4300
F 0 "#PWR057" H 4800 4050 50  0001 C CNN
F 1 "GNDA" V 4805 4173 50  0000 R CNN
F 2 "" H 4800 4300 50  0000 C CNN
F 3 "" H 4800 4300 50  0000 C CNN
	1    4800 4300
	0    1    1    0   
$EndComp
Text Label 4800 4150 0    50   ~ 0
HV
$Comp
L device:R R40
U 1 1 5C7A5418
P 5100 4450
F 0 "R40" V 5050 4600 39  0000 C CNN
F 1 "1k" V 5100 4450 28  0000 C CNN
F 2 "Resistors_SMD:R_0603" V 5030 4450 50  0001 C CNN
F 3 "" H 5100 4450 50  0000 C CNN
	1    5100 4450
	0    1    1    0   
$EndComp
$Comp
L device:C C34
U 1 1 5C7A541F
P 5100 4600
F 0 "C34" V 5050 4750 39  0000 C CNN
F 1 "100n/100V" V 5150 4400 28  0000 C CNN
F 2 "Capacitors_SMD:C_0603" H 5138 4450 50  0001 C CNN
F 3 "" H 5100 4600 50  0000 C CNN
	1    5100 4600
	0    1    1    0   
$EndComp
$Comp
L power:GNDA #PWR058
U 1 1 5C7A5426
P 4800 4600
F 0 "#PWR058" H 4800 4350 50  0001 C CNN
F 1 "GNDA" V 4805 4473 50  0000 R CNN
F 2 "" H 4800 4600 50  0000 C CNN
F 3 "" H 4800 4600 50  0000 C CNN
	1    4800 4600
	0    1    1    0   
$EndComp
Text Label 4800 4450 0    50   ~ 0
HV
$Comp
L device:R R41
U 1 1 5C7A5433
P 5100 4750
F 0 "R41" V 5050 4900 39  0000 C CNN
F 1 "1k" V 5100 4750 28  0000 C CNN
F 2 "Resistors_SMD:R_0603" V 5030 4750 50  0001 C CNN
F 3 "" H 5100 4750 50  0000 C CNN
	1    5100 4750
	0    1    1    0   
$EndComp
$Comp
L device:C C35
U 1 1 5C7A543A
P 5100 4900
F 0 "C35" V 5050 5050 39  0000 C CNN
F 1 "100n/100V" V 5150 4700 28  0000 C CNN
F 2 "Capacitors_SMD:C_0603" H 5138 4750 50  0001 C CNN
F 3 "" H 5100 4900 50  0000 C CNN
	1    5100 4900
	0    1    1    0   
$EndComp
$Comp
L power:GNDA #PWR059
U 1 1 5C7A5441
P 4800 4900
F 0 "#PWR059" H 4800 4650 50  0001 C CNN
F 1 "GNDA" V 4805 4773 50  0000 R CNN
F 2 "" H 4800 4900 50  0000 C CNN
F 3 "" H 4800 4900 50  0000 C CNN
	1    4800 4900
	0    1    1    0   
$EndComp
Text Label 4800 4750 0    50   ~ 0
HV
$Comp
L device:R R42
U 1 1 5C7A544E
P 5100 5050
F 0 "R42" V 5050 5200 39  0000 C CNN
F 1 "1k" V 5100 5050 28  0000 C CNN
F 2 "Resistors_SMD:R_0603" V 5030 5050 50  0001 C CNN
F 3 "" H 5100 5050 50  0000 C CNN
	1    5100 5050
	0    1    1    0   
$EndComp
$Comp
L device:C C36
U 1 1 5C7A5455
P 5100 5200
F 0 "C36" V 5050 5350 39  0000 C CNN
F 1 "100n/100V" V 5150 5000 28  0000 C CNN
F 2 "Capacitors_SMD:C_0603" H 5138 5050 50  0001 C CNN
F 3 "" H 5100 5200 50  0000 C CNN
	1    5100 5200
	0    1    1    0   
$EndComp
$Comp
L power:GNDA #PWR060
U 1 1 5C7A545C
P 4800 5200
F 0 "#PWR060" H 4800 4950 50  0001 C CNN
F 1 "GNDA" V 4805 5073 50  0000 R CNN
F 2 "" H 4800 5200 50  0000 C CNN
F 3 "" H 4800 5200 50  0000 C CNN
	1    4800 5200
	0    1    1    0   
$EndComp
Text Label 4800 5050 0    50   ~ 0
HV
$Comp
L device:R R43
U 1 1 5C7A5469
P 5100 5350
F 0 "R43" V 5050 5500 39  0000 C CNN
F 1 "1k" V 5100 5350 28  0000 C CNN
F 2 "Resistors_SMD:R_0603" V 5030 5350 50  0001 C CNN
F 3 "" H 5100 5350 50  0000 C CNN
	1    5100 5350
	0    1    1    0   
$EndComp
$Comp
L device:C C37
U 1 1 5C7A5470
P 5100 5500
F 0 "C37" V 5050 5650 39  0000 C CNN
F 1 "100n/100V" V 5150 5300 28  0000 C CNN
F 2 "Capacitors_SMD:C_0603" H 5138 5350 50  0001 C CNN
F 3 "" H 5100 5500 50  0000 C CNN
	1    5100 5500
	0    1    1    0   
$EndComp
$Comp
L power:GNDA #PWR061
U 1 1 5C7A5477
P 4800 5500
F 0 "#PWR061" H 4800 5250 50  0001 C CNN
F 1 "GNDA" V 4805 5373 50  0000 R CNN
F 2 "" H 4800 5500 50  0000 C CNN
F 3 "" H 4800 5500 50  0000 C CNN
	1    4800 5500
	0    1    1    0   
$EndComp
Text Label 4800 5350 0    50   ~ 0
HV
$Comp
L device:R R44
U 1 1 5C7A5484
P 5100 5650
F 0 "R44" V 5050 5800 39  0000 C CNN
F 1 "1k" V 5100 5650 28  0000 C CNN
F 2 "Resistors_SMD:R_0603" V 5030 5650 50  0001 C CNN
F 3 "" H 5100 5650 50  0000 C CNN
	1    5100 5650
	0    1    1    0   
$EndComp
$Comp
L device:C C38
U 1 1 5C7A548B
P 5100 5800
F 0 "C38" V 5050 5950 39  0000 C CNN
F 1 "100n/100V" V 5150 5600 28  0000 C CNN
F 2 "Capacitors_SMD:C_0603" H 5138 5650 50  0001 C CNN
F 3 "" H 5100 5800 50  0000 C CNN
	1    5100 5800
	0    1    1    0   
$EndComp
$Comp
L power:GNDA #PWR062
U 1 1 5C7A5492
P 4800 5800
F 0 "#PWR062" H 4800 5550 50  0001 C CNN
F 1 "GNDA" V 4805 5673 50  0000 R CNN
F 2 "" H 4800 5800 50  0000 C CNN
F 3 "" H 4800 5800 50  0000 C CNN
	1    4800 5800
	0    1    1    0   
$EndComp
Text Label 4800 5650 0    50   ~ 0
HV
$Comp
L device:R R45
U 1 1 5C7A549F
P 5100 5950
F 0 "R45" V 5050 6100 39  0000 C CNN
F 1 "1k" V 5100 5950 28  0000 C CNN
F 2 "Resistors_SMD:R_0603" V 5030 5950 50  0001 C CNN
F 3 "" H 5100 5950 50  0000 C CNN
	1    5100 5950
	0    1    1    0   
$EndComp
$Comp
L device:C C39
U 1 1 5C7A54A6
P 5100 6100
F 0 "C39" V 5050 6250 39  0000 C CNN
F 1 "100n/100V" V 5150 5900 28  0000 C CNN
F 2 "Capacitors_SMD:C_0603" H 5138 5950 50  0001 C CNN
F 3 "" H 5100 6100 50  0000 C CNN
	1    5100 6100
	0    1    1    0   
$EndComp
$Comp
L power:GNDA #PWR063
U 1 1 5C7A54AD
P 4800 6100
F 0 "#PWR063" H 4800 5850 50  0001 C CNN
F 1 "GNDA" V 4805 5973 50  0000 R CNN
F 2 "" H 4800 6100 50  0000 C CNN
F 3 "" H 4800 6100 50  0000 C CNN
	1    4800 6100
	0    1    1    0   
$EndComp
Text Label 4800 5950 0    50   ~ 0
HV
$Comp
L device:R R46
U 1 1 5C7A54BA
P 5100 6250
F 0 "R46" V 5050 6400 39  0000 C CNN
F 1 "1k" V 5100 6250 28  0000 C CNN
F 2 "Resistors_SMD:R_0603" V 5030 6250 50  0001 C CNN
F 3 "" H 5100 6250 50  0000 C CNN
	1    5100 6250
	0    1    1    0   
$EndComp
$Comp
L device:C C40
U 1 1 5C7A54C1
P 5100 6400
F 0 "C40" V 5050 6550 39  0000 C CNN
F 1 "100n/100V" V 5150 6200 28  0000 C CNN
F 2 "Capacitors_SMD:C_0603" H 5138 6250 50  0001 C CNN
F 3 "" H 5100 6400 50  0000 C CNN
	1    5100 6400
	0    1    1    0   
$EndComp
$Comp
L power:GNDA #PWR064
U 1 1 5C7A54C8
P 4800 6400
F 0 "#PWR064" H 4800 6150 50  0001 C CNN
F 1 "GNDA" V 4805 6273 50  0000 R CNN
F 2 "" H 4800 6400 50  0000 C CNN
F 3 "" H 4800 6400 50  0000 C CNN
	1    4800 6400
	0    1    1    0   
$EndComp
Text Label 4800 6250 0    50   ~ 0
HV
Entry Wire Line
	5600 1150 5700 1250
Entry Wire Line
	5600 1450 5700 1550
Entry Wire Line
	5600 2050 5700 2150
Entry Wire Line
	5600 1750 5700 1850
Entry Wire Line
	5600 2350 5700 2450
Entry Wire Line
	5600 2650 5700 2750
Entry Wire Line
	5600 2950 5700 3050
Entry Wire Line
	5600 3250 5700 3350
Entry Wire Line
	5600 3550 5700 3650
Entry Wire Line
	5600 3850 5700 3950
Entry Wire Line
	5600 4150 5700 4250
Entry Wire Line
	5600 4450 5700 4550
Entry Wire Line
	5600 4750 5700 4850
Entry Wire Line
	5600 5050 5700 5150
Entry Wire Line
	5600 5350 5700 5450
Entry Wire Line
	5600 5650 5700 5750
Entry Wire Line
	5600 5950 5700 6050
Entry Wire Line
	5600 6250 5700 6350
Entry Wire Line
	6050 900  6150 1000
Entry Wire Line
	6050 1000 6150 1100
Entry Wire Line
	6050 1100 6150 1200
Entry Wire Line
	6050 1200 6150 1300
Entry Wire Line
	6050 1300 6150 1400
Entry Wire Line
	6050 1400 6150 1500
Entry Wire Line
	6050 1500 6150 1600
Entry Wire Line
	6050 1600 6150 1700
Entry Wire Line
	6050 1700 6150 1800
Entry Wire Line
	6050 1800 6150 1900
Entry Wire Line
	6050 1900 6150 2000
Entry Wire Line
	6050 2000 6150 2100
Entry Wire Line
	6050 2100 6150 2200
Entry Wire Line
	6050 2200 6150 2300
Entry Wire Line
	6050 2300 6150 2400
Entry Wire Line
	6050 2400 6150 2500
Entry Wire Line
	6050 2500 6150 2600
Entry Wire Line
	6050 2600 6150 2700
Wire Wire Line
	1150 1300 1300 1300
Wire Wire Line
	1150 1150 1300 1150
Wire Wire Line
	1600 1150 1650 1150
Wire Wire Line
	1650 1150 1650 1300
Wire Wire Line
	1650 1300 1600 1300
Connection ~ 1650 1150
Wire Wire Line
	1150 1600 1300 1600
Wire Wire Line
	1150 1450 1300 1450
Wire Wire Line
	1600 1450 1650 1450
Wire Wire Line
	1650 1450 1650 1600
Wire Wire Line
	1650 1600 1600 1600
Connection ~ 1650 1450
Wire Wire Line
	1150 1900 1300 1900
Wire Wire Line
	1150 1750 1300 1750
Wire Wire Line
	1600 1750 1650 1750
Wire Wire Line
	1650 1750 1650 1900
Wire Wire Line
	1650 1900 1600 1900
Connection ~ 1650 1750
Wire Wire Line
	1150 2200 1300 2200
Wire Wire Line
	1150 2050 1300 2050
Wire Wire Line
	1600 2050 1650 2050
Wire Wire Line
	1650 2050 1650 2200
Wire Wire Line
	1650 2200 1600 2200
Connection ~ 1650 2050
Wire Wire Line
	1150 2500 1300 2500
Wire Wire Line
	1150 2350 1300 2350
Wire Wire Line
	1600 2350 1650 2350
Wire Wire Line
	1650 2350 1650 2500
Wire Wire Line
	1650 2500 1600 2500
Connection ~ 1650 2350
Wire Wire Line
	1150 2800 1300 2800
Wire Wire Line
	1150 2650 1300 2650
Wire Wire Line
	1600 2650 1650 2650
Wire Wire Line
	1650 2650 1650 2800
Wire Wire Line
	1650 2800 1600 2800
Connection ~ 1650 2650
Wire Wire Line
	1150 3100 1300 3100
Wire Wire Line
	1150 2950 1300 2950
Wire Wire Line
	1600 2950 1650 2950
Wire Wire Line
	1650 2950 1650 3100
Wire Wire Line
	1650 3100 1600 3100
Connection ~ 1650 2950
Wire Wire Line
	1150 3400 1300 3400
Wire Wire Line
	1150 3250 1300 3250
Wire Wire Line
	1600 3250 1650 3250
Wire Wire Line
	1650 3250 1650 3400
Wire Wire Line
	1650 3400 1600 3400
Connection ~ 1650 3250
Wire Wire Line
	1150 3700 1300 3700
Wire Wire Line
	1150 3550 1300 3550
Wire Wire Line
	1600 3550 1650 3550
Wire Wire Line
	1650 3550 1650 3700
Wire Wire Line
	1650 3700 1600 3700
Connection ~ 1650 3550
Wire Wire Line
	1150 4000 1300 4000
Wire Wire Line
	1150 3850 1300 3850
Wire Wire Line
	1600 3850 1650 3850
Wire Wire Line
	1650 3850 1650 4000
Wire Wire Line
	1650 4000 1600 4000
Connection ~ 1650 3850
Wire Wire Line
	1150 4300 1300 4300
Wire Wire Line
	1150 4150 1300 4150
Wire Wire Line
	1600 4150 1650 4150
Wire Wire Line
	1650 4150 1650 4300
Wire Wire Line
	1650 4300 1600 4300
Connection ~ 1650 4150
Wire Wire Line
	1150 4600 1300 4600
Wire Wire Line
	1150 4450 1300 4450
Wire Wire Line
	1600 4450 1650 4450
Wire Wire Line
	1650 4450 1650 4600
Wire Wire Line
	1650 4600 1600 4600
Connection ~ 1650 4450
Wire Wire Line
	1150 4900 1300 4900
Wire Wire Line
	1150 4750 1300 4750
Wire Wire Line
	1600 4750 1650 4750
Wire Wire Line
	1650 4750 1650 4900
Wire Wire Line
	1650 4900 1600 4900
Connection ~ 1650 4750
Wire Wire Line
	1150 5200 1300 5200
Wire Wire Line
	1150 5050 1300 5050
Wire Wire Line
	1600 5050 1650 5050
Wire Wire Line
	1650 5050 1650 5200
Wire Wire Line
	1650 5200 1600 5200
Connection ~ 1650 5050
Wire Wire Line
	1150 5500 1300 5500
Wire Wire Line
	1150 5350 1300 5350
Wire Wire Line
	1600 5350 1650 5350
Wire Wire Line
	1650 5350 1650 5500
Wire Wire Line
	1650 5500 1600 5500
Connection ~ 1650 5350
Wire Wire Line
	1150 5800 1300 5800
Wire Wire Line
	1150 5650 1300 5650
Wire Wire Line
	1600 5650 1650 5650
Wire Wire Line
	1650 5650 1650 5800
Wire Wire Line
	1650 5800 1600 5800
Connection ~ 1650 5650
Wire Wire Line
	1150 6100 1300 6100
Wire Wire Line
	1150 5950 1300 5950
Wire Wire Line
	1600 5950 1650 5950
Wire Wire Line
	1650 5950 1650 6100
Wire Wire Line
	1650 6100 1600 6100
Connection ~ 1650 5950
Wire Wire Line
	1150 6400 1300 6400
Wire Wire Line
	1150 6250 1300 6250
Wire Wire Line
	1600 6250 1650 6250
Wire Wire Line
	1650 6250 1650 6400
Wire Wire Line
	1650 6400 1600 6400
Connection ~ 1650 6250
Wire Wire Line
	1650 1150 1950 1150
Wire Wire Line
	1650 1450 1950 1450
Wire Wire Line
	1650 1750 1950 1750
Wire Wire Line
	1650 2350 1950 2350
Wire Wire Line
	1650 2650 1950 2650
Wire Wire Line
	1650 2950 1950 2950
Wire Wire Line
	1650 2050 1950 2050
Wire Wire Line
	1650 3250 1950 3250
Wire Wire Line
	1650 3550 1950 3550
Wire Wire Line
	1650 3850 1950 3850
Wire Wire Line
	1650 4150 1950 4150
Wire Wire Line
	1650 4450 1950 4450
Wire Wire Line
	1650 4750 1950 4750
Wire Wire Line
	1650 5050 1950 5050
Wire Wire Line
	1650 5350 1950 5350
Wire Wire Line
	1650 5650 1950 5650
Wire Wire Line
	1650 5950 1950 5950
Wire Wire Line
	1650 6250 1950 6250
Wire Wire Line
	2800 1000 2500 1000
Wire Wire Line
	2800 1100 2500 1100
Wire Wire Line
	2800 1200 2500 1200
Wire Wire Line
	2800 1300 2500 1300
Wire Wire Line
	2800 1400 2500 1400
Wire Wire Line
	2800 1500 2500 1500
Wire Wire Line
	2800 1600 2500 1600
Wire Wire Line
	2800 1700 2500 1700
Wire Wire Line
	2800 1800 2500 1800
Wire Wire Line
	2800 1900 2500 1900
Wire Wire Line
	2800 2000 2500 2000
Wire Wire Line
	2800 2100 2500 2100
Wire Wire Line
	2800 2200 2500 2200
Wire Wire Line
	2800 2300 2500 2300
Wire Wire Line
	2800 2400 2500 2400
Wire Wire Line
	2800 2500 2500 2500
Wire Wire Line
	2800 2600 2500 2600
Wire Wire Line
	2800 2700 2500 2700
Wire Bus Line
	2050 850  2400 850 
Wire Wire Line
	3300 1000 3550 1000
Wire Wire Line
	3300 1100 3550 1100
Wire Wire Line
	3300 1200 3550 1200
Wire Wire Line
	3300 1300 3550 1300
Wire Wire Line
	3300 1400 3550 1400
Wire Wire Line
	3300 1500 3550 1500
Wire Wire Line
	3300 1600 3550 1600
Wire Wire Line
	3300 1700 3550 1700
Wire Wire Line
	3300 1800 3550 1800
Wire Wire Line
	3300 1900 3550 1900
Wire Wire Line
	3300 2000 3550 2000
Wire Wire Line
	3300 2100 3550 2100
Wire Wire Line
	3300 2200 3550 2200
Wire Wire Line
	3300 2300 3550 2300
Wire Wire Line
	3300 2400 3550 2400
Wire Wire Line
	3300 2500 3550 2500
Wire Wire Line
	3300 2600 3550 2600
Wire Wire Line
	3300 2700 3550 2700
Wire Wire Line
	4800 1300 4950 1300
Wire Wire Line
	4800 1150 4950 1150
Wire Wire Line
	5250 1150 5300 1150
Wire Wire Line
	5300 1150 5300 1300
Wire Wire Line
	5300 1300 5250 1300
Connection ~ 5300 1150
Wire Wire Line
	4800 1600 4950 1600
Wire Wire Line
	4800 1450 4950 1450
Wire Wire Line
	5250 1450 5300 1450
Wire Wire Line
	5300 1450 5300 1600
Wire Wire Line
	5300 1600 5250 1600
Connection ~ 5300 1450
Wire Wire Line
	4800 1900 4950 1900
Wire Wire Line
	4800 1750 4950 1750
Wire Wire Line
	5250 1750 5300 1750
Wire Wire Line
	5300 1750 5300 1900
Wire Wire Line
	5300 1900 5250 1900
Connection ~ 5300 1750
Wire Wire Line
	4800 2200 4950 2200
Wire Wire Line
	4800 2050 4950 2050
Wire Wire Line
	5250 2050 5300 2050
Wire Wire Line
	5300 2050 5300 2200
Wire Wire Line
	5300 2200 5250 2200
Connection ~ 5300 2050
Wire Wire Line
	4800 2500 4950 2500
Wire Wire Line
	4800 2350 4950 2350
Wire Wire Line
	5250 2350 5300 2350
Wire Wire Line
	5300 2350 5300 2500
Wire Wire Line
	5300 2500 5250 2500
Connection ~ 5300 2350
Wire Wire Line
	4800 2800 4950 2800
Wire Wire Line
	4800 2650 4950 2650
Wire Wire Line
	5250 2650 5300 2650
Wire Wire Line
	5300 2650 5300 2800
Wire Wire Line
	5300 2800 5250 2800
Connection ~ 5300 2650
Wire Wire Line
	4800 3100 4950 3100
Wire Wire Line
	4800 2950 4950 2950
Wire Wire Line
	5250 2950 5300 2950
Wire Wire Line
	5300 2950 5300 3100
Wire Wire Line
	5300 3100 5250 3100
Connection ~ 5300 2950
Wire Wire Line
	4800 3400 4950 3400
Wire Wire Line
	4800 3250 4950 3250
Wire Wire Line
	5250 3250 5300 3250
Wire Wire Line
	5300 3250 5300 3400
Wire Wire Line
	5300 3400 5250 3400
Connection ~ 5300 3250
Wire Wire Line
	4800 3700 4950 3700
Wire Wire Line
	4800 3550 4950 3550
Wire Wire Line
	5250 3550 5300 3550
Wire Wire Line
	5300 3550 5300 3700
Wire Wire Line
	5300 3700 5250 3700
Connection ~ 5300 3550
Wire Wire Line
	4800 4000 4950 4000
Wire Wire Line
	4800 3850 4950 3850
Wire Wire Line
	5250 3850 5300 3850
Wire Wire Line
	5300 3850 5300 4000
Wire Wire Line
	5300 4000 5250 4000
Connection ~ 5300 3850
Wire Wire Line
	4800 4300 4950 4300
Wire Wire Line
	4800 4150 4950 4150
Wire Wire Line
	5250 4150 5300 4150
Wire Wire Line
	5300 4150 5300 4300
Wire Wire Line
	5300 4300 5250 4300
Connection ~ 5300 4150
Wire Wire Line
	4800 4600 4950 4600
Wire Wire Line
	4800 4450 4950 4450
Wire Wire Line
	5250 4450 5300 4450
Wire Wire Line
	5300 4450 5300 4600
Wire Wire Line
	5300 4600 5250 4600
Connection ~ 5300 4450
Wire Wire Line
	4800 4900 4950 4900
Wire Wire Line
	4800 4750 4950 4750
Wire Wire Line
	5250 4750 5300 4750
Wire Wire Line
	5300 4750 5300 4900
Wire Wire Line
	5300 4900 5250 4900
Connection ~ 5300 4750
Wire Wire Line
	4800 5200 4950 5200
Wire Wire Line
	4800 5050 4950 5050
Wire Wire Line
	5250 5050 5300 5050
Wire Wire Line
	5300 5050 5300 5200
Wire Wire Line
	5300 5200 5250 5200
Connection ~ 5300 5050
Wire Wire Line
	4800 5500 4950 5500
Wire Wire Line
	4800 5350 4950 5350
Wire Wire Line
	5250 5350 5300 5350
Wire Wire Line
	5300 5350 5300 5500
Wire Wire Line
	5300 5500 5250 5500
Connection ~ 5300 5350
Wire Wire Line
	4800 5800 4950 5800
Wire Wire Line
	4800 5650 4950 5650
Wire Wire Line
	5250 5650 5300 5650
Wire Wire Line
	5300 5650 5300 5800
Wire Wire Line
	5300 5800 5250 5800
Connection ~ 5300 5650
Wire Wire Line
	4800 6100 4950 6100
Wire Wire Line
	4800 5950 4950 5950
Wire Wire Line
	5250 5950 5300 5950
Wire Wire Line
	5300 5950 5300 6100
Wire Wire Line
	5300 6100 5250 6100
Connection ~ 5300 5950
Wire Wire Line
	4800 6400 4950 6400
Wire Wire Line
	4800 6250 4950 6250
Wire Wire Line
	5250 6250 5300 6250
Wire Wire Line
	5300 6250 5300 6400
Wire Wire Line
	5300 6400 5250 6400
Connection ~ 5300 6250
Wire Wire Line
	5300 1150 5600 1150
Wire Wire Line
	5300 1450 5600 1450
Wire Wire Line
	5300 1750 5600 1750
Wire Wire Line
	5300 2350 5600 2350
Wire Wire Line
	5300 2650 5600 2650
Wire Wire Line
	5300 2950 5600 2950
Wire Wire Line
	5300 2050 5600 2050
Wire Wire Line
	5300 3250 5600 3250
Wire Wire Line
	5300 3550 5600 3550
Wire Wire Line
	5300 3850 5600 3850
Wire Wire Line
	5300 4150 5600 4150
Wire Wire Line
	5300 4450 5600 4450
Wire Wire Line
	5300 4750 5600 4750
Wire Wire Line
	5300 5050 5600 5050
Wire Wire Line
	5300 5350 5600 5350
Wire Wire Line
	5300 5650 5600 5650
Wire Wire Line
	5300 5950 5600 5950
Wire Wire Line
	5300 6250 5600 6250
Wire Wire Line
	6450 1000 6150 1000
Wire Wire Line
	6450 1100 6150 1100
Wire Wire Line
	6450 1200 6150 1200
Wire Wire Line
	6450 1300 6150 1300
Wire Wire Line
	6450 1400 6150 1400
Wire Wire Line
	6450 1500 6150 1500
Wire Wire Line
	6450 1600 6150 1600
Wire Wire Line
	6450 1700 6150 1700
Wire Wire Line
	6450 1800 6150 1800
Wire Wire Line
	6450 1900 6150 1900
Wire Wire Line
	6450 2000 6150 2000
Wire Wire Line
	6450 2100 6150 2100
Wire Wire Line
	6450 2200 6150 2200
Wire Wire Line
	6450 2300 6150 2300
Wire Wire Line
	6450 2400 6150 2400
Wire Wire Line
	6450 2500 6150 2500
Wire Wire Line
	6450 2600 6150 2600
Wire Wire Line
	6450 2700 6150 2700
Wire Bus Line
	5700 850  6050 850 
Wire Wire Line
	6950 1000 7200 1000
Wire Wire Line
	6950 1100 7200 1100
Wire Wire Line
	6950 1200 7200 1200
Wire Wire Line
	6950 1300 7200 1300
Wire Wire Line
	6950 1400 7200 1400
Wire Wire Line
	6950 1500 7200 1500
Wire Wire Line
	6950 1600 7200 1600
Wire Wire Line
	6950 1700 7200 1700
Wire Wire Line
	6950 1800 7200 1800
Wire Wire Line
	6950 1900 7200 1900
Wire Wire Line
	6950 2000 7200 2000
Wire Wire Line
	6950 2100 7200 2100
Wire Wire Line
	6950 2200 7200 2200
Wire Wire Line
	6950 2300 7200 2300
Wire Wire Line
	6950 2400 7200 2400
Wire Wire Line
	6950 2500 7200 2500
Wire Wire Line
	6950 2600 7200 2600
Wire Wire Line
	6950 2700 7200 2700
Text Label 1750 1150 0    50   ~ 0
HV1
Text Label 1750 1450 0    50   ~ 0
HV2
Text Label 1750 1750 0    50   ~ 0
HV3
Text Label 1750 2050 0    50   ~ 0
HV4
Text Label 1750 2350 0    50   ~ 0
HV5
Text Label 1750 2650 0    50   ~ 0
HV6
Text Label 1750 2950 0    50   ~ 0
HV7
Text Label 1750 3250 0    50   ~ 0
HV8
Text Label 1750 3550 0    50   ~ 0
HV9
Text Label 1750 3850 0    50   ~ 0
HV10
Text Label 1750 4150 0    50   ~ 0
HV11
Text Label 1750 4450 0    50   ~ 0
HV12
Text Label 1750 4750 0    50   ~ 0
HV13
Text Label 1750 5050 0    50   ~ 0
HV14
Text Label 1750 5350 0    50   ~ 0
HV15
Text Label 1750 5650 0    50   ~ 0
HV16
Text Label 1750 5950 0    50   ~ 0
HV17
Text Label 1750 6250 0    50   ~ 0
HV18
Text Label 2550 1000 0    50   ~ 0
HV1
Text Label 2550 1100 0    50   ~ 0
HV2
Text Label 2550 1200 0    50   ~ 0
HV3
Text Label 2550 1300 0    50   ~ 0
HV4
Text Label 2550 1400 0    50   ~ 0
HV5
Text Label 2550 1500 0    50   ~ 0
HV6
Text Label 2550 1600 0    50   ~ 0
HV7
Text Label 2550 1700 0    50   ~ 0
HV8
Text Label 2550 1800 0    50   ~ 0
HV9
Text Label 2550 1900 0    50   ~ 0
HV10
Text Label 2550 2000 0    50   ~ 0
HV11
Text Label 2550 2100 0    50   ~ 0
HV12
Text Label 2550 2200 0    50   ~ 0
HV13
Text Label 2550 2300 0    50   ~ 0
HV14
Text Label 2550 2400 0    50   ~ 0
HV15
Text Label 2550 2500 0    50   ~ 0
HV16
Text Label 2550 2600 0    50   ~ 0
HV17
Text Label 2550 2700 0    50   ~ 0
HV18
Text Label 5400 1150 0    50   ~ 0
HV19
Text Label 5400 1450 0    50   ~ 0
HV20
Text Label 5400 1750 0    50   ~ 0
HV21
Text Label 5400 2050 0    50   ~ 0
HV22
Text Label 5400 2350 0    50   ~ 0
HV23
Text Label 5400 2650 0    50   ~ 0
HV24
Text Label 5400 2950 0    50   ~ 0
HV25
Text Label 5400 3250 0    50   ~ 0
HV26
Text Label 5400 3550 0    50   ~ 0
HV27
Text Label 5400 3850 0    50   ~ 0
HV28
Text Label 5400 4150 0    50   ~ 0
HV29
Text Label 5400 4450 0    50   ~ 0
HV30
Text Label 5400 4750 0    50   ~ 0
HV31
Text Label 5400 5050 0    50   ~ 0
HV32
Text Label 5400 5350 0    50   ~ 0
HV33
Text Label 5400 5650 0    50   ~ 0
HV34
Text Label 5400 5950 0    50   ~ 0
HV35
Text Label 5400 6250 0    50   ~ 0
HV36
Text Label 6200 1000 0    50   ~ 0
HV19
Text Label 6200 1100 0    50   ~ 0
HV20
Text Label 6200 1200 0    50   ~ 0
HV21
Text Label 6200 1300 0    50   ~ 0
HV22
Text Label 6200 1400 0    50   ~ 0
HV23
Text Label 6200 1500 0    50   ~ 0
HV24
Text Label 6200 1600 0    50   ~ 0
HV25
Text Label 6200 1700 0    50   ~ 0
HV26
Text Label 6200 1800 0    50   ~ 0
HV27
Text Label 6200 1900 0    50   ~ 0
HV28
Text Label 6200 2000 0    50   ~ 0
HV29
Text Label 6200 2100 0    50   ~ 0
HV30
Text Label 6200 2200 0    50   ~ 0
HV31
Text Label 6200 2300 0    50   ~ 0
HV32
Text Label 6200 2400 0    50   ~ 0
HV33
Text Label 6200 2500 0    50   ~ 0
HV34
Text Label 6200 2600 0    50   ~ 0
HV35
Text Label 6200 2700 0    50   ~ 0
HV36
$Comp
L power:GNDA #PWR043
U 1 1 5C848E59
P 2800 900
F 0 "#PWR043" H 2800 650 50  0001 C CNN
F 1 "GNDA" V 2805 773 50  0000 R CNN
F 2 "" H 2800 900 50  0000 C CNN
F 3 "" H 2800 900 50  0000 C CNN
	1    2800 900 
	0    1    1    0   
$EndComp
$Comp
L power:GNDA #PWR045
U 1 1 5C8490CB
P 3300 900
F 0 "#PWR045" H 3300 650 50  0001 C CNN
F 1 "GNDA" V 3305 772 50  0000 R CNN
F 2 "" H 3300 900 50  0000 C CNN
F 3 "" H 3300 900 50  0000 C CNN
	1    3300 900 
	0    -1   -1   0   
$EndComp
$Comp
L power:GNDA #PWR046
U 1 1 5C8494F9
P 3300 2800
F 0 "#PWR046" H 3300 2550 50  0001 C CNN
F 1 "GNDA" V 3305 2672 50  0000 R CNN
F 2 "" H 3300 2800 50  0000 C CNN
F 3 "" H 3300 2800 50  0000 C CNN
	1    3300 2800
	0    -1   -1   0   
$EndComp
$Comp
L power:GNDA #PWR044
U 1 1 5C8497FF
P 2800 2800
F 0 "#PWR044" H 2800 2550 50  0001 C CNN
F 1 "GNDA" V 2805 2673 50  0000 R CNN
F 2 "" H 2800 2800 50  0000 C CNN
F 3 "" H 2800 2800 50  0000 C CNN
	1    2800 2800
	0    1    1    0   
$EndComp
$Comp
L power:GNDA #PWR066
U 1 1 5C849A71
P 6450 2800
F 0 "#PWR066" H 6450 2550 50  0001 C CNN
F 1 "GNDA" V 6455 2673 50  0000 R CNN
F 2 "" H 6450 2800 50  0000 C CNN
F 3 "" H 6450 2800 50  0000 C CNN
	1    6450 2800
	0    1    1    0   
$EndComp
$Comp
L power:GNDA #PWR068
U 1 1 5C849BBB
P 6950 2800
F 0 "#PWR068" H 6950 2550 50  0001 C CNN
F 1 "GNDA" V 6955 2672 50  0000 R CNN
F 2 "" H 6950 2800 50  0000 C CNN
F 3 "" H 6950 2800 50  0000 C CNN
	1    6950 2800
	0    -1   -1   0   
$EndComp
$Comp
L power:GNDA #PWR065
U 1 1 5C849FE9
P 6450 900
F 0 "#PWR065" H 6450 650 50  0001 C CNN
F 1 "GNDA" V 6455 773 50  0000 R CNN
F 2 "" H 6450 900 50  0000 C CNN
F 3 "" H 6450 900 50  0000 C CNN
	1    6450 900 
	0    1    1    0   
$EndComp
$Comp
L power:GNDA #PWR067
U 1 1 5C84A133
P 6950 900
F 0 "#PWR067" H 6950 650 50  0001 C CNN
F 1 "GNDA" V 6955 772 50  0000 R CNN
F 2 "" H 6950 900 50  0000 C CNN
F 3 "" H 6950 900 50  0000 C CNN
	1    6950 900 
	0    -1   -1   0   
$EndComp
Text Label 3300 1000 0    50   ~ 0
SiPM[1]
Text Label 3300 1100 0    50   ~ 0
SiPM[2]
Text Label 3300 1200 0    50   ~ 0
SiPM[3]
Text Label 3300 1300 0    50   ~ 0
SiPM[4]
Text Label 3300 1400 0    50   ~ 0
SiPM[5]
Text Label 3300 1500 0    50   ~ 0
SiPM[6]
Text Label 3300 1600 0    50   ~ 0
SiPM[7]
Text Label 3300 1700 0    50   ~ 0
SiPM[8]
Text Label 3300 1800 0    50   ~ 0
SiPM[9]
Text Label 3300 1900 0    50   ~ 0
SiPM[10]
Text Label 3300 2000 0    50   ~ 0
SiPM[11]
Text Label 3300 2100 0    50   ~ 0
SiPM[12]
Text Label 3300 2200 0    50   ~ 0
SiPM[13]
Text Label 3300 2300 0    50   ~ 0
SiPM[14]
Text Label 3300 2400 0    50   ~ 0
SiPM[15]
Text Label 3300 2500 0    50   ~ 0
SiPM[16]
Text Label 3300 2600 0    50   ~ 0
SiPM[17]
Text Label 3300 2700 0    50   ~ 0
SiPM[18]
Text Label 5000 750  0    50   ~ 0
SiPM[36:1]
Text Label 6950 1000 0    50   ~ 0
SiPM[19]
Text Label 6950 1100 0    50   ~ 0
SiPM[20]
Text Label 6950 1200 0    50   ~ 0
SiPM[21]
Text Label 6950 1300 0    50   ~ 0
SiPM[22]
Text Label 6950 1400 0    50   ~ 0
SiPM[23]
Text Label 6950 1500 0    50   ~ 0
SiPM[24]
Text Label 6950 1600 0    50   ~ 0
SiPM[25]
Text Label 6950 1700 0    50   ~ 0
SiPM[26]
Text Label 6950 1800 0    50   ~ 0
SiPM[27]
Text Label 6950 1900 0    50   ~ 0
SiPM[28]
Text Label 6950 2000 0    50   ~ 0
SiPM[29]
Text Label 6950 2100 0    50   ~ 0
SiPM[30]
Text Label 6950 2200 0    50   ~ 0
SiPM[31]
Text Label 6950 2300 0    50   ~ 0
SiPM[32]
Text Label 6950 2400 0    50   ~ 0
SiPM[33]
Text Label 6950 2500 0    50   ~ 0
SiPM[34]
Text Label 6950 2600 0    50   ~ 0
SiPM[35]
Text Label 6950 2700 0    50   ~ 0
SiPM[36]
$Comp
L conn:CONN_02X20 P3
U 1 1 5C44B6DC
P 3050 1850
F 0 "P3" H 3050 675 50  0000 C CNN
F 1 "CONN_02X20" H 3050 766 50  0000 C CNN
F 2 "KLauS-Custom:Samtec_02X20_small" H 3050 900 50  0001 C CNN
F 3 "" H 3050 900 50  0000 C CNN
	1    3050 1850
	1    0    0    1   
$EndComp
$Comp
L conn:CONN_02X20 P4
U 1 1 5C44B95A
P 6700 1850
F 0 "P4" H 6700 675 50  0000 C CNN
F 1 "CONN_02X20" H 6700 766 50  0000 C CNN
F 2 "KLauS-Custom:Samtec_02X20_small" H 6700 900 50  0001 C CNN
F 3 "" H 6700 900 50  0000 C CNN
	1    6700 1850
	1    0    0    1   
$EndComp
Text HLabel 9250 1550 2    50   Output ~ 0
SiPM[1]
Text HLabel 9250 1650 2    50   Output ~ 0
SiPM[2]
Text HLabel 9250 1750 2    50   Output ~ 0
SiPM[3]
Text HLabel 9250 1850 2    50   Output ~ 0
SiPM[4]
Text HLabel 9250 1950 2    50   Output ~ 0
SiPM[5]
Text HLabel 9250 2050 2    50   Output ~ 0
SiPM[6]
Text HLabel 9250 2150 2    50   Output ~ 0
SiPM[7]
Text HLabel 9250 2250 2    50   Output ~ 0
SiPM[8]
Text HLabel 9250 2350 2    50   Output ~ 0
SiPM[9]
Text HLabel 9250 2450 2    50   Output ~ 0
SiPM[10]
Text HLabel 9250 2550 2    50   Output ~ 0
SiPM[11]
Text HLabel 9250 2650 2    50   Output ~ 0
SiPM[13]
Text HLabel 9250 2750 2    50   Output ~ 0
SiPM[14]
Text HLabel 9250 2850 2    50   Output ~ 0
SiPM[15]
Text HLabel 9250 2950 2    50   Output ~ 0
SiPM[16]
Text HLabel 9250 3050 2    50   Output ~ 0
SiPM[17]
Text HLabel 9250 3150 2    50   Output ~ 0
SiPM[18]
Text HLabel 9250 3250 2    50   Output ~ 0
SiPM[12]
Text HLabel 9950 1550 2    50   Output ~ 0
SiPM[19]
Text HLabel 9950 1650 2    50   Output ~ 0
SiPM[20]
Text HLabel 9950 1750 2    50   Output ~ 0
SiPM[21]
Text HLabel 9950 1850 2    50   Output ~ 0
SiPM[22]
Text HLabel 9950 1950 2    50   Output ~ 0
SiPM[23]
Text HLabel 9950 2050 2    50   Output ~ 0
SiPM[24]
Text HLabel 9950 2150 2    50   Output ~ 0
SiPM[25]
Text HLabel 9950 2250 2    50   Output ~ 0
SiPM[26]
Text HLabel 9950 2350 2    50   Output ~ 0
SiPM[27]
Text HLabel 9950 2450 2    50   Output ~ 0
SiPM[28]
Text HLabel 9950 2550 2    50   Output ~ 0
SiPM[29]
Text HLabel 9950 2650 2    50   Output ~ 0
SiPM[30]
Text HLabel 9950 2750 2    50   Output ~ 0
SiPM[31]
Text HLabel 9950 2850 2    50   Output ~ 0
SiPM[32]
Text HLabel 9950 2950 2    50   Output ~ 0
SiPM[33]
Text HLabel 9950 3050 2    50   Output ~ 0
SiPM[34]
Text HLabel 9950 3150 2    50   Output ~ 0
SiPM[35]
Text HLabel 9950 3250 2    50   Output ~ 0
SiPM[36]
Wire Bus Line
	6050 850  6050 2600
Wire Bus Line
	5700 850  5700 6350
Wire Bus Line
	2400 850  2400 2600
Wire Bus Line
	2050 850  2050 6350
$EndSCHEMATC
