(module REF_marker (layer F.Cu) (tedit 58084BDC)
  (attr smd)
  (fp_text reference REF1 (at 0 1.524) (layer F.SilkS)
    (effects (font (size 0.5 0.5) (thickness 0.125)))
  )
  (fp_text value REF (at 0 1.524) (layer F.Fab) hide
    (effects (font (size 0.5 0.5) (thickness 0.125)))
  )
  (pad "" smd oval (at 0.85 0 90) (size 0.15 0.25) (layers F.Cu)
    (clearance 0.1))
  (pad "" smd oval (at -0.85 0 90) (size 0.15 0.25) (layers F.Cu)
    (clearance 0.1))
  (pad "" smd oval (at 0 0.85) (size 0.15 0.25) (layers F.Cu)
    (clearance 0.1))
  (pad "" smd oval (at 0 -0.85) (size 0.15 0.25) (layers F.Cu)
    (clearance 0.1))
  (pad "" smd circle (at 0 0) (size 1 1) (layers F.Cu F.Mask)
    (solder_mask_margin 0.5))
)
