EESchema Schematic File Version 4
LIBS:TestBoard-COB-cache
EELAYER 26 0
EELAYER END
$Descr A4 11693 8268
encoding utf-8
Sheet 1 11
Title "PCB board for characterization of KLauS ASIC"
Date "2019-10-16"
Rev ""
Comp "KIP, Uni-Heidelberg"
Comment1 ""
Comment2 ""
Comment3 ""
Comment4 ""
$EndDescr
$Sheet
S 8600 1000 1800 5250
U 5DA5780E
F0 "KLauS-COB" 50
F1 "./Schematics/klaus_chip.sch" 50
F2 "SiPM_in[0]" I L 8600 6100 50 
F3 "SiPM_in[1]" I L 8600 6000 50 
F4 "SiPM_in[2]" I L 8600 5900 50 
F5 "SiPM_in[3]" I L 8600 5800 50 
F6 "SiPM_in[4]" I L 8600 5700 50 
F7 "SiPM_in[5]" I L 8600 5600 50 
F8 "SiPM_in[6]" I L 8600 5500 50 
F9 "SiPM_in[7]" I L 8600 5400 50 
F10 "SiPM_in[8]" I L 8600 5300 50 
F11 "SiPM_in[9]" I L 8600 5200 50 
F12 "SiPM_in[10]" I L 8600 5100 50 
F13 "SiPM_in[11]" I L 8600 5000 50 
F14 "SiPM_in[12]" I L 8600 4900 50 
F15 "SiPM_in[13]" I L 8600 4800 50 
F16 "SiPM_in[14]" I L 8600 4700 50 
F17 "SiPM_in[15]" I L 8600 4600 50 
F18 "SiPM_in[16]" I L 8600 4500 50 
F19 "SiPM_in[17]" I L 8600 4400 50 
F20 "SiPM_in[18]" I L 8600 4300 50 
F21 "SiPM_in[19]" I L 8600 4200 50 
F22 "SiPM_in[20]" I L 8600 4100 50 
F23 "SiPM_in[21]" I L 8600 4000 50 
F24 "SiPM_in[22]" I L 8600 3900 50 
F25 "SiPM_in[23]" I L 8600 3800 50 
F26 "SiPM_in[24]" I L 8600 3700 50 
F27 "SiPM_in[25]" I L 8600 3600 50 
F28 "SiPM_in[26]" I L 8600 3500 50 
F29 "SiPM_in[27]" I L 8600 3400 50 
F30 "SiPM_in[28]" I L 8600 3300 50 
F31 "SiPM_in[29]" I L 8600 3200 50 
F32 "SiPM_in[30]" I L 8600 3100 50 
F33 "SiPM_in[31]" I L 8600 3000 50 
F34 "SiPM_in[32]" I L 8600 2900 50 
F35 "SiPM_in[33]" I L 8600 2800 50 
F36 "SiPM_in[34]" I L 8600 2700 50 
F37 "SiPM_in[35]" I L 8600 2600 50 
F38 "REF_1p2" I L 8600 2250 50 
F39 "ADCn" I L 8600 1300 50 
F40 "amon_1" O L 8600 1450 50 
F41 "amon_2" O L 8600 1550 50 
F42 "ref_cm" B L 8600 1950 50 
F43 "reg_g" B L 8600 2050 50 
F44 "ref_v" B L 8600 1850 50 
F45 "REF_1p8" I L 8600 1750 50 
F46 "do_TxD_N" O R 10400 5900 50 
F47 "do_Txd_P" O R 10400 5800 50 
F48 "di_FE_T0_etrig_N" I R 10400 5700 50 
F49 "di_FE_T0_etrig_P" I R 10400 5600 50 
F50 "di_FIFO_etrig_N" I R 10400 5500 50 
F51 "di_FIFO_etrig_P" I R 10400 5400 50 
F52 "di_FE_etrig_N" I R 10400 5300 50 
F53 "di_FE_etrig_P" I R 10400 5200 50 
F54 "di_ser_clk_N" I R 10400 5100 50 
F55 "di_ser_clk_P" I R 10400 5000 50 
F56 "di_rst" I R 10400 4000 50 
F57 "di_i2cB_scl" I R 10400 4600 50 
F58 "dio_i2cB_sda" B R 10400 4700 50 
F59 "dio_i2cA_sda" B R 10400 4500 50 
F60 "di_i2cA_scl" I R 10400 4400 50 
F61 "do_fifo_full" O R 10400 4200 50 
F62 "di_acq_en" I R 10400 4100 50 
F63 "di_srst" I R 10400 3800 50 
F64 "do_sdo" O R 10400 3700 50 
F65 "di_sclk" I R 10400 3500 50 
F66 "di_sdi" I R 10400 3600 50 
F67 "di_cs" I R 10400 3400 50 
F68 "PLLVC" O R 10400 3200 50 
F69 "PLLVCTRL" O R 10400 3100 50 
F70 "DBG2" O R 10400 2900 50 
F71 "DBG1" O R 10400 2800 50 
F72 "OR-36" O R 10400 2700 50 
F73 "ADCp" I L 8600 1200 50 
$EndSheet
$Sheet
S 5700 1050 1600 600 
U 5DABCC5B
F0 "Reference Buffers" 50
F1 "./Schematics/Refs_Buffers.sch" 50
F2 "REF_VCC" O R 7300 1200 50 
F3 "REF_VCM" O R 7300 1300 50 
F4 "REF_1p2" O R 7300 1400 50 
F5 "REF_ADC" O R 7300 1500 50 
$EndSheet
$Sheet
S 1150 6900 1350 400 
U 5DABCC60
F0 "ADC Driver" 50
F1 "./Schematics/ADC_Driver.sch" 50
F2 "REF_VCM" I L 1150 7100 50 
F3 "ADCp" O R 2500 7050 50 
F4 "ADCn" O R 2500 7150 50 
$EndSheet
$Sheet
S 1250 5500 1250 600 
U 5DABCC63
F0 "Analog Monitors" 50
F1 "./Schematics/Monitors.sch" 50
F2 "AMON1" I L 1250 5600 50 
F3 "PLLVCTRL" I L 1250 5800 50 
F4 "PLLVC" I L 1250 5900 50 
F5 "AMON2" I L 1250 5700 50 
F6 "SiPM" I L 1250 6000 50 
$EndSheet
$Sheet
S 3750 1050 1450 650 
U 5DA57814
F0 "Power" 50
F1 "./Schematics/Power.sch" 50
F2 "EN_VA33" I L 3750 1550 50 
F3 "EN_VA18" I L 3750 1450 50 
F4 "EN_VD33" I L 3750 1350 50 
F5 "EN_VD18" I L 3750 1250 50 
$EndSheet
$Comp
L KLauS-ASIC:MountingHole H1
U 1 1 5DA5B135
P 3300 6700
F 0 "H1" H 3399 6753 60  0000 L CNN
F 1 "MountingHole" H 3399 6647 60  0000 L CNN
F 2 "MountingHoles-Custom:Mountinghole_3mm_P5mm" H 3300 6700 60  0001 C CNN
F 3 "" H 3300 6700 60  0001 C CNN
	1    3300 6700
	1    0    0    -1  
$EndComp
$Comp
L KLauS-ASIC:MountingHole H3
U 1 1 5DA5B211
P 3300 7200
F 0 "H3" H 3399 7253 60  0000 L CNN
F 1 "MountingHole" H 3399 7147 60  0000 L CNN
F 2 "MountingHoles-Custom:Mountinghole_3mm_P5mm" H 3300 7200 60  0001 C CNN
F 3 "" H 3300 7200 60  0001 C CNN
	1    3300 7200
	1    0    0    -1  
$EndComp
$Comp
L KLauS-ASIC:MountingHole H4
U 1 1 5DA5B268
P 3300 7450
F 0 "H4" H 3399 7503 60  0000 L CNN
F 1 "MountingHole" H 3399 7397 60  0000 L CNN
F 2 "MountingHoles-Custom:Mountinghole_3mm_P5mm" H 3300 7450 60  0001 C CNN
F 3 "" H 3300 7450 60  0001 C CNN
	1    3300 7450
	1    0    0    -1  
$EndComp
$Comp
L KLauS-ASIC:REFDES REF4
U 1 1 5DA5B2FD
P 5650 7300
F 0 "REF4" H 5790 7353 60  0000 L CNN
F 1 "REFDES" H 5790 7247 60  0000 L CNN
F 2 "MountingHoles-Custom:REF_marker" H 5650 7300 60  0001 C CNN
F 3 "" H 5650 7300 60  0001 C CNN
	1    5650 7300
	1    0    0    -1  
$EndComp
$Comp
L KLauS-ASIC:REFDES REF2
U 1 1 5DA5B374
P 5650 7050
F 0 "REF2" H 5790 7103 60  0000 L CNN
F 1 "REFDES" H 5790 6997 60  0000 L CNN
F 2 "MountingHoles-Custom:REF_marker" H 5650 7050 60  0001 C CNN
F 3 "" H 5650 7050 60  0001 C CNN
	1    5650 7050
	1    0    0    -1  
$EndComp
$Comp
L KLauS-ASIC:REFDES REF1
U 1 1 5DA5B3D4
P 4700 7050
F 0 "REF1" H 4840 7103 60  0000 L CNN
F 1 "REFDES" H 4840 6997 60  0000 L CNN
F 2 "MountingHoles-Custom:REF_marker" H 4700 7050 60  0001 C CNN
F 3 "" H 4700 7050 60  0001 C CNN
	1    4700 7050
	1    0    0    -1  
$EndComp
$Comp
L KLauS-ASIC:REFDES REF3
U 1 1 5DA5B42D
P 4700 7300
F 0 "REF3" H 4840 7353 60  0000 L CNN
F 1 "REFDES" H 4840 7247 60  0000 L CNN
F 2 "MountingHoles-Custom:REF_marker" H 4700 7300 60  0001 C CNN
F 3 "" H 4700 7300 60  0001 C CNN
	1    4700 7300
	1    0    0    -1  
$EndComp
$Sheet
S 4650 5300 1100 1000
U 5DA5BCF0
F0 "LVDS Drivers" 50
F1 "./Schematics/LVDS.sch" 50
F2 "FE_etrig_P" O R 5750 5500 50 
F3 "FE_etrig_N" O R 5750 5600 50 
F4 "FIFO_etrig_P" O R 5750 5750 50 
F5 "FIFO_etrig_N" O R 5750 5850 50 
F6 "T0_etrig_P" O R 5750 6000 50 
F7 "T0_etrig_N" O R 5750 6100 50 
$EndSheet
Wire Wire Line
	5950 5500 5750 5500
Wire Wire Line
	5950 5600 5750 5600
Wire Wire Line
	5950 5750 5750 5750
Wire Wire Line
	5950 5850 5750 5850
Wire Wire Line
	5950 6000 5750 6000
Wire Wire Line
	5950 6100 5750 6100
Text Label 5950 5500 0    50   ~ 0
FE_etrig_P
Text Label 5950 5600 0    50   ~ 0
FE_etrig_N
Text Label 5950 5750 0    50   ~ 0
FIFO_etrig_P
Text Label 5950 5850 0    50   ~ 0
FIFO_etrig_N
Text Label 5950 6000 0    50   ~ 0
T0_etrig_P
Text Label 5950 6100 0    50   ~ 0
T0_etrig_N
Wire Wire Line
	10600 5200 10400 5200
Wire Wire Line
	10600 5300 10400 5300
Wire Wire Line
	10600 5400 10400 5400
Wire Wire Line
	10600 5500 10400 5500
Wire Wire Line
	10600 5600 10400 5600
Wire Wire Line
	10600 5700 10400 5700
Text Label 10600 5200 0    50   ~ 0
FE_etrig_P
Text Label 10600 5300 0    50   ~ 0
FE_etrig_N
Text Label 10600 5400 0    50   ~ 0
FIFO_etrig_P
Text Label 10600 5500 0    50   ~ 0
FIFO_etrig_N
Text Label 10600 5600 0    50   ~ 0
T0_etrig_P
Text Label 10600 5700 0    50   ~ 0
T0_etrig_N
Wire Wire Line
	2700 7050 2500 7050
Wire Wire Line
	2700 7150 2500 7150
Wire Wire Line
	7500 1200 7300 1200
Wire Wire Line
	7500 1300 7300 1300
Wire Wire Line
	7500 1400 7300 1400
Wire Wire Line
	7500 1500 7300 1500
Text Label 7500 1500 0    50   ~ 0
REF_ADC
Text Label 7500 1400 0    50   ~ 0
REF_FE
Text Label 7500 1300 0    50   ~ 0
REF_VCM
Text Label 7500 1200 0    50   ~ 0
REF_VCC
Text Label 800  7100 0    50   ~ 0
REF_VCM
Wire Wire Line
	800  7100 1150 7100
Text Label 2700 7050 0    50   ~ 0
ADCp
Text Label 2700 7150 0    50   ~ 0
ADCn
Wire Wire Line
	800  5700 1250 5700
Wire Wire Line
	800  5600 1250 5600
Wire Wire Line
	800  5800 1250 5800
Wire Wire Line
	800  5900 1250 5900
Wire Wire Line
	800  6000 1250 6000
Text Label 800  5600 0    50   ~ 0
AMON1
Text Label 800  5700 0    50   ~ 0
AMON2
Text Label 800  5800 0    50   ~ 0
PLLVCTRL
Text Label 800  5900 0    50   ~ 0
PLLVC
Text Label 800  6000 0    50   ~ 0
SiPM1
Wire Wire Line
	3350 1250 3750 1250
Wire Wire Line
	3350 1350 3750 1350
Wire Wire Line
	3350 1450 3750 1450
Wire Wire Line
	3350 1550 3750 1550
Text Label 3350 1550 0    50   ~ 0
EN_VA33
Text Label 3350 1450 0    50   ~ 0
EN_VA18
Text Label 3350 1350 0    50   ~ 0
EN_VD33
Text Label 3350 1250 0    50   ~ 0
EN_VD18
$Sheet
S 1250 4100 1250 850 
U 5DA688F7
F0 "Clock" 50
F1 "./Schematics/Clock.sch" 50
F2 "osc_sda" I L 1250 4300 50 
F3 "osc_scl" I L 1250 4400 50 
F4 "FPGA_clk_P" O R 2500 4300 50 
F5 "FPGA_clk_N" O R 2500 4400 50 
F6 "sys_clk_P" O R 2500 4500 50 
F7 "sys_clk_N" O R 2500 4600 50 
F8 "ext_clk_P" O R 2500 4700 50 
F9 "ext_clk_N" O R 2500 4800 50 
F10 "i_clk_P" I L 1250 4600 50 
F11 "i_clk_N" I L 1250 4700 50 
$EndSheet
Wire Wire Line
	10600 5000 10400 5000
Wire Wire Line
	10600 5100 10400 5100
Text Label 10600 5000 0    50   ~ 0
sys_clk_P
Text Label 10600 5100 0    50   ~ 0
sys_clk_N
Wire Wire Line
	2700 4500 2500 4500
Wire Wire Line
	2700 4600 2500 4600
Text Label 2700 4500 0    50   ~ 0
sys_clk_P
Text Label 2700 4600 0    50   ~ 0
sys_clk_N
Wire Wire Line
	2700 4300 2500 4300
Wire Wire Line
	2700 4400 2500 4400
Wire Wire Line
	2700 4700 2500 4700
Wire Wire Line
	2700 4800 2500 4800
Text Label 2700 4300 0    50   ~ 0
FPGA_clk_P
Text Label 2700 4400 0    50   ~ 0
FPGA_clk_N
Text Label 2700 4700 0    50   ~ 0
ext_clk_P
Text Label 2700 4800 0    50   ~ 0
ext_clk_N
Wire Wire Line
	950  4600 1250 4600
Wire Wire Line
	950  4700 1250 4700
Text Label 950  4600 0    50   ~ 0
i_clk_P
Text Label 950  4700 0    50   ~ 0
i_clk_N
$Sheet
S 7100 2400 1000 3850
U 5DAE9E88
F0 "SiPM_input" 50
F1 "./Schematics/SiPM_input.sch" 50
F2 "HV" I L 7100 2600 50 
F3 "SiPM[1]" O R 8100 6100 50 
F4 "SiPM[2]" O R 8100 6000 50 
F5 "SiPM[3]" O R 8100 5900 50 
F6 "SiPM[4]" O R 8100 5800 50 
F7 "SiPM[5]" O R 8100 5700 50 
F8 "SiPM[6]" O R 8100 5600 50 
F9 "SiPM[7]" O R 8100 5500 50 
F10 "SiPM[8]" O R 8100 5400 50 
F11 "SiPM[9]" O R 8100 5300 50 
F12 "SiPM[10]" O R 8100 5200 50 
F13 "SiPM[11]" O R 8100 5100 50 
F14 "SiPM[13]" O R 8100 4900 50 
F15 "SiPM[14]" O R 8100 4800 50 
F16 "SiPM[15]" O R 8100 4700 50 
F17 "SiPM[16]" O R 8100 4600 50 
F18 "SiPM[17]" O R 8100 4500 50 
F19 "SiPM[18]" O R 8100 4400 50 
F20 "SiPM[12]" O R 8100 5000 50 
F21 "SiPM[19]" O R 8100 4300 50 
F22 "SiPM[20]" O R 8100 4200 50 
F23 "SiPM[21]" O R 8100 4100 50 
F24 "SiPM[22]" O R 8100 4000 50 
F25 "SiPM[23]" O R 8100 3900 50 
F26 "SiPM[24]" O R 8100 3800 50 
F27 "SiPM[25]" O R 8100 3700 50 
F28 "SiPM[26]" O R 8100 3600 50 
F29 "SiPM[27]" O R 8100 3500 50 
F30 "SiPM[28]" O R 8100 3400 50 
F31 "SiPM[29]" O R 8100 3300 50 
F32 "SiPM[30]" O R 8100 3200 50 
F33 "SiPM[31]" O R 8100 3100 50 
F34 "SiPM[32]" O R 8100 3000 50 
F35 "SiPM[33]" O R 8100 2900 50 
F36 "SiPM[34]" O R 8100 2800 50 
F37 "SiPM[35]" O R 8100 2700 50 
F38 "SiPM[36]" O R 8100 2600 50 
F39 "TCALIB" I L 7100 2850 50 
F40 "VCALIB" I L 7100 2950 50 
$EndSheet
Wire Wire Line
	8600 6100 8100 6100
Wire Wire Line
	8600 6000 8100 6000
Wire Wire Line
	8600 5900 8100 5900
Wire Wire Line
	8600 5800 8100 5800
Wire Wire Line
	8600 5700 8100 5700
Wire Wire Line
	8600 5600 8100 5600
Wire Wire Line
	8100 5500 8600 5500
Wire Wire Line
	8600 5400 8100 5400
Wire Wire Line
	8600 5300 8100 5300
Wire Wire Line
	8600 5200 8100 5200
Wire Wire Line
	8600 5000 8100 5000
Wire Wire Line
	8100 5100 8600 5100
Wire Wire Line
	8600 4900 8100 4900
Wire Wire Line
	8600 4800 8100 4800
Wire Wire Line
	8600 4700 8100 4700
Wire Wire Line
	8600 4600 8100 4600
Wire Wire Line
	8600 4500 8100 4500
Wire Wire Line
	8600 4400 8100 4400
Wire Wire Line
	8600 4300 8100 4300
Wire Wire Line
	8600 4200 8100 4200
Wire Wire Line
	8600 4100 8100 4100
Wire Wire Line
	8600 4000 8100 4000
Wire Wire Line
	8600 3900 8100 3900
Wire Wire Line
	8600 3800 8100 3800
Wire Wire Line
	8600 3700 8100 3700
Wire Wire Line
	8600 3600 8100 3600
Wire Wire Line
	8600 3500 8100 3500
Wire Wire Line
	8600 3400 8100 3400
Wire Wire Line
	8600 3300 8100 3300
Wire Wire Line
	8600 3200 8100 3200
Wire Wire Line
	8100 3100 8600 3100
Wire Wire Line
	8600 3000 8100 3000
Wire Wire Line
	8600 2900 8100 2900
Wire Wire Line
	8600 2800 8100 2800
Wire Wire Line
	8600 2700 8100 2700
Wire Wire Line
	8600 2600 8100 2600
Text Label 8200 2600 0    50   ~ 0
SiPM36
Text Label 8200 2700 0    50   ~ 0
SiPM35
Text Label 8200 2800 0    50   ~ 0
SiPM34
Text Label 8200 2900 0    50   ~ 0
SiPM33
Text Label 8200 3000 0    50   ~ 0
SiPM32
Text Label 8200 3100 0    50   ~ 0
SiPM31
Text Label 8200 3200 0    50   ~ 0
SiPM30
Text Label 8200 3300 0    50   ~ 0
SiPM29
Text Label 8200 3400 0    50   ~ 0
SiPM28
Text Label 8200 3500 0    50   ~ 0
SiPM27
Text Label 8200 3600 0    50   ~ 0
SiPM26
Text Label 8200 3700 0    50   ~ 0
SiPM25
Text Label 8200 3800 0    50   ~ 0
SiPM24
Text Label 8200 3900 0    50   ~ 0
SiPM23
Text Label 8200 4000 0    50   ~ 0
SiPM22
Text Label 8200 4100 0    50   ~ 0
SiPM21
Text Label 8200 4200 0    50   ~ 0
SiPM20
Text Label 8200 4300 0    50   ~ 0
SiPM19
Text Label 8200 4400 0    50   ~ 0
SiPM18
Text Label 8200 4500 0    50   ~ 0
SiPM17
Text Label 8200 4600 0    50   ~ 0
SiPM16
Text Label 8200 4700 0    50   ~ 0
SiPM15
Text Label 8200 4800 0    50   ~ 0
SiPM14
Text Label 8200 4900 0    50   ~ 0
SiPM13
Text Label 8200 5000 0    50   ~ 0
SiPM12
Text Label 8200 5100 0    50   ~ 0
SiPM11
Text Label 8200 5300 0    50   ~ 0
SiPM9
Text Label 8200 5200 0    50   ~ 0
SiPM10
Text Label 8200 5400 0    50   ~ 0
SiPM8
Text Label 8200 5500 0    50   ~ 0
SiPM7
Text Label 8200 5600 0    50   ~ 0
SiPM6
Text Label 8200 5700 0    50   ~ 0
SiPM5
Text Label 8200 5800 0    50   ~ 0
SiPM4
Text Label 8200 5900 0    50   ~ 0
SiPM3
Text Label 8200 6000 0    50   ~ 0
SiPM2
Text Label 8200 6100 0    50   ~ 0
SiPM1
$Sheet
S 1200 1100 1200 2700
U 5DA7F340
F0 "Sheet5DA7F33F" 50
F1 "./Schematics/Raspi_Connector.sch" 50
F2 "o_SPI_sclk" O R 2400 1400 50 
F3 "o_SPI_cs" O R 2400 1300 50 
F4 "o_SPI_sdo" O R 2400 1500 50 
F5 "i_SPI_sdi" I R 2400 1600 50 
F6 "OSC_sda_nc" B L 1200 1950 50 
F7 "OSC_scl_oe" O L 1200 2050 50 
F8 "pregena_VCCA33" O R 2400 3300 50 
F9 "pregena_VCCD33" O R 2400 3500 50 
F10 "pregena_VCCA18" O R 2400 3400 50 
F11 "pregena_VCCD18" O R 2400 3600 50 
F12 "o_rst" O R 2400 2400 50 
F13 "o_srst" O R 2400 1700 50 
F14 "i_TB_TxD_P" I R 2400 3000 50 
F15 "i_TB_TxD_N" I R 2400 3100 50 
F16 "o_I2CA_scl" O R 2400 1900 50 
F17 "o_I2CB_scl" O R 2400 2100 50 
F18 "io_I2CA_sda" B R 2400 2000 50 
F19 "io_I2CB_sda" B R 2400 2200 50 
F20 "i_fifo_full" I R 2400 2500 50 
F21 "o_aqu_ena" O R 2400 2600 50 
F22 "FPGA_clk_P" I R 2400 2800 50 
F23 "FPGA_clk_N" I R 2400 2900 50 
F24 "TCALIB" O L 1200 3200 50 
$EndSheet
Wire Wire Line
	2600 2800 2400 2800
Wire Wire Line
	2600 2900 2400 2900
Text Label 2600 2800 0    50   ~ 0
FPGA_clk_P
Text Label 2600 2900 0    50   ~ 0
FPGA_clk_N
Wire Wire Line
	2800 3600 2400 3600
Wire Wire Line
	2800 3500 2400 3500
Wire Wire Line
	2800 3400 2400 3400
Wire Wire Line
	2800 3300 2400 3300
Text Label 2800 3300 2    50   ~ 0
EN_VA33
Text Label 2800 3400 2    50   ~ 0
EN_VA18
Text Label 2800 3500 2    50   ~ 0
EN_VD33
Text Label 2800 3600 2    50   ~ 0
EN_VD18
Wire Wire Line
	2600 3000 2400 3000
Wire Wire Line
	2600 3100 2400 3100
Text Label 2600 3000 0    50   ~ 0
TxD_P
Text Label 2600 3100 0    50   ~ 0
TxD_N
Wire Wire Line
	10600 5800 10400 5800
Wire Wire Line
	10600 5900 10400 5900
Text Label 10600 5800 0    50   ~ 0
TxD_P
Text Label 10600 5900 0    50   ~ 0
TxD_N
Wire Wire Line
	8400 1850 8600 1850
Wire Wire Line
	8400 1950 8600 1950
Wire Wire Line
	8400 2250 8600 2250
Wire Wire Line
	8400 1750 8600 1750
Text Label 8400 1750 2    50   ~ 0
REF_ADC
Text Label 8400 2250 2    50   ~ 0
REF_FE
Text Label 8400 1950 2    50   ~ 0
REF_VCM
Text Label 8400 1850 2    50   ~ 0
REF_VCC
$Comp
L power:GNDA #PWR01
U 1 1 5DB69E42
P 8400 2050
F 0 "#PWR01" H 8400 1800 50  0001 C CNN
F 1 "GNDA" V 8405 1923 50  0000 R CNN
F 2 "" H 8400 2050 50  0000 C CNN
F 3 "" H 8400 2050 50  0000 C CNN
	1    8400 2050
	0    1    1    0   
$EndComp
Wire Wire Line
	8600 2050 8400 2050
Wire Wire Line
	8400 1550 8600 1550
Wire Wire Line
	8400 1450 8600 1450
Wire Wire Line
	8400 1300 8600 1300
Wire Wire Line
	8400 1200 8600 1200
Text Label 8400 1200 2    50   ~ 0
ADCp
Text Label 8400 1300 2    50   ~ 0
ADCn
Text Label 8400 1450 2    50   ~ 0
AMON1
Text Label 8400 1550 2    50   ~ 0
AMON2
Wire Wire Line
	2600 2600 2400 2600
Wire Wire Line
	2600 2500 2400 2500
Wire Wire Line
	2600 2000 2400 2000
Wire Wire Line
	2600 1900 2400 1900
Text Label 2600 1900 0    50   ~ 0
i2cA_scl
Text Label 2600 2000 0    50   ~ 0
i2cA_sda
Wire Wire Line
	2600 2200 2400 2200
Wire Wire Line
	2600 2100 2400 2100
Text Label 2600 2100 0    50   ~ 0
i2cB_scl
Text Label 2600 2200 0    50   ~ 0
i2cB_sda
Wire Wire Line
	2400 2400 2600 2400
Text Label 2600 2400 0    50   ~ 0
sys_rst
Text Label 2600 2500 0    50   ~ 0
fifo_full
Text Label 2600 2600 0    50   ~ 0
acq_start
Wire Wire Line
	10600 4200 10400 4200
Wire Wire Line
	10600 4100 10400 4100
Wire Wire Line
	10600 4500 10400 4500
Wire Wire Line
	10600 4400 10400 4400
Text Label 10600 4400 0    50   ~ 0
i2cA_scl
Text Label 10600 4500 0    50   ~ 0
i2cA_sda
Wire Wire Line
	10600 4700 10400 4700
Wire Wire Line
	10600 4600 10400 4600
Text Label 10600 4600 0    50   ~ 0
i2cB_scl
Text Label 10600 4700 0    50   ~ 0
i2cB_sda
Wire Wire Line
	10400 4000 10600 4000
Text Label 10600 4000 0    50   ~ 0
sys_rst
Text Label 10600 4100 0    50   ~ 0
fifo_full
Text Label 10600 4200 0    50   ~ 0
acq_start
Wire Wire Line
	2600 1700 2400 1700
Wire Wire Line
	2600 1600 2400 1600
Wire Wire Line
	2600 1500 2400 1500
Wire Wire Line
	2600 1400 2400 1400
Wire Wire Line
	2600 1300 2400 1300
Text Label 2600 1300 0    50   ~ 0
spi_cs
Text Label 2600 1400 0    50   ~ 0
spi_sclk
Text Label 2600 1500 0    50   ~ 0
spi_MOSI
Text Label 2600 1600 0    50   ~ 0
spi_MISO
Text Label 2600 1700 0    50   ~ 0
spi_srst
Wire Wire Line
	10600 3800 10400 3800
Wire Wire Line
	10600 3700 10400 3700
Wire Wire Line
	10600 3600 10400 3600
Wire Wire Line
	10600 3500 10400 3500
Wire Wire Line
	10600 3400 10400 3400
Text Label 10600 3400 0    50   ~ 0
spi_cs
Text Label 10600 3500 0    50   ~ 0
spi_sclk
Text Label 10600 3600 0    50   ~ 0
spi_MOSI
Text Label 10600 3700 0    50   ~ 0
spi_sdo
Text Label 10600 3800 0    50   ~ 0
spi_srst
Text Label 6900 2600 0    50   ~ 0
HV
Text Label 6850 2850 0    50   ~ 0
TCALIB
Text Label 6850 2950 0    50   ~ 0
VCALIB
Wire Wire Line
	6850 2950 7100 2950
Wire Wire Line
	6850 2850 7100 2850
Wire Wire Line
	6850 2600 7100 2600
$Comp
L Connector:Conn_Coaxial P5
U 1 1 5DCABCEF
P 3700 4500
F 0 "P5" H 3655 4738 50  0000 C CNN
F 1 "HV" H 3655 4647 50  0000 C CNN
F 2 "KLauS-Custom:BNC_SMA" H 3700 4500 50  0001 C CNN
F 3 "" H 3700 4500 50  0000 C CNN
	1    3700 4500
	-1   0    0    -1  
$EndComp
$Comp
L Connector:Conn_Coaxial P7
U 1 1 5DCAC018
P 5050 4500
F 0 "P7" H 5005 4738 50  0000 C CNN
F 1 "VCALIB" H 5005 4647 50  0000 C CNN
F 2 "KLauS-Custom:BNC_SMA" H 5050 4500 50  0001 C CNN
F 3 "" H 5050 4500 50  0000 C CNN
	1    5050 4500
	-1   0    0    -1  
$EndComp
$Comp
L power:GNDA #PWR011
U 1 1 5DCAC0A3
P 3700 4700
F 0 "#PWR011" H 3700 4450 50  0001 C CNN
F 1 "GNDA" H 3705 4527 50  0000 C CNN
F 2 "" H 3700 4700 50  0000 C CNN
F 3 "" H 3700 4700 50  0000 C CNN
	1    3700 4700
	1    0    0    -1  
$EndComp
Wire Wire Line
	4100 4500 3900 4500
Wire Wire Line
	5200 4500 5250 4500
Text Label 4100 4500 2    50   ~ 0
HV
Text Label 5450 4500 2    50   ~ 0
VCALIB
Wire Wire Line
	850  1950 1200 1950
Wire Wire Line
	850  2050 1200 2050
Text Label 850  1950 0    50   ~ 0
osc_sda
Text Label 850  2050 0    50   ~ 0
osc_scl
Wire Wire Line
	900  4300 1250 4300
Wire Wire Line
	900  4400 1250 4400
Text Label 900  4300 0    50   ~ 0
osc_sda
Text Label 900  4400 0    50   ~ 0
osc_scl
Wire Wire Line
	10600 3100 10400 3100
Wire Wire Line
	10600 3200 10400 3200
Wire Wire Line
	10600 2900 10400 2900
Wire Wire Line
	10600 2800 10400 2800
Wire Wire Line
	10600 2700 10400 2700
Text Label 10600 2700 0    50   ~ 0
OTRG_ALL
Text Label 10600 2900 0    50   ~ 0
OTRG_G4
Text Label 10600 2800 0    50   ~ 0
OTRG_G3
Text Label 10600 3100 0    50   ~ 0
PLLVCTRL
Text Label 10600 3200 0    50   ~ 0
PLLVC
$Comp
L Connector:Conn_Coaxial P2
U 1 1 5DD1FFBE
P 3700 3650
F 0 "P2" H 3655 3888 50  0000 C CNN
F 1 "OTRG" H 3655 3797 50  0000 C CNN
F 2 "KLauS-Custom:BNC_SMA" H 3700 3650 50  0001 C CNN
F 3 "" H 3700 3650 50  0000 C CNN
	1    3700 3650
	-1   0    0    -1  
$EndComp
$Comp
L Connector:Conn_Coaxial P3
U 1 1 5DD1FFC4
P 4400 3650
F 0 "P3" H 4355 3888 50  0000 C CNN
F 1 "OTRG4" H 4355 3797 50  0000 C CNN
F 2 "KLauS-Custom:BNC_SMA" H 4400 3650 50  0001 C CNN
F 3 "" H 4400 3650 50  0000 C CNN
	1    4400 3650
	-1   0    0    -1  
$EndComp
$Comp
L Connector:Conn_Coaxial P4
U 1 1 5DD1FFCA
P 5050 3650
F 0 "P4" H 5005 3888 50  0000 C CNN
F 1 "OTRG3" H 5005 3797 50  0000 C CNN
F 2 "KLauS-Custom:BNC_SMA" H 5050 3650 50  0001 C CNN
F 3 "" H 5050 3650 50  0000 C CNN
	1    5050 3650
	-1   0    0    -1  
$EndComp
$Comp
L power:GNDD #PWR09
U 1 1 5DD1FFD6
P 4400 3850
F 0 "#PWR09" H 4400 3600 50  0001 C CNN
F 1 "GNDD" H 4405 3677 50  0000 C CNN
F 2 "" H 4400 3850 50  0000 C CNN
F 3 "" H 4400 3850 50  0000 C CNN
	1    4400 3850
	1    0    0    -1  
$EndComp
$Comp
L power:GNDD #PWR010
U 1 1 5DD1FFDC
P 5050 3850
F 0 "#PWR010" H 5050 3600 50  0001 C CNN
F 1 "GNDD" H 5055 3677 50  0000 C CNN
F 2 "" H 5050 3850 50  0000 C CNN
F 3 "" H 5050 3850 50  0000 C CNN
	1    5050 3850
	1    0    0    -1  
$EndComp
Wire Wire Line
	4100 3650 3900 3650
Wire Wire Line
	5200 3650 5250 3650
Wire Wire Line
	4550 3650 4600 3650
Text Label 4100 3650 2    50   ~ 0
OTRG_ALL
Text Label 4800 3650 2    50   ~ 0
OTRG_G4
Text Label 5450 3650 2    50   ~ 0
OTRG_G3
$Comp
L power:GNDD #PWR08
U 1 1 5DD2A165
P 3700 3850
F 0 "#PWR08" H 3700 3600 50  0001 C CNN
F 1 "GNDD" H 3705 3677 50  0000 C CNN
F 2 "" H 3700 3850 50  0000 C CNN
F 3 "" H 3700 3850 50  0000 C CNN
	1    3700 3850
	1    0    0    -1  
$EndComp
$Comp
L Connector_Generic:Conn_02x06_Odd_Even P1
U 1 1 5DD2B0C6
P 3950 2500
F 0 "P1" H 3950 2965 50  0000 C CNN
F 1 "CONN_02X06" H 3950 2874 50  0000 C CNN
F 2 "Connector-Custom:CONN_02X06" H 3950 1300 50  0001 C CNN
F 3 "" H 3950 1300 50  0000 C CNN
	1    3950 2500
	1    0    0    -1  
$EndComp
Wire Wire Line
	4400 2300 4250 2300
Wire Wire Line
	4400 2400 4250 2400
Wire Wire Line
	4400 2500 4250 2500
Wire Wire Line
	4400 2600 4250 2600
Wire Wire Line
	4400 2700 4250 2700
Wire Wire Line
	4400 2800 4250 2800
Wire Wire Line
	3750 2300 3600 2300
Wire Wire Line
	3750 2400 3600 2400
Wire Wire Line
	3750 2500 3600 2500
Wire Wire Line
	3750 2600 3600 2600
Wire Wire Line
	3750 2700 3600 2700
Wire Wire Line
	3750 2800 3600 2800
Text Label 4400 2300 0    50   ~ 0
spi_cs
Text Label 3600 2300 2    50   ~ 0
spi_sclk
Text Label 4400 2500 0    50   ~ 0
spi_srst
Text Label 4400 2800 0    50   ~ 0
i2cA_sda
Text Label 3600 2800 2    50   ~ 0
i2cA_scl
Text Label 4400 2400 0    50   ~ 0
spi_MISO
Text Label 3600 2400 2    50   ~ 0
spi_sdo
Text Notes 3600 2950 0    50   ~ 0
Left for the Qin board
$Sheet
S 3050 5500 1200 600 
U 5DE096DE
F0 "Power Filter" 50
F1 "./Schematics/Power_filter.sch" 50
$EndSheet
$Comp
L Device:R R1
U 1 1 5DE7E967
P 5700 2300
F 0 "R1" V 5600 2300 50  0000 C CNN
F 1 "4.7k" V 5700 2300 50  0000 C CNN
F 2 "Resistor_SMD:R_0603_1608Metric" V 5630 2300 50  0001 C CNN
F 3 "" H 5700 2300 50  0000 C CNN
	1    5700 2300
	0    1    1    0   
$EndComp
$Comp
L Device:R R2
U 1 1 5DE973F4
P 5700 2500
F 0 "R2" V 5600 2500 50  0000 C CNN
F 1 "4.7k" V 5700 2500 50  0000 C CNN
F 2 "Resistor_SMD:R_0603_1608Metric" V 5630 2500 50  0001 C CNN
F 3 "" H 5700 2500 50  0000 C CNN
	1    5700 2500
	0    1    1    0   
$EndComp
$Comp
L Device:R R3
U 1 1 5DE97432
P 5700 2700
F 0 "R3" V 5600 2700 50  0000 C CNN
F 1 "4.7k" V 5700 2700 50  0000 C CNN
F 2 "Resistor_SMD:R_0603_1608Metric" V 5630 2700 50  0001 C CNN
F 3 "" H 5700 2700 50  0000 C CNN
	1    5700 2700
	0    1    1    0   
$EndComp
$Comp
L Device:R R4
U 1 1 5DE9746A
P 5700 2900
F 0 "R4" V 5600 2900 50  0000 C CNN
F 1 "4.7k" V 5700 2900 50  0000 C CNN
F 2 "Resistor_SMD:R_0603_1608Metric" V 5630 2900 50  0001 C CNN
F 3 "" H 5700 2900 50  0000 C CNN
	1    5700 2900
	0    1    1    0   
$EndComp
Wire Wire Line
	5550 2900 5450 2900
Wire Wire Line
	5450 2900 5450 2700
Wire Wire Line
	5450 2300 5550 2300
Wire Wire Line
	5550 2500 5450 2500
Connection ~ 5450 2500
Wire Wire Line
	5450 2500 5450 2300
Wire Wire Line
	5550 2700 5450 2700
Connection ~ 5450 2700
Wire Wire Line
	5450 2700 5450 2500
Wire Wire Line
	6050 2500 5850 2500
Wire Wire Line
	6050 2300 5850 2300
Text Label 6050 2300 0    50   ~ 0
i2cA_scl
Text Label 6050 2500 0    50   ~ 0
i2cA_sda
Wire Wire Line
	6050 2900 5850 2900
Wire Wire Line
	6050 2700 5850 2700
Text Label 6050 2700 0    50   ~ 0
i2cB_scl
Text Label 6050 2900 0    50   ~ 0
i2cB_sda
$Comp
L Connector:Conn_Coaxial P39
U 1 1 5DAD1F20
P 5850 3650
F 0 "P39" H 5805 3888 50  0000 C CNN
F 1 "FULL" H 5805 3797 50  0000 C CNN
F 2 "KLauS-Custom:BNC_SMA" H 5850 3650 50  0001 C CNN
F 3 "" H 5850 3650 50  0000 C CNN
	1    5850 3650
	-1   0    0    -1  
$EndComp
$Comp
L power:GNDD #PWR0239
U 1 1 5DAD1FC1
P 5850 3850
F 0 "#PWR0239" H 5850 3600 50  0001 C CNN
F 1 "GNDD" H 5855 3677 50  0000 C CNN
F 2 "" H 5850 3850 50  0000 C CNN
F 3 "" H 5850 3850 50  0000 C CNN
	1    5850 3850
	1    0    0    -1  
$EndComp
$Comp
L Connector:Conn_Coaxial P40
U 1 1 5DAD1FF4
P 5850 4500
F 0 "P40" H 5805 4738 50  0000 C CNN
F 1 "ACQ" H 5805 4647 50  0000 C CNN
F 2 "KLauS-Custom:BNC_SMA" H 5850 4500 50  0001 C CNN
F 3 "" H 5850 4500 50  0000 C CNN
	1    5850 4500
	-1   0    0    -1  
$EndComp
$Comp
L power:GNDD #PWR0240
U 1 1 5DAD2046
P 5850 4700
F 0 "#PWR0240" H 5850 4450 50  0001 C CNN
F 1 "GNDD" H 5855 4527 50  0000 C CNN
F 2 "" H 5850 4700 50  0000 C CNN
F 3 "" H 5850 4700 50  0000 C CNN
	1    5850 4700
	1    0    0    -1  
$EndComp
Wire Wire Line
	6200 4500 6050 4500
Wire Wire Line
	6200 3650 6050 3650
Text Label 6050 3650 0    50   ~ 0
fifo_full
Text Label 6050 4500 0    50   ~ 0
acq_start
$Comp
L power:GNDA #PWR0247
U 1 1 5DB5E748
P 5050 4700
F 0 "#PWR0247" H 5050 4450 50  0001 C CNN
F 1 "GNDA" H 5055 4527 50  0000 C CNN
F 2 "" H 5050 4700 50  0000 C CNN
F 3 "" H 5050 4700 50  0000 C CNN
	1    5050 4700
	1    0    0    -1  
$EndComp
$Comp
L power:+3V3 #PWR0248
U 1 1 5DB6AEE1
P 4400 2700
F 0 "#PWR0248" H 4400 2550 50  0001 C CNN
F 1 "+3V3" V 4415 2828 50  0000 L CNN
F 2 "" H 4400 2700 50  0000 C CNN
F 3 "" H 4400 2700 50  0000 C CNN
	1    4400 2700
	0    1    1    0   
$EndComp
$Comp
L power:+3V3 #PWR0249
U 1 1 5DB6AF53
P 3600 2700
F 0 "#PWR0249" H 3600 2550 50  0001 C CNN
F 1 "+3V3" V 3615 2828 50  0000 L CNN
F 2 "" H 3600 2700 50  0000 C CNN
F 3 "" H 3600 2700 50  0000 C CNN
	1    3600 2700
	0    -1   -1   0   
$EndComp
$Comp
L power:+3V3 #PWR0250
U 1 1 5DB6BEA2
P 5450 2300
F 0 "#PWR0250" H 5450 2150 50  0001 C CNN
F 1 "+3V3" H 5465 2473 50  0000 C CNN
F 2 "" H 5450 2300 50  0000 C CNN
F 3 "" H 5450 2300 50  0000 C CNN
	1    5450 2300
	1    0    0    -1  
$EndComp
Connection ~ 5450 2300
$Comp
L power:GNDD #PWR0251
U 1 1 5DC8C269
P 3600 2600
F 0 "#PWR0251" H 3600 2350 50  0001 C CNN
F 1 "GNDD" V 3605 2472 50  0000 R CNN
F 2 "" H 3600 2600 50  0000 C CNN
F 3 "" H 3600 2600 50  0000 C CNN
	1    3600 2600
	0    1    1    0   
$EndComp
$Comp
L power:GNDD #PWR0252
U 1 1 5DC8C300
P 3600 2500
F 0 "#PWR0252" H 3600 2250 50  0001 C CNN
F 1 "GNDD" V 3605 2372 50  0000 R CNN
F 2 "" H 3600 2500 50  0000 C CNN
F 3 "" H 3600 2500 50  0000 C CNN
	1    3600 2500
	0    1    1    0   
$EndComp
$Comp
L power:GNDD #PWR0253
U 1 1 5DC8C333
P 4400 2600
F 0 "#PWR0253" H 4400 2350 50  0001 C CNN
F 1 "GNDD" V 4405 2472 50  0000 R CNN
F 2 "" H 4400 2600 50  0000 C CNN
F 3 "" H 4400 2600 50  0000 C CNN
	1    4400 2600
	0    -1   -1   0   
$EndComp
Connection ~ 6050 3650
Wire Wire Line
	6050 3650 6000 3650
Connection ~ 6050 4500
Wire Wire Line
	6050 4500 6000 4500
Connection ~ 5250 4500
Wire Wire Line
	5250 4500 5450 4500
Connection ~ 3900 4500
Wire Wire Line
	3900 4500 3850 4500
Connection ~ 5250 3650
Wire Wire Line
	5250 3650 5450 3650
Connection ~ 4600 3650
Wire Wire Line
	4600 3650 4800 3650
Connection ~ 3900 3650
Wire Wire Line
	3900 3650 3850 3650
Wire Wire Line
	1200 3200 1000 3200
Text Label 1000 3200 0    50   ~ 0
TCALIB
$EndSCHEMATC
