M48
;DRILL file {KiCad (5.0.2)-1} date 27.03.2019 14:59:48
;FORMAT={-:-/ absolute / metric / decimal}
FMAT,2
METRIC,TZ
T1C0.150
T2C0.250
T3C0.400
T4C0.500
T5C1.000
T6C1.700
T7C1.800
%
G90
G05
T1
X117.297Y-140.462
X118.542Y-144.145
X119.994Y-129.425
X120.646Y-129.474
X121.289Y-129.453
X121.945Y-99.187
X122.047Y-104.8
X122.098Y-149.784
X122.123Y-144.196
X122.911Y-141.224
X123.368Y-97.714
X123.368Y-151.689
X123.393Y-106.096
X126.486Y-129.534
X126.916Y-129.977
X127.279Y-96.698
X127.279Y-142.799
X127.319Y-129.526
X131.928Y-99.187
X132.008Y-129.436
X132.105Y-149.809
X132.131Y-104.8
X132.156Y-144.196
X132.647Y-129.459
X133.071Y-141.783
X133.296Y-129.444
X133.375Y-97.384
X133.375Y-106.096
X133.375Y-151.689
X137.288Y-142.8
X137.312Y-96.698
X137.997Y-129.578
X138.653Y-129.589
X139.293Y-129.613
X142.164Y-144.196
X142.164Y-149.809
X143.383Y-142.24
X143.383Y-151.689
X144.002Y-129.613
X144.654Y-129.604
X145.3Y-129.623
X147.295Y-142.799
X147.71Y-116.138
X149.991Y-129.591
X150.651Y-129.568
X150.952Y-136.55
X151.3Y-129.558
X151.384Y-136.119
X151.79Y-132.893
X151.814Y-133.599
X152.222Y-132.222
X152.425Y-133.231
X152.933Y-131.526
X153.007Y-132.555
X153.667Y-131.854
X153.695Y-130.803
X154.313Y-131.166
X154.968Y-130.424
X155.466Y-148.68
X155.485Y-141.415
X155.488Y-146.291
X155.488Y-147.504
X155.489Y-143.858
X155.492Y-140.24
X155.492Y-142.652
X155.499Y-145.694
X155.499Y-148.082
X155.511Y-136.782
X155.511Y-145.062
X155.513Y-134.354
X155.518Y-135.558
X155.518Y-138.033
X155.521Y-133.138
X155.524Y-144.475
X155.524Y-146.888
X155.529Y-129.552
X155.529Y-131.955
X155.534Y-130.707
X156.954Y-139.598
X157.002Y-140.854
X158.551Y-142.2
X159.112Y-142.85
X162.585Y-143.002
X164.313Y-126.848
X164.363Y-127.711
X168.656Y-149.987
X168.702Y-128.901
X168.716Y-128.297
X168.722Y-130.198
X168.729Y-130.875
X171.353Y-138.653
X171.577Y-129.54
X171.679Y-143.51
X171.78Y-141.554
X171.932Y-137.84
X172.138Y-136.05
X172.184Y-135.4
X172.227Y-149.35
X175.412Y-129.896
X175.433Y-129.298
X175.446Y-132.989
X175.449Y-139.001
X175.452Y-148.772
X175.456Y-135.363
X175.457Y-130.505
X175.457Y-131.77
X175.461Y-142.655
X175.466Y-146.359
X175.466Y-150.
X175.467Y-137.8
X175.476Y-141.477
X175.476Y-143.936
X175.476Y-145.099
X175.486Y-134.201
X175.491Y-140.255
X177.749Y-142.113
T2
X121.31Y-121.056
X121.945Y-123.647
X121.945Y-126.949
X121.945Y-130.048
X121.945Y-130.759
X122.606Y-121.056
X122.606Y-129.515
X123.673Y-124.548
X123.698Y-126.048
X124.025Y-100.508
X124.025Y-145.542
X124.025Y-146.329
X124.028Y-101.3
X124.663Y-103.632
X124.663Y-148.742
X124.689Y-151.13
X126.416Y-102.8
X127.305Y-121.056
X127.94Y-123.698
X127.94Y-126.898
X127.95Y-129.957
X128.6Y-121.056
X128.6Y-129.464
X128.753Y-130.759
X129.235Y-147.848
X129.565Y-101.255
X129.591Y-102.8
X129.642Y-130.759
X129.743Y-126.046
X129.845Y-124.548
X130.15Y-101.255
X130.277Y-102.8
X130.708Y-101.255
X131.166Y-102.8
X131.267Y-101.255
X133.299Y-121.056
X133.934Y-123.723
X133.96Y-126.898
X133.985Y-130.048
X133.985Y-130.861
X134.025Y-100.508
X134.025Y-145.466
X134.025Y-146.228
X134.061Y-101.264
X134.595Y-121.056
X134.595Y-129.438
X134.671Y-103.632
X134.671Y-148.641
X134.671Y-151.079
X139.294Y-121.056
X139.954Y-123.749
X139.954Y-126.822
X140.157Y-129.591
X140.589Y-121.056
X141.859Y-126.005
X142.215Y-124.424
X144.025Y-145.491
X144.025Y-146.253
X144.678Y-148.692
X144.678Y-150.876
X145.288Y-121.056
X145.948Y-123.698
X145.948Y-126.924
X145.974Y-129.616
X146.609Y-121.056
X147.828Y-126.003
X147.93Y-124.52
X149.352Y-147.777
X151.308Y-121.056
X151.943Y-123.698
X151.943Y-126.898
X152.248Y-129.273
X152.603Y-121.056
X154.Y-148.666
X154.108Y-124.497
X156.464Y-150.038
X156.6Y-122.
X156.6Y-123.
X156.6Y-124.
X157.4Y-122.
X157.4Y-123.
X157.4Y-124.
X158.2Y-122.
X158.2Y-123.
X158.2Y-124.
X159.Y-122.
X159.Y-123.
X159.Y-124.
X159.131Y-144.145
X159.156Y-145.44
X159.182Y-144.805
X159.8Y-122.
X159.8Y-123.
X159.8Y-124.
X160.6Y-122.
X160.6Y-123.
X160.6Y-124.
X162.56Y-147.371
X162.585Y-135.255
X162.585Y-136.703
X164.186Y-135.585
X164.211Y-134.823
X164.287Y-147.498
X164.313Y-146.685
X164.668Y-144.8
X164.668Y-145.45
X164.675Y-132.15
X164.675Y-144.15
X165.125Y-134.747
X165.125Y-135.56
X165.202Y-147.472
X165.252Y-146.66
X166.014Y-132.156
X166.599Y-145.45
X166.624Y-144.8
X166.625Y-144.15
X167.081Y-132.15
X168.728Y-134.762
X168.786Y-146.751
X172.06Y-133.299
X172.06Y-133.858
X172.06Y-134.493
X175.438Y-136.601
X175.539Y-147.574
X167.35Y-119.7
X167.35Y-121.
X167.35Y-122.3
X168.65Y-119.7
X168.65Y-121.
X168.65Y-122.3
T3
X119.405Y-102.794
X120.218Y-101.295
X120.904Y-102.794
X122.059Y-101.295
X122.063Y-102.791
X126.39Y-147.848
X126.441Y-146.348
X127.838Y-147.848
X128.6Y-101.255
X130.531Y-147.848
X136.677Y-147.759
X136.754Y-146.247
X138.049Y-146.247
X138.049Y-147.759
X139.421Y-146.247
X139.471Y-147.759
X140.716Y-146.247
X140.741Y-147.759
X145.952Y-147.777
X146.761Y-146.253
X147.904Y-147.777
X147.955Y-146.253
X149.301Y-146.253
X154.108Y-125.997
X156.751Y-125.021
X157.658Y-115.214
X157.734Y-116.357
X157.734Y-117.348
X157.775Y-125.062
X158.75Y-115.189
X158.75Y-116.332
X158.775Y-117.348
X158.943Y-125.082
X159.817Y-115.189
X159.817Y-117.348
X159.868Y-116.332
X160.091Y-125.062
X160.757Y-115.189
X160.807Y-116.281
X160.807Y-117.348
X161.773Y-115.164
X161.773Y-116.281
X161.773Y-117.348
X162.509Y-148.692
X162.839Y-117.348
X162.865Y-115.138
X162.865Y-116.281
X165.405Y-124.282
X166.446Y-124.257
X167.513Y-124.308
X168.631Y-124.282
X171.907Y-145.948
X172.06Y-144.145
T4
X122.935Y-111.665
X122.935Y-112.935
X124.205Y-111.665
X124.205Y-112.935
X125.475Y-111.665
X125.475Y-112.935
X126.745Y-111.665
X126.745Y-112.935
X128.015Y-111.665
X128.015Y-112.935
X129.285Y-111.665
X129.285Y-112.935
X130.555Y-111.665
X130.555Y-112.935
X131.825Y-111.665
X131.825Y-112.935
X133.095Y-111.665
X133.095Y-112.935
X134.365Y-111.665
X134.365Y-112.935
X135.635Y-111.665
X135.635Y-112.935
X136.905Y-111.665
X136.905Y-112.935
X138.175Y-111.665
X138.175Y-112.935
X139.445Y-111.665
X139.445Y-112.935
X140.715Y-111.665
X140.715Y-112.935
X141.985Y-111.665
X141.985Y-112.935
X143.255Y-111.665
X143.255Y-112.935
X144.525Y-111.665
X144.525Y-112.935
X145.795Y-111.665
X145.795Y-112.935
X147.065Y-111.665
X147.065Y-112.935
X122.935Y-137.065
X122.935Y-138.335
X124.205Y-137.065
X124.205Y-138.335
X125.475Y-137.065
X125.475Y-138.335
X126.745Y-137.065
X126.745Y-138.335
X128.015Y-137.065
X128.015Y-138.335
X129.285Y-137.065
X129.285Y-138.335
X130.555Y-137.065
X130.555Y-138.335
X131.825Y-137.065
X131.825Y-138.335
X133.095Y-137.065
X133.095Y-138.335
X134.365Y-137.065
X134.365Y-138.335
X135.635Y-137.065
X135.635Y-138.335
X136.905Y-137.065
X136.905Y-138.335
X138.175Y-137.065
X138.175Y-138.335
X139.445Y-137.065
X139.445Y-138.335
X140.715Y-137.065
X140.715Y-138.335
X141.985Y-137.065
X141.985Y-138.335
X143.255Y-137.065
X143.255Y-138.335
X144.525Y-137.065
X144.525Y-138.335
X145.795Y-137.065
X145.795Y-138.335
X147.065Y-137.065
X147.065Y-138.335
T5
X180.Y-131.6
X180.Y-134.14
X180.Y-136.68
X180.Y-139.22
X180.Y-141.76
X180.Y-144.3
X180.Y-146.84
X180.Y-149.38
X182.54Y-131.6
X182.54Y-134.14
X182.54Y-136.68
X182.54Y-139.22
X182.54Y-141.76
X182.54Y-144.3
X182.54Y-146.84
X182.54Y-149.38
T6
X181.637Y-111.731
X181.637Y-115.731
X181.637Y-119.731
X181.637Y-123.731
X174.45Y-99.45
X174.45Y-104.55
X177.Y-102.
X179.55Y-104.55
X162.45Y-99.45
X165.Y-102.
X167.55Y-99.45
X167.55Y-104.55
T7
X179.55Y-99.45
X162.45Y-104.55
T0
M30
