G04 #@! TF.GenerationSoftware,KiCad,Pcbnew,(5.0.2)-1*
G04 #@! TF.CreationDate,2019-03-27T14:59:42+01:00*
G04 #@! TF.ProjectId,AutoTestBoard_v1,4175746f-5465-4737-9442-6f6172645f76,rev?*
G04 #@! TF.SameCoordinates,Original*
G04 #@! TF.FileFunction,Legend,Top*
G04 #@! TF.FilePolarity,Positive*
%FSLAX46Y46*%
G04 Gerber Fmt 4.6, Leading zero omitted, Abs format (unit mm)*
G04 Created by KiCad (PCBNEW (5.0.2)-1) date 27.03.2019 14:59:42*
%MOMM*%
%LPD*%
G01*
G04 APERTURE LIST*
%ADD10C,0.150000*%
%ADD11C,0.100000*%
%ADD12C,0.200000*%
%ADD13C,0.381000*%
%ADD14C,0.304800*%
G04 APERTURE END LIST*
D10*
G04 #@! TO.C,U8*
X170750000Y-118400000D02*
X165250000Y-118400000D01*
X171450000Y-123600000D02*
X165250000Y-123600000D01*
G04 #@! TO.C,P2*
X147827000Y-136303000D02*
X122213000Y-136303000D01*
X147827000Y-139097000D02*
X147827000Y-136303000D01*
X122213000Y-139097000D02*
X147827000Y-139097000D01*
X122173000Y-136303000D02*
X122173000Y-139097000D01*
X147827000Y-135541000D02*
G75*
G03X147827000Y-135541000I-254000J0D01*
G01*
G04 #@! TO.C,P3*
X122173000Y-113697000D02*
X147787000Y-113697000D01*
X122173000Y-110903000D02*
X122173000Y-113697000D01*
X147787000Y-110903000D02*
X122173000Y-110903000D01*
X147827000Y-113697000D02*
X147827000Y-110903000D01*
X122681000Y-114459000D02*
G75*
G03X122681000Y-114459000I-254000J0D01*
G01*
G04 #@! TO.C,R25*
X163237000Y-123607000D02*
X163237000Y-123107000D01*
X162287000Y-123107000D02*
X162287000Y-123607000D01*
G04 #@! TO.C,R20*
X161966000Y-122083000D02*
X162466000Y-122083000D01*
X162466000Y-121133000D02*
X161966000Y-121133000D01*
G04 #@! TO.C,C32*
X125950000Y-133225000D02*
X125950000Y-132725000D01*
X125000000Y-132725000D02*
X125000000Y-133225000D01*
G04 #@! TO.C,C56*
X145320000Y-116810000D02*
X145320000Y-117310000D01*
X146270000Y-117310000D02*
X146270000Y-116810000D01*
G04 #@! TO.C,C55*
X144050000Y-116804000D02*
X144050000Y-117304000D01*
X145000000Y-117304000D02*
X145000000Y-116804000D01*
G04 #@! TO.C,C54*
X142758000Y-116774000D02*
X142758000Y-117274000D01*
X143708000Y-117274000D02*
X143708000Y-116774000D01*
G04 #@! TO.C,C53*
X141503000Y-116773000D02*
X141503000Y-117273000D01*
X142453000Y-117273000D02*
X142453000Y-116773000D01*
G04 #@! TO.C,C52*
X140229000Y-116775000D02*
X140229000Y-117275000D01*
X141179000Y-117275000D02*
X141179000Y-116775000D01*
G04 #@! TO.C,C51*
X138968000Y-116775000D02*
X138968000Y-117275000D01*
X139918000Y-117275000D02*
X139918000Y-116775000D01*
G04 #@! TO.C,C50*
X137700000Y-116753000D02*
X137700000Y-117253000D01*
X138650000Y-117253000D02*
X138650000Y-116753000D01*
G04 #@! TO.C,C42*
X127538000Y-116755000D02*
X127538000Y-117255000D01*
X128488000Y-117255000D02*
X128488000Y-116755000D01*
G04 #@! TO.C,C48*
X135148000Y-116753000D02*
X135148000Y-117253000D01*
X136098000Y-117253000D02*
X136098000Y-116753000D01*
G04 #@! TO.C,C16*
X146270000Y-133250000D02*
X146270000Y-132750000D01*
X145320000Y-132750000D02*
X145320000Y-133250000D01*
G04 #@! TO.C,C17*
X145001000Y-133249000D02*
X145001000Y-132749000D01*
X144051000Y-132749000D02*
X144051000Y-133249000D01*
G04 #@! TO.C,C18*
X143737000Y-133249000D02*
X143737000Y-132749000D01*
X142787000Y-132749000D02*
X142787000Y-133249000D01*
G04 #@! TO.C,C19*
X142469000Y-133243000D02*
X142469000Y-132743000D01*
X141519000Y-132743000D02*
X141519000Y-133243000D01*
G04 #@! TO.C,C20*
X141186000Y-133236000D02*
X141186000Y-132736000D01*
X140236000Y-132736000D02*
X140236000Y-133236000D01*
G04 #@! TO.C,C22*
X138651000Y-133209000D02*
X138651000Y-132709000D01*
X137701000Y-132709000D02*
X137701000Y-133209000D01*
G04 #@! TO.C,C21*
X139930000Y-133237000D02*
X139930000Y-132737000D01*
X138980000Y-132737000D02*
X138980000Y-133237000D01*
G04 #@! TO.C,C49*
X136422000Y-116753000D02*
X136422000Y-117253000D01*
X137372000Y-117253000D02*
X137372000Y-116753000D01*
G04 #@! TO.C,C24*
X136099000Y-133219000D02*
X136099000Y-132719000D01*
X135149000Y-132719000D02*
X135149000Y-133219000D01*
G04 #@! TO.C,C25*
X134838000Y-133239000D02*
X134838000Y-132739000D01*
X133888000Y-132739000D02*
X133888000Y-133239000D01*
G04 #@! TO.C,C26*
X133554000Y-133254000D02*
X133554000Y-132754000D01*
X132604000Y-132754000D02*
X132604000Y-133254000D01*
G04 #@! TO.C,C27*
X132289000Y-133245000D02*
X132289000Y-132745000D01*
X131339000Y-132745000D02*
X131339000Y-133245000D01*
G04 #@! TO.C,C28*
X131013000Y-133242000D02*
X131013000Y-132742000D01*
X130063000Y-132742000D02*
X130063000Y-133242000D01*
G04 #@! TO.C,C29*
X129752000Y-133242000D02*
X129752000Y-132742000D01*
X128802000Y-132742000D02*
X128802000Y-133242000D01*
G04 #@! TO.C,C30*
X128479000Y-133240000D02*
X128479000Y-132740000D01*
X127529000Y-132740000D02*
X127529000Y-133240000D01*
G04 #@! TO.C,C31*
X127207000Y-133235000D02*
X127207000Y-132735000D01*
X126257000Y-132735000D02*
X126257000Y-133235000D01*
G04 #@! TO.C,C43*
X128805000Y-116755000D02*
X128805000Y-117255000D01*
X129755000Y-117255000D02*
X129755000Y-116755000D01*
G04 #@! TO.C,C33*
X124689000Y-133210000D02*
X124689000Y-132710000D01*
X123739000Y-132710000D02*
X123739000Y-133210000D01*
G04 #@! TO.C,C47*
X133888000Y-116753000D02*
X133888000Y-117253000D01*
X134838000Y-117253000D02*
X134838000Y-116753000D01*
G04 #@! TO.C,C46*
X132612000Y-116746000D02*
X132612000Y-117246000D01*
X133562000Y-117246000D02*
X133562000Y-116746000D01*
G04 #@! TO.C,C45*
X131346000Y-116746000D02*
X131346000Y-117246000D01*
X132296000Y-117246000D02*
X132296000Y-116746000D01*
G04 #@! TO.C,C44*
X130095000Y-116750000D02*
X130095000Y-117250000D01*
X131045000Y-117250000D02*
X131045000Y-116750000D01*
G04 #@! TO.C,C39*
X123730000Y-116750000D02*
X123730000Y-117250000D01*
X124680000Y-117250000D02*
X124680000Y-116750000D01*
G04 #@! TO.C,C40*
X125000000Y-116750000D02*
X125000000Y-117250000D01*
X125950000Y-117250000D02*
X125950000Y-116750000D01*
G04 #@! TO.C,C23*
X137370000Y-133219000D02*
X137370000Y-132719000D01*
X136420000Y-132719000D02*
X136420000Y-133219000D01*
G04 #@! TO.C,C41*
X126271000Y-116754000D02*
X126271000Y-117254000D01*
X127221000Y-117254000D02*
X127221000Y-116754000D01*
G04 #@! TO.C,C13*
X166852000Y-146151000D02*
X167552000Y-146151000D01*
X167552000Y-147351000D02*
X166852000Y-147351000D01*
G04 #@! TO.C,C14*
X166851000Y-147680000D02*
X167551000Y-147680000D01*
X167551000Y-148880000D02*
X166851000Y-148880000D01*
G04 #@! TO.C,C15*
X143860000Y-146659000D02*
X143860000Y-147359000D01*
X142660000Y-147359000D02*
X142660000Y-146659000D01*
G04 #@! TO.C,C34*
X145366000Y-146666000D02*
X145366000Y-147366000D01*
X144166000Y-147366000D02*
X144166000Y-146666000D01*
G04 #@! TO.C,C35*
X163212000Y-119205000D02*
X163212000Y-119905000D01*
X162012000Y-119905000D02*
X162012000Y-119205000D01*
G04 #@! TO.C,C36*
X161714000Y-119197000D02*
X161714000Y-119897000D01*
X160514000Y-119897000D02*
X160514000Y-119197000D01*
G04 #@! TO.C,C37*
X160198000Y-119194000D02*
X160198000Y-119894000D01*
X158998000Y-119894000D02*
X158998000Y-119194000D01*
G04 #@! TO.C,C64*
X135404000Y-101664000D02*
X135404000Y-102364000D01*
X134204000Y-102364000D02*
X134204000Y-101664000D01*
G04 #@! TO.C,C65*
X135397800Y-146647000D02*
X135397800Y-147347000D01*
X134197800Y-147347000D02*
X134197800Y-146647000D01*
G04 #@! TO.C,C66*
X125345000Y-146748000D02*
X125345000Y-147448000D01*
X124145000Y-147448000D02*
X124145000Y-146748000D01*
G04 #@! TO.C,C62*
X125300000Y-101700000D02*
X125300000Y-102400000D01*
X124100000Y-102400000D02*
X124100000Y-101700000D01*
G04 #@! TO.C,C63*
X166881000Y-135693000D02*
X167581000Y-135693000D01*
X167581000Y-136893000D02*
X166881000Y-136893000D01*
G04 #@! TO.C,C57*
X123838000Y-101691000D02*
X123838000Y-102391000D01*
X122638000Y-102391000D02*
X122638000Y-101691000D01*
G04 #@! TO.C,C58*
X166886000Y-134162000D02*
X167586000Y-134162000D01*
X167586000Y-135362000D02*
X166886000Y-135362000D01*
G04 #@! TO.C,C59*
X133843000Y-101655000D02*
X133843000Y-102355000D01*
X132643000Y-102355000D02*
X132643000Y-101655000D01*
G04 #@! TO.C,C60*
X133848400Y-146639800D02*
X133848400Y-147339800D01*
X132648400Y-147339800D02*
X132648400Y-146639800D01*
G04 #@! TO.C,C61*
X123826000Y-146740000D02*
X123826000Y-147440000D01*
X122626000Y-147440000D02*
X122626000Y-146740000D01*
G04 #@! TO.C,C38*
X158700000Y-120396000D02*
X158700000Y-119396000D01*
X157000000Y-119396000D02*
X157000000Y-120396000D01*
G04 #@! TO.C,P4*
X183640000Y-149780000D02*
X184340000Y-149780000D01*
X183640000Y-148980000D02*
X184340000Y-148980000D01*
X181100000Y-149780000D02*
X181440000Y-149780000D01*
X181100000Y-148980000D02*
X181440000Y-148980000D01*
X183640000Y-147240000D02*
X184340000Y-147240000D01*
X183640000Y-146440000D02*
X184340000Y-146440000D01*
X181100000Y-147240000D02*
X181440000Y-147240000D01*
X181100000Y-146440000D02*
X181440000Y-146440000D01*
X183640000Y-144700000D02*
X184340000Y-144700000D01*
X183640000Y-143900000D02*
X184340000Y-143900000D01*
X181100000Y-144700000D02*
X181440000Y-144700000D01*
X181100000Y-143900000D02*
X181440000Y-143900000D01*
X183640000Y-142160000D02*
X184340000Y-142160000D01*
X183640000Y-141360000D02*
X184340000Y-141360000D01*
X181100000Y-142160000D02*
X181440000Y-142160000D01*
X181100000Y-141360000D02*
X181440000Y-141360000D01*
X183640000Y-139620000D02*
X184340000Y-139620000D01*
X183640000Y-138820000D02*
X184340000Y-138820000D01*
X181100000Y-139620000D02*
X181440000Y-139620000D01*
X181100000Y-138820000D02*
X181440000Y-138820000D01*
X183640000Y-137080000D02*
X184340000Y-137080000D01*
X183640000Y-136280000D02*
X184340000Y-136280000D01*
X181100000Y-137080000D02*
X181440000Y-137080000D01*
X181100000Y-136280000D02*
X181440000Y-136280000D01*
X183640000Y-134540000D02*
X184340000Y-134540000D01*
X183640000Y-133740000D02*
X184340000Y-133740000D01*
X181100000Y-134540000D02*
X181440000Y-134540000D01*
X181100000Y-133740000D02*
X181440000Y-133740000D01*
X183640000Y-132000000D02*
X184340000Y-132000000D01*
X183640000Y-131200000D02*
X184340000Y-131200000D01*
X181100000Y-132000000D02*
X181440000Y-132000000D01*
X181100000Y-131200000D02*
X181440000Y-131200000D01*
X191000000Y-131600000D02*
X192500000Y-130600000D01*
X192500000Y-132600000D02*
X191000000Y-131600000D01*
X192500000Y-130600000D02*
X192500000Y-132600000D01*
X192840000Y-142160000D02*
X186640000Y-142160000D01*
X193040000Y-141960000D02*
X192840000Y-142160000D01*
X193040000Y-141560000D02*
X193040000Y-141960000D01*
X192840000Y-141360000D02*
X193040000Y-141560000D01*
X186640000Y-141360000D02*
X192840000Y-141360000D01*
X192840000Y-139620000D02*
X186640000Y-139620000D01*
X193040000Y-139420000D02*
X192840000Y-139620000D01*
X193040000Y-139020000D02*
X193040000Y-139420000D01*
X192840000Y-138820000D02*
X193040000Y-139020000D01*
X186640000Y-138820000D02*
X192840000Y-138820000D01*
X186640000Y-142715000D02*
X193240000Y-142715000D01*
X186640000Y-138265000D02*
X186640000Y-142715000D01*
X193240000Y-138265000D02*
X186640000Y-138265000D01*
X184340000Y-154450000D02*
X184340000Y-126530000D01*
X193240000Y-154450000D02*
X184340000Y-154450000D01*
X193240000Y-126530000D02*
X193240000Y-154450000D01*
X184340000Y-126530000D02*
X193240000Y-126530000D01*
G04 #@! TO.C,P1*
X185886420Y-109481080D02*
X185886420Y-117731000D01*
X177387580Y-109481080D02*
X185886420Y-109481080D01*
X177387580Y-125980920D02*
X177387580Y-109481080D01*
X185886420Y-125980920D02*
X177387580Y-125980920D01*
X185886420Y-117731000D02*
X185886420Y-125980920D01*
X184088100Y-123481560D02*
X185838160Y-123481560D01*
X184088100Y-125980920D02*
X184088100Y-123481560D01*
X185886420Y-121480040D02*
X184088100Y-121480040D01*
X184088100Y-112480820D02*
X184088100Y-121480040D01*
X185886420Y-112480820D02*
X184088100Y-112480820D01*
X179185900Y-125980920D02*
X179185900Y-109481080D01*
D11*
G04 #@! TO.C,U1*
X120000000Y-123439800D02*
X123911600Y-123439800D01*
X123911600Y-123439800D02*
X123911600Y-127122800D01*
X123911600Y-127122800D02*
X119974600Y-127122800D01*
X119974600Y-127122800D02*
X119974600Y-123439800D01*
D12*
X121179341Y-126462400D02*
G75*
G03X121179341Y-126462400I-595141J0D01*
G01*
D11*
G04 #@! TO.C,U2*
X126000000Y-123439800D02*
X129911600Y-123439800D01*
X129911600Y-123439800D02*
X129911600Y-127122800D01*
X129911600Y-127122800D02*
X125974600Y-127122800D01*
X125974600Y-127122800D02*
X125974600Y-123439800D01*
D12*
X127179341Y-126462400D02*
G75*
G03X127179341Y-126462400I-595141J0D01*
G01*
D11*
G04 #@! TO.C,U3*
X132000000Y-123439800D02*
X135911600Y-123439800D01*
X135911600Y-123439800D02*
X135911600Y-127122800D01*
X135911600Y-127122800D02*
X131974600Y-127122800D01*
X131974600Y-127122800D02*
X131974600Y-123439800D01*
D12*
X133179341Y-126462400D02*
G75*
G03X133179341Y-126462400I-595141J0D01*
G01*
D11*
G04 #@! TO.C,U4*
X138000000Y-123439800D02*
X141911600Y-123439800D01*
X141911600Y-123439800D02*
X141911600Y-127122800D01*
X141911600Y-127122800D02*
X137974600Y-127122800D01*
X137974600Y-127122800D02*
X137974600Y-123439800D01*
D12*
X139179341Y-126462400D02*
G75*
G03X139179341Y-126462400I-595141J0D01*
G01*
D11*
G04 #@! TO.C,U5*
X144000000Y-123439800D02*
X147911600Y-123439800D01*
X147911600Y-123439800D02*
X147911600Y-127122800D01*
X147911600Y-127122800D02*
X143974600Y-127122800D01*
X143974600Y-127122800D02*
X143974600Y-123439800D01*
D12*
X145179341Y-126462400D02*
G75*
G03X145179341Y-126462400I-595141J0D01*
G01*
D11*
G04 #@! TO.C,U6*
X150000000Y-123439800D02*
X153911600Y-123439800D01*
X153911600Y-123439800D02*
X153911600Y-127122800D01*
X153911600Y-127122800D02*
X149974600Y-127122800D01*
X149974600Y-127122800D02*
X149974600Y-123439800D01*
D12*
X151179341Y-126462400D02*
G75*
G03X151179341Y-126462400I-595141J0D01*
G01*
D13*
G04 #@! TO.C,J1*
X167550000Y-104550000D02*
X162450000Y-104550000D01*
X162450000Y-104550000D02*
X162450000Y-99450000D01*
X162450000Y-99450000D02*
X167550000Y-99450000D01*
X167550000Y-99450000D02*
X167550000Y-104550000D01*
G04 #@! TO.C,J2*
X174450000Y-99450000D02*
X179550000Y-99450000D01*
X179550000Y-99450000D02*
X179550000Y-104550000D01*
X179550000Y-104550000D02*
X174450000Y-104550000D01*
X174450000Y-104550000D02*
X174450000Y-99450000D01*
G04 #@! TO.C,U8*
D10*
X167238095Y-123952380D02*
X167238095Y-124761904D01*
X167285714Y-124857142D01*
X167333333Y-124904761D01*
X167428571Y-124952380D01*
X167619047Y-124952380D01*
X167714285Y-124904761D01*
X167761904Y-124857142D01*
X167809523Y-124761904D01*
X167809523Y-123952380D01*
X168428571Y-124380952D02*
X168333333Y-124333333D01*
X168285714Y-124285714D01*
X168238095Y-124190476D01*
X168238095Y-124142857D01*
X168285714Y-124047619D01*
X168333333Y-124000000D01*
X168428571Y-123952380D01*
X168619047Y-123952380D01*
X168714285Y-124000000D01*
X168761904Y-124047619D01*
X168809523Y-124142857D01*
X168809523Y-124190476D01*
X168761904Y-124285714D01*
X168714285Y-124333333D01*
X168619047Y-124380952D01*
X168428571Y-124380952D01*
X168333333Y-124428571D01*
X168285714Y-124476190D01*
X168238095Y-124571428D01*
X168238095Y-124761904D01*
X168285714Y-124857142D01*
X168333333Y-124904761D01*
X168428571Y-124952380D01*
X168619047Y-124952380D01*
X168714285Y-124904761D01*
X168761904Y-124857142D01*
X168809523Y-124761904D01*
X168809523Y-124571428D01*
X168761904Y-124476190D01*
X168714285Y-124428571D01*
X168619047Y-124380952D01*
G04 #@! TO.C,R25*
X161887380Y-124334857D02*
X161411190Y-124668190D01*
X161887380Y-124906285D02*
X160887380Y-124906285D01*
X160887380Y-124525333D01*
X160935000Y-124430095D01*
X160982619Y-124382476D01*
X161077857Y-124334857D01*
X161220714Y-124334857D01*
X161315952Y-124382476D01*
X161363571Y-124430095D01*
X161411190Y-124525333D01*
X161411190Y-124906285D01*
X160982619Y-123953904D02*
X160935000Y-123906285D01*
X160887380Y-123811047D01*
X160887380Y-123572952D01*
X160935000Y-123477714D01*
X160982619Y-123430095D01*
X161077857Y-123382476D01*
X161173095Y-123382476D01*
X161315952Y-123430095D01*
X161887380Y-124001523D01*
X161887380Y-123382476D01*
X160887380Y-122477714D02*
X160887380Y-122953904D01*
X161363571Y-123001523D01*
X161315952Y-122953904D01*
X161268333Y-122858666D01*
X161268333Y-122620571D01*
X161315952Y-122525333D01*
X161363571Y-122477714D01*
X161458809Y-122430095D01*
X161696904Y-122430095D01*
X161792142Y-122477714D01*
X161839761Y-122525333D01*
X161887380Y-122620571D01*
X161887380Y-122858666D01*
X161839761Y-122953904D01*
X161792142Y-123001523D01*
G04 #@! TO.C,R20*
X158774142Y-122953380D02*
X158440809Y-122477190D01*
X158202714Y-122953380D02*
X158202714Y-121953380D01*
X158583666Y-121953380D01*
X158678904Y-122001000D01*
X158726523Y-122048619D01*
X158774142Y-122143857D01*
X158774142Y-122286714D01*
X158726523Y-122381952D01*
X158678904Y-122429571D01*
X158583666Y-122477190D01*
X158202714Y-122477190D01*
X159155095Y-122048619D02*
X159202714Y-122001000D01*
X159297952Y-121953380D01*
X159536047Y-121953380D01*
X159631285Y-122001000D01*
X159678904Y-122048619D01*
X159726523Y-122143857D01*
X159726523Y-122239095D01*
X159678904Y-122381952D01*
X159107476Y-122953380D01*
X159726523Y-122953380D01*
X160345571Y-121953380D02*
X160440809Y-121953380D01*
X160536047Y-122001000D01*
X160583666Y-122048619D01*
X160631285Y-122143857D01*
X160678904Y-122334333D01*
X160678904Y-122572428D01*
X160631285Y-122762904D01*
X160583666Y-122858142D01*
X160536047Y-122905761D01*
X160440809Y-122953380D01*
X160345571Y-122953380D01*
X160250333Y-122905761D01*
X160202714Y-122858142D01*
X160155095Y-122762904D01*
X160107476Y-122572428D01*
X160107476Y-122334333D01*
X160155095Y-122143857D01*
X160202714Y-122048619D01*
X160250333Y-122001000D01*
X160345571Y-121953380D01*
G04 #@! TO.C,C32*
X125925142Y-131047857D02*
X125972761Y-131095476D01*
X126020380Y-131238333D01*
X126020380Y-131333571D01*
X125972761Y-131476428D01*
X125877523Y-131571666D01*
X125782285Y-131619285D01*
X125591809Y-131666904D01*
X125448952Y-131666904D01*
X125258476Y-131619285D01*
X125163238Y-131571666D01*
X125068000Y-131476428D01*
X125020380Y-131333571D01*
X125020380Y-131238333D01*
X125068000Y-131095476D01*
X125115619Y-131047857D01*
X125020380Y-130714523D02*
X125020380Y-130095476D01*
X125401333Y-130428809D01*
X125401333Y-130285952D01*
X125448952Y-130190714D01*
X125496571Y-130143095D01*
X125591809Y-130095476D01*
X125829904Y-130095476D01*
X125925142Y-130143095D01*
X125972761Y-130190714D01*
X126020380Y-130285952D01*
X126020380Y-130571666D01*
X125972761Y-130666904D01*
X125925142Y-130714523D01*
X125115619Y-129714523D02*
X125068000Y-129666904D01*
X125020380Y-129571666D01*
X125020380Y-129333571D01*
X125068000Y-129238333D01*
X125115619Y-129190714D01*
X125210857Y-129143095D01*
X125306095Y-129143095D01*
X125448952Y-129190714D01*
X126020380Y-129762142D01*
X126020380Y-129143095D01*
G04 #@! TO.C,C56*
X146243142Y-120357857D02*
X146290761Y-120405476D01*
X146338380Y-120548333D01*
X146338380Y-120643571D01*
X146290761Y-120786428D01*
X146195523Y-120881666D01*
X146100285Y-120929285D01*
X145909809Y-120976904D01*
X145766952Y-120976904D01*
X145576476Y-120929285D01*
X145481238Y-120881666D01*
X145386000Y-120786428D01*
X145338380Y-120643571D01*
X145338380Y-120548333D01*
X145386000Y-120405476D01*
X145433619Y-120357857D01*
X145338380Y-119453095D02*
X145338380Y-119929285D01*
X145814571Y-119976904D01*
X145766952Y-119929285D01*
X145719333Y-119834047D01*
X145719333Y-119595952D01*
X145766952Y-119500714D01*
X145814571Y-119453095D01*
X145909809Y-119405476D01*
X146147904Y-119405476D01*
X146243142Y-119453095D01*
X146290761Y-119500714D01*
X146338380Y-119595952D01*
X146338380Y-119834047D01*
X146290761Y-119929285D01*
X146243142Y-119976904D01*
X145338380Y-118548333D02*
X145338380Y-118738809D01*
X145386000Y-118834047D01*
X145433619Y-118881666D01*
X145576476Y-118976904D01*
X145766952Y-119024523D01*
X146147904Y-119024523D01*
X146243142Y-118976904D01*
X146290761Y-118929285D01*
X146338380Y-118834047D01*
X146338380Y-118643571D01*
X146290761Y-118548333D01*
X146243142Y-118500714D01*
X146147904Y-118453095D01*
X145909809Y-118453095D01*
X145814571Y-118500714D01*
X145766952Y-118548333D01*
X145719333Y-118643571D01*
X145719333Y-118834047D01*
X145766952Y-118929285D01*
X145814571Y-118976904D01*
X145909809Y-119024523D01*
G04 #@! TO.C,C55*
X144883142Y-120297857D02*
X144930761Y-120345476D01*
X144978380Y-120488333D01*
X144978380Y-120583571D01*
X144930761Y-120726428D01*
X144835523Y-120821666D01*
X144740285Y-120869285D01*
X144549809Y-120916904D01*
X144406952Y-120916904D01*
X144216476Y-120869285D01*
X144121238Y-120821666D01*
X144026000Y-120726428D01*
X143978380Y-120583571D01*
X143978380Y-120488333D01*
X144026000Y-120345476D01*
X144073619Y-120297857D01*
X143978380Y-119393095D02*
X143978380Y-119869285D01*
X144454571Y-119916904D01*
X144406952Y-119869285D01*
X144359333Y-119774047D01*
X144359333Y-119535952D01*
X144406952Y-119440714D01*
X144454571Y-119393095D01*
X144549809Y-119345476D01*
X144787904Y-119345476D01*
X144883142Y-119393095D01*
X144930761Y-119440714D01*
X144978380Y-119535952D01*
X144978380Y-119774047D01*
X144930761Y-119869285D01*
X144883142Y-119916904D01*
X143978380Y-118440714D02*
X143978380Y-118916904D01*
X144454571Y-118964523D01*
X144406952Y-118916904D01*
X144359333Y-118821666D01*
X144359333Y-118583571D01*
X144406952Y-118488333D01*
X144454571Y-118440714D01*
X144549809Y-118393095D01*
X144787904Y-118393095D01*
X144883142Y-118440714D01*
X144930761Y-118488333D01*
X144978380Y-118583571D01*
X144978380Y-118821666D01*
X144930761Y-118916904D01*
X144883142Y-118964523D01*
G04 #@! TO.C,C54*
X143602142Y-120287857D02*
X143649761Y-120335476D01*
X143697380Y-120478333D01*
X143697380Y-120573571D01*
X143649761Y-120716428D01*
X143554523Y-120811666D01*
X143459285Y-120859285D01*
X143268809Y-120906904D01*
X143125952Y-120906904D01*
X142935476Y-120859285D01*
X142840238Y-120811666D01*
X142745000Y-120716428D01*
X142697380Y-120573571D01*
X142697380Y-120478333D01*
X142745000Y-120335476D01*
X142792619Y-120287857D01*
X142697380Y-119383095D02*
X142697380Y-119859285D01*
X143173571Y-119906904D01*
X143125952Y-119859285D01*
X143078333Y-119764047D01*
X143078333Y-119525952D01*
X143125952Y-119430714D01*
X143173571Y-119383095D01*
X143268809Y-119335476D01*
X143506904Y-119335476D01*
X143602142Y-119383095D01*
X143649761Y-119430714D01*
X143697380Y-119525952D01*
X143697380Y-119764047D01*
X143649761Y-119859285D01*
X143602142Y-119906904D01*
X143030714Y-118478333D02*
X143697380Y-118478333D01*
X142649761Y-118716428D02*
X143364047Y-118954523D01*
X143364047Y-118335476D01*
G04 #@! TO.C,C53*
X142445142Y-120279857D02*
X142492761Y-120327476D01*
X142540380Y-120470333D01*
X142540380Y-120565571D01*
X142492761Y-120708428D01*
X142397523Y-120803666D01*
X142302285Y-120851285D01*
X142111809Y-120898904D01*
X141968952Y-120898904D01*
X141778476Y-120851285D01*
X141683238Y-120803666D01*
X141588000Y-120708428D01*
X141540380Y-120565571D01*
X141540380Y-120470333D01*
X141588000Y-120327476D01*
X141635619Y-120279857D01*
X141540380Y-119375095D02*
X141540380Y-119851285D01*
X142016571Y-119898904D01*
X141968952Y-119851285D01*
X141921333Y-119756047D01*
X141921333Y-119517952D01*
X141968952Y-119422714D01*
X142016571Y-119375095D01*
X142111809Y-119327476D01*
X142349904Y-119327476D01*
X142445142Y-119375095D01*
X142492761Y-119422714D01*
X142540380Y-119517952D01*
X142540380Y-119756047D01*
X142492761Y-119851285D01*
X142445142Y-119898904D01*
X141540380Y-118994142D02*
X141540380Y-118375095D01*
X141921333Y-118708428D01*
X141921333Y-118565571D01*
X141968952Y-118470333D01*
X142016571Y-118422714D01*
X142111809Y-118375095D01*
X142349904Y-118375095D01*
X142445142Y-118422714D01*
X142492761Y-118470333D01*
X142540380Y-118565571D01*
X142540380Y-118851285D01*
X142492761Y-118946523D01*
X142445142Y-118994142D01*
G04 #@! TO.C,C52*
X141049142Y-120278857D02*
X141096761Y-120326476D01*
X141144380Y-120469333D01*
X141144380Y-120564571D01*
X141096761Y-120707428D01*
X141001523Y-120802666D01*
X140906285Y-120850285D01*
X140715809Y-120897904D01*
X140572952Y-120897904D01*
X140382476Y-120850285D01*
X140287238Y-120802666D01*
X140192000Y-120707428D01*
X140144380Y-120564571D01*
X140144380Y-120469333D01*
X140192000Y-120326476D01*
X140239619Y-120278857D01*
X140144380Y-119374095D02*
X140144380Y-119850285D01*
X140620571Y-119897904D01*
X140572952Y-119850285D01*
X140525333Y-119755047D01*
X140525333Y-119516952D01*
X140572952Y-119421714D01*
X140620571Y-119374095D01*
X140715809Y-119326476D01*
X140953904Y-119326476D01*
X141049142Y-119374095D01*
X141096761Y-119421714D01*
X141144380Y-119516952D01*
X141144380Y-119755047D01*
X141096761Y-119850285D01*
X141049142Y-119897904D01*
X140239619Y-118945523D02*
X140192000Y-118897904D01*
X140144380Y-118802666D01*
X140144380Y-118564571D01*
X140192000Y-118469333D01*
X140239619Y-118421714D01*
X140334857Y-118374095D01*
X140430095Y-118374095D01*
X140572952Y-118421714D01*
X141144380Y-118993142D01*
X141144380Y-118374095D01*
G04 #@! TO.C,C51*
X139825142Y-120190857D02*
X139872761Y-120238476D01*
X139920380Y-120381333D01*
X139920380Y-120476571D01*
X139872761Y-120619428D01*
X139777523Y-120714666D01*
X139682285Y-120762285D01*
X139491809Y-120809904D01*
X139348952Y-120809904D01*
X139158476Y-120762285D01*
X139063238Y-120714666D01*
X138968000Y-120619428D01*
X138920380Y-120476571D01*
X138920380Y-120381333D01*
X138968000Y-120238476D01*
X139015619Y-120190857D01*
X138920380Y-119286095D02*
X138920380Y-119762285D01*
X139396571Y-119809904D01*
X139348952Y-119762285D01*
X139301333Y-119667047D01*
X139301333Y-119428952D01*
X139348952Y-119333714D01*
X139396571Y-119286095D01*
X139491809Y-119238476D01*
X139729904Y-119238476D01*
X139825142Y-119286095D01*
X139872761Y-119333714D01*
X139920380Y-119428952D01*
X139920380Y-119667047D01*
X139872761Y-119762285D01*
X139825142Y-119809904D01*
X139920380Y-118286095D02*
X139920380Y-118857523D01*
X139920380Y-118571809D02*
X138920380Y-118571809D01*
X139063238Y-118667047D01*
X139158476Y-118762285D01*
X139206095Y-118857523D01*
G04 #@! TO.C,C50*
X138538142Y-120303857D02*
X138585761Y-120351476D01*
X138633380Y-120494333D01*
X138633380Y-120589571D01*
X138585761Y-120732428D01*
X138490523Y-120827666D01*
X138395285Y-120875285D01*
X138204809Y-120922904D01*
X138061952Y-120922904D01*
X137871476Y-120875285D01*
X137776238Y-120827666D01*
X137681000Y-120732428D01*
X137633380Y-120589571D01*
X137633380Y-120494333D01*
X137681000Y-120351476D01*
X137728619Y-120303857D01*
X137633380Y-119399095D02*
X137633380Y-119875285D01*
X138109571Y-119922904D01*
X138061952Y-119875285D01*
X138014333Y-119780047D01*
X138014333Y-119541952D01*
X138061952Y-119446714D01*
X138109571Y-119399095D01*
X138204809Y-119351476D01*
X138442904Y-119351476D01*
X138538142Y-119399095D01*
X138585761Y-119446714D01*
X138633380Y-119541952D01*
X138633380Y-119780047D01*
X138585761Y-119875285D01*
X138538142Y-119922904D01*
X137633380Y-118732428D02*
X137633380Y-118637190D01*
X137681000Y-118541952D01*
X137728619Y-118494333D01*
X137823857Y-118446714D01*
X138014333Y-118399095D01*
X138252428Y-118399095D01*
X138442904Y-118446714D01*
X138538142Y-118494333D01*
X138585761Y-118541952D01*
X138633380Y-118637190D01*
X138633380Y-118732428D01*
X138585761Y-118827666D01*
X138538142Y-118875285D01*
X138442904Y-118922904D01*
X138252428Y-118970523D01*
X138014333Y-118970523D01*
X137823857Y-118922904D01*
X137728619Y-118875285D01*
X137681000Y-118827666D01*
X137633380Y-118732428D01*
G04 #@! TO.C,C42*
X128440142Y-120397857D02*
X128487761Y-120445476D01*
X128535380Y-120588333D01*
X128535380Y-120683571D01*
X128487761Y-120826428D01*
X128392523Y-120921666D01*
X128297285Y-120969285D01*
X128106809Y-121016904D01*
X127963952Y-121016904D01*
X127773476Y-120969285D01*
X127678238Y-120921666D01*
X127583000Y-120826428D01*
X127535380Y-120683571D01*
X127535380Y-120588333D01*
X127583000Y-120445476D01*
X127630619Y-120397857D01*
X127868714Y-119540714D02*
X128535380Y-119540714D01*
X127487761Y-119778809D02*
X128202047Y-120016904D01*
X128202047Y-119397857D01*
X127630619Y-119064523D02*
X127583000Y-119016904D01*
X127535380Y-118921666D01*
X127535380Y-118683571D01*
X127583000Y-118588333D01*
X127630619Y-118540714D01*
X127725857Y-118493095D01*
X127821095Y-118493095D01*
X127963952Y-118540714D01*
X128535380Y-119112142D01*
X128535380Y-118493095D01*
G04 #@! TO.C,C48*
X136039142Y-120191857D02*
X136086761Y-120239476D01*
X136134380Y-120382333D01*
X136134380Y-120477571D01*
X136086761Y-120620428D01*
X135991523Y-120715666D01*
X135896285Y-120763285D01*
X135705809Y-120810904D01*
X135562952Y-120810904D01*
X135372476Y-120763285D01*
X135277238Y-120715666D01*
X135182000Y-120620428D01*
X135134380Y-120477571D01*
X135134380Y-120382333D01*
X135182000Y-120239476D01*
X135229619Y-120191857D01*
X135467714Y-119334714D02*
X136134380Y-119334714D01*
X135086761Y-119572809D02*
X135801047Y-119810904D01*
X135801047Y-119191857D01*
X135562952Y-118668047D02*
X135515333Y-118763285D01*
X135467714Y-118810904D01*
X135372476Y-118858523D01*
X135324857Y-118858523D01*
X135229619Y-118810904D01*
X135182000Y-118763285D01*
X135134380Y-118668047D01*
X135134380Y-118477571D01*
X135182000Y-118382333D01*
X135229619Y-118334714D01*
X135324857Y-118287095D01*
X135372476Y-118287095D01*
X135467714Y-118334714D01*
X135515333Y-118382333D01*
X135562952Y-118477571D01*
X135562952Y-118668047D01*
X135610571Y-118763285D01*
X135658190Y-118810904D01*
X135753428Y-118858523D01*
X135943904Y-118858523D01*
X136039142Y-118810904D01*
X136086761Y-118763285D01*
X136134380Y-118668047D01*
X136134380Y-118477571D01*
X136086761Y-118382333D01*
X136039142Y-118334714D01*
X135943904Y-118287095D01*
X135753428Y-118287095D01*
X135658190Y-118334714D01*
X135610571Y-118382333D01*
X135562952Y-118477571D01*
G04 #@! TO.C,C16*
X146226142Y-130893857D02*
X146273761Y-130941476D01*
X146321380Y-131084333D01*
X146321380Y-131179571D01*
X146273761Y-131322428D01*
X146178523Y-131417666D01*
X146083285Y-131465285D01*
X145892809Y-131512904D01*
X145749952Y-131512904D01*
X145559476Y-131465285D01*
X145464238Y-131417666D01*
X145369000Y-131322428D01*
X145321380Y-131179571D01*
X145321380Y-131084333D01*
X145369000Y-130941476D01*
X145416619Y-130893857D01*
X146321380Y-129941476D02*
X146321380Y-130512904D01*
X146321380Y-130227190D02*
X145321380Y-130227190D01*
X145464238Y-130322428D01*
X145559476Y-130417666D01*
X145607095Y-130512904D01*
X145321380Y-129084333D02*
X145321380Y-129274809D01*
X145369000Y-129370047D01*
X145416619Y-129417666D01*
X145559476Y-129512904D01*
X145749952Y-129560523D01*
X146130904Y-129560523D01*
X146226142Y-129512904D01*
X146273761Y-129465285D01*
X146321380Y-129370047D01*
X146321380Y-129179571D01*
X146273761Y-129084333D01*
X146226142Y-129036714D01*
X146130904Y-128989095D01*
X145892809Y-128989095D01*
X145797571Y-129036714D01*
X145749952Y-129084333D01*
X145702333Y-129179571D01*
X145702333Y-129370047D01*
X145749952Y-129465285D01*
X145797571Y-129512904D01*
X145892809Y-129560523D01*
G04 #@! TO.C,C17*
X144970142Y-131027857D02*
X145017761Y-131075476D01*
X145065380Y-131218333D01*
X145065380Y-131313571D01*
X145017761Y-131456428D01*
X144922523Y-131551666D01*
X144827285Y-131599285D01*
X144636809Y-131646904D01*
X144493952Y-131646904D01*
X144303476Y-131599285D01*
X144208238Y-131551666D01*
X144113000Y-131456428D01*
X144065380Y-131313571D01*
X144065380Y-131218333D01*
X144113000Y-131075476D01*
X144160619Y-131027857D01*
X145065380Y-130075476D02*
X145065380Y-130646904D01*
X145065380Y-130361190D02*
X144065380Y-130361190D01*
X144208238Y-130456428D01*
X144303476Y-130551666D01*
X144351095Y-130646904D01*
X144065380Y-129742142D02*
X144065380Y-129075476D01*
X145065380Y-129504047D01*
G04 #@! TO.C,C18*
X143564142Y-131089857D02*
X143611761Y-131137476D01*
X143659380Y-131280333D01*
X143659380Y-131375571D01*
X143611761Y-131518428D01*
X143516523Y-131613666D01*
X143421285Y-131661285D01*
X143230809Y-131708904D01*
X143087952Y-131708904D01*
X142897476Y-131661285D01*
X142802238Y-131613666D01*
X142707000Y-131518428D01*
X142659380Y-131375571D01*
X142659380Y-131280333D01*
X142707000Y-131137476D01*
X142754619Y-131089857D01*
X143659380Y-130137476D02*
X143659380Y-130708904D01*
X143659380Y-130423190D02*
X142659380Y-130423190D01*
X142802238Y-130518428D01*
X142897476Y-130613666D01*
X142945095Y-130708904D01*
X143087952Y-129566047D02*
X143040333Y-129661285D01*
X142992714Y-129708904D01*
X142897476Y-129756523D01*
X142849857Y-129756523D01*
X142754619Y-129708904D01*
X142707000Y-129661285D01*
X142659380Y-129566047D01*
X142659380Y-129375571D01*
X142707000Y-129280333D01*
X142754619Y-129232714D01*
X142849857Y-129185095D01*
X142897476Y-129185095D01*
X142992714Y-129232714D01*
X143040333Y-129280333D01*
X143087952Y-129375571D01*
X143087952Y-129566047D01*
X143135571Y-129661285D01*
X143183190Y-129708904D01*
X143278428Y-129756523D01*
X143468904Y-129756523D01*
X143564142Y-129708904D01*
X143611761Y-129661285D01*
X143659380Y-129566047D01*
X143659380Y-129375571D01*
X143611761Y-129280333D01*
X143564142Y-129232714D01*
X143468904Y-129185095D01*
X143278428Y-129185095D01*
X143183190Y-129232714D01*
X143135571Y-129280333D01*
X143087952Y-129375571D01*
G04 #@! TO.C,C19*
X142344142Y-131098857D02*
X142391761Y-131146476D01*
X142439380Y-131289333D01*
X142439380Y-131384571D01*
X142391761Y-131527428D01*
X142296523Y-131622666D01*
X142201285Y-131670285D01*
X142010809Y-131717904D01*
X141867952Y-131717904D01*
X141677476Y-131670285D01*
X141582238Y-131622666D01*
X141487000Y-131527428D01*
X141439380Y-131384571D01*
X141439380Y-131289333D01*
X141487000Y-131146476D01*
X141534619Y-131098857D01*
X142439380Y-130146476D02*
X142439380Y-130717904D01*
X142439380Y-130432190D02*
X141439380Y-130432190D01*
X141582238Y-130527428D01*
X141677476Y-130622666D01*
X141725095Y-130717904D01*
X142439380Y-129670285D02*
X142439380Y-129479809D01*
X142391761Y-129384571D01*
X142344142Y-129336952D01*
X142201285Y-129241714D01*
X142010809Y-129194095D01*
X141629857Y-129194095D01*
X141534619Y-129241714D01*
X141487000Y-129289333D01*
X141439380Y-129384571D01*
X141439380Y-129575047D01*
X141487000Y-129670285D01*
X141534619Y-129717904D01*
X141629857Y-129765523D01*
X141867952Y-129765523D01*
X141963190Y-129717904D01*
X142010809Y-129670285D01*
X142058428Y-129575047D01*
X142058428Y-129384571D01*
X142010809Y-129289333D01*
X141963190Y-129241714D01*
X141867952Y-129194095D01*
G04 #@! TO.C,C20*
X141124142Y-131050857D02*
X141171761Y-131098476D01*
X141219380Y-131241333D01*
X141219380Y-131336571D01*
X141171761Y-131479428D01*
X141076523Y-131574666D01*
X140981285Y-131622285D01*
X140790809Y-131669904D01*
X140647952Y-131669904D01*
X140457476Y-131622285D01*
X140362238Y-131574666D01*
X140267000Y-131479428D01*
X140219380Y-131336571D01*
X140219380Y-131241333D01*
X140267000Y-131098476D01*
X140314619Y-131050857D01*
X140314619Y-130669904D02*
X140267000Y-130622285D01*
X140219380Y-130527047D01*
X140219380Y-130288952D01*
X140267000Y-130193714D01*
X140314619Y-130146095D01*
X140409857Y-130098476D01*
X140505095Y-130098476D01*
X140647952Y-130146095D01*
X141219380Y-130717523D01*
X141219380Y-130098476D01*
X140219380Y-129479428D02*
X140219380Y-129384190D01*
X140267000Y-129288952D01*
X140314619Y-129241333D01*
X140409857Y-129193714D01*
X140600333Y-129146095D01*
X140838428Y-129146095D01*
X141028904Y-129193714D01*
X141124142Y-129241333D01*
X141171761Y-129288952D01*
X141219380Y-129384190D01*
X141219380Y-129479428D01*
X141171761Y-129574666D01*
X141124142Y-129622285D01*
X141028904Y-129669904D01*
X140838428Y-129717523D01*
X140600333Y-129717523D01*
X140409857Y-129669904D01*
X140314619Y-129622285D01*
X140267000Y-129574666D01*
X140219380Y-129479428D01*
G04 #@! TO.C,C22*
X138512142Y-131063857D02*
X138559761Y-131111476D01*
X138607380Y-131254333D01*
X138607380Y-131349571D01*
X138559761Y-131492428D01*
X138464523Y-131587666D01*
X138369285Y-131635285D01*
X138178809Y-131682904D01*
X138035952Y-131682904D01*
X137845476Y-131635285D01*
X137750238Y-131587666D01*
X137655000Y-131492428D01*
X137607380Y-131349571D01*
X137607380Y-131254333D01*
X137655000Y-131111476D01*
X137702619Y-131063857D01*
X137702619Y-130682904D02*
X137655000Y-130635285D01*
X137607380Y-130540047D01*
X137607380Y-130301952D01*
X137655000Y-130206714D01*
X137702619Y-130159095D01*
X137797857Y-130111476D01*
X137893095Y-130111476D01*
X138035952Y-130159095D01*
X138607380Y-130730523D01*
X138607380Y-130111476D01*
X137702619Y-129730523D02*
X137655000Y-129682904D01*
X137607380Y-129587666D01*
X137607380Y-129349571D01*
X137655000Y-129254333D01*
X137702619Y-129206714D01*
X137797857Y-129159095D01*
X137893095Y-129159095D01*
X138035952Y-129206714D01*
X138607380Y-129778142D01*
X138607380Y-129159095D01*
G04 #@! TO.C,C21*
X139721142Y-131063857D02*
X139768761Y-131111476D01*
X139816380Y-131254333D01*
X139816380Y-131349571D01*
X139768761Y-131492428D01*
X139673523Y-131587666D01*
X139578285Y-131635285D01*
X139387809Y-131682904D01*
X139244952Y-131682904D01*
X139054476Y-131635285D01*
X138959238Y-131587666D01*
X138864000Y-131492428D01*
X138816380Y-131349571D01*
X138816380Y-131254333D01*
X138864000Y-131111476D01*
X138911619Y-131063857D01*
X138911619Y-130682904D02*
X138864000Y-130635285D01*
X138816380Y-130540047D01*
X138816380Y-130301952D01*
X138864000Y-130206714D01*
X138911619Y-130159095D01*
X139006857Y-130111476D01*
X139102095Y-130111476D01*
X139244952Y-130159095D01*
X139816380Y-130730523D01*
X139816380Y-130111476D01*
X139816380Y-129159095D02*
X139816380Y-129730523D01*
X139816380Y-129444809D02*
X138816380Y-129444809D01*
X138959238Y-129540047D01*
X139054476Y-129635285D01*
X139102095Y-129730523D01*
G04 #@! TO.C,C49*
X137278142Y-120185857D02*
X137325761Y-120233476D01*
X137373380Y-120376333D01*
X137373380Y-120471571D01*
X137325761Y-120614428D01*
X137230523Y-120709666D01*
X137135285Y-120757285D01*
X136944809Y-120804904D01*
X136801952Y-120804904D01*
X136611476Y-120757285D01*
X136516238Y-120709666D01*
X136421000Y-120614428D01*
X136373380Y-120471571D01*
X136373380Y-120376333D01*
X136421000Y-120233476D01*
X136468619Y-120185857D01*
X136706714Y-119328714D02*
X137373380Y-119328714D01*
X136325761Y-119566809D02*
X137040047Y-119804904D01*
X137040047Y-119185857D01*
X137373380Y-118757285D02*
X137373380Y-118566809D01*
X137325761Y-118471571D01*
X137278142Y-118423952D01*
X137135285Y-118328714D01*
X136944809Y-118281095D01*
X136563857Y-118281095D01*
X136468619Y-118328714D01*
X136421000Y-118376333D01*
X136373380Y-118471571D01*
X136373380Y-118662047D01*
X136421000Y-118757285D01*
X136468619Y-118804904D01*
X136563857Y-118852523D01*
X136801952Y-118852523D01*
X136897190Y-118804904D01*
X136944809Y-118757285D01*
X136992428Y-118662047D01*
X136992428Y-118471571D01*
X136944809Y-118376333D01*
X136897190Y-118328714D01*
X136801952Y-118281095D01*
G04 #@! TO.C,C24*
X136031142Y-131099857D02*
X136078761Y-131147476D01*
X136126380Y-131290333D01*
X136126380Y-131385571D01*
X136078761Y-131528428D01*
X135983523Y-131623666D01*
X135888285Y-131671285D01*
X135697809Y-131718904D01*
X135554952Y-131718904D01*
X135364476Y-131671285D01*
X135269238Y-131623666D01*
X135174000Y-131528428D01*
X135126380Y-131385571D01*
X135126380Y-131290333D01*
X135174000Y-131147476D01*
X135221619Y-131099857D01*
X135221619Y-130718904D02*
X135174000Y-130671285D01*
X135126380Y-130576047D01*
X135126380Y-130337952D01*
X135174000Y-130242714D01*
X135221619Y-130195095D01*
X135316857Y-130147476D01*
X135412095Y-130147476D01*
X135554952Y-130195095D01*
X136126380Y-130766523D01*
X136126380Y-130147476D01*
X135459714Y-129290333D02*
X136126380Y-129290333D01*
X135078761Y-129528428D02*
X135793047Y-129766523D01*
X135793047Y-129147476D01*
G04 #@! TO.C,C25*
X134710142Y-131079857D02*
X134757761Y-131127476D01*
X134805380Y-131270333D01*
X134805380Y-131365571D01*
X134757761Y-131508428D01*
X134662523Y-131603666D01*
X134567285Y-131651285D01*
X134376809Y-131698904D01*
X134233952Y-131698904D01*
X134043476Y-131651285D01*
X133948238Y-131603666D01*
X133853000Y-131508428D01*
X133805380Y-131365571D01*
X133805380Y-131270333D01*
X133853000Y-131127476D01*
X133900619Y-131079857D01*
X133900619Y-130698904D02*
X133853000Y-130651285D01*
X133805380Y-130556047D01*
X133805380Y-130317952D01*
X133853000Y-130222714D01*
X133900619Y-130175095D01*
X133995857Y-130127476D01*
X134091095Y-130127476D01*
X134233952Y-130175095D01*
X134805380Y-130746523D01*
X134805380Y-130127476D01*
X133805380Y-129222714D02*
X133805380Y-129698904D01*
X134281571Y-129746523D01*
X134233952Y-129698904D01*
X134186333Y-129603666D01*
X134186333Y-129365571D01*
X134233952Y-129270333D01*
X134281571Y-129222714D01*
X134376809Y-129175095D01*
X134614904Y-129175095D01*
X134710142Y-129222714D01*
X134757761Y-129270333D01*
X134805380Y-129365571D01*
X134805380Y-129603666D01*
X134757761Y-129698904D01*
X134710142Y-129746523D01*
G04 #@! TO.C,C26*
X133453142Y-131081857D02*
X133500761Y-131129476D01*
X133548380Y-131272333D01*
X133548380Y-131367571D01*
X133500761Y-131510428D01*
X133405523Y-131605666D01*
X133310285Y-131653285D01*
X133119809Y-131700904D01*
X132976952Y-131700904D01*
X132786476Y-131653285D01*
X132691238Y-131605666D01*
X132596000Y-131510428D01*
X132548380Y-131367571D01*
X132548380Y-131272333D01*
X132596000Y-131129476D01*
X132643619Y-131081857D01*
X132643619Y-130700904D02*
X132596000Y-130653285D01*
X132548380Y-130558047D01*
X132548380Y-130319952D01*
X132596000Y-130224714D01*
X132643619Y-130177095D01*
X132738857Y-130129476D01*
X132834095Y-130129476D01*
X132976952Y-130177095D01*
X133548380Y-130748523D01*
X133548380Y-130129476D01*
X132548380Y-129272333D02*
X132548380Y-129462809D01*
X132596000Y-129558047D01*
X132643619Y-129605666D01*
X132786476Y-129700904D01*
X132976952Y-129748523D01*
X133357904Y-129748523D01*
X133453142Y-129700904D01*
X133500761Y-129653285D01*
X133548380Y-129558047D01*
X133548380Y-129367571D01*
X133500761Y-129272333D01*
X133453142Y-129224714D01*
X133357904Y-129177095D01*
X133119809Y-129177095D01*
X133024571Y-129224714D01*
X132976952Y-129272333D01*
X132929333Y-129367571D01*
X132929333Y-129558047D01*
X132976952Y-129653285D01*
X133024571Y-129700904D01*
X133119809Y-129748523D01*
G04 #@! TO.C,C27*
X132188142Y-131064857D02*
X132235761Y-131112476D01*
X132283380Y-131255333D01*
X132283380Y-131350571D01*
X132235761Y-131493428D01*
X132140523Y-131588666D01*
X132045285Y-131636285D01*
X131854809Y-131683904D01*
X131711952Y-131683904D01*
X131521476Y-131636285D01*
X131426238Y-131588666D01*
X131331000Y-131493428D01*
X131283380Y-131350571D01*
X131283380Y-131255333D01*
X131331000Y-131112476D01*
X131378619Y-131064857D01*
X131378619Y-130683904D02*
X131331000Y-130636285D01*
X131283380Y-130541047D01*
X131283380Y-130302952D01*
X131331000Y-130207714D01*
X131378619Y-130160095D01*
X131473857Y-130112476D01*
X131569095Y-130112476D01*
X131711952Y-130160095D01*
X132283380Y-130731523D01*
X132283380Y-130112476D01*
X131283380Y-129779142D02*
X131283380Y-129112476D01*
X132283380Y-129541047D01*
G04 #@! TO.C,C28*
X130903142Y-131053857D02*
X130950761Y-131101476D01*
X130998380Y-131244333D01*
X130998380Y-131339571D01*
X130950761Y-131482428D01*
X130855523Y-131577666D01*
X130760285Y-131625285D01*
X130569809Y-131672904D01*
X130426952Y-131672904D01*
X130236476Y-131625285D01*
X130141238Y-131577666D01*
X130046000Y-131482428D01*
X129998380Y-131339571D01*
X129998380Y-131244333D01*
X130046000Y-131101476D01*
X130093619Y-131053857D01*
X130093619Y-130672904D02*
X130046000Y-130625285D01*
X129998380Y-130530047D01*
X129998380Y-130291952D01*
X130046000Y-130196714D01*
X130093619Y-130149095D01*
X130188857Y-130101476D01*
X130284095Y-130101476D01*
X130426952Y-130149095D01*
X130998380Y-130720523D01*
X130998380Y-130101476D01*
X130426952Y-129530047D02*
X130379333Y-129625285D01*
X130331714Y-129672904D01*
X130236476Y-129720523D01*
X130188857Y-129720523D01*
X130093619Y-129672904D01*
X130046000Y-129625285D01*
X129998380Y-129530047D01*
X129998380Y-129339571D01*
X130046000Y-129244333D01*
X130093619Y-129196714D01*
X130188857Y-129149095D01*
X130236476Y-129149095D01*
X130331714Y-129196714D01*
X130379333Y-129244333D01*
X130426952Y-129339571D01*
X130426952Y-129530047D01*
X130474571Y-129625285D01*
X130522190Y-129672904D01*
X130617428Y-129720523D01*
X130807904Y-129720523D01*
X130903142Y-129672904D01*
X130950761Y-129625285D01*
X130998380Y-129530047D01*
X130998380Y-129339571D01*
X130950761Y-129244333D01*
X130903142Y-129196714D01*
X130807904Y-129149095D01*
X130617428Y-129149095D01*
X130522190Y-129196714D01*
X130474571Y-129244333D01*
X130426952Y-129339571D01*
G04 #@! TO.C,C29*
X129651142Y-131070857D02*
X129698761Y-131118476D01*
X129746380Y-131261333D01*
X129746380Y-131356571D01*
X129698761Y-131499428D01*
X129603523Y-131594666D01*
X129508285Y-131642285D01*
X129317809Y-131689904D01*
X129174952Y-131689904D01*
X128984476Y-131642285D01*
X128889238Y-131594666D01*
X128794000Y-131499428D01*
X128746380Y-131356571D01*
X128746380Y-131261333D01*
X128794000Y-131118476D01*
X128841619Y-131070857D01*
X128841619Y-130689904D02*
X128794000Y-130642285D01*
X128746380Y-130547047D01*
X128746380Y-130308952D01*
X128794000Y-130213714D01*
X128841619Y-130166095D01*
X128936857Y-130118476D01*
X129032095Y-130118476D01*
X129174952Y-130166095D01*
X129746380Y-130737523D01*
X129746380Y-130118476D01*
X129746380Y-129642285D02*
X129746380Y-129451809D01*
X129698761Y-129356571D01*
X129651142Y-129308952D01*
X129508285Y-129213714D01*
X129317809Y-129166095D01*
X128936857Y-129166095D01*
X128841619Y-129213714D01*
X128794000Y-129261333D01*
X128746380Y-129356571D01*
X128746380Y-129547047D01*
X128794000Y-129642285D01*
X128841619Y-129689904D01*
X128936857Y-129737523D01*
X129174952Y-129737523D01*
X129270190Y-129689904D01*
X129317809Y-129642285D01*
X129365428Y-129547047D01*
X129365428Y-129356571D01*
X129317809Y-129261333D01*
X129270190Y-129213714D01*
X129174952Y-129166095D01*
G04 #@! TO.C,C30*
X128417142Y-131058857D02*
X128464761Y-131106476D01*
X128512380Y-131249333D01*
X128512380Y-131344571D01*
X128464761Y-131487428D01*
X128369523Y-131582666D01*
X128274285Y-131630285D01*
X128083809Y-131677904D01*
X127940952Y-131677904D01*
X127750476Y-131630285D01*
X127655238Y-131582666D01*
X127560000Y-131487428D01*
X127512380Y-131344571D01*
X127512380Y-131249333D01*
X127560000Y-131106476D01*
X127607619Y-131058857D01*
X127512380Y-130725523D02*
X127512380Y-130106476D01*
X127893333Y-130439809D01*
X127893333Y-130296952D01*
X127940952Y-130201714D01*
X127988571Y-130154095D01*
X128083809Y-130106476D01*
X128321904Y-130106476D01*
X128417142Y-130154095D01*
X128464761Y-130201714D01*
X128512380Y-130296952D01*
X128512380Y-130582666D01*
X128464761Y-130677904D01*
X128417142Y-130725523D01*
X127512380Y-129487428D02*
X127512380Y-129392190D01*
X127560000Y-129296952D01*
X127607619Y-129249333D01*
X127702857Y-129201714D01*
X127893333Y-129154095D01*
X128131428Y-129154095D01*
X128321904Y-129201714D01*
X128417142Y-129249333D01*
X128464761Y-129296952D01*
X128512380Y-129392190D01*
X128512380Y-129487428D01*
X128464761Y-129582666D01*
X128417142Y-129630285D01*
X128321904Y-129677904D01*
X128131428Y-129725523D01*
X127893333Y-129725523D01*
X127702857Y-129677904D01*
X127607619Y-129630285D01*
X127560000Y-129582666D01*
X127512380Y-129487428D01*
G04 #@! TO.C,C31*
X127156142Y-131068857D02*
X127203761Y-131116476D01*
X127251380Y-131259333D01*
X127251380Y-131354571D01*
X127203761Y-131497428D01*
X127108523Y-131592666D01*
X127013285Y-131640285D01*
X126822809Y-131687904D01*
X126679952Y-131687904D01*
X126489476Y-131640285D01*
X126394238Y-131592666D01*
X126299000Y-131497428D01*
X126251380Y-131354571D01*
X126251380Y-131259333D01*
X126299000Y-131116476D01*
X126346619Y-131068857D01*
X126251380Y-130735523D02*
X126251380Y-130116476D01*
X126632333Y-130449809D01*
X126632333Y-130306952D01*
X126679952Y-130211714D01*
X126727571Y-130164095D01*
X126822809Y-130116476D01*
X127060904Y-130116476D01*
X127156142Y-130164095D01*
X127203761Y-130211714D01*
X127251380Y-130306952D01*
X127251380Y-130592666D01*
X127203761Y-130687904D01*
X127156142Y-130735523D01*
X127251380Y-129164095D02*
X127251380Y-129735523D01*
X127251380Y-129449809D02*
X126251380Y-129449809D01*
X126394238Y-129545047D01*
X126489476Y-129640285D01*
X126537095Y-129735523D01*
G04 #@! TO.C,C43*
X129720142Y-120230857D02*
X129767761Y-120278476D01*
X129815380Y-120421333D01*
X129815380Y-120516571D01*
X129767761Y-120659428D01*
X129672523Y-120754666D01*
X129577285Y-120802285D01*
X129386809Y-120849904D01*
X129243952Y-120849904D01*
X129053476Y-120802285D01*
X128958238Y-120754666D01*
X128863000Y-120659428D01*
X128815380Y-120516571D01*
X128815380Y-120421333D01*
X128863000Y-120278476D01*
X128910619Y-120230857D01*
X129148714Y-119373714D02*
X129815380Y-119373714D01*
X128767761Y-119611809D02*
X129482047Y-119849904D01*
X129482047Y-119230857D01*
X128815380Y-118945142D02*
X128815380Y-118326095D01*
X129196333Y-118659428D01*
X129196333Y-118516571D01*
X129243952Y-118421333D01*
X129291571Y-118373714D01*
X129386809Y-118326095D01*
X129624904Y-118326095D01*
X129720142Y-118373714D01*
X129767761Y-118421333D01*
X129815380Y-118516571D01*
X129815380Y-118802285D01*
X129767761Y-118897523D01*
X129720142Y-118945142D01*
G04 #@! TO.C,C33*
X124653142Y-131012857D02*
X124700761Y-131060476D01*
X124748380Y-131203333D01*
X124748380Y-131298571D01*
X124700761Y-131441428D01*
X124605523Y-131536666D01*
X124510285Y-131584285D01*
X124319809Y-131631904D01*
X124176952Y-131631904D01*
X123986476Y-131584285D01*
X123891238Y-131536666D01*
X123796000Y-131441428D01*
X123748380Y-131298571D01*
X123748380Y-131203333D01*
X123796000Y-131060476D01*
X123843619Y-131012857D01*
X123748380Y-130679523D02*
X123748380Y-130060476D01*
X124129333Y-130393809D01*
X124129333Y-130250952D01*
X124176952Y-130155714D01*
X124224571Y-130108095D01*
X124319809Y-130060476D01*
X124557904Y-130060476D01*
X124653142Y-130108095D01*
X124700761Y-130155714D01*
X124748380Y-130250952D01*
X124748380Y-130536666D01*
X124700761Y-130631904D01*
X124653142Y-130679523D01*
X123748380Y-129727142D02*
X123748380Y-129108095D01*
X124129333Y-129441428D01*
X124129333Y-129298571D01*
X124176952Y-129203333D01*
X124224571Y-129155714D01*
X124319809Y-129108095D01*
X124557904Y-129108095D01*
X124653142Y-129155714D01*
X124700761Y-129203333D01*
X124748380Y-129298571D01*
X124748380Y-129584285D01*
X124700761Y-129679523D01*
X124653142Y-129727142D01*
G04 #@! TO.C,C47*
X134836142Y-120204857D02*
X134883761Y-120252476D01*
X134931380Y-120395333D01*
X134931380Y-120490571D01*
X134883761Y-120633428D01*
X134788523Y-120728666D01*
X134693285Y-120776285D01*
X134502809Y-120823904D01*
X134359952Y-120823904D01*
X134169476Y-120776285D01*
X134074238Y-120728666D01*
X133979000Y-120633428D01*
X133931380Y-120490571D01*
X133931380Y-120395333D01*
X133979000Y-120252476D01*
X134026619Y-120204857D01*
X134264714Y-119347714D02*
X134931380Y-119347714D01*
X133883761Y-119585809D02*
X134598047Y-119823904D01*
X134598047Y-119204857D01*
X133931380Y-118919142D02*
X133931380Y-118252476D01*
X134931380Y-118681047D01*
G04 #@! TO.C,C46*
X133516142Y-120235857D02*
X133563761Y-120283476D01*
X133611380Y-120426333D01*
X133611380Y-120521571D01*
X133563761Y-120664428D01*
X133468523Y-120759666D01*
X133373285Y-120807285D01*
X133182809Y-120854904D01*
X133039952Y-120854904D01*
X132849476Y-120807285D01*
X132754238Y-120759666D01*
X132659000Y-120664428D01*
X132611380Y-120521571D01*
X132611380Y-120426333D01*
X132659000Y-120283476D01*
X132706619Y-120235857D01*
X132944714Y-119378714D02*
X133611380Y-119378714D01*
X132563761Y-119616809D02*
X133278047Y-119854904D01*
X133278047Y-119235857D01*
X132611380Y-118426333D02*
X132611380Y-118616809D01*
X132659000Y-118712047D01*
X132706619Y-118759666D01*
X132849476Y-118854904D01*
X133039952Y-118902523D01*
X133420904Y-118902523D01*
X133516142Y-118854904D01*
X133563761Y-118807285D01*
X133611380Y-118712047D01*
X133611380Y-118521571D01*
X133563761Y-118426333D01*
X133516142Y-118378714D01*
X133420904Y-118331095D01*
X133182809Y-118331095D01*
X133087571Y-118378714D01*
X133039952Y-118426333D01*
X132992333Y-118521571D01*
X132992333Y-118712047D01*
X133039952Y-118807285D01*
X133087571Y-118854904D01*
X133182809Y-118902523D01*
G04 #@! TO.C,C45*
X132185142Y-120207857D02*
X132232761Y-120255476D01*
X132280380Y-120398333D01*
X132280380Y-120493571D01*
X132232761Y-120636428D01*
X132137523Y-120731666D01*
X132042285Y-120779285D01*
X131851809Y-120826904D01*
X131708952Y-120826904D01*
X131518476Y-120779285D01*
X131423238Y-120731666D01*
X131328000Y-120636428D01*
X131280380Y-120493571D01*
X131280380Y-120398333D01*
X131328000Y-120255476D01*
X131375619Y-120207857D01*
X131613714Y-119350714D02*
X132280380Y-119350714D01*
X131232761Y-119588809D02*
X131947047Y-119826904D01*
X131947047Y-119207857D01*
X131280380Y-118350714D02*
X131280380Y-118826904D01*
X131756571Y-118874523D01*
X131708952Y-118826904D01*
X131661333Y-118731666D01*
X131661333Y-118493571D01*
X131708952Y-118398333D01*
X131756571Y-118350714D01*
X131851809Y-118303095D01*
X132089904Y-118303095D01*
X132185142Y-118350714D01*
X132232761Y-118398333D01*
X132280380Y-118493571D01*
X132280380Y-118731666D01*
X132232761Y-118826904D01*
X132185142Y-118874523D01*
G04 #@! TO.C,C44*
X130896142Y-120308857D02*
X130943761Y-120356476D01*
X130991380Y-120499333D01*
X130991380Y-120594571D01*
X130943761Y-120737428D01*
X130848523Y-120832666D01*
X130753285Y-120880285D01*
X130562809Y-120927904D01*
X130419952Y-120927904D01*
X130229476Y-120880285D01*
X130134238Y-120832666D01*
X130039000Y-120737428D01*
X129991380Y-120594571D01*
X129991380Y-120499333D01*
X130039000Y-120356476D01*
X130086619Y-120308857D01*
X130324714Y-119451714D02*
X130991380Y-119451714D01*
X129943761Y-119689809D02*
X130658047Y-119927904D01*
X130658047Y-119308857D01*
X130324714Y-118499333D02*
X130991380Y-118499333D01*
X129943761Y-118737428D02*
X130658047Y-118975523D01*
X130658047Y-118356476D01*
G04 #@! TO.C,C39*
X124527142Y-120318857D02*
X124574761Y-120366476D01*
X124622380Y-120509333D01*
X124622380Y-120604571D01*
X124574761Y-120747428D01*
X124479523Y-120842666D01*
X124384285Y-120890285D01*
X124193809Y-120937904D01*
X124050952Y-120937904D01*
X123860476Y-120890285D01*
X123765238Y-120842666D01*
X123670000Y-120747428D01*
X123622380Y-120604571D01*
X123622380Y-120509333D01*
X123670000Y-120366476D01*
X123717619Y-120318857D01*
X123622380Y-119985523D02*
X123622380Y-119366476D01*
X124003333Y-119699809D01*
X124003333Y-119556952D01*
X124050952Y-119461714D01*
X124098571Y-119414095D01*
X124193809Y-119366476D01*
X124431904Y-119366476D01*
X124527142Y-119414095D01*
X124574761Y-119461714D01*
X124622380Y-119556952D01*
X124622380Y-119842666D01*
X124574761Y-119937904D01*
X124527142Y-119985523D01*
X124622380Y-118890285D02*
X124622380Y-118699809D01*
X124574761Y-118604571D01*
X124527142Y-118556952D01*
X124384285Y-118461714D01*
X124193809Y-118414095D01*
X123812857Y-118414095D01*
X123717619Y-118461714D01*
X123670000Y-118509333D01*
X123622380Y-118604571D01*
X123622380Y-118795047D01*
X123670000Y-118890285D01*
X123717619Y-118937904D01*
X123812857Y-118985523D01*
X124050952Y-118985523D01*
X124146190Y-118937904D01*
X124193809Y-118890285D01*
X124241428Y-118795047D01*
X124241428Y-118604571D01*
X124193809Y-118509333D01*
X124146190Y-118461714D01*
X124050952Y-118414095D01*
G04 #@! TO.C,C40*
X125874142Y-120376857D02*
X125921761Y-120424476D01*
X125969380Y-120567333D01*
X125969380Y-120662571D01*
X125921761Y-120805428D01*
X125826523Y-120900666D01*
X125731285Y-120948285D01*
X125540809Y-120995904D01*
X125397952Y-120995904D01*
X125207476Y-120948285D01*
X125112238Y-120900666D01*
X125017000Y-120805428D01*
X124969380Y-120662571D01*
X124969380Y-120567333D01*
X125017000Y-120424476D01*
X125064619Y-120376857D01*
X125302714Y-119519714D02*
X125969380Y-119519714D01*
X124921761Y-119757809D02*
X125636047Y-119995904D01*
X125636047Y-119376857D01*
X124969380Y-118805428D02*
X124969380Y-118710190D01*
X125017000Y-118614952D01*
X125064619Y-118567333D01*
X125159857Y-118519714D01*
X125350333Y-118472095D01*
X125588428Y-118472095D01*
X125778904Y-118519714D01*
X125874142Y-118567333D01*
X125921761Y-118614952D01*
X125969380Y-118710190D01*
X125969380Y-118805428D01*
X125921761Y-118900666D01*
X125874142Y-118948285D01*
X125778904Y-118995904D01*
X125588428Y-119043523D01*
X125350333Y-119043523D01*
X125159857Y-118995904D01*
X125064619Y-118948285D01*
X125017000Y-118900666D01*
X124969380Y-118805428D01*
G04 #@! TO.C,C23*
X137262142Y-131018857D02*
X137309761Y-131066476D01*
X137357380Y-131209333D01*
X137357380Y-131304571D01*
X137309761Y-131447428D01*
X137214523Y-131542666D01*
X137119285Y-131590285D01*
X136928809Y-131637904D01*
X136785952Y-131637904D01*
X136595476Y-131590285D01*
X136500238Y-131542666D01*
X136405000Y-131447428D01*
X136357380Y-131304571D01*
X136357380Y-131209333D01*
X136405000Y-131066476D01*
X136452619Y-131018857D01*
X136452619Y-130637904D02*
X136405000Y-130590285D01*
X136357380Y-130495047D01*
X136357380Y-130256952D01*
X136405000Y-130161714D01*
X136452619Y-130114095D01*
X136547857Y-130066476D01*
X136643095Y-130066476D01*
X136785952Y-130114095D01*
X137357380Y-130685523D01*
X137357380Y-130066476D01*
X136357380Y-129733142D02*
X136357380Y-129114095D01*
X136738333Y-129447428D01*
X136738333Y-129304571D01*
X136785952Y-129209333D01*
X136833571Y-129161714D01*
X136928809Y-129114095D01*
X137166904Y-129114095D01*
X137262142Y-129161714D01*
X137309761Y-129209333D01*
X137357380Y-129304571D01*
X137357380Y-129590285D01*
X137309761Y-129685523D01*
X137262142Y-129733142D01*
G04 #@! TO.C,C41*
X127141142Y-120266857D02*
X127188761Y-120314476D01*
X127236380Y-120457333D01*
X127236380Y-120552571D01*
X127188761Y-120695428D01*
X127093523Y-120790666D01*
X126998285Y-120838285D01*
X126807809Y-120885904D01*
X126664952Y-120885904D01*
X126474476Y-120838285D01*
X126379238Y-120790666D01*
X126284000Y-120695428D01*
X126236380Y-120552571D01*
X126236380Y-120457333D01*
X126284000Y-120314476D01*
X126331619Y-120266857D01*
X126569714Y-119409714D02*
X127236380Y-119409714D01*
X126188761Y-119647809D02*
X126903047Y-119885904D01*
X126903047Y-119266857D01*
X127236380Y-118362095D02*
X127236380Y-118933523D01*
X127236380Y-118647809D02*
X126236380Y-118647809D01*
X126379238Y-118743047D01*
X126474476Y-118838285D01*
X126522095Y-118933523D01*
G04 #@! TO.C,C13*
X163621142Y-147181142D02*
X163573523Y-147228761D01*
X163430666Y-147276380D01*
X163335428Y-147276380D01*
X163192571Y-147228761D01*
X163097333Y-147133523D01*
X163049714Y-147038285D01*
X163002095Y-146847809D01*
X163002095Y-146704952D01*
X163049714Y-146514476D01*
X163097333Y-146419238D01*
X163192571Y-146324000D01*
X163335428Y-146276380D01*
X163430666Y-146276380D01*
X163573523Y-146324000D01*
X163621142Y-146371619D01*
X164573523Y-147276380D02*
X164002095Y-147276380D01*
X164287809Y-147276380D02*
X164287809Y-146276380D01*
X164192571Y-146419238D01*
X164097333Y-146514476D01*
X164002095Y-146562095D01*
X164906857Y-146276380D02*
X165525904Y-146276380D01*
X165192571Y-146657333D01*
X165335428Y-146657333D01*
X165430666Y-146704952D01*
X165478285Y-146752571D01*
X165525904Y-146847809D01*
X165525904Y-147085904D01*
X165478285Y-147181142D01*
X165430666Y-147228761D01*
X165335428Y-147276380D01*
X165049714Y-147276380D01*
X164954476Y-147228761D01*
X164906857Y-147181142D01*
G04 #@! TO.C,C14*
X163674142Y-148708142D02*
X163626523Y-148755761D01*
X163483666Y-148803380D01*
X163388428Y-148803380D01*
X163245571Y-148755761D01*
X163150333Y-148660523D01*
X163102714Y-148565285D01*
X163055095Y-148374809D01*
X163055095Y-148231952D01*
X163102714Y-148041476D01*
X163150333Y-147946238D01*
X163245571Y-147851000D01*
X163388428Y-147803380D01*
X163483666Y-147803380D01*
X163626523Y-147851000D01*
X163674142Y-147898619D01*
X164626523Y-148803380D02*
X164055095Y-148803380D01*
X164340809Y-148803380D02*
X164340809Y-147803380D01*
X164245571Y-147946238D01*
X164150333Y-148041476D01*
X164055095Y-148089095D01*
X165483666Y-148136714D02*
X165483666Y-148803380D01*
X165245571Y-147755761D02*
X165007476Y-148470047D01*
X165626523Y-148470047D01*
G04 #@! TO.C,C15*
X143661142Y-150521857D02*
X143708761Y-150569476D01*
X143756380Y-150712333D01*
X143756380Y-150807571D01*
X143708761Y-150950428D01*
X143613523Y-151045666D01*
X143518285Y-151093285D01*
X143327809Y-151140904D01*
X143184952Y-151140904D01*
X142994476Y-151093285D01*
X142899238Y-151045666D01*
X142804000Y-150950428D01*
X142756380Y-150807571D01*
X142756380Y-150712333D01*
X142804000Y-150569476D01*
X142851619Y-150521857D01*
X143756380Y-149569476D02*
X143756380Y-150140904D01*
X143756380Y-149855190D02*
X142756380Y-149855190D01*
X142899238Y-149950428D01*
X142994476Y-150045666D01*
X143042095Y-150140904D01*
X142756380Y-148664714D02*
X142756380Y-149140904D01*
X143232571Y-149188523D01*
X143184952Y-149140904D01*
X143137333Y-149045666D01*
X143137333Y-148807571D01*
X143184952Y-148712333D01*
X143232571Y-148664714D01*
X143327809Y-148617095D01*
X143565904Y-148617095D01*
X143661142Y-148664714D01*
X143708761Y-148712333D01*
X143756380Y-148807571D01*
X143756380Y-149045666D01*
X143708761Y-149140904D01*
X143661142Y-149188523D01*
G04 #@! TO.C,C34*
X145163142Y-150598857D02*
X145210761Y-150646476D01*
X145258380Y-150789333D01*
X145258380Y-150884571D01*
X145210761Y-151027428D01*
X145115523Y-151122666D01*
X145020285Y-151170285D01*
X144829809Y-151217904D01*
X144686952Y-151217904D01*
X144496476Y-151170285D01*
X144401238Y-151122666D01*
X144306000Y-151027428D01*
X144258380Y-150884571D01*
X144258380Y-150789333D01*
X144306000Y-150646476D01*
X144353619Y-150598857D01*
X144258380Y-150265523D02*
X144258380Y-149646476D01*
X144639333Y-149979809D01*
X144639333Y-149836952D01*
X144686952Y-149741714D01*
X144734571Y-149694095D01*
X144829809Y-149646476D01*
X145067904Y-149646476D01*
X145163142Y-149694095D01*
X145210761Y-149741714D01*
X145258380Y-149836952D01*
X145258380Y-150122666D01*
X145210761Y-150217904D01*
X145163142Y-150265523D01*
X144591714Y-148789333D02*
X145258380Y-148789333D01*
X144210761Y-149027428D02*
X144925047Y-149265523D01*
X144925047Y-148646476D01*
G04 #@! TO.C,C35*
X162992142Y-117250857D02*
X163039761Y-117298476D01*
X163087380Y-117441333D01*
X163087380Y-117536571D01*
X163039761Y-117679428D01*
X162944523Y-117774666D01*
X162849285Y-117822285D01*
X162658809Y-117869904D01*
X162515952Y-117869904D01*
X162325476Y-117822285D01*
X162230238Y-117774666D01*
X162135000Y-117679428D01*
X162087380Y-117536571D01*
X162087380Y-117441333D01*
X162135000Y-117298476D01*
X162182619Y-117250857D01*
X162087380Y-116917523D02*
X162087380Y-116298476D01*
X162468333Y-116631809D01*
X162468333Y-116488952D01*
X162515952Y-116393714D01*
X162563571Y-116346095D01*
X162658809Y-116298476D01*
X162896904Y-116298476D01*
X162992142Y-116346095D01*
X163039761Y-116393714D01*
X163087380Y-116488952D01*
X163087380Y-116774666D01*
X163039761Y-116869904D01*
X162992142Y-116917523D01*
X162087380Y-115393714D02*
X162087380Y-115869904D01*
X162563571Y-115917523D01*
X162515952Y-115869904D01*
X162468333Y-115774666D01*
X162468333Y-115536571D01*
X162515952Y-115441333D01*
X162563571Y-115393714D01*
X162658809Y-115346095D01*
X162896904Y-115346095D01*
X162992142Y-115393714D01*
X163039761Y-115441333D01*
X163087380Y-115536571D01*
X163087380Y-115774666D01*
X163039761Y-115869904D01*
X162992142Y-115917523D01*
G04 #@! TO.C,C36*
X161570142Y-117329857D02*
X161617761Y-117377476D01*
X161665380Y-117520333D01*
X161665380Y-117615571D01*
X161617761Y-117758428D01*
X161522523Y-117853666D01*
X161427285Y-117901285D01*
X161236809Y-117948904D01*
X161093952Y-117948904D01*
X160903476Y-117901285D01*
X160808238Y-117853666D01*
X160713000Y-117758428D01*
X160665380Y-117615571D01*
X160665380Y-117520333D01*
X160713000Y-117377476D01*
X160760619Y-117329857D01*
X160665380Y-116996523D02*
X160665380Y-116377476D01*
X161046333Y-116710809D01*
X161046333Y-116567952D01*
X161093952Y-116472714D01*
X161141571Y-116425095D01*
X161236809Y-116377476D01*
X161474904Y-116377476D01*
X161570142Y-116425095D01*
X161617761Y-116472714D01*
X161665380Y-116567952D01*
X161665380Y-116853666D01*
X161617761Y-116948904D01*
X161570142Y-116996523D01*
X160665380Y-115520333D02*
X160665380Y-115710809D01*
X160713000Y-115806047D01*
X160760619Y-115853666D01*
X160903476Y-115948904D01*
X161093952Y-115996523D01*
X161474904Y-115996523D01*
X161570142Y-115948904D01*
X161617761Y-115901285D01*
X161665380Y-115806047D01*
X161665380Y-115615571D01*
X161617761Y-115520333D01*
X161570142Y-115472714D01*
X161474904Y-115425095D01*
X161236809Y-115425095D01*
X161141571Y-115472714D01*
X161093952Y-115520333D01*
X161046333Y-115615571D01*
X161046333Y-115806047D01*
X161093952Y-115901285D01*
X161141571Y-115948904D01*
X161236809Y-115996523D01*
G04 #@! TO.C,C37*
X159978142Y-117217857D02*
X160025761Y-117265476D01*
X160073380Y-117408333D01*
X160073380Y-117503571D01*
X160025761Y-117646428D01*
X159930523Y-117741666D01*
X159835285Y-117789285D01*
X159644809Y-117836904D01*
X159501952Y-117836904D01*
X159311476Y-117789285D01*
X159216238Y-117741666D01*
X159121000Y-117646428D01*
X159073380Y-117503571D01*
X159073380Y-117408333D01*
X159121000Y-117265476D01*
X159168619Y-117217857D01*
X159073380Y-116884523D02*
X159073380Y-116265476D01*
X159454333Y-116598809D01*
X159454333Y-116455952D01*
X159501952Y-116360714D01*
X159549571Y-116313095D01*
X159644809Y-116265476D01*
X159882904Y-116265476D01*
X159978142Y-116313095D01*
X160025761Y-116360714D01*
X160073380Y-116455952D01*
X160073380Y-116741666D01*
X160025761Y-116836904D01*
X159978142Y-116884523D01*
X159073380Y-115932142D02*
X159073380Y-115265476D01*
X160073380Y-115694047D01*
G04 #@! TO.C,C64*
X135090142Y-105629857D02*
X135137761Y-105677476D01*
X135185380Y-105820333D01*
X135185380Y-105915571D01*
X135137761Y-106058428D01*
X135042523Y-106153666D01*
X134947285Y-106201285D01*
X134756809Y-106248904D01*
X134613952Y-106248904D01*
X134423476Y-106201285D01*
X134328238Y-106153666D01*
X134233000Y-106058428D01*
X134185380Y-105915571D01*
X134185380Y-105820333D01*
X134233000Y-105677476D01*
X134280619Y-105629857D01*
X134185380Y-104772714D02*
X134185380Y-104963190D01*
X134233000Y-105058428D01*
X134280619Y-105106047D01*
X134423476Y-105201285D01*
X134613952Y-105248904D01*
X134994904Y-105248904D01*
X135090142Y-105201285D01*
X135137761Y-105153666D01*
X135185380Y-105058428D01*
X135185380Y-104867952D01*
X135137761Y-104772714D01*
X135090142Y-104725095D01*
X134994904Y-104677476D01*
X134756809Y-104677476D01*
X134661571Y-104725095D01*
X134613952Y-104772714D01*
X134566333Y-104867952D01*
X134566333Y-105058428D01*
X134613952Y-105153666D01*
X134661571Y-105201285D01*
X134756809Y-105248904D01*
X134518714Y-103820333D02*
X135185380Y-103820333D01*
X134137761Y-104058428D02*
X134852047Y-104296523D01*
X134852047Y-103677476D01*
G04 #@! TO.C,C65*
X135194942Y-150637857D02*
X135242561Y-150685476D01*
X135290180Y-150828333D01*
X135290180Y-150923571D01*
X135242561Y-151066428D01*
X135147323Y-151161666D01*
X135052085Y-151209285D01*
X134861609Y-151256904D01*
X134718752Y-151256904D01*
X134528276Y-151209285D01*
X134433038Y-151161666D01*
X134337800Y-151066428D01*
X134290180Y-150923571D01*
X134290180Y-150828333D01*
X134337800Y-150685476D01*
X134385419Y-150637857D01*
X134290180Y-149780714D02*
X134290180Y-149971190D01*
X134337800Y-150066428D01*
X134385419Y-150114047D01*
X134528276Y-150209285D01*
X134718752Y-150256904D01*
X135099704Y-150256904D01*
X135194942Y-150209285D01*
X135242561Y-150161666D01*
X135290180Y-150066428D01*
X135290180Y-149875952D01*
X135242561Y-149780714D01*
X135194942Y-149733095D01*
X135099704Y-149685476D01*
X134861609Y-149685476D01*
X134766371Y-149733095D01*
X134718752Y-149780714D01*
X134671133Y-149875952D01*
X134671133Y-150066428D01*
X134718752Y-150161666D01*
X134766371Y-150209285D01*
X134861609Y-150256904D01*
X134290180Y-148780714D02*
X134290180Y-149256904D01*
X134766371Y-149304523D01*
X134718752Y-149256904D01*
X134671133Y-149161666D01*
X134671133Y-148923571D01*
X134718752Y-148828333D01*
X134766371Y-148780714D01*
X134861609Y-148733095D01*
X135099704Y-148733095D01*
X135194942Y-148780714D01*
X135242561Y-148828333D01*
X135290180Y-148923571D01*
X135290180Y-149161666D01*
X135242561Y-149256904D01*
X135194942Y-149304523D01*
G04 #@! TO.C,C66*
X125073142Y-150676857D02*
X125120761Y-150724476D01*
X125168380Y-150867333D01*
X125168380Y-150962571D01*
X125120761Y-151105428D01*
X125025523Y-151200666D01*
X124930285Y-151248285D01*
X124739809Y-151295904D01*
X124596952Y-151295904D01*
X124406476Y-151248285D01*
X124311238Y-151200666D01*
X124216000Y-151105428D01*
X124168380Y-150962571D01*
X124168380Y-150867333D01*
X124216000Y-150724476D01*
X124263619Y-150676857D01*
X124168380Y-149819714D02*
X124168380Y-150010190D01*
X124216000Y-150105428D01*
X124263619Y-150153047D01*
X124406476Y-150248285D01*
X124596952Y-150295904D01*
X124977904Y-150295904D01*
X125073142Y-150248285D01*
X125120761Y-150200666D01*
X125168380Y-150105428D01*
X125168380Y-149914952D01*
X125120761Y-149819714D01*
X125073142Y-149772095D01*
X124977904Y-149724476D01*
X124739809Y-149724476D01*
X124644571Y-149772095D01*
X124596952Y-149819714D01*
X124549333Y-149914952D01*
X124549333Y-150105428D01*
X124596952Y-150200666D01*
X124644571Y-150248285D01*
X124739809Y-150295904D01*
X124168380Y-148867333D02*
X124168380Y-149057809D01*
X124216000Y-149153047D01*
X124263619Y-149200666D01*
X124406476Y-149295904D01*
X124596952Y-149343523D01*
X124977904Y-149343523D01*
X125073142Y-149295904D01*
X125120761Y-149248285D01*
X125168380Y-149153047D01*
X125168380Y-148962571D01*
X125120761Y-148867333D01*
X125073142Y-148819714D01*
X124977904Y-148772095D01*
X124739809Y-148772095D01*
X124644571Y-148819714D01*
X124596952Y-148867333D01*
X124549333Y-148962571D01*
X124549333Y-149153047D01*
X124596952Y-149248285D01*
X124644571Y-149295904D01*
X124739809Y-149343523D01*
G04 #@! TO.C,C62*
X125125142Y-105614857D02*
X125172761Y-105662476D01*
X125220380Y-105805333D01*
X125220380Y-105900571D01*
X125172761Y-106043428D01*
X125077523Y-106138666D01*
X124982285Y-106186285D01*
X124791809Y-106233904D01*
X124648952Y-106233904D01*
X124458476Y-106186285D01*
X124363238Y-106138666D01*
X124268000Y-106043428D01*
X124220380Y-105900571D01*
X124220380Y-105805333D01*
X124268000Y-105662476D01*
X124315619Y-105614857D01*
X124220380Y-104757714D02*
X124220380Y-104948190D01*
X124268000Y-105043428D01*
X124315619Y-105091047D01*
X124458476Y-105186285D01*
X124648952Y-105233904D01*
X125029904Y-105233904D01*
X125125142Y-105186285D01*
X125172761Y-105138666D01*
X125220380Y-105043428D01*
X125220380Y-104852952D01*
X125172761Y-104757714D01*
X125125142Y-104710095D01*
X125029904Y-104662476D01*
X124791809Y-104662476D01*
X124696571Y-104710095D01*
X124648952Y-104757714D01*
X124601333Y-104852952D01*
X124601333Y-105043428D01*
X124648952Y-105138666D01*
X124696571Y-105186285D01*
X124791809Y-105233904D01*
X124315619Y-104281523D02*
X124268000Y-104233904D01*
X124220380Y-104138666D01*
X124220380Y-103900571D01*
X124268000Y-103805333D01*
X124315619Y-103757714D01*
X124410857Y-103710095D01*
X124506095Y-103710095D01*
X124648952Y-103757714D01*
X125220380Y-104329142D01*
X125220380Y-103710095D01*
G04 #@! TO.C,C63*
X163576142Y-136822142D02*
X163528523Y-136869761D01*
X163385666Y-136917380D01*
X163290428Y-136917380D01*
X163147571Y-136869761D01*
X163052333Y-136774523D01*
X163004714Y-136679285D01*
X162957095Y-136488809D01*
X162957095Y-136345952D01*
X163004714Y-136155476D01*
X163052333Y-136060238D01*
X163147571Y-135965000D01*
X163290428Y-135917380D01*
X163385666Y-135917380D01*
X163528523Y-135965000D01*
X163576142Y-136012619D01*
X164433285Y-135917380D02*
X164242809Y-135917380D01*
X164147571Y-135965000D01*
X164099952Y-136012619D01*
X164004714Y-136155476D01*
X163957095Y-136345952D01*
X163957095Y-136726904D01*
X164004714Y-136822142D01*
X164052333Y-136869761D01*
X164147571Y-136917380D01*
X164338047Y-136917380D01*
X164433285Y-136869761D01*
X164480904Y-136822142D01*
X164528523Y-136726904D01*
X164528523Y-136488809D01*
X164480904Y-136393571D01*
X164433285Y-136345952D01*
X164338047Y-136298333D01*
X164147571Y-136298333D01*
X164052333Y-136345952D01*
X164004714Y-136393571D01*
X163957095Y-136488809D01*
X164861857Y-135917380D02*
X165480904Y-135917380D01*
X165147571Y-136298333D01*
X165290428Y-136298333D01*
X165385666Y-136345952D01*
X165433285Y-136393571D01*
X165480904Y-136488809D01*
X165480904Y-136726904D01*
X165433285Y-136822142D01*
X165385666Y-136869761D01*
X165290428Y-136917380D01*
X165004714Y-136917380D01*
X164909476Y-136869761D01*
X164861857Y-136822142D01*
G04 #@! TO.C,C57*
X123632142Y-105672857D02*
X123679761Y-105720476D01*
X123727380Y-105863333D01*
X123727380Y-105958571D01*
X123679761Y-106101428D01*
X123584523Y-106196666D01*
X123489285Y-106244285D01*
X123298809Y-106291904D01*
X123155952Y-106291904D01*
X122965476Y-106244285D01*
X122870238Y-106196666D01*
X122775000Y-106101428D01*
X122727380Y-105958571D01*
X122727380Y-105863333D01*
X122775000Y-105720476D01*
X122822619Y-105672857D01*
X122727380Y-104768095D02*
X122727380Y-105244285D01*
X123203571Y-105291904D01*
X123155952Y-105244285D01*
X123108333Y-105149047D01*
X123108333Y-104910952D01*
X123155952Y-104815714D01*
X123203571Y-104768095D01*
X123298809Y-104720476D01*
X123536904Y-104720476D01*
X123632142Y-104768095D01*
X123679761Y-104815714D01*
X123727380Y-104910952D01*
X123727380Y-105149047D01*
X123679761Y-105244285D01*
X123632142Y-105291904D01*
X122727380Y-104387142D02*
X122727380Y-103720476D01*
X123727380Y-104149047D01*
G04 #@! TO.C,C58*
X163589142Y-135172142D02*
X163541523Y-135219761D01*
X163398666Y-135267380D01*
X163303428Y-135267380D01*
X163160571Y-135219761D01*
X163065333Y-135124523D01*
X163017714Y-135029285D01*
X162970095Y-134838809D01*
X162970095Y-134695952D01*
X163017714Y-134505476D01*
X163065333Y-134410238D01*
X163160571Y-134315000D01*
X163303428Y-134267380D01*
X163398666Y-134267380D01*
X163541523Y-134315000D01*
X163589142Y-134362619D01*
X164493904Y-134267380D02*
X164017714Y-134267380D01*
X163970095Y-134743571D01*
X164017714Y-134695952D01*
X164112952Y-134648333D01*
X164351047Y-134648333D01*
X164446285Y-134695952D01*
X164493904Y-134743571D01*
X164541523Y-134838809D01*
X164541523Y-135076904D01*
X164493904Y-135172142D01*
X164446285Y-135219761D01*
X164351047Y-135267380D01*
X164112952Y-135267380D01*
X164017714Y-135219761D01*
X163970095Y-135172142D01*
X165112952Y-134695952D02*
X165017714Y-134648333D01*
X164970095Y-134600714D01*
X164922476Y-134505476D01*
X164922476Y-134457857D01*
X164970095Y-134362619D01*
X165017714Y-134315000D01*
X165112952Y-134267380D01*
X165303428Y-134267380D01*
X165398666Y-134315000D01*
X165446285Y-134362619D01*
X165493904Y-134457857D01*
X165493904Y-134505476D01*
X165446285Y-134600714D01*
X165398666Y-134648333D01*
X165303428Y-134695952D01*
X165112952Y-134695952D01*
X165017714Y-134743571D01*
X164970095Y-134791190D01*
X164922476Y-134886428D01*
X164922476Y-135076904D01*
X164970095Y-135172142D01*
X165017714Y-135219761D01*
X165112952Y-135267380D01*
X165303428Y-135267380D01*
X165398666Y-135219761D01*
X165446285Y-135172142D01*
X165493904Y-135076904D01*
X165493904Y-134886428D01*
X165446285Y-134791190D01*
X165398666Y-134743571D01*
X165303428Y-134695952D01*
G04 #@! TO.C,C59*
X133610142Y-105761857D02*
X133657761Y-105809476D01*
X133705380Y-105952333D01*
X133705380Y-106047571D01*
X133657761Y-106190428D01*
X133562523Y-106285666D01*
X133467285Y-106333285D01*
X133276809Y-106380904D01*
X133133952Y-106380904D01*
X132943476Y-106333285D01*
X132848238Y-106285666D01*
X132753000Y-106190428D01*
X132705380Y-106047571D01*
X132705380Y-105952333D01*
X132753000Y-105809476D01*
X132800619Y-105761857D01*
X132705380Y-104857095D02*
X132705380Y-105333285D01*
X133181571Y-105380904D01*
X133133952Y-105333285D01*
X133086333Y-105238047D01*
X133086333Y-104999952D01*
X133133952Y-104904714D01*
X133181571Y-104857095D01*
X133276809Y-104809476D01*
X133514904Y-104809476D01*
X133610142Y-104857095D01*
X133657761Y-104904714D01*
X133705380Y-104999952D01*
X133705380Y-105238047D01*
X133657761Y-105333285D01*
X133610142Y-105380904D01*
X133705380Y-104333285D02*
X133705380Y-104142809D01*
X133657761Y-104047571D01*
X133610142Y-103999952D01*
X133467285Y-103904714D01*
X133276809Y-103857095D01*
X132895857Y-103857095D01*
X132800619Y-103904714D01*
X132753000Y-103952333D01*
X132705380Y-104047571D01*
X132705380Y-104238047D01*
X132753000Y-104333285D01*
X132800619Y-104380904D01*
X132895857Y-104428523D01*
X133133952Y-104428523D01*
X133229190Y-104380904D01*
X133276809Y-104333285D01*
X133324428Y-104238047D01*
X133324428Y-104047571D01*
X133276809Y-103952333D01*
X133229190Y-103904714D01*
X133133952Y-103857095D01*
G04 #@! TO.C,C60*
X133565542Y-150606657D02*
X133613161Y-150654276D01*
X133660780Y-150797133D01*
X133660780Y-150892371D01*
X133613161Y-151035228D01*
X133517923Y-151130466D01*
X133422685Y-151178085D01*
X133232209Y-151225704D01*
X133089352Y-151225704D01*
X132898876Y-151178085D01*
X132803638Y-151130466D01*
X132708400Y-151035228D01*
X132660780Y-150892371D01*
X132660780Y-150797133D01*
X132708400Y-150654276D01*
X132756019Y-150606657D01*
X132660780Y-149749514D02*
X132660780Y-149939990D01*
X132708400Y-150035228D01*
X132756019Y-150082847D01*
X132898876Y-150178085D01*
X133089352Y-150225704D01*
X133470304Y-150225704D01*
X133565542Y-150178085D01*
X133613161Y-150130466D01*
X133660780Y-150035228D01*
X133660780Y-149844752D01*
X133613161Y-149749514D01*
X133565542Y-149701895D01*
X133470304Y-149654276D01*
X133232209Y-149654276D01*
X133136971Y-149701895D01*
X133089352Y-149749514D01*
X133041733Y-149844752D01*
X133041733Y-150035228D01*
X133089352Y-150130466D01*
X133136971Y-150178085D01*
X133232209Y-150225704D01*
X132660780Y-149035228D02*
X132660780Y-148939990D01*
X132708400Y-148844752D01*
X132756019Y-148797133D01*
X132851257Y-148749514D01*
X133041733Y-148701895D01*
X133279828Y-148701895D01*
X133470304Y-148749514D01*
X133565542Y-148797133D01*
X133613161Y-148844752D01*
X133660780Y-148939990D01*
X133660780Y-149035228D01*
X133613161Y-149130466D01*
X133565542Y-149178085D01*
X133470304Y-149225704D01*
X133279828Y-149273323D01*
X133041733Y-149273323D01*
X132851257Y-149225704D01*
X132756019Y-149178085D01*
X132708400Y-149130466D01*
X132660780Y-149035228D01*
G04 #@! TO.C,C61*
X123492142Y-150647857D02*
X123539761Y-150695476D01*
X123587380Y-150838333D01*
X123587380Y-150933571D01*
X123539761Y-151076428D01*
X123444523Y-151171666D01*
X123349285Y-151219285D01*
X123158809Y-151266904D01*
X123015952Y-151266904D01*
X122825476Y-151219285D01*
X122730238Y-151171666D01*
X122635000Y-151076428D01*
X122587380Y-150933571D01*
X122587380Y-150838333D01*
X122635000Y-150695476D01*
X122682619Y-150647857D01*
X122587380Y-149790714D02*
X122587380Y-149981190D01*
X122635000Y-150076428D01*
X122682619Y-150124047D01*
X122825476Y-150219285D01*
X123015952Y-150266904D01*
X123396904Y-150266904D01*
X123492142Y-150219285D01*
X123539761Y-150171666D01*
X123587380Y-150076428D01*
X123587380Y-149885952D01*
X123539761Y-149790714D01*
X123492142Y-149743095D01*
X123396904Y-149695476D01*
X123158809Y-149695476D01*
X123063571Y-149743095D01*
X123015952Y-149790714D01*
X122968333Y-149885952D01*
X122968333Y-150076428D01*
X123015952Y-150171666D01*
X123063571Y-150219285D01*
X123158809Y-150266904D01*
X123587380Y-148743095D02*
X123587380Y-149314523D01*
X123587380Y-149028809D02*
X122587380Y-149028809D01*
X122730238Y-149124047D01*
X122825476Y-149219285D01*
X122873095Y-149314523D01*
G04 #@! TO.C,C38*
X158274142Y-117233857D02*
X158321761Y-117281476D01*
X158369380Y-117424333D01*
X158369380Y-117519571D01*
X158321761Y-117662428D01*
X158226523Y-117757666D01*
X158131285Y-117805285D01*
X157940809Y-117852904D01*
X157797952Y-117852904D01*
X157607476Y-117805285D01*
X157512238Y-117757666D01*
X157417000Y-117662428D01*
X157369380Y-117519571D01*
X157369380Y-117424333D01*
X157417000Y-117281476D01*
X157464619Y-117233857D01*
X157369380Y-116900523D02*
X157369380Y-116281476D01*
X157750333Y-116614809D01*
X157750333Y-116471952D01*
X157797952Y-116376714D01*
X157845571Y-116329095D01*
X157940809Y-116281476D01*
X158178904Y-116281476D01*
X158274142Y-116329095D01*
X158321761Y-116376714D01*
X158369380Y-116471952D01*
X158369380Y-116757666D01*
X158321761Y-116852904D01*
X158274142Y-116900523D01*
X157797952Y-115710047D02*
X157750333Y-115805285D01*
X157702714Y-115852904D01*
X157607476Y-115900523D01*
X157559857Y-115900523D01*
X157464619Y-115852904D01*
X157417000Y-115805285D01*
X157369380Y-115710047D01*
X157369380Y-115519571D01*
X157417000Y-115424333D01*
X157464619Y-115376714D01*
X157559857Y-115329095D01*
X157607476Y-115329095D01*
X157702714Y-115376714D01*
X157750333Y-115424333D01*
X157797952Y-115519571D01*
X157797952Y-115710047D01*
X157845571Y-115805285D01*
X157893190Y-115852904D01*
X157988428Y-115900523D01*
X158178904Y-115900523D01*
X158274142Y-115852904D01*
X158321761Y-115805285D01*
X158369380Y-115710047D01*
X158369380Y-115519571D01*
X158321761Y-115424333D01*
X158274142Y-115376714D01*
X158178904Y-115329095D01*
X157988428Y-115329095D01*
X157893190Y-115376714D01*
X157845571Y-115424333D01*
X157797952Y-115519571D01*
G04 #@! TO.C,P4*
X195452380Y-129338095D02*
X194452380Y-129338095D01*
X194452380Y-128957142D01*
X194500000Y-128861904D01*
X194547619Y-128814285D01*
X194642857Y-128766666D01*
X194785714Y-128766666D01*
X194880952Y-128814285D01*
X194928571Y-128861904D01*
X194976190Y-128957142D01*
X194976190Y-129338095D01*
X194785714Y-127909523D02*
X195452380Y-127909523D01*
X194404761Y-128147619D02*
X195119047Y-128385714D01*
X195119047Y-127766666D01*
G04 #@! TO.C,P1*
X176755380Y-111611095D02*
X175755380Y-111611095D01*
X175755380Y-111230142D01*
X175803000Y-111134904D01*
X175850619Y-111087285D01*
X175945857Y-111039666D01*
X176088714Y-111039666D01*
X176183952Y-111087285D01*
X176231571Y-111134904D01*
X176279190Y-111230142D01*
X176279190Y-111611095D01*
X176755380Y-110087285D02*
X176755380Y-110658714D01*
X176755380Y-110373000D02*
X175755380Y-110373000D01*
X175898238Y-110468238D01*
X175993476Y-110563476D01*
X176041095Y-110658714D01*
G04 #@! TO.C,U1*
D11*
X118055380Y-125674904D02*
X118864904Y-125674904D01*
X118960142Y-125627285D01*
X119007761Y-125579666D01*
X119055380Y-125484428D01*
X119055380Y-125293952D01*
X119007761Y-125198714D01*
X118960142Y-125151095D01*
X118864904Y-125103476D01*
X118055380Y-125103476D01*
X119055380Y-124103476D02*
X119055380Y-124674904D01*
X119055380Y-124389190D02*
X118055380Y-124389190D01*
X118198238Y-124484428D01*
X118293476Y-124579666D01*
X118341095Y-124674904D01*
G04 #@! TO.C,U2*
X124055380Y-125674904D02*
X124864904Y-125674904D01*
X124960142Y-125627285D01*
X125007761Y-125579666D01*
X125055380Y-125484428D01*
X125055380Y-125293952D01*
X125007761Y-125198714D01*
X124960142Y-125151095D01*
X124864904Y-125103476D01*
X124055380Y-125103476D01*
X124150619Y-124674904D02*
X124103000Y-124627285D01*
X124055380Y-124532047D01*
X124055380Y-124293952D01*
X124103000Y-124198714D01*
X124150619Y-124151095D01*
X124245857Y-124103476D01*
X124341095Y-124103476D01*
X124483952Y-124151095D01*
X125055380Y-124722523D01*
X125055380Y-124103476D01*
G04 #@! TO.C,U3*
X130055380Y-125674904D02*
X130864904Y-125674904D01*
X130960142Y-125627285D01*
X131007761Y-125579666D01*
X131055380Y-125484428D01*
X131055380Y-125293952D01*
X131007761Y-125198714D01*
X130960142Y-125151095D01*
X130864904Y-125103476D01*
X130055380Y-125103476D01*
X130055380Y-124722523D02*
X130055380Y-124103476D01*
X130436333Y-124436809D01*
X130436333Y-124293952D01*
X130483952Y-124198714D01*
X130531571Y-124151095D01*
X130626809Y-124103476D01*
X130864904Y-124103476D01*
X130960142Y-124151095D01*
X131007761Y-124198714D01*
X131055380Y-124293952D01*
X131055380Y-124579666D01*
X131007761Y-124674904D01*
X130960142Y-124722523D01*
G04 #@! TO.C,U4*
X136055380Y-125674904D02*
X136864904Y-125674904D01*
X136960142Y-125627285D01*
X137007761Y-125579666D01*
X137055380Y-125484428D01*
X137055380Y-125293952D01*
X137007761Y-125198714D01*
X136960142Y-125151095D01*
X136864904Y-125103476D01*
X136055380Y-125103476D01*
X136388714Y-124198714D02*
X137055380Y-124198714D01*
X136007761Y-124436809D02*
X136722047Y-124674904D01*
X136722047Y-124055857D01*
G04 #@! TO.C,U5*
X142055380Y-125674904D02*
X142864904Y-125674904D01*
X142960142Y-125627285D01*
X143007761Y-125579666D01*
X143055380Y-125484428D01*
X143055380Y-125293952D01*
X143007761Y-125198714D01*
X142960142Y-125151095D01*
X142864904Y-125103476D01*
X142055380Y-125103476D01*
X142055380Y-124151095D02*
X142055380Y-124627285D01*
X142531571Y-124674904D01*
X142483952Y-124627285D01*
X142436333Y-124532047D01*
X142436333Y-124293952D01*
X142483952Y-124198714D01*
X142531571Y-124151095D01*
X142626809Y-124103476D01*
X142864904Y-124103476D01*
X142960142Y-124151095D01*
X143007761Y-124198714D01*
X143055380Y-124293952D01*
X143055380Y-124532047D01*
X143007761Y-124627285D01*
X142960142Y-124674904D01*
G04 #@! TO.C,U6*
X148055380Y-125674904D02*
X148864904Y-125674904D01*
X148960142Y-125627285D01*
X149007761Y-125579666D01*
X149055380Y-125484428D01*
X149055380Y-125293952D01*
X149007761Y-125198714D01*
X148960142Y-125151095D01*
X148864904Y-125103476D01*
X148055380Y-125103476D01*
X148055380Y-124198714D02*
X148055380Y-124389190D01*
X148103000Y-124484428D01*
X148150619Y-124532047D01*
X148293476Y-124627285D01*
X148483952Y-124674904D01*
X148864904Y-124674904D01*
X148960142Y-124627285D01*
X149007761Y-124579666D01*
X149055380Y-124484428D01*
X149055380Y-124293952D01*
X149007761Y-124198714D01*
X148960142Y-124151095D01*
X148864904Y-124103476D01*
X148626809Y-124103476D01*
X148531571Y-124151095D01*
X148483952Y-124198714D01*
X148436333Y-124293952D01*
X148436333Y-124484428D01*
X148483952Y-124579666D01*
X148531571Y-124627285D01*
X148626809Y-124674904D01*
G04 #@! TO.C,J1*
D14*
X162816571Y-108190857D02*
X163034285Y-108263428D01*
X163397142Y-108263428D01*
X163542285Y-108190857D01*
X163614857Y-108118285D01*
X163687428Y-107973142D01*
X163687428Y-107828000D01*
X163614857Y-107682857D01*
X163542285Y-107610285D01*
X163397142Y-107537714D01*
X163106857Y-107465142D01*
X162961714Y-107392571D01*
X162889142Y-107320000D01*
X162816571Y-107174857D01*
X162816571Y-107029714D01*
X162889142Y-106884571D01*
X162961714Y-106812000D01*
X163106857Y-106739428D01*
X163469714Y-106739428D01*
X163687428Y-106812000D01*
X164340571Y-108263428D02*
X164340571Y-106739428D01*
X164848571Y-107828000D01*
X165356571Y-106739428D01*
X165356571Y-108263428D01*
X166009714Y-107828000D02*
X166735428Y-107828000D01*
X165864571Y-108263428D02*
X166372571Y-106739428D01*
X166880571Y-108263428D01*
G04 #@! TO.C,J2*
X175042571Y-108078857D02*
X175260285Y-108151428D01*
X175623142Y-108151428D01*
X175768285Y-108078857D01*
X175840857Y-108006285D01*
X175913428Y-107861142D01*
X175913428Y-107716000D01*
X175840857Y-107570857D01*
X175768285Y-107498285D01*
X175623142Y-107425714D01*
X175332857Y-107353142D01*
X175187714Y-107280571D01*
X175115142Y-107208000D01*
X175042571Y-107062857D01*
X175042571Y-106917714D01*
X175115142Y-106772571D01*
X175187714Y-106700000D01*
X175332857Y-106627428D01*
X175695714Y-106627428D01*
X175913428Y-106700000D01*
X176566571Y-108151428D02*
X176566571Y-106627428D01*
X177074571Y-107716000D01*
X177582571Y-106627428D01*
X177582571Y-108151428D01*
X178235714Y-107716000D02*
X178961428Y-107716000D01*
X178090571Y-108151428D02*
X178598571Y-106627428D01*
X179106571Y-108151428D01*
G04 #@! TD*
M02*
