G04 #@! TF.GenerationSoftware,KiCad,Pcbnew,(5.0.2)-1*
G04 #@! TF.CreationDate,2019-03-27T14:59:42+01:00*
G04 #@! TF.ProjectId,AutoTestBoard_v1,4175746f-5465-4737-9442-6f6172645f76,rev?*
G04 #@! TF.SameCoordinates,Original*
G04 #@! TF.FileFunction,Legend,Bot*
G04 #@! TF.FilePolarity,Positive*
%FSLAX46Y46*%
G04 Gerber Fmt 4.6, Leading zero omitted, Abs format (unit mm)*
G04 Created by KiCad (PCBNEW (5.0.2)-1) date 27.03.2019 14:59:42*
%MOMM*%
%LPD*%
G01*
G04 APERTURE LIST*
%ADD10C,0.150000*%
%ADD11C,0.100000*%
%ADD12C,0.050000*%
G04 APERTURE END LIST*
D10*
G04 #@! TO.C,R33*
X174250000Y-149253000D02*
X173750000Y-149253000D01*
X173750000Y-148303000D02*
X174250000Y-148303000D01*
G04 #@! TO.C,R32*
X173745000Y-137365000D02*
X174245000Y-137365000D01*
X174245000Y-138315000D02*
X173745000Y-138315000D01*
G04 #@! TO.C,R36*
X174256000Y-148056000D02*
X173756000Y-148056000D01*
X173756000Y-147106000D02*
X174256000Y-147106000D01*
G04 #@! TO.C,R35*
X174250000Y-150452000D02*
X173750000Y-150452000D01*
X173750000Y-149502000D02*
X174250000Y-149502000D01*
G04 #@! TO.C,R34*
X173744000Y-138576000D02*
X174244000Y-138576000D01*
X174244000Y-139526000D02*
X173744000Y-139526000D01*
G04 #@! TO.C,R31*
X174260000Y-146829000D02*
X173760000Y-146829000D01*
X173760000Y-145879000D02*
X174260000Y-145879000D01*
G04 #@! TO.C,R15*
X157253000Y-130015000D02*
X156753000Y-130015000D01*
X156753000Y-129065000D02*
X157253000Y-129065000D01*
G04 #@! TO.C,R30*
X173744000Y-134934000D02*
X174244000Y-134934000D01*
X174244000Y-135884000D02*
X173744000Y-135884000D01*
G04 #@! TO.C,R29*
X174260000Y-145594000D02*
X173760000Y-145594000D01*
X173760000Y-144644000D02*
X174260000Y-144644000D01*
G04 #@! TO.C,R28*
X173742000Y-133717000D02*
X174242000Y-133717000D01*
X174242000Y-134667000D02*
X173742000Y-134667000D01*
G04 #@! TO.C,R27*
X174244000Y-144375000D02*
X173744000Y-144375000D01*
X173744000Y-143425000D02*
X174244000Y-143425000D01*
G04 #@! TO.C,R26*
X173749000Y-132513000D02*
X174249000Y-132513000D01*
X174249000Y-133463000D02*
X173749000Y-133463000D01*
G04 #@! TO.C,R14*
X156755000Y-140977000D02*
X157255000Y-140977000D01*
X157255000Y-141927000D02*
X156755000Y-141927000D01*
G04 #@! TO.C,R23*
X173759000Y-131284000D02*
X174259000Y-131284000D01*
X174259000Y-132234000D02*
X173759000Y-132234000D01*
G04 #@! TO.C,R22*
X174251000Y-141931000D02*
X173751000Y-141931000D01*
X173751000Y-140981000D02*
X174251000Y-140981000D01*
G04 #@! TO.C,R21*
X173749000Y-130045000D02*
X174249000Y-130045000D01*
X174249000Y-130995000D02*
X173749000Y-130995000D01*
G04 #@! TO.C,R19*
X174250000Y-140725000D02*
X173750000Y-140725000D01*
X173750000Y-139775000D02*
X174250000Y-139775000D01*
G04 #@! TO.C,R18*
X173739000Y-128816000D02*
X174239000Y-128816000D01*
X174239000Y-129766000D02*
X173739000Y-129766000D01*
G04 #@! TO.C,R17*
X174244000Y-137094000D02*
X173744000Y-137094000D01*
X173744000Y-136144000D02*
X174244000Y-136144000D01*
G04 #@! TO.C,R16*
X156750000Y-139775000D02*
X157250000Y-139775000D01*
X157250000Y-140725000D02*
X156750000Y-140725000D01*
G04 #@! TO.C,R24*
X174251000Y-143153000D02*
X173751000Y-143153000D01*
X173751000Y-142203000D02*
X174251000Y-142203000D01*
G04 #@! TO.C,R13*
X157253000Y-131223000D02*
X156753000Y-131223000D01*
X156753000Y-130273000D02*
X157253000Y-130273000D01*
G04 #@! TO.C,R12*
X156747000Y-142179000D02*
X157247000Y-142179000D01*
X157247000Y-143129000D02*
X156747000Y-143129000D01*
G04 #@! TO.C,R11*
X157251000Y-132421000D02*
X156751000Y-132421000D01*
X156751000Y-131471000D02*
X157251000Y-131471000D01*
G04 #@! TO.C,R10*
X156749000Y-143388000D02*
X157249000Y-143388000D01*
X157249000Y-144338000D02*
X156749000Y-144338000D01*
G04 #@! TO.C,R9*
X157248000Y-133633000D02*
X156748000Y-133633000D01*
X156748000Y-132683000D02*
X157248000Y-132683000D01*
G04 #@! TO.C,R8*
X156740000Y-144593000D02*
X157240000Y-144593000D01*
X157240000Y-145543000D02*
X156740000Y-145543000D01*
G04 #@! TO.C,R7*
X157245000Y-134842000D02*
X156745000Y-134842000D01*
X156745000Y-133892000D02*
X157245000Y-133892000D01*
G04 #@! TO.C,R6*
X156734000Y-145802000D02*
X157234000Y-145802000D01*
X157234000Y-146752000D02*
X156734000Y-146752000D01*
G04 #@! TO.C,R5*
X157245000Y-136038000D02*
X156745000Y-136038000D01*
X156745000Y-135088000D02*
X157245000Y-135088000D01*
G04 #@! TO.C,R4*
X156743000Y-147012000D02*
X157243000Y-147012000D01*
X157243000Y-147962000D02*
X156743000Y-147962000D01*
G04 #@! TO.C,R3*
X157247000Y-137261000D02*
X156747000Y-137261000D01*
X156747000Y-136311000D02*
X157247000Y-136311000D01*
G04 #@! TO.C,R2*
X156734000Y-148221000D02*
X157234000Y-148221000D01*
X157234000Y-149171000D02*
X156734000Y-149171000D01*
G04 #@! TO.C,R1*
X157250000Y-138475000D02*
X156750000Y-138475000D01*
X156750000Y-137525000D02*
X157250000Y-137525000D01*
G04 #@! TO.C,C10*
X140307000Y-124824000D02*
X140307000Y-125524000D01*
X141507000Y-125524000D02*
X141507000Y-124824000D01*
G04 #@! TO.C,C11*
X146245000Y-124920000D02*
X146245000Y-125620000D01*
X147445000Y-125620000D02*
X147445000Y-124920000D01*
G04 #@! TO.C,C12*
X152333000Y-124897000D02*
X152333000Y-125597000D01*
X153533000Y-125597000D02*
X153533000Y-124897000D01*
G04 #@! TO.C,C1*
X120532600Y-124948200D02*
X120532600Y-125648200D01*
X121732600Y-125648200D02*
X121732600Y-124948200D01*
G04 #@! TO.C,C2*
X126597000Y-124948000D02*
X126597000Y-125648000D01*
X127797000Y-125648000D02*
X127797000Y-124948000D01*
G04 #@! TO.C,C3*
X132727000Y-124946000D02*
X132727000Y-125646000D01*
X133927000Y-125646000D02*
X133927000Y-124946000D01*
G04 #@! TO.C,C4*
X138791000Y-124839000D02*
X138791000Y-125539000D01*
X139991000Y-125539000D02*
X139991000Y-124839000D01*
G04 #@! TO.C,C5*
X144728000Y-124905000D02*
X144728000Y-125605000D01*
X145928000Y-125605000D02*
X145928000Y-124905000D01*
G04 #@! TO.C,C6*
X150826000Y-124903000D02*
X150826000Y-125603000D01*
X152026000Y-125603000D02*
X152026000Y-124903000D01*
G04 #@! TO.C,C7*
X122056600Y-124948200D02*
X122056600Y-125648200D01*
X123256600Y-125648200D02*
X123256600Y-124948200D01*
G04 #@! TO.C,C8*
X128101800Y-124948200D02*
X128101800Y-125648200D01*
X129301800Y-125648200D02*
X129301800Y-124948200D01*
G04 #@! TO.C,C9*
X134233000Y-124938000D02*
X134233000Y-125638000D01*
X135433000Y-125638000D02*
X135433000Y-124938000D01*
G04 #@! TO.C,U14*
X127925000Y-145400000D02*
X122875000Y-145400000D01*
X127925000Y-148600000D02*
X127925000Y-145400000D01*
X122075000Y-148600000D02*
X127925000Y-148600000D01*
X122075000Y-146200000D02*
X122075000Y-148600000D01*
X122875000Y-145400000D02*
X122075000Y-146200000D01*
G04 #@! TO.C,U12*
X147925000Y-145400000D02*
X142875000Y-145400000D01*
X147925000Y-148600000D02*
X147925000Y-145400000D01*
X142075000Y-148600000D02*
X147925000Y-148600000D01*
X142075000Y-146200000D02*
X142075000Y-148600000D01*
X142875000Y-145400000D02*
X142075000Y-146200000D01*
G04 #@! TO.C,U11*
X137925000Y-100400000D02*
X132875000Y-100400000D01*
X137925000Y-103600000D02*
X137925000Y-100400000D01*
X132075000Y-103600000D02*
X137925000Y-103600000D01*
X132075000Y-101200000D02*
X132075000Y-103600000D01*
X132875000Y-100400000D02*
X132075000Y-101200000D01*
G04 #@! TO.C,U13*
X137925000Y-145400000D02*
X132875000Y-145400000D01*
X137925000Y-148600000D02*
X137925000Y-145400000D01*
X132075000Y-148600000D02*
X137925000Y-148600000D01*
X132075000Y-146200000D02*
X132075000Y-148600000D01*
X132875000Y-145400000D02*
X132075000Y-146200000D01*
G04 #@! TO.C,U10*
X127925000Y-100400000D02*
X122875000Y-100400000D01*
X127925000Y-103600000D02*
X127925000Y-100400000D01*
X122075000Y-103600000D02*
X127925000Y-103600000D01*
X122075000Y-101200000D02*
X122075000Y-103600000D01*
X122875000Y-100400000D02*
X122075000Y-101200000D01*
D11*
G04 #@! TO.C,U7*
X162168400Y-128119400D02*
X169051800Y-128119400D01*
X169051800Y-128119400D02*
X169051800Y-138000000D01*
X169051800Y-138000000D02*
X162016000Y-138000000D01*
X162016000Y-138000000D02*
X162016000Y-128119400D01*
X162016000Y-128119400D02*
X162143000Y-128119400D01*
D10*
X163007446Y-137390400D02*
G75*
G03X163007446Y-137390400I-381846J0D01*
G01*
D11*
G04 #@! TO.C,U9*
X162168400Y-140119400D02*
X169051800Y-140119400D01*
X169051800Y-140119400D02*
X169051800Y-150000000D01*
X169051800Y-150000000D02*
X162016000Y-150000000D01*
X162016000Y-150000000D02*
X162016000Y-140119400D01*
X162016000Y-140119400D02*
X162143000Y-140119400D01*
D10*
X163007446Y-149390400D02*
G75*
G03X163007446Y-149390400I-381846J0D01*
G01*
G04 #@! TO.C,R33*
X177287857Y-149351380D02*
X177621190Y-148875190D01*
X177859285Y-149351380D02*
X177859285Y-148351380D01*
X177478333Y-148351380D01*
X177383095Y-148399000D01*
X177335476Y-148446619D01*
X177287857Y-148541857D01*
X177287857Y-148684714D01*
X177335476Y-148779952D01*
X177383095Y-148827571D01*
X177478333Y-148875190D01*
X177859285Y-148875190D01*
X176954523Y-148351380D02*
X176335476Y-148351380D01*
X176668809Y-148732333D01*
X176525952Y-148732333D01*
X176430714Y-148779952D01*
X176383095Y-148827571D01*
X176335476Y-148922809D01*
X176335476Y-149160904D01*
X176383095Y-149256142D01*
X176430714Y-149303761D01*
X176525952Y-149351380D01*
X176811666Y-149351380D01*
X176906904Y-149303761D01*
X176954523Y-149256142D01*
X176002142Y-148351380D02*
X175383095Y-148351380D01*
X175716428Y-148732333D01*
X175573571Y-148732333D01*
X175478333Y-148779952D01*
X175430714Y-148827571D01*
X175383095Y-148922809D01*
X175383095Y-149160904D01*
X175430714Y-149256142D01*
X175478333Y-149303761D01*
X175573571Y-149351380D01*
X175859285Y-149351380D01*
X175954523Y-149303761D01*
X176002142Y-149256142D01*
G04 #@! TO.C,R32*
X177195857Y-138329380D02*
X177529190Y-137853190D01*
X177767285Y-138329380D02*
X177767285Y-137329380D01*
X177386333Y-137329380D01*
X177291095Y-137377000D01*
X177243476Y-137424619D01*
X177195857Y-137519857D01*
X177195857Y-137662714D01*
X177243476Y-137757952D01*
X177291095Y-137805571D01*
X177386333Y-137853190D01*
X177767285Y-137853190D01*
X176862523Y-137329380D02*
X176243476Y-137329380D01*
X176576809Y-137710333D01*
X176433952Y-137710333D01*
X176338714Y-137757952D01*
X176291095Y-137805571D01*
X176243476Y-137900809D01*
X176243476Y-138138904D01*
X176291095Y-138234142D01*
X176338714Y-138281761D01*
X176433952Y-138329380D01*
X176719666Y-138329380D01*
X176814904Y-138281761D01*
X176862523Y-138234142D01*
X175862523Y-137424619D02*
X175814904Y-137377000D01*
X175719666Y-137329380D01*
X175481571Y-137329380D01*
X175386333Y-137377000D01*
X175338714Y-137424619D01*
X175291095Y-137519857D01*
X175291095Y-137615095D01*
X175338714Y-137757952D01*
X175910142Y-138329380D01*
X175291095Y-138329380D01*
G04 #@! TO.C,R36*
X177287857Y-148108380D02*
X177621190Y-147632190D01*
X177859285Y-148108380D02*
X177859285Y-147108380D01*
X177478333Y-147108380D01*
X177383095Y-147156000D01*
X177335476Y-147203619D01*
X177287857Y-147298857D01*
X177287857Y-147441714D01*
X177335476Y-147536952D01*
X177383095Y-147584571D01*
X177478333Y-147632190D01*
X177859285Y-147632190D01*
X176954523Y-147108380D02*
X176335476Y-147108380D01*
X176668809Y-147489333D01*
X176525952Y-147489333D01*
X176430714Y-147536952D01*
X176383095Y-147584571D01*
X176335476Y-147679809D01*
X176335476Y-147917904D01*
X176383095Y-148013142D01*
X176430714Y-148060761D01*
X176525952Y-148108380D01*
X176811666Y-148108380D01*
X176906904Y-148060761D01*
X176954523Y-148013142D01*
X175478333Y-147108380D02*
X175668809Y-147108380D01*
X175764047Y-147156000D01*
X175811666Y-147203619D01*
X175906904Y-147346476D01*
X175954523Y-147536952D01*
X175954523Y-147917904D01*
X175906904Y-148013142D01*
X175859285Y-148060761D01*
X175764047Y-148108380D01*
X175573571Y-148108380D01*
X175478333Y-148060761D01*
X175430714Y-148013142D01*
X175383095Y-147917904D01*
X175383095Y-147679809D01*
X175430714Y-147584571D01*
X175478333Y-147536952D01*
X175573571Y-147489333D01*
X175764047Y-147489333D01*
X175859285Y-147536952D01*
X175906904Y-147584571D01*
X175954523Y-147679809D01*
G04 #@! TO.C,R35*
X177262857Y-150593380D02*
X177596190Y-150117190D01*
X177834285Y-150593380D02*
X177834285Y-149593380D01*
X177453333Y-149593380D01*
X177358095Y-149641000D01*
X177310476Y-149688619D01*
X177262857Y-149783857D01*
X177262857Y-149926714D01*
X177310476Y-150021952D01*
X177358095Y-150069571D01*
X177453333Y-150117190D01*
X177834285Y-150117190D01*
X176929523Y-149593380D02*
X176310476Y-149593380D01*
X176643809Y-149974333D01*
X176500952Y-149974333D01*
X176405714Y-150021952D01*
X176358095Y-150069571D01*
X176310476Y-150164809D01*
X176310476Y-150402904D01*
X176358095Y-150498142D01*
X176405714Y-150545761D01*
X176500952Y-150593380D01*
X176786666Y-150593380D01*
X176881904Y-150545761D01*
X176929523Y-150498142D01*
X175405714Y-149593380D02*
X175881904Y-149593380D01*
X175929523Y-150069571D01*
X175881904Y-150021952D01*
X175786666Y-149974333D01*
X175548571Y-149974333D01*
X175453333Y-150021952D01*
X175405714Y-150069571D01*
X175358095Y-150164809D01*
X175358095Y-150402904D01*
X175405714Y-150498142D01*
X175453333Y-150545761D01*
X175548571Y-150593380D01*
X175786666Y-150593380D01*
X175881904Y-150545761D01*
X175929523Y-150498142D01*
G04 #@! TO.C,R34*
X177170857Y-139461380D02*
X177504190Y-138985190D01*
X177742285Y-139461380D02*
X177742285Y-138461380D01*
X177361333Y-138461380D01*
X177266095Y-138509000D01*
X177218476Y-138556619D01*
X177170857Y-138651857D01*
X177170857Y-138794714D01*
X177218476Y-138889952D01*
X177266095Y-138937571D01*
X177361333Y-138985190D01*
X177742285Y-138985190D01*
X176837523Y-138461380D02*
X176218476Y-138461380D01*
X176551809Y-138842333D01*
X176408952Y-138842333D01*
X176313714Y-138889952D01*
X176266095Y-138937571D01*
X176218476Y-139032809D01*
X176218476Y-139270904D01*
X176266095Y-139366142D01*
X176313714Y-139413761D01*
X176408952Y-139461380D01*
X176694666Y-139461380D01*
X176789904Y-139413761D01*
X176837523Y-139366142D01*
X175361333Y-138794714D02*
X175361333Y-139461380D01*
X175599428Y-138413761D02*
X175837523Y-139128047D01*
X175218476Y-139128047D01*
G04 #@! TO.C,R31*
X177287857Y-146798380D02*
X177621190Y-146322190D01*
X177859285Y-146798380D02*
X177859285Y-145798380D01*
X177478333Y-145798380D01*
X177383095Y-145846000D01*
X177335476Y-145893619D01*
X177287857Y-145988857D01*
X177287857Y-146131714D01*
X177335476Y-146226952D01*
X177383095Y-146274571D01*
X177478333Y-146322190D01*
X177859285Y-146322190D01*
X176954523Y-145798380D02*
X176335476Y-145798380D01*
X176668809Y-146179333D01*
X176525952Y-146179333D01*
X176430714Y-146226952D01*
X176383095Y-146274571D01*
X176335476Y-146369809D01*
X176335476Y-146607904D01*
X176383095Y-146703142D01*
X176430714Y-146750761D01*
X176525952Y-146798380D01*
X176811666Y-146798380D01*
X176906904Y-146750761D01*
X176954523Y-146703142D01*
X175383095Y-146798380D02*
X175954523Y-146798380D01*
X175668809Y-146798380D02*
X175668809Y-145798380D01*
X175764047Y-145941238D01*
X175859285Y-146036476D01*
X175954523Y-146084095D01*
G04 #@! TO.C,R15*
X155038857Y-129984380D02*
X155372190Y-129508190D01*
X155610285Y-129984380D02*
X155610285Y-128984380D01*
X155229333Y-128984380D01*
X155134095Y-129032000D01*
X155086476Y-129079619D01*
X155038857Y-129174857D01*
X155038857Y-129317714D01*
X155086476Y-129412952D01*
X155134095Y-129460571D01*
X155229333Y-129508190D01*
X155610285Y-129508190D01*
X154086476Y-129984380D02*
X154657904Y-129984380D01*
X154372190Y-129984380D02*
X154372190Y-128984380D01*
X154467428Y-129127238D01*
X154562666Y-129222476D01*
X154657904Y-129270095D01*
X153181714Y-128984380D02*
X153657904Y-128984380D01*
X153705523Y-129460571D01*
X153657904Y-129412952D01*
X153562666Y-129365333D01*
X153324571Y-129365333D01*
X153229333Y-129412952D01*
X153181714Y-129460571D01*
X153134095Y-129555809D01*
X153134095Y-129793904D01*
X153181714Y-129889142D01*
X153229333Y-129936761D01*
X153324571Y-129984380D01*
X153562666Y-129984380D01*
X153657904Y-129936761D01*
X153705523Y-129889142D01*
G04 #@! TO.C,R30*
X177180857Y-135940380D02*
X177514190Y-135464190D01*
X177752285Y-135940380D02*
X177752285Y-134940380D01*
X177371333Y-134940380D01*
X177276095Y-134988000D01*
X177228476Y-135035619D01*
X177180857Y-135130857D01*
X177180857Y-135273714D01*
X177228476Y-135368952D01*
X177276095Y-135416571D01*
X177371333Y-135464190D01*
X177752285Y-135464190D01*
X176847523Y-134940380D02*
X176228476Y-134940380D01*
X176561809Y-135321333D01*
X176418952Y-135321333D01*
X176323714Y-135368952D01*
X176276095Y-135416571D01*
X176228476Y-135511809D01*
X176228476Y-135749904D01*
X176276095Y-135845142D01*
X176323714Y-135892761D01*
X176418952Y-135940380D01*
X176704666Y-135940380D01*
X176799904Y-135892761D01*
X176847523Y-135845142D01*
X175609428Y-134940380D02*
X175514190Y-134940380D01*
X175418952Y-134988000D01*
X175371333Y-135035619D01*
X175323714Y-135130857D01*
X175276095Y-135321333D01*
X175276095Y-135559428D01*
X175323714Y-135749904D01*
X175371333Y-135845142D01*
X175418952Y-135892761D01*
X175514190Y-135940380D01*
X175609428Y-135940380D01*
X175704666Y-135892761D01*
X175752285Y-135845142D01*
X175799904Y-135749904D01*
X175847523Y-135559428D01*
X175847523Y-135321333D01*
X175799904Y-135130857D01*
X175752285Y-135035619D01*
X175704666Y-134988000D01*
X175609428Y-134940380D01*
G04 #@! TO.C,R29*
X177271857Y-145596380D02*
X177605190Y-145120190D01*
X177843285Y-145596380D02*
X177843285Y-144596380D01*
X177462333Y-144596380D01*
X177367095Y-144644000D01*
X177319476Y-144691619D01*
X177271857Y-144786857D01*
X177271857Y-144929714D01*
X177319476Y-145024952D01*
X177367095Y-145072571D01*
X177462333Y-145120190D01*
X177843285Y-145120190D01*
X176890904Y-144691619D02*
X176843285Y-144644000D01*
X176748047Y-144596380D01*
X176509952Y-144596380D01*
X176414714Y-144644000D01*
X176367095Y-144691619D01*
X176319476Y-144786857D01*
X176319476Y-144882095D01*
X176367095Y-145024952D01*
X176938523Y-145596380D01*
X176319476Y-145596380D01*
X175843285Y-145596380D02*
X175652809Y-145596380D01*
X175557571Y-145548761D01*
X175509952Y-145501142D01*
X175414714Y-145358285D01*
X175367095Y-145167809D01*
X175367095Y-144786857D01*
X175414714Y-144691619D01*
X175462333Y-144644000D01*
X175557571Y-144596380D01*
X175748047Y-144596380D01*
X175843285Y-144644000D01*
X175890904Y-144691619D01*
X175938523Y-144786857D01*
X175938523Y-145024952D01*
X175890904Y-145120190D01*
X175843285Y-145167809D01*
X175748047Y-145215428D01*
X175557571Y-145215428D01*
X175462333Y-145167809D01*
X175414714Y-145120190D01*
X175367095Y-145024952D01*
G04 #@! TO.C,R28*
X177224857Y-134720380D02*
X177558190Y-134244190D01*
X177796285Y-134720380D02*
X177796285Y-133720380D01*
X177415333Y-133720380D01*
X177320095Y-133768000D01*
X177272476Y-133815619D01*
X177224857Y-133910857D01*
X177224857Y-134053714D01*
X177272476Y-134148952D01*
X177320095Y-134196571D01*
X177415333Y-134244190D01*
X177796285Y-134244190D01*
X176843904Y-133815619D02*
X176796285Y-133768000D01*
X176701047Y-133720380D01*
X176462952Y-133720380D01*
X176367714Y-133768000D01*
X176320095Y-133815619D01*
X176272476Y-133910857D01*
X176272476Y-134006095D01*
X176320095Y-134148952D01*
X176891523Y-134720380D01*
X176272476Y-134720380D01*
X175701047Y-134148952D02*
X175796285Y-134101333D01*
X175843904Y-134053714D01*
X175891523Y-133958476D01*
X175891523Y-133910857D01*
X175843904Y-133815619D01*
X175796285Y-133768000D01*
X175701047Y-133720380D01*
X175510571Y-133720380D01*
X175415333Y-133768000D01*
X175367714Y-133815619D01*
X175320095Y-133910857D01*
X175320095Y-133958476D01*
X175367714Y-134053714D01*
X175415333Y-134101333D01*
X175510571Y-134148952D01*
X175701047Y-134148952D01*
X175796285Y-134196571D01*
X175843904Y-134244190D01*
X175891523Y-134339428D01*
X175891523Y-134529904D01*
X175843904Y-134625142D01*
X175796285Y-134672761D01*
X175701047Y-134720380D01*
X175510571Y-134720380D01*
X175415333Y-134672761D01*
X175367714Y-134625142D01*
X175320095Y-134529904D01*
X175320095Y-134339428D01*
X175367714Y-134244190D01*
X175415333Y-134196571D01*
X175510571Y-134148952D01*
G04 #@! TO.C,R27*
X177254857Y-144436380D02*
X177588190Y-143960190D01*
X177826285Y-144436380D02*
X177826285Y-143436380D01*
X177445333Y-143436380D01*
X177350095Y-143484000D01*
X177302476Y-143531619D01*
X177254857Y-143626857D01*
X177254857Y-143769714D01*
X177302476Y-143864952D01*
X177350095Y-143912571D01*
X177445333Y-143960190D01*
X177826285Y-143960190D01*
X176873904Y-143531619D02*
X176826285Y-143484000D01*
X176731047Y-143436380D01*
X176492952Y-143436380D01*
X176397714Y-143484000D01*
X176350095Y-143531619D01*
X176302476Y-143626857D01*
X176302476Y-143722095D01*
X176350095Y-143864952D01*
X176921523Y-144436380D01*
X176302476Y-144436380D01*
X175969142Y-143436380D02*
X175302476Y-143436380D01*
X175731047Y-144436380D01*
G04 #@! TO.C,R26*
X177220857Y-133578380D02*
X177554190Y-133102190D01*
X177792285Y-133578380D02*
X177792285Y-132578380D01*
X177411333Y-132578380D01*
X177316095Y-132626000D01*
X177268476Y-132673619D01*
X177220857Y-132768857D01*
X177220857Y-132911714D01*
X177268476Y-133006952D01*
X177316095Y-133054571D01*
X177411333Y-133102190D01*
X177792285Y-133102190D01*
X176839904Y-132673619D02*
X176792285Y-132626000D01*
X176697047Y-132578380D01*
X176458952Y-132578380D01*
X176363714Y-132626000D01*
X176316095Y-132673619D01*
X176268476Y-132768857D01*
X176268476Y-132864095D01*
X176316095Y-133006952D01*
X176887523Y-133578380D01*
X176268476Y-133578380D01*
X175411333Y-132578380D02*
X175601809Y-132578380D01*
X175697047Y-132626000D01*
X175744666Y-132673619D01*
X175839904Y-132816476D01*
X175887523Y-133006952D01*
X175887523Y-133387904D01*
X175839904Y-133483142D01*
X175792285Y-133530761D01*
X175697047Y-133578380D01*
X175506571Y-133578380D01*
X175411333Y-133530761D01*
X175363714Y-133483142D01*
X175316095Y-133387904D01*
X175316095Y-133149809D01*
X175363714Y-133054571D01*
X175411333Y-133006952D01*
X175506571Y-132959333D01*
X175697047Y-132959333D01*
X175792285Y-133006952D01*
X175839904Y-133054571D01*
X175887523Y-133149809D01*
G04 #@! TO.C,R14*
X155053857Y-141960380D02*
X155387190Y-141484190D01*
X155625285Y-141960380D02*
X155625285Y-140960380D01*
X155244333Y-140960380D01*
X155149095Y-141008000D01*
X155101476Y-141055619D01*
X155053857Y-141150857D01*
X155053857Y-141293714D01*
X155101476Y-141388952D01*
X155149095Y-141436571D01*
X155244333Y-141484190D01*
X155625285Y-141484190D01*
X154101476Y-141960380D02*
X154672904Y-141960380D01*
X154387190Y-141960380D02*
X154387190Y-140960380D01*
X154482428Y-141103238D01*
X154577666Y-141198476D01*
X154672904Y-141246095D01*
X153244333Y-141293714D02*
X153244333Y-141960380D01*
X153482428Y-140912761D02*
X153720523Y-141627047D01*
X153101476Y-141627047D01*
G04 #@! TO.C,R23*
X177213857Y-132377380D02*
X177547190Y-131901190D01*
X177785285Y-132377380D02*
X177785285Y-131377380D01*
X177404333Y-131377380D01*
X177309095Y-131425000D01*
X177261476Y-131472619D01*
X177213857Y-131567857D01*
X177213857Y-131710714D01*
X177261476Y-131805952D01*
X177309095Y-131853571D01*
X177404333Y-131901190D01*
X177785285Y-131901190D01*
X176832904Y-131472619D02*
X176785285Y-131425000D01*
X176690047Y-131377380D01*
X176451952Y-131377380D01*
X176356714Y-131425000D01*
X176309095Y-131472619D01*
X176261476Y-131567857D01*
X176261476Y-131663095D01*
X176309095Y-131805952D01*
X176880523Y-132377380D01*
X176261476Y-132377380D01*
X175928142Y-131377380D02*
X175309095Y-131377380D01*
X175642428Y-131758333D01*
X175499571Y-131758333D01*
X175404333Y-131805952D01*
X175356714Y-131853571D01*
X175309095Y-131948809D01*
X175309095Y-132186904D01*
X175356714Y-132282142D01*
X175404333Y-132329761D01*
X175499571Y-132377380D01*
X175785285Y-132377380D01*
X175880523Y-132329761D01*
X175928142Y-132282142D01*
G04 #@! TO.C,R22*
X177255857Y-141886380D02*
X177589190Y-141410190D01*
X177827285Y-141886380D02*
X177827285Y-140886380D01*
X177446333Y-140886380D01*
X177351095Y-140934000D01*
X177303476Y-140981619D01*
X177255857Y-141076857D01*
X177255857Y-141219714D01*
X177303476Y-141314952D01*
X177351095Y-141362571D01*
X177446333Y-141410190D01*
X177827285Y-141410190D01*
X176874904Y-140981619D02*
X176827285Y-140934000D01*
X176732047Y-140886380D01*
X176493952Y-140886380D01*
X176398714Y-140934000D01*
X176351095Y-140981619D01*
X176303476Y-141076857D01*
X176303476Y-141172095D01*
X176351095Y-141314952D01*
X176922523Y-141886380D01*
X176303476Y-141886380D01*
X175922523Y-140981619D02*
X175874904Y-140934000D01*
X175779666Y-140886380D01*
X175541571Y-140886380D01*
X175446333Y-140934000D01*
X175398714Y-140981619D01*
X175351095Y-141076857D01*
X175351095Y-141172095D01*
X175398714Y-141314952D01*
X175970142Y-141886380D01*
X175351095Y-141886380D01*
G04 #@! TO.C,R21*
X177188857Y-131041380D02*
X177522190Y-130565190D01*
X177760285Y-131041380D02*
X177760285Y-130041380D01*
X177379333Y-130041380D01*
X177284095Y-130089000D01*
X177236476Y-130136619D01*
X177188857Y-130231857D01*
X177188857Y-130374714D01*
X177236476Y-130469952D01*
X177284095Y-130517571D01*
X177379333Y-130565190D01*
X177760285Y-130565190D01*
X176807904Y-130136619D02*
X176760285Y-130089000D01*
X176665047Y-130041380D01*
X176426952Y-130041380D01*
X176331714Y-130089000D01*
X176284095Y-130136619D01*
X176236476Y-130231857D01*
X176236476Y-130327095D01*
X176284095Y-130469952D01*
X176855523Y-131041380D01*
X176236476Y-131041380D01*
X175284095Y-131041380D02*
X175855523Y-131041380D01*
X175569809Y-131041380D02*
X175569809Y-130041380D01*
X175665047Y-130184238D01*
X175760285Y-130279476D01*
X175855523Y-130327095D01*
G04 #@! TO.C,R19*
X177212857Y-140663380D02*
X177546190Y-140187190D01*
X177784285Y-140663380D02*
X177784285Y-139663380D01*
X177403333Y-139663380D01*
X177308095Y-139711000D01*
X177260476Y-139758619D01*
X177212857Y-139853857D01*
X177212857Y-139996714D01*
X177260476Y-140091952D01*
X177308095Y-140139571D01*
X177403333Y-140187190D01*
X177784285Y-140187190D01*
X176260476Y-140663380D02*
X176831904Y-140663380D01*
X176546190Y-140663380D02*
X176546190Y-139663380D01*
X176641428Y-139806238D01*
X176736666Y-139901476D01*
X176831904Y-139949095D01*
X175784285Y-140663380D02*
X175593809Y-140663380D01*
X175498571Y-140615761D01*
X175450952Y-140568142D01*
X175355714Y-140425285D01*
X175308095Y-140234809D01*
X175308095Y-139853857D01*
X175355714Y-139758619D01*
X175403333Y-139711000D01*
X175498571Y-139663380D01*
X175689047Y-139663380D01*
X175784285Y-139711000D01*
X175831904Y-139758619D01*
X175879523Y-139853857D01*
X175879523Y-140091952D01*
X175831904Y-140187190D01*
X175784285Y-140234809D01*
X175689047Y-140282428D01*
X175498571Y-140282428D01*
X175403333Y-140234809D01*
X175355714Y-140187190D01*
X175308095Y-140091952D01*
G04 #@! TO.C,R18*
X177237857Y-129715380D02*
X177571190Y-129239190D01*
X177809285Y-129715380D02*
X177809285Y-128715380D01*
X177428333Y-128715380D01*
X177333095Y-128763000D01*
X177285476Y-128810619D01*
X177237857Y-128905857D01*
X177237857Y-129048714D01*
X177285476Y-129143952D01*
X177333095Y-129191571D01*
X177428333Y-129239190D01*
X177809285Y-129239190D01*
X176285476Y-129715380D02*
X176856904Y-129715380D01*
X176571190Y-129715380D02*
X176571190Y-128715380D01*
X176666428Y-128858238D01*
X176761666Y-128953476D01*
X176856904Y-129001095D01*
X175714047Y-129143952D02*
X175809285Y-129096333D01*
X175856904Y-129048714D01*
X175904523Y-128953476D01*
X175904523Y-128905857D01*
X175856904Y-128810619D01*
X175809285Y-128763000D01*
X175714047Y-128715380D01*
X175523571Y-128715380D01*
X175428333Y-128763000D01*
X175380714Y-128810619D01*
X175333095Y-128905857D01*
X175333095Y-128953476D01*
X175380714Y-129048714D01*
X175428333Y-129096333D01*
X175523571Y-129143952D01*
X175714047Y-129143952D01*
X175809285Y-129191571D01*
X175856904Y-129239190D01*
X175904523Y-129334428D01*
X175904523Y-129524904D01*
X175856904Y-129620142D01*
X175809285Y-129667761D01*
X175714047Y-129715380D01*
X175523571Y-129715380D01*
X175428333Y-129667761D01*
X175380714Y-129620142D01*
X175333095Y-129524904D01*
X175333095Y-129334428D01*
X175380714Y-129239190D01*
X175428333Y-129191571D01*
X175523571Y-129143952D01*
G04 #@! TO.C,R17*
X177188857Y-137101380D02*
X177522190Y-136625190D01*
X177760285Y-137101380D02*
X177760285Y-136101380D01*
X177379333Y-136101380D01*
X177284095Y-136149000D01*
X177236476Y-136196619D01*
X177188857Y-136291857D01*
X177188857Y-136434714D01*
X177236476Y-136529952D01*
X177284095Y-136577571D01*
X177379333Y-136625190D01*
X177760285Y-136625190D01*
X176236476Y-137101380D02*
X176807904Y-137101380D01*
X176522190Y-137101380D02*
X176522190Y-136101380D01*
X176617428Y-136244238D01*
X176712666Y-136339476D01*
X176807904Y-136387095D01*
X175903142Y-136101380D02*
X175236476Y-136101380D01*
X175665047Y-137101380D01*
G04 #@! TO.C,R16*
X155038857Y-140719380D02*
X155372190Y-140243190D01*
X155610285Y-140719380D02*
X155610285Y-139719380D01*
X155229333Y-139719380D01*
X155134095Y-139767000D01*
X155086476Y-139814619D01*
X155038857Y-139909857D01*
X155038857Y-140052714D01*
X155086476Y-140147952D01*
X155134095Y-140195571D01*
X155229333Y-140243190D01*
X155610285Y-140243190D01*
X154086476Y-140719380D02*
X154657904Y-140719380D01*
X154372190Y-140719380D02*
X154372190Y-139719380D01*
X154467428Y-139862238D01*
X154562666Y-139957476D01*
X154657904Y-140005095D01*
X153229333Y-139719380D02*
X153419809Y-139719380D01*
X153515047Y-139767000D01*
X153562666Y-139814619D01*
X153657904Y-139957476D01*
X153705523Y-140147952D01*
X153705523Y-140528904D01*
X153657904Y-140624142D01*
X153610285Y-140671761D01*
X153515047Y-140719380D01*
X153324571Y-140719380D01*
X153229333Y-140671761D01*
X153181714Y-140624142D01*
X153134095Y-140528904D01*
X153134095Y-140290809D01*
X153181714Y-140195571D01*
X153229333Y-140147952D01*
X153324571Y-140100333D01*
X153515047Y-140100333D01*
X153610285Y-140147952D01*
X153657904Y-140195571D01*
X153705523Y-140290809D01*
G04 #@! TO.C,R24*
X177254857Y-143192380D02*
X177588190Y-142716190D01*
X177826285Y-143192380D02*
X177826285Y-142192380D01*
X177445333Y-142192380D01*
X177350095Y-142240000D01*
X177302476Y-142287619D01*
X177254857Y-142382857D01*
X177254857Y-142525714D01*
X177302476Y-142620952D01*
X177350095Y-142668571D01*
X177445333Y-142716190D01*
X177826285Y-142716190D01*
X176873904Y-142287619D02*
X176826285Y-142240000D01*
X176731047Y-142192380D01*
X176492952Y-142192380D01*
X176397714Y-142240000D01*
X176350095Y-142287619D01*
X176302476Y-142382857D01*
X176302476Y-142478095D01*
X176350095Y-142620952D01*
X176921523Y-143192380D01*
X176302476Y-143192380D01*
X175445333Y-142525714D02*
X175445333Y-143192380D01*
X175683428Y-142144761D02*
X175921523Y-142859047D01*
X175302476Y-142859047D01*
G04 #@! TO.C,R13*
X155075857Y-131249380D02*
X155409190Y-130773190D01*
X155647285Y-131249380D02*
X155647285Y-130249380D01*
X155266333Y-130249380D01*
X155171095Y-130297000D01*
X155123476Y-130344619D01*
X155075857Y-130439857D01*
X155075857Y-130582714D01*
X155123476Y-130677952D01*
X155171095Y-130725571D01*
X155266333Y-130773190D01*
X155647285Y-130773190D01*
X154123476Y-131249380D02*
X154694904Y-131249380D01*
X154409190Y-131249380D02*
X154409190Y-130249380D01*
X154504428Y-130392238D01*
X154599666Y-130487476D01*
X154694904Y-130535095D01*
X153790142Y-130249380D02*
X153171095Y-130249380D01*
X153504428Y-130630333D01*
X153361571Y-130630333D01*
X153266333Y-130677952D01*
X153218714Y-130725571D01*
X153171095Y-130820809D01*
X153171095Y-131058904D01*
X153218714Y-131154142D01*
X153266333Y-131201761D01*
X153361571Y-131249380D01*
X153647285Y-131249380D01*
X153742523Y-131201761D01*
X153790142Y-131154142D01*
G04 #@! TO.C,R12*
X155027857Y-143157380D02*
X155361190Y-142681190D01*
X155599285Y-143157380D02*
X155599285Y-142157380D01*
X155218333Y-142157380D01*
X155123095Y-142205000D01*
X155075476Y-142252619D01*
X155027857Y-142347857D01*
X155027857Y-142490714D01*
X155075476Y-142585952D01*
X155123095Y-142633571D01*
X155218333Y-142681190D01*
X155599285Y-142681190D01*
X154075476Y-143157380D02*
X154646904Y-143157380D01*
X154361190Y-143157380D02*
X154361190Y-142157380D01*
X154456428Y-142300238D01*
X154551666Y-142395476D01*
X154646904Y-142443095D01*
X153694523Y-142252619D02*
X153646904Y-142205000D01*
X153551666Y-142157380D01*
X153313571Y-142157380D01*
X153218333Y-142205000D01*
X153170714Y-142252619D01*
X153123095Y-142347857D01*
X153123095Y-142443095D01*
X153170714Y-142585952D01*
X153742142Y-143157380D01*
X153123095Y-143157380D01*
G04 #@! TO.C,R11*
X155043857Y-132426380D02*
X155377190Y-131950190D01*
X155615285Y-132426380D02*
X155615285Y-131426380D01*
X155234333Y-131426380D01*
X155139095Y-131474000D01*
X155091476Y-131521619D01*
X155043857Y-131616857D01*
X155043857Y-131759714D01*
X155091476Y-131854952D01*
X155139095Y-131902571D01*
X155234333Y-131950190D01*
X155615285Y-131950190D01*
X154091476Y-132426380D02*
X154662904Y-132426380D01*
X154377190Y-132426380D02*
X154377190Y-131426380D01*
X154472428Y-131569238D01*
X154567666Y-131664476D01*
X154662904Y-131712095D01*
X153139095Y-132426380D02*
X153710523Y-132426380D01*
X153424809Y-132426380D02*
X153424809Y-131426380D01*
X153520047Y-131569238D01*
X153615285Y-131664476D01*
X153710523Y-131712095D01*
G04 #@! TO.C,R10*
X155010857Y-144365380D02*
X155344190Y-143889190D01*
X155582285Y-144365380D02*
X155582285Y-143365380D01*
X155201333Y-143365380D01*
X155106095Y-143413000D01*
X155058476Y-143460619D01*
X155010857Y-143555857D01*
X155010857Y-143698714D01*
X155058476Y-143793952D01*
X155106095Y-143841571D01*
X155201333Y-143889190D01*
X155582285Y-143889190D01*
X154058476Y-144365380D02*
X154629904Y-144365380D01*
X154344190Y-144365380D02*
X154344190Y-143365380D01*
X154439428Y-143508238D01*
X154534666Y-143603476D01*
X154629904Y-143651095D01*
X153439428Y-143365380D02*
X153344190Y-143365380D01*
X153248952Y-143413000D01*
X153201333Y-143460619D01*
X153153714Y-143555857D01*
X153106095Y-143746333D01*
X153106095Y-143984428D01*
X153153714Y-144174904D01*
X153201333Y-144270142D01*
X153248952Y-144317761D01*
X153344190Y-144365380D01*
X153439428Y-144365380D01*
X153534666Y-144317761D01*
X153582285Y-144270142D01*
X153629904Y-144174904D01*
X153677523Y-143984428D01*
X153677523Y-143746333D01*
X153629904Y-143555857D01*
X153582285Y-143460619D01*
X153534666Y-143413000D01*
X153439428Y-143365380D01*
G04 #@! TO.C,R9*
X155051666Y-133632380D02*
X155385000Y-133156190D01*
X155623095Y-133632380D02*
X155623095Y-132632380D01*
X155242142Y-132632380D01*
X155146904Y-132680000D01*
X155099285Y-132727619D01*
X155051666Y-132822857D01*
X155051666Y-132965714D01*
X155099285Y-133060952D01*
X155146904Y-133108571D01*
X155242142Y-133156190D01*
X155623095Y-133156190D01*
X154575476Y-133632380D02*
X154385000Y-133632380D01*
X154289761Y-133584761D01*
X154242142Y-133537142D01*
X154146904Y-133394285D01*
X154099285Y-133203809D01*
X154099285Y-132822857D01*
X154146904Y-132727619D01*
X154194523Y-132680000D01*
X154289761Y-132632380D01*
X154480238Y-132632380D01*
X154575476Y-132680000D01*
X154623095Y-132727619D01*
X154670714Y-132822857D01*
X154670714Y-133060952D01*
X154623095Y-133156190D01*
X154575476Y-133203809D01*
X154480238Y-133251428D01*
X154289761Y-133251428D01*
X154194523Y-133203809D01*
X154146904Y-133156190D01*
X154099285Y-133060952D01*
G04 #@! TO.C,R8*
X155003666Y-145555380D02*
X155337000Y-145079190D01*
X155575095Y-145555380D02*
X155575095Y-144555380D01*
X155194142Y-144555380D01*
X155098904Y-144603000D01*
X155051285Y-144650619D01*
X155003666Y-144745857D01*
X155003666Y-144888714D01*
X155051285Y-144983952D01*
X155098904Y-145031571D01*
X155194142Y-145079190D01*
X155575095Y-145079190D01*
X154432238Y-144983952D02*
X154527476Y-144936333D01*
X154575095Y-144888714D01*
X154622714Y-144793476D01*
X154622714Y-144745857D01*
X154575095Y-144650619D01*
X154527476Y-144603000D01*
X154432238Y-144555380D01*
X154241761Y-144555380D01*
X154146523Y-144603000D01*
X154098904Y-144650619D01*
X154051285Y-144745857D01*
X154051285Y-144793476D01*
X154098904Y-144888714D01*
X154146523Y-144936333D01*
X154241761Y-144983952D01*
X154432238Y-144983952D01*
X154527476Y-145031571D01*
X154575095Y-145079190D01*
X154622714Y-145174428D01*
X154622714Y-145364904D01*
X154575095Y-145460142D01*
X154527476Y-145507761D01*
X154432238Y-145555380D01*
X154241761Y-145555380D01*
X154146523Y-145507761D01*
X154098904Y-145460142D01*
X154051285Y-145364904D01*
X154051285Y-145174428D01*
X154098904Y-145079190D01*
X154146523Y-145031571D01*
X154241761Y-144983952D01*
G04 #@! TO.C,R7*
X155044666Y-134858380D02*
X155378000Y-134382190D01*
X155616095Y-134858380D02*
X155616095Y-133858380D01*
X155235142Y-133858380D01*
X155139904Y-133906000D01*
X155092285Y-133953619D01*
X155044666Y-134048857D01*
X155044666Y-134191714D01*
X155092285Y-134286952D01*
X155139904Y-134334571D01*
X155235142Y-134382190D01*
X155616095Y-134382190D01*
X154711333Y-133858380D02*
X154044666Y-133858380D01*
X154473238Y-134858380D01*
G04 #@! TO.C,R6*
X155011666Y-146751380D02*
X155345000Y-146275190D01*
X155583095Y-146751380D02*
X155583095Y-145751380D01*
X155202142Y-145751380D01*
X155106904Y-145799000D01*
X155059285Y-145846619D01*
X155011666Y-145941857D01*
X155011666Y-146084714D01*
X155059285Y-146179952D01*
X155106904Y-146227571D01*
X155202142Y-146275190D01*
X155583095Y-146275190D01*
X154154523Y-145751380D02*
X154345000Y-145751380D01*
X154440238Y-145799000D01*
X154487857Y-145846619D01*
X154583095Y-145989476D01*
X154630714Y-146179952D01*
X154630714Y-146560904D01*
X154583095Y-146656142D01*
X154535476Y-146703761D01*
X154440238Y-146751380D01*
X154249761Y-146751380D01*
X154154523Y-146703761D01*
X154106904Y-146656142D01*
X154059285Y-146560904D01*
X154059285Y-146322809D01*
X154106904Y-146227571D01*
X154154523Y-146179952D01*
X154249761Y-146132333D01*
X154440238Y-146132333D01*
X154535476Y-146179952D01*
X154583095Y-146227571D01*
X154630714Y-146322809D01*
G04 #@! TO.C,R5*
X155032666Y-136036380D02*
X155366000Y-135560190D01*
X155604095Y-136036380D02*
X155604095Y-135036380D01*
X155223142Y-135036380D01*
X155127904Y-135084000D01*
X155080285Y-135131619D01*
X155032666Y-135226857D01*
X155032666Y-135369714D01*
X155080285Y-135464952D01*
X155127904Y-135512571D01*
X155223142Y-135560190D01*
X155604095Y-135560190D01*
X154127904Y-135036380D02*
X154604095Y-135036380D01*
X154651714Y-135512571D01*
X154604095Y-135464952D01*
X154508857Y-135417333D01*
X154270761Y-135417333D01*
X154175523Y-135464952D01*
X154127904Y-135512571D01*
X154080285Y-135607809D01*
X154080285Y-135845904D01*
X154127904Y-135941142D01*
X154175523Y-135988761D01*
X154270761Y-136036380D01*
X154508857Y-136036380D01*
X154604095Y-135988761D01*
X154651714Y-135941142D01*
G04 #@! TO.C,R4*
X154994666Y-147939380D02*
X155328000Y-147463190D01*
X155566095Y-147939380D02*
X155566095Y-146939380D01*
X155185142Y-146939380D01*
X155089904Y-146987000D01*
X155042285Y-147034619D01*
X154994666Y-147129857D01*
X154994666Y-147272714D01*
X155042285Y-147367952D01*
X155089904Y-147415571D01*
X155185142Y-147463190D01*
X155566095Y-147463190D01*
X154137523Y-147272714D02*
X154137523Y-147939380D01*
X154375619Y-146891761D02*
X154613714Y-147606047D01*
X153994666Y-147606047D01*
G04 #@! TO.C,R3*
X155026666Y-137270380D02*
X155360000Y-136794190D01*
X155598095Y-137270380D02*
X155598095Y-136270380D01*
X155217142Y-136270380D01*
X155121904Y-136318000D01*
X155074285Y-136365619D01*
X155026666Y-136460857D01*
X155026666Y-136603714D01*
X155074285Y-136698952D01*
X155121904Y-136746571D01*
X155217142Y-136794190D01*
X155598095Y-136794190D01*
X154693333Y-136270380D02*
X154074285Y-136270380D01*
X154407619Y-136651333D01*
X154264761Y-136651333D01*
X154169523Y-136698952D01*
X154121904Y-136746571D01*
X154074285Y-136841809D01*
X154074285Y-137079904D01*
X154121904Y-137175142D01*
X154169523Y-137222761D01*
X154264761Y-137270380D01*
X154550476Y-137270380D01*
X154645714Y-137222761D01*
X154693333Y-137175142D01*
G04 #@! TO.C,R2*
X154994666Y-149178380D02*
X155328000Y-148702190D01*
X155566095Y-149178380D02*
X155566095Y-148178380D01*
X155185142Y-148178380D01*
X155089904Y-148226000D01*
X155042285Y-148273619D01*
X154994666Y-148368857D01*
X154994666Y-148511714D01*
X155042285Y-148606952D01*
X155089904Y-148654571D01*
X155185142Y-148702190D01*
X155566095Y-148702190D01*
X154613714Y-148273619D02*
X154566095Y-148226000D01*
X154470857Y-148178380D01*
X154232761Y-148178380D01*
X154137523Y-148226000D01*
X154089904Y-148273619D01*
X154042285Y-148368857D01*
X154042285Y-148464095D01*
X154089904Y-148606952D01*
X154661333Y-149178380D01*
X154042285Y-149178380D01*
G04 #@! TO.C,R1*
X155049666Y-138581380D02*
X155383000Y-138105190D01*
X155621095Y-138581380D02*
X155621095Y-137581380D01*
X155240142Y-137581380D01*
X155144904Y-137629000D01*
X155097285Y-137676619D01*
X155049666Y-137771857D01*
X155049666Y-137914714D01*
X155097285Y-138009952D01*
X155144904Y-138057571D01*
X155240142Y-138105190D01*
X155621095Y-138105190D01*
X154097285Y-138581380D02*
X154668714Y-138581380D01*
X154383000Y-138581380D02*
X154383000Y-137581380D01*
X154478238Y-137724238D01*
X154573476Y-137819476D01*
X154668714Y-137867095D01*
G04 #@! TO.C,C10*
X141330142Y-127496142D02*
X141377761Y-127448523D01*
X141425380Y-127305666D01*
X141425380Y-127210428D01*
X141377761Y-127067571D01*
X141282523Y-126972333D01*
X141187285Y-126924714D01*
X140996809Y-126877095D01*
X140853952Y-126877095D01*
X140663476Y-126924714D01*
X140568238Y-126972333D01*
X140473000Y-127067571D01*
X140425380Y-127210428D01*
X140425380Y-127305666D01*
X140473000Y-127448523D01*
X140520619Y-127496142D01*
X141425380Y-128448523D02*
X141425380Y-127877095D01*
X141425380Y-128162809D02*
X140425380Y-128162809D01*
X140568238Y-128067571D01*
X140663476Y-127972333D01*
X140711095Y-127877095D01*
X140425380Y-129067571D02*
X140425380Y-129162809D01*
X140473000Y-129258047D01*
X140520619Y-129305666D01*
X140615857Y-129353285D01*
X140806333Y-129400904D01*
X141044428Y-129400904D01*
X141234904Y-129353285D01*
X141330142Y-129305666D01*
X141377761Y-129258047D01*
X141425380Y-129162809D01*
X141425380Y-129067571D01*
X141377761Y-128972333D01*
X141330142Y-128924714D01*
X141234904Y-128877095D01*
X141044428Y-128829476D01*
X140806333Y-128829476D01*
X140615857Y-128877095D01*
X140520619Y-128924714D01*
X140473000Y-128972333D01*
X140425380Y-129067571D01*
G04 #@! TO.C,C11*
X147341142Y-127537142D02*
X147388761Y-127489523D01*
X147436380Y-127346666D01*
X147436380Y-127251428D01*
X147388761Y-127108571D01*
X147293523Y-127013333D01*
X147198285Y-126965714D01*
X147007809Y-126918095D01*
X146864952Y-126918095D01*
X146674476Y-126965714D01*
X146579238Y-127013333D01*
X146484000Y-127108571D01*
X146436380Y-127251428D01*
X146436380Y-127346666D01*
X146484000Y-127489523D01*
X146531619Y-127537142D01*
X147436380Y-128489523D02*
X147436380Y-127918095D01*
X147436380Y-128203809D02*
X146436380Y-128203809D01*
X146579238Y-128108571D01*
X146674476Y-128013333D01*
X146722095Y-127918095D01*
X147436380Y-129441904D02*
X147436380Y-128870476D01*
X147436380Y-129156190D02*
X146436380Y-129156190D01*
X146579238Y-129060952D01*
X146674476Y-128965714D01*
X146722095Y-128870476D01*
G04 #@! TO.C,C12*
X153256142Y-127535142D02*
X153303761Y-127487523D01*
X153351380Y-127344666D01*
X153351380Y-127249428D01*
X153303761Y-127106571D01*
X153208523Y-127011333D01*
X153113285Y-126963714D01*
X152922809Y-126916095D01*
X152779952Y-126916095D01*
X152589476Y-126963714D01*
X152494238Y-127011333D01*
X152399000Y-127106571D01*
X152351380Y-127249428D01*
X152351380Y-127344666D01*
X152399000Y-127487523D01*
X152446619Y-127535142D01*
X153351380Y-128487523D02*
X153351380Y-127916095D01*
X153351380Y-128201809D02*
X152351380Y-128201809D01*
X152494238Y-128106571D01*
X152589476Y-128011333D01*
X152637095Y-127916095D01*
X152446619Y-128868476D02*
X152399000Y-128916095D01*
X152351380Y-129011333D01*
X152351380Y-129249428D01*
X152399000Y-129344666D01*
X152446619Y-129392285D01*
X152541857Y-129439904D01*
X152637095Y-129439904D01*
X152779952Y-129392285D01*
X153351380Y-128820857D01*
X153351380Y-129439904D01*
G04 #@! TO.C,C1*
X121489742Y-127624533D02*
X121537361Y-127576914D01*
X121584980Y-127434057D01*
X121584980Y-127338819D01*
X121537361Y-127195961D01*
X121442123Y-127100723D01*
X121346885Y-127053104D01*
X121156409Y-127005485D01*
X121013552Y-127005485D01*
X120823076Y-127053104D01*
X120727838Y-127100723D01*
X120632600Y-127195961D01*
X120584980Y-127338819D01*
X120584980Y-127434057D01*
X120632600Y-127576914D01*
X120680219Y-127624533D01*
X121584980Y-128576914D02*
X121584980Y-128005485D01*
X121584980Y-128291200D02*
X120584980Y-128291200D01*
X120727838Y-128195961D01*
X120823076Y-128100723D01*
X120870695Y-128005485D01*
G04 #@! TO.C,C2*
X127599142Y-127632333D02*
X127646761Y-127584714D01*
X127694380Y-127441857D01*
X127694380Y-127346619D01*
X127646761Y-127203761D01*
X127551523Y-127108523D01*
X127456285Y-127060904D01*
X127265809Y-127013285D01*
X127122952Y-127013285D01*
X126932476Y-127060904D01*
X126837238Y-127108523D01*
X126742000Y-127203761D01*
X126694380Y-127346619D01*
X126694380Y-127441857D01*
X126742000Y-127584714D01*
X126789619Y-127632333D01*
X126789619Y-128013285D02*
X126742000Y-128060904D01*
X126694380Y-128156142D01*
X126694380Y-128394238D01*
X126742000Y-128489476D01*
X126789619Y-128537095D01*
X126884857Y-128584714D01*
X126980095Y-128584714D01*
X127122952Y-128537095D01*
X127694380Y-127965666D01*
X127694380Y-128584714D01*
G04 #@! TO.C,C3*
X133740142Y-127657333D02*
X133787761Y-127609714D01*
X133835380Y-127466857D01*
X133835380Y-127371619D01*
X133787761Y-127228761D01*
X133692523Y-127133523D01*
X133597285Y-127085904D01*
X133406809Y-127038285D01*
X133263952Y-127038285D01*
X133073476Y-127085904D01*
X132978238Y-127133523D01*
X132883000Y-127228761D01*
X132835380Y-127371619D01*
X132835380Y-127466857D01*
X132883000Y-127609714D01*
X132930619Y-127657333D01*
X132835380Y-127990666D02*
X132835380Y-128609714D01*
X133216333Y-128276380D01*
X133216333Y-128419238D01*
X133263952Y-128514476D01*
X133311571Y-128562095D01*
X133406809Y-128609714D01*
X133644904Y-128609714D01*
X133740142Y-128562095D01*
X133787761Y-128514476D01*
X133835380Y-128419238D01*
X133835380Y-128133523D01*
X133787761Y-128038285D01*
X133740142Y-127990666D01*
G04 #@! TO.C,C4*
X139727142Y-127507333D02*
X139774761Y-127459714D01*
X139822380Y-127316857D01*
X139822380Y-127221619D01*
X139774761Y-127078761D01*
X139679523Y-126983523D01*
X139584285Y-126935904D01*
X139393809Y-126888285D01*
X139250952Y-126888285D01*
X139060476Y-126935904D01*
X138965238Y-126983523D01*
X138870000Y-127078761D01*
X138822380Y-127221619D01*
X138822380Y-127316857D01*
X138870000Y-127459714D01*
X138917619Y-127507333D01*
X139155714Y-128364476D02*
X139822380Y-128364476D01*
X138774761Y-128126380D02*
X139489047Y-127888285D01*
X139489047Y-128507333D01*
G04 #@! TO.C,C5*
X145731142Y-127573333D02*
X145778761Y-127525714D01*
X145826380Y-127382857D01*
X145826380Y-127287619D01*
X145778761Y-127144761D01*
X145683523Y-127049523D01*
X145588285Y-127001904D01*
X145397809Y-126954285D01*
X145254952Y-126954285D01*
X145064476Y-127001904D01*
X144969238Y-127049523D01*
X144874000Y-127144761D01*
X144826380Y-127287619D01*
X144826380Y-127382857D01*
X144874000Y-127525714D01*
X144921619Y-127573333D01*
X144826380Y-128478095D02*
X144826380Y-128001904D01*
X145302571Y-127954285D01*
X145254952Y-128001904D01*
X145207333Y-128097142D01*
X145207333Y-128335238D01*
X145254952Y-128430476D01*
X145302571Y-128478095D01*
X145397809Y-128525714D01*
X145635904Y-128525714D01*
X145731142Y-128478095D01*
X145778761Y-128430476D01*
X145826380Y-128335238D01*
X145826380Y-128097142D01*
X145778761Y-128001904D01*
X145731142Y-127954285D01*
G04 #@! TO.C,C6*
X151842142Y-127541333D02*
X151889761Y-127493714D01*
X151937380Y-127350857D01*
X151937380Y-127255619D01*
X151889761Y-127112761D01*
X151794523Y-127017523D01*
X151699285Y-126969904D01*
X151508809Y-126922285D01*
X151365952Y-126922285D01*
X151175476Y-126969904D01*
X151080238Y-127017523D01*
X150985000Y-127112761D01*
X150937380Y-127255619D01*
X150937380Y-127350857D01*
X150985000Y-127493714D01*
X151032619Y-127541333D01*
X150937380Y-128398476D02*
X150937380Y-128208000D01*
X150985000Y-128112761D01*
X151032619Y-128065142D01*
X151175476Y-127969904D01*
X151365952Y-127922285D01*
X151746904Y-127922285D01*
X151842142Y-127969904D01*
X151889761Y-128017523D01*
X151937380Y-128112761D01*
X151937380Y-128303238D01*
X151889761Y-128398476D01*
X151842142Y-128446095D01*
X151746904Y-128493714D01*
X151508809Y-128493714D01*
X151413571Y-128446095D01*
X151365952Y-128398476D01*
X151318333Y-128303238D01*
X151318333Y-128112761D01*
X151365952Y-128017523D01*
X151413571Y-127969904D01*
X151508809Y-127922285D01*
G04 #@! TO.C,C7*
X122989742Y-127491533D02*
X123037361Y-127443914D01*
X123084980Y-127301057D01*
X123084980Y-127205819D01*
X123037361Y-127062961D01*
X122942123Y-126967723D01*
X122846885Y-126920104D01*
X122656409Y-126872485D01*
X122513552Y-126872485D01*
X122323076Y-126920104D01*
X122227838Y-126967723D01*
X122132600Y-127062961D01*
X122084980Y-127205819D01*
X122084980Y-127301057D01*
X122132600Y-127443914D01*
X122180219Y-127491533D01*
X122084980Y-127824866D02*
X122084980Y-128491533D01*
X123084980Y-128062961D01*
G04 #@! TO.C,C8*
X129038942Y-127556533D02*
X129086561Y-127508914D01*
X129134180Y-127366057D01*
X129134180Y-127270819D01*
X129086561Y-127127961D01*
X128991323Y-127032723D01*
X128896085Y-126985104D01*
X128705609Y-126937485D01*
X128562752Y-126937485D01*
X128372276Y-126985104D01*
X128277038Y-127032723D01*
X128181800Y-127127961D01*
X128134180Y-127270819D01*
X128134180Y-127366057D01*
X128181800Y-127508914D01*
X128229419Y-127556533D01*
X128562752Y-128127961D02*
X128515133Y-128032723D01*
X128467514Y-127985104D01*
X128372276Y-127937485D01*
X128324657Y-127937485D01*
X128229419Y-127985104D01*
X128181800Y-128032723D01*
X128134180Y-128127961D01*
X128134180Y-128318438D01*
X128181800Y-128413676D01*
X128229419Y-128461295D01*
X128324657Y-128508914D01*
X128372276Y-128508914D01*
X128467514Y-128461295D01*
X128515133Y-128413676D01*
X128562752Y-128318438D01*
X128562752Y-128127961D01*
X128610371Y-128032723D01*
X128657990Y-127985104D01*
X128753228Y-127937485D01*
X128943704Y-127937485D01*
X129038942Y-127985104D01*
X129086561Y-128032723D01*
X129134180Y-128127961D01*
X129134180Y-128318438D01*
X129086561Y-128413676D01*
X129038942Y-128461295D01*
X128943704Y-128508914D01*
X128753228Y-128508914D01*
X128657990Y-128461295D01*
X128610371Y-128413676D01*
X128562752Y-128318438D01*
G04 #@! TO.C,C9*
X135255142Y-127615333D02*
X135302761Y-127567714D01*
X135350380Y-127424857D01*
X135350380Y-127329619D01*
X135302761Y-127186761D01*
X135207523Y-127091523D01*
X135112285Y-127043904D01*
X134921809Y-126996285D01*
X134778952Y-126996285D01*
X134588476Y-127043904D01*
X134493238Y-127091523D01*
X134398000Y-127186761D01*
X134350380Y-127329619D01*
X134350380Y-127424857D01*
X134398000Y-127567714D01*
X134445619Y-127615333D01*
X135350380Y-128091523D02*
X135350380Y-128282000D01*
X135302761Y-128377238D01*
X135255142Y-128424857D01*
X135112285Y-128520095D01*
X134921809Y-128567714D01*
X134540857Y-128567714D01*
X134445619Y-128520095D01*
X134398000Y-128472476D01*
X134350380Y-128377238D01*
X134350380Y-128186761D01*
X134398000Y-128091523D01*
X134445619Y-128043904D01*
X134540857Y-127996285D01*
X134778952Y-127996285D01*
X134874190Y-128043904D01*
X134921809Y-128091523D01*
X134969428Y-128186761D01*
X134969428Y-128377238D01*
X134921809Y-128472476D01*
X134874190Y-128520095D01*
X134778952Y-128567714D01*
G04 #@! TO.C,U14*
X122272619Y-148238095D02*
X121463095Y-148238095D01*
X121367857Y-148190476D01*
X121320238Y-148142857D01*
X121272619Y-148047619D01*
X121272619Y-147857142D01*
X121320238Y-147761904D01*
X121367857Y-147714285D01*
X121463095Y-147666666D01*
X122272619Y-147666666D01*
X121272619Y-146666666D02*
X121272619Y-147238095D01*
X121272619Y-146952380D02*
X122272619Y-146952380D01*
X122129761Y-147047619D01*
X122034523Y-147142857D01*
X121986904Y-147238095D01*
X121939285Y-145809523D02*
X121272619Y-145809523D01*
X122320238Y-146047619D02*
X121605952Y-146285714D01*
X121605952Y-145666666D01*
G04 #@! TO.C,U12*
X142272619Y-148238095D02*
X141463095Y-148238095D01*
X141367857Y-148190476D01*
X141320238Y-148142857D01*
X141272619Y-148047619D01*
X141272619Y-147857142D01*
X141320238Y-147761904D01*
X141367857Y-147714285D01*
X141463095Y-147666666D01*
X142272619Y-147666666D01*
X141272619Y-146666666D02*
X141272619Y-147238095D01*
X141272619Y-146952380D02*
X142272619Y-146952380D01*
X142129761Y-147047619D01*
X142034523Y-147142857D01*
X141986904Y-147238095D01*
X142177380Y-146285714D02*
X142225000Y-146238095D01*
X142272619Y-146142857D01*
X142272619Y-145904761D01*
X142225000Y-145809523D01*
X142177380Y-145761904D01*
X142082142Y-145714285D01*
X141986904Y-145714285D01*
X141844047Y-145761904D01*
X141272619Y-146333333D01*
X141272619Y-145714285D01*
G04 #@! TO.C,U11*
X132272619Y-103238095D02*
X131463095Y-103238095D01*
X131367857Y-103190476D01*
X131320238Y-103142857D01*
X131272619Y-103047619D01*
X131272619Y-102857142D01*
X131320238Y-102761904D01*
X131367857Y-102714285D01*
X131463095Y-102666666D01*
X132272619Y-102666666D01*
X131272619Y-101666666D02*
X131272619Y-102238095D01*
X131272619Y-101952380D02*
X132272619Y-101952380D01*
X132129761Y-102047619D01*
X132034523Y-102142857D01*
X131986904Y-102238095D01*
X131272619Y-100714285D02*
X131272619Y-101285714D01*
X131272619Y-101000000D02*
X132272619Y-101000000D01*
X132129761Y-101095238D01*
X132034523Y-101190476D01*
X131986904Y-101285714D01*
G04 #@! TO.C,U13*
X132272619Y-148238095D02*
X131463095Y-148238095D01*
X131367857Y-148190476D01*
X131320238Y-148142857D01*
X131272619Y-148047619D01*
X131272619Y-147857142D01*
X131320238Y-147761904D01*
X131367857Y-147714285D01*
X131463095Y-147666666D01*
X132272619Y-147666666D01*
X131272619Y-146666666D02*
X131272619Y-147238095D01*
X131272619Y-146952380D02*
X132272619Y-146952380D01*
X132129761Y-147047619D01*
X132034523Y-147142857D01*
X131986904Y-147238095D01*
X132272619Y-146333333D02*
X132272619Y-145714285D01*
X131891666Y-146047619D01*
X131891666Y-145904761D01*
X131844047Y-145809523D01*
X131796428Y-145761904D01*
X131701190Y-145714285D01*
X131463095Y-145714285D01*
X131367857Y-145761904D01*
X131320238Y-145809523D01*
X131272619Y-145904761D01*
X131272619Y-146190476D01*
X131320238Y-146285714D01*
X131367857Y-146333333D01*
G04 #@! TO.C,U10*
X122272619Y-103238095D02*
X121463095Y-103238095D01*
X121367857Y-103190476D01*
X121320238Y-103142857D01*
X121272619Y-103047619D01*
X121272619Y-102857142D01*
X121320238Y-102761904D01*
X121367857Y-102714285D01*
X121463095Y-102666666D01*
X122272619Y-102666666D01*
X121272619Y-101666666D02*
X121272619Y-102238095D01*
X121272619Y-101952380D02*
X122272619Y-101952380D01*
X122129761Y-102047619D01*
X122034523Y-102142857D01*
X121986904Y-102238095D01*
X122272619Y-101047619D02*
X122272619Y-100952380D01*
X122225000Y-100857142D01*
X122177380Y-100809523D01*
X122082142Y-100761904D01*
X121891666Y-100714285D01*
X121653571Y-100714285D01*
X121463095Y-100761904D01*
X121367857Y-100809523D01*
X121320238Y-100857142D01*
X121272619Y-100952380D01*
X121272619Y-101047619D01*
X121320238Y-101142857D01*
X121367857Y-101190476D01*
X121463095Y-101238095D01*
X121653571Y-101285714D01*
X121891666Y-101285714D01*
X122082142Y-101238095D01*
X122177380Y-101190476D01*
X122225000Y-101142857D01*
X122272619Y-101047619D01*
G04 #@! TO.C,U7*
D12*
X164223904Y-138490380D02*
X164223904Y-139299904D01*
X164176285Y-139395142D01*
X164128666Y-139442761D01*
X164033428Y-139490380D01*
X163842952Y-139490380D01*
X163747714Y-139442761D01*
X163700095Y-139395142D01*
X163652476Y-139299904D01*
X163652476Y-138490380D01*
X163271523Y-138490380D02*
X162604857Y-138490380D01*
X163033428Y-139490380D01*
G04 #@! TO.C,U9*
X164140904Y-150582380D02*
X164140904Y-151391904D01*
X164093285Y-151487142D01*
X164045666Y-151534761D01*
X163950428Y-151582380D01*
X163759952Y-151582380D01*
X163664714Y-151534761D01*
X163617095Y-151487142D01*
X163569476Y-151391904D01*
X163569476Y-150582380D01*
X163045666Y-151582380D02*
X162855190Y-151582380D01*
X162759952Y-151534761D01*
X162712333Y-151487142D01*
X162617095Y-151344285D01*
X162569476Y-151153809D01*
X162569476Y-150772857D01*
X162617095Y-150677619D01*
X162664714Y-150630000D01*
X162759952Y-150582380D01*
X162950428Y-150582380D01*
X163045666Y-150630000D01*
X163093285Y-150677619D01*
X163140904Y-150772857D01*
X163140904Y-151010952D01*
X163093285Y-151106190D01*
X163045666Y-151153809D01*
X162950428Y-151201428D01*
X162759952Y-151201428D01*
X162664714Y-151153809D01*
X162617095Y-151106190D01*
X162569476Y-151010952D01*
G04 #@! TD*
M02*
