EESchema Schematic File Version 4
EELAYER 30 0
EELAYER END
$Descr A4 11693 8268
encoding utf-8
Sheet 5 11
Title "Monitors for the FE, PLL"
Date ""
Rev ""
Comp "KIP, Uni-Heidelberg"
Comment1 ""
Comment2 ""
Comment3 ""
Comment4 ""
$EndDescr
Wire Wire Line
	3300 2250 3200 2250
Wire Wire Line
	3200 2250 3200 2350
Wire Wire Line
	3200 2350 3300 2350
Wire Wire Line
	2850 2350 3200 2350
Connection ~ 3200 2350
Wire Wire Line
	4250 1750 4350 1750
Wire Wire Line
	4250 1850 4350 1850
Wire Wire Line
	4350 1850 4350 1750
Text HLabel 3200 4800 1    50   Input ~ 0
PLLVCTRL
Text HLabel 2700 2150 0    50   Input ~ 0
SiPM
$Comp
L Device:R R38
U 1 1 5E233E2A
P 3000 2150
F 0 "R38" V 3100 2250 50  0000 C CNN
F 1 "0(DNP)" V 2900 2200 50  0000 C CNN
F 2 "Resistor_SMD:R_0603_1608Metric" V 2930 2150 50  0001 C CNN
F 3 "" H 3000 2150 50  0000 C CNN
	1    3000 2150
	0    -1   -1   0   
$EndComp
$Comp
L power:GNDA #PWR092
U 1 1 5E2355D9
P 7500 2150
F 0 "#PWR092" H 7500 1900 50  0001 C CNN
F 1 "GNDA" H 7505 1977 50  0000 C CNN
F 2 "" H 7500 2150 50  0000 C CNN
F 3 "" H 7500 2150 50  0000 C CNN
	1    7500 2150
	1    0    0    -1  
$EndComp
$Comp
L power:GNDA #PWR091
U 1 1 5E235641
P 6700 2150
F 0 "#PWR091" H 6700 1900 50  0001 C CNN
F 1 "GNDA" H 6705 1977 50  0000 C CNN
F 2 "" H 6700 2150 50  0000 C CNN
F 3 "" H 6700 2150 50  0000 C CNN
	1    6700 2150
	1    0    0    -1  
$EndComp
$Comp
L power:GNDA #PWR090
U 1 1 5E235675
P 6000 2150
F 0 "#PWR090" H 6000 1900 50  0001 C CNN
F 1 "GNDA" H 6005 1977 50  0000 C CNN
F 2 "" H 6000 2150 50  0000 C CNN
F 3 "" H 6000 2150 50  0000 C CNN
	1    6000 2150
	1    0    0    -1  
$EndComp
Wire Wire Line
	5550 1950 5800 1950
Wire Wire Line
	6300 1950 6500 1950
Wire Wire Line
	5600 3800 5800 3800
Wire Wire Line
	7100 1950 7300 1950
Text Label 2850 2350 0    50   ~ 0
INDC
Text Label 7100 1950 0    50   ~ 0
INDC
Text Label 5600 3800 0    50   ~ 0
VCTRL
Text Label 6300 1950 0    50   ~ 0
MON2
Text Label 5550 1950 0    50   ~ 0
MON1
Wire Wire Line
	4350 1850 4550 1850
Connection ~ 4350 1850
Text Label 4400 1850 0    50   ~ 0
MON1
$Comp
L Device:C C35
U 1 1 5E2391D6
P 1950 1900
F 0 "C35" H 2065 1946 50  0000 L CNN
F 1 "100n" H 2065 1855 50  0000 L CNN
F 2 "Capacitor_SMD:C_0603_1608Metric" H 1988 1750 50  0001 C CNN
F 3 "" H 1950 1900 50  0000 C CNN
	1    1950 1900
	1    0    0    -1  
$EndComp
$Comp
L Device:C C36
U 1 1 5E239309
P 2400 1900
F 0 "C36" H 2515 1946 50  0000 L CNN
F 1 "10u" H 2515 1855 50  0000 L CNN
F 2 "Capacitor_SMD:C_0603_1608Metric" H 2438 1750 50  0001 C CNN
F 3 "" H 2400 1900 50  0000 C CNN
	1    2400 1900
	1    0    0    -1  
$EndComp
$Comp
L power:GNDA #PWR088
U 1 1 5E239353
P 2400 2050
F 0 "#PWR088" H 2400 1800 50  0001 C CNN
F 1 "GNDA" H 2405 1877 50  0000 C CNN
F 2 "" H 2400 2050 50  0000 C CNN
F 3 "" H 2400 2050 50  0000 C CNN
	1    2400 2050
	1    0    0    -1  
$EndComp
$Comp
L power:GNDA #PWR087
U 1 1 5E23938D
P 1950 2050
F 0 "#PWR087" H 1950 1800 50  0001 C CNN
F 1 "GNDA" H 1955 1877 50  0000 C CNN
F 2 "" H 1950 2050 50  0000 C CNN
F 3 "" H 1950 2050 50  0000 C CNN
	1    1950 2050
	1    0    0    -1  
$EndComp
$Comp
L Device:R R42
U 1 1 5C46DAE5
P 4000 5450
F 0 "R42" V 3900 5450 50  0000 C CNN
F 1 "0 (DNP)" V 4000 5450 50  0000 C CNN
F 2 "Resistor_SMD:R_0603_1608Metric" V 3930 5450 50  0001 C CNN
F 3 "" H 4000 5450 50  0000 C CNN
	1    4000 5450
	0    1    1    0   
$EndComp
Wire Wire Line
	2950 4100 3200 4100
Wire Wire Line
	3200 4100 3200 4200
Wire Wire Line
	3200 4200 3300 4200
Connection ~ 3200 4100
Wire Wire Line
	3200 4100 3300 4100
Wire Wire Line
	4250 4200 4350 4200
Wire Wire Line
	4250 4100 4350 4100
Wire Wire Line
	4350 4100 4350 4200
Text HLabel 2000 4800 1    50   Input ~ 0
PLLVC
Text Label 2950 4100 0    50   ~ 0
VCTRL
Wire Wire Line
	6300 3800 6500 3800
Text Label 6300 3800 0    50   ~ 0
VC
$Comp
L Device:C C37
U 1 1 5C476643
P 1950 3750
F 0 "C37" H 2065 3796 50  0000 L CNN
F 1 "100n" H 2065 3705 50  0000 L CNN
F 2 "Capacitor_SMD:C_0603_1608Metric" H 1988 3600 50  0001 C CNN
F 3 "" H 1950 3750 50  0000 C CNN
	1    1950 3750
	1    0    0    -1  
$EndComp
$Comp
L Device:C C38
U 1 1 5C476709
P 2400 3750
F 0 "C38" H 2515 3796 50  0000 L CNN
F 1 "10u" H 2515 3705 50  0000 L CNN
F 2 "Capacitor_SMD:C_0603_1608Metric" H 2438 3600 50  0001 C CNN
F 3 "" H 2400 3750 50  0000 C CNN
	1    2400 3750
	1    0    0    -1  
$EndComp
$Comp
L power:GNDD #PWR0100
U 1 1 5C476850
P 6700 4000
F 0 "#PWR0100" H 6700 3750 50  0001 C CNN
F 1 "GNDD" H 6705 3827 50  0000 C CNN
F 2 "" H 6700 4000 50  0000 C CNN
F 3 "" H 6700 4000 50  0000 C CNN
	1    6700 4000
	1    0    0    -1  
$EndComp
$Comp
L power:GNDD #PWR099
U 1 1 5C4768A2
P 6000 4000
F 0 "#PWR099" H 6000 3750 50  0001 C CNN
F 1 "GNDD" H 6005 3827 50  0000 C CNN
F 2 "" H 6000 4000 50  0000 C CNN
F 3 "" H 6000 4000 50  0000 C CNN
	1    6000 4000
	1    0    0    -1  
$EndComp
$Comp
L power:GNDD #PWR097
U 1 1 5C476934
P 2400 3900
F 0 "#PWR097" H 2400 3650 50  0001 C CNN
F 1 "GNDD" H 2405 3727 50  0000 C CNN
F 2 "" H 2400 3900 50  0000 C CNN
F 3 "" H 2400 3900 50  0000 C CNN
	1    2400 3900
	1    0    0    -1  
$EndComp
$Comp
L power:GNDD #PWR096
U 1 1 5C476986
P 1950 3900
F 0 "#PWR096" H 1950 3650 50  0001 C CNN
F 1 "GNDD" H 1955 3727 50  0000 C CNN
F 2 "" H 1950 3900 50  0000 C CNN
F 3 "" H 1950 3900 50  0000 C CNN
	1    1950 3900
	1    0    0    -1  
$EndComp
$Comp
L Connector:Conn_Coaxial P15
U 1 1 5DAD9B65
P 6000 1950
F 0 "P15" H 6101 1926 50  0000 L CNN
F 1 "MON1" H 6101 1835 50  0000 L CNN
F 2 "KLauS-Custom:BNC_SMA" H 6000 1950 50  0001 C CNN
F 3 "" H 6000 1950 50  0000 C CNN
	1    6000 1950
	1    0    0    -1  
$EndComp
$Comp
L Connector:Conn_Coaxial P16
U 1 1 5DAD9BE7
P 6700 1950
F 0 "P16" H 6801 1926 50  0000 L CNN
F 1 "MON2" H 6801 1835 50  0000 L CNN
F 2 "KLauS-Custom:BNC_SMA" H 6700 1950 50  0001 C CNN
F 3 "" H 6700 1950 50  0000 C CNN
	1    6700 1950
	1    0    0    -1  
$EndComp
$Comp
L Connector:Conn_Coaxial P17
U 1 1 5DAD9C56
P 7500 1950
F 0 "P17" H 7601 1926 50  0000 L CNN
F 1 "INDC" H 7601 1835 50  0000 L CNN
F 2 "KLauS-Custom:BNC_SMA" H 7500 1950 50  0001 C CNN
F 3 "" H 7500 1950 50  0000 C CNN
	1    7500 1950
	1    0    0    -1  
$EndComp
$Comp
L Connector:Conn_Coaxial P18
U 1 1 5DAD9D02
P 6000 3800
F 0 "P18" H 6101 3776 50  0000 L CNN
F 1 "VCTRL" H 6101 3685 50  0000 L CNN
F 2 "KLauS-Custom:BNC_SMA" H 6000 3800 50  0001 C CNN
F 3 "" H 6000 3800 50  0000 C CNN
	1    6000 3800
	1    0    0    -1  
$EndComp
$Comp
L Connector:Conn_Coaxial P19
U 1 1 5DAD9D7F
P 6700 3800
F 0 "P19" H 6801 3776 50  0000 L CNN
F 1 "VC" H 6801 3685 50  0000 L CNN
F 2 "KLauS-Custom:BNC_SMA" H 6700 3800 50  0001 C CNN
F 3 "" H 6700 3800 50  0000 C CNN
	1    6700 3800
	1    0    0    -1  
$EndComp
$Comp
L KLauS-ASIC:OPA3355 U7
U 1 1 5DADADC1
P 3300 1550
F 0 "U7" H 3775 1637 60  0000 C CNN
F 1 "OPA3355" H 3775 1531 60  0000 C CNN
F 2 "KLauS-Custom:OPA3355" H 3300 1550 60  0001 C CNN
F 3 "" H 3300 1550 60  0001 C CNN
	1    3300 1550
	1    0    0    -1  
$EndComp
Wire Wire Line
	3300 2150 3150 2150
Wire Wire Line
	2700 2150 2850 2150
Wire Wire Line
	4550 2150 4250 2150
Wire Wire Line
	4550 2350 4350 2350
Wire Wire Line
	4250 2250 4350 2250
Wire Wire Line
	4350 2250 4350 2350
Connection ~ 4350 2350
Wire Wire Line
	4350 2350 4250 2350
Text Label 4400 2350 0    50   ~ 0
MON2
Text HLabel 4550 2150 2    50   Input ~ 0
AMON2
$Comp
L power:GNDA #PWR089
U 1 1 5DAE1D9B
P 4350 2050
F 0 "#PWR089" H 4350 1800 50  0001 C CNN
F 1 "GNDA" V 4355 1922 50  0000 R CNN
F 2 "" H 4350 2050 50  0000 C CNN
F 3 "" H 4350 2050 50  0000 C CNN
	1    4350 2050
	0    -1   -1   0   
$EndComp
Wire Wire Line
	4350 2050 4250 2050
Wire Wire Line
	3300 3900 3200 3900
Wire Wire Line
	3200 3900 3200 3800
Wire Wire Line
	3200 3600 3300 3600
Wire Wire Line
	3300 3700 3200 3700
Connection ~ 3200 3700
Wire Wire Line
	3200 3700 3200 3600
Wire Wire Line
	3300 3800 3200 3800
Connection ~ 3200 3800
Wire Wire Line
	3200 3800 3200 3700
$Comp
L KLauS-ASIC:OPA3355 U8
U 1 1 5DAE7B87
P 3300 3400
F 0 "U8" H 3775 3487 60  0000 C CNN
F 1 "OPA3355" H 3775 3381 60  0000 C CNN
F 2 "KLauS-Custom:OPA3355" H 3300 3400 60  0001 C CNN
F 3 "" H 3300 3400 60  0001 C CNN
	1    3300 3400
	1    0    0    -1  
$EndComp
Wire Wire Line
	2950 4000 3300 4000
Wire Wire Line
	4500 4000 4250 4000
Wire Wire Line
	4500 3800 4250 3800
Wire Wire Line
	4500 3600 4300 3600
Wire Wire Line
	4300 3600 4300 3700
Wire Wire Line
	4300 3700 4250 3700
Connection ~ 4300 3600
Wire Wire Line
	4300 3600 4250 3600
Wire Wire Line
	4500 4200 4350 4200
Connection ~ 4350 4200
Text Label 4400 4200 0    50   ~ 0
VC
Text Label 4350 3600 0    50   ~ 0
VC4
Wire Wire Line
	4400 3900 4250 3900
Text Label 2950 4000 0    50   ~ 0
VC3
Text Label 4350 4000 0    50   ~ 0
VC1
Text Label 4350 3800 0    50   ~ 0
VC2
$Comp
L power:GNDD #PWR098
U 1 1 5DAF0E93
P 4400 3900
F 0 "#PWR098" H 4400 3650 50  0001 C CNN
F 1 "GNDD" V 4400 3700 50  0000 C CNN
F 2 "" H 4400 3900 50  0000 C CNN
F 3 "" H 4400 3900 50  0000 C CNN
	1    4400 3900
	0    -1   -1   0   
$EndComp
Wire Wire Line
	7100 3800 7300 3800
Text Label 7100 3800 0    50   ~ 0
VC4
$Comp
L power:GNDD #PWR0101
U 1 1 5DAF3D30
P 7500 4000
F 0 "#PWR0101" H 7500 3750 50  0001 C CNN
F 1 "GNDD" H 7505 3827 50  0000 C CNN
F 2 "" H 7500 4000 50  0000 C CNN
F 3 "" H 7500 4000 50  0000 C CNN
	1    7500 4000
	1    0    0    -1  
$EndComp
$Comp
L Connector:Conn_Coaxial P20
U 1 1 5DAF3D36
P 7500 3800
F 0 "P20" H 7601 3776 50  0000 L CNN
F 1 "VC4" H 7601 3685 50  0000 L CNN
F 2 "KLauS-Custom:BNC_SMA" H 7500 3800 50  0001 C CNN
F 3 "" H 7500 3800 50  0000 C CNN
	1    7500 3800
	1    0    0    -1  
$EndComp
$Comp
L Device:C C41
U 1 1 5DAF6D85
P 3600 5650
F 0 "C41" H 3715 5696 50  0000 L CNN
F 1 "220p" H 3715 5605 50  0000 L CNN
F 2 "Capacitor_SMD:C_0603_1608Metric" H 3638 5500 50  0001 C CNN
F 3 "" H 3600 5650 50  0000 C CNN
	1    3600 5650
	-1   0    0    -1  
$EndComp
$Comp
L Device:C C39
U 1 1 5DAF7837
P 2000 5650
F 0 "C39" H 2115 5696 50  0000 L CNN
F 1 "220p" H 2115 5605 50  0000 L CNN
F 2 "Capacitor_SMD:C_0603_1608Metric" H 2038 5500 50  0001 C CNN
F 3 "" H 2000 5650 50  0000 C CNN
	1    2000 5650
	1    0    0    -1  
$EndComp
$Comp
L Device:C C40
U 1 1 5DAF787F
P 3200 5650
F 0 "C40" H 3315 5696 50  0000 L CNN
F 1 "22p" H 3315 5605 50  0000 L CNN
F 2 "Capacitor_SMD:C_0603_1608Metric" H 3238 5500 50  0001 C CNN
F 3 "" H 3200 5650 50  0000 C CNN
	1    3200 5650
	-1   0    0    -1  
$EndComp
$Comp
L KLauS-ASIC:Rtrim U9
U 1 1 5DAF7CDF
P 1800 5200
F 0 "U9" H 1831 5325 50  0000 C CNN
F 1 "Rtrim" H 1831 5234 50  0000 C CNN
F 2 "Connector-Custom:CONN_01X3" H 1800 5200 50  0001 C CNN
F 3 "" H 1800 5200 50  0001 C CNN
	1    1800 5200
	1    0    0    -1  
$EndComp
NoConn ~ 1750 5700
Wire Wire Line
	2000 5400 2000 5500
$Comp
L Device:R R40
U 1 1 5DAFA963
P 3600 5250
F 0 "R40" V 3500 5250 50  0000 C CNN
F 1 "0 (DNP)" V 3600 5250 50  0000 C CNN
F 2 "Resistor_SMD:R_0603_1608Metric" V 3530 5250 50  0001 C CNN
F 3 "" H 3600 5250 50  0000 C CNN
	1    3600 5250
	1    0    0    1   
$EndComp
Wire Wire Line
	3600 5000 3600 5100
Wire Wire Line
	3600 5400 3600 5450
Wire Wire Line
	3600 5000 3200 5000
Wire Wire Line
	3200 5000 3200 5500
$Comp
L power:GNDD #PWR0103
U 1 1 5DAFD52C
P 3200 5800
F 0 "#PWR0103" H 3200 5550 50  0001 C CNN
F 1 "GNDD" H 3205 5627 50  0000 C CNN
F 2 "" H 3200 5800 50  0000 C CNN
F 3 "" H 3200 5800 50  0000 C CNN
	1    3200 5800
	-1   0    0    -1  
$EndComp
$Comp
L power:GNDD #PWR0104
U 1 1 5DAFD55D
P 3600 5800
F 0 "#PWR0104" H 3600 5550 50  0001 C CNN
F 1 "GNDD" H 3605 5627 50  0000 C CNN
F 2 "" H 3600 5800 50  0000 C CNN
F 3 "" H 3600 5800 50  0000 C CNN
	1    3600 5800
	-1   0    0    -1  
$EndComp
$Comp
L power:GNDD #PWR0102
U 1 1 5DAFD58E
P 2000 5800
F 0 "#PWR0102" H 2000 5550 50  0001 C CNN
F 1 "GNDD" H 2005 5627 50  0000 C CNN
F 2 "" H 2000 5800 50  0000 C CNN
F 3 "" H 2000 5800 50  0000 C CNN
	1    2000 5800
	1    0    0    -1  
$EndComp
Wire Wire Line
	3200 4800 3200 5000
Connection ~ 3200 5000
Wire Wire Line
	3850 5450 3600 5450
Connection ~ 3600 5450
Wire Wire Line
	3600 5450 3600 5500
Wire Wire Line
	4350 5450 4150 5450
$Comp
L Device:R R39
U 1 1 5DB04F5D
P 3950 5000
F 0 "R39" V 3850 5000 50  0000 C CNN
F 1 "0 (DNP)" V 3950 5000 50  0000 C CNN
F 2 "Resistor_SMD:R_0603_1608Metric" V 3880 5000 50  0001 C CNN
F 3 "" H 3950 5000 50  0000 C CNN
	1    3950 5000
	0    1    1    0   
$EndComp
Wire Wire Line
	3800 5000 3600 5000
Connection ~ 3600 5000
Wire Wire Line
	4350 5000 4100 5000
Wire Wire Line
	2000 4800 2000 5300
$Comp
L Device:R R41
U 1 1 5DB0AA73
P 2400 5400
F 0 "R41" V 2300 5400 50  0000 C CNN
F 1 "0 (DNP)" V 2400 5400 50  0000 C CNN
F 2 "Resistor_SMD:R_0603_1608Metric" V 2330 5400 50  0001 C CNN
F 3 "" H 2400 5400 50  0000 C CNN
	1    2400 5400
	0    1    1    0   
$EndComp
Wire Wire Line
	2250 5400 2000 5400
Connection ~ 2000 5400
Wire Wire Line
	2750 5400 2550 5400
Text Label 2600 5400 0    50   ~ 0
VC1
Text Label 4200 5000 0    50   ~ 0
VC2
Text Label 4200 5450 0    50   ~ 0
VC3
Wire Wire Line
	3300 2050 3200 2050
Wire Wire Line
	3200 2050 3200 1950
Wire Wire Line
	3200 1750 3300 1750
Wire Wire Line
	3300 1850 3200 1850
Connection ~ 3200 1850
Wire Wire Line
	3200 1850 3200 1750
Wire Wire Line
	3300 1950 3200 1950
Connection ~ 3200 1950
Wire Wire Line
	3200 1950 3200 1850
$Comp
L power:+3.3VA #PWR086
U 1 1 5DDEB713
P 3200 1750
F 0 "#PWR086" H 3200 1600 50  0001 C CNN
F 1 "+3.3VA" H 3215 1923 50  0000 C CNN
F 2 "" H 3200 1750 50  0000 C CNN
F 3 "" H 3200 1750 50  0000 C CNN
	1    3200 1750
	1    0    0    -1  
$EndComp
Connection ~ 3200 1750
$Comp
L power:+3.3VA #PWR085
U 1 1 5DDEB79E
P 2400 1750
F 0 "#PWR085" H 2400 1600 50  0001 C CNN
F 1 "+3.3VA" H 2415 1923 50  0000 C CNN
F 2 "" H 2400 1750 50  0000 C CNN
F 3 "" H 2400 1750 50  0000 C CNN
	1    2400 1750
	1    0    0    -1  
$EndComp
$Comp
L power:+3.3VA #PWR084
U 1 1 5DDEB7FF
P 1950 1750
F 0 "#PWR084" H 1950 1600 50  0001 C CNN
F 1 "+3.3VA" H 1965 1923 50  0000 C CNN
F 2 "" H 1950 1750 50  0000 C CNN
F 3 "" H 1950 1750 50  0000 C CNN
	1    1950 1750
	1    0    0    -1  
$EndComp
$Comp
L power:+3.3V #PWR095
U 1 1 5DDEB8FA
P 3200 3600
F 0 "#PWR095" H 3200 3450 50  0001 C CNN
F 1 "+3.3V" H 3215 3773 50  0000 C CNN
F 2 "" H 3200 3600 50  0000 C CNN
F 3 "" H 3200 3600 50  0000 C CNN
	1    3200 3600
	1    0    0    -1  
$EndComp
Connection ~ 3200 3600
$Comp
L power:+3.3V #PWR094
U 1 1 5DDEB95B
P 2400 3600
F 0 "#PWR094" H 2400 3450 50  0001 C CNN
F 1 "+3.3V" H 2415 3773 50  0000 C CNN
F 2 "" H 2400 3600 50  0000 C CNN
F 3 "" H 2400 3600 50  0000 C CNN
	1    2400 3600
	1    0    0    -1  
$EndComp
$Comp
L power:+3.3V #PWR093
U 1 1 5DDEB9BC
P 1950 3600
F 0 "#PWR093" H 1950 3450 50  0001 C CNN
F 1 "+3.3V" H 1965 3773 50  0000 C CNN
F 2 "" H 1950 3600 50  0000 C CNN
F 3 "" H 1950 3600 50  0000 C CNN
	1    1950 3600
	1    0    0    -1  
$EndComp
Text HLabel 4550 1950 2    50   Input ~ 0
AMON1
Wire Wire Line
	4550 1950 4250 1950
Connection ~ 6500 3800
Wire Wire Line
	6500 3800 6550 3800
Connection ~ 5800 3800
Wire Wire Line
	5800 3800 5850 3800
Connection ~ 7300 3800
Wire Wire Line
	7300 3800 7350 3800
Connection ~ 5800 1950
Wire Wire Line
	5800 1950 5850 1950
Connection ~ 6500 1950
Wire Wire Line
	6500 1950 6550 1950
Connection ~ 7300 1950
Wire Wire Line
	7300 1950 7350 1950
$EndSCHEMATC
