EESchema Schematic File Version 4
EELAYER 30 0
EELAYER END
$Descr A4 11693 8268
encoding utf-8
Sheet 11 11
Title "Power filter near the KLauS ASIC"
Date "2019-10-16"
Rev ""
Comp "KIP, Uni-Heidelberg"
Comment1 ""
Comment2 ""
Comment3 ""
Comment4 ""
$EndDescr
$Comp
L power:GNDA #PWR0229
U 1 1 598EFC7D
P 4550 2700
F 0 "#PWR0229" H 4550 2450 50  0001 C CNN
F 1 "GNDA" V 4555 2572 50  0000 R CNN
F 2 "" H 4550 2700 50  0000 C CNN
F 3 "" H 4550 2700 50  0000 C CNN
	1    4550 2700
	0    -1   -1   0   
$EndComp
$Comp
L Device:C C117
U 1 1 598F009E
P 3700 2550
F 0 "C117" H 3815 2596 50  0000 L CNN
F 1 "100n" H 3815 2505 50  0000 L CNN
F 2 "Capacitor_SMD:C_0402_1005Metric" H 3738 2400 50  0001 C CNN
F 3 "" H 3700 2550 50  0000 C CNN
	1    3700 2550
	1    0    0    -1  
$EndComp
$Comp
L Device:C C118
U 1 1 598F00A4
P 4250 2550
F 0 "C118" H 4365 2596 50  0000 L CNN
F 1 "1n" H 4365 2505 50  0000 L CNN
F 2 "Capacitor_SMD:C_0402_1005Metric" H 4288 2400 50  0001 C CNN
F 3 "" H 4250 2550 50  0000 C CNN
	1    4250 2550
	1    0    0    -1  
$EndComp
$Comp
L Device:C C116
U 1 1 598F0FF9
P 3200 2550
F 0 "C116" H 3315 2596 50  0000 L CNN
F 1 "1u" H 3315 2505 50  0000 L CNN
F 2 "Capacitor_SMD:C_0402_1005Metric" H 3238 2400 50  0001 C CNN
F 3 "" H 3200 2550 50  0000 C CNN
	1    3200 2550
	1    0    0    -1  
$EndComp
Text Notes 5550 3100 0    60   ~ 0
Analog: Filter capacitors close to the chip
Wire Wire Line
	3200 2700 3700 2700
Wire Wire Line
	3200 2400 3700 2400
$Comp
L power_special:VCCA33 #PWR0227
U 1 1 5DE285FB
P 4550 2400
F 0 "#PWR0227" H 4550 2250 50  0001 C CNN
F 1 "VCCA33" V 4567 2528 50  0000 L CNN
F 2 "" H 4550 2400 50  0000 C CNN
F 3 "" H 4550 2400 50  0000 C CNN
	1    4550 2400
	0    1    1    0   
$EndComp
$Comp
L power:GNDA #PWR0225
U 1 1 5DE2871B
P 4550 2000
F 0 "#PWR0225" H 4550 1750 50  0001 C CNN
F 1 "GNDA" V 4555 1872 50  0000 R CNN
F 2 "" H 4550 2000 50  0000 C CNN
F 3 "" H 4550 2000 50  0000 C CNN
	1    4550 2000
	0    -1   -1   0   
$EndComp
$Comp
L Device:C C111
U 1 1 5DE28721
P 3700 1850
F 0 "C111" H 3815 1896 50  0000 L CNN
F 1 "100n" H 3815 1805 50  0000 L CNN
F 2 "Capacitor_SMD:C_0402_1005Metric" H 3738 1700 50  0001 C CNN
F 3 "" H 3700 1850 50  0000 C CNN
	1    3700 1850
	1    0    0    -1  
$EndComp
$Comp
L Device:C C112
U 1 1 5DE28727
P 4250 1850
F 0 "C112" H 4365 1896 50  0000 L CNN
F 1 "1n" H 4365 1805 50  0000 L CNN
F 2 "Capacitor_SMD:C_0402_1005Metric" H 4288 1700 50  0001 C CNN
F 3 "" H 4250 1850 50  0000 C CNN
	1    4250 1850
	1    0    0    -1  
$EndComp
$Comp
L Device:C C110
U 1 1 5DE2872D
P 3200 1850
F 0 "C110" H 3315 1896 50  0000 L CNN
F 1 "1u" H 3315 1805 50  0000 L CNN
F 2 "Capacitor_SMD:C_0402_1005Metric" H 3238 1700 50  0001 C CNN
F 3 "" H 3200 1850 50  0000 C CNN
	1    3200 1850
	1    0    0    -1  
$EndComp
Wire Wire Line
	3200 2000 3700 2000
Wire Wire Line
	3200 1700 3700 1700
$Comp
L power_special:VCCA33 #PWR0223
U 1 1 5DE28735
P 4550 1700
F 0 "#PWR0223" H 4550 1550 50  0001 C CNN
F 1 "VCCA33" V 4567 1828 50  0000 L CNN
F 2 "" H 4550 1700 50  0000 C CNN
F 3 "" H 4550 1700 50  0000 C CNN
	1    4550 1700
	0    1    1    0   
$EndComp
Connection ~ 3700 1700
Wire Wire Line
	3700 1700 4250 1700
Connection ~ 3700 2000
Wire Wire Line
	3700 2000 4250 2000
Connection ~ 4250 1700
Wire Wire Line
	4250 1700 4550 1700
Connection ~ 4250 2000
Wire Wire Line
	4250 2000 4550 2000
$Comp
L power:GNDA #PWR0230
U 1 1 5DE29441
P 6950 2700
F 0 "#PWR0230" H 6950 2450 50  0001 C CNN
F 1 "GNDA" V 6955 2572 50  0000 R CNN
F 2 "" H 6950 2700 50  0000 C CNN
F 3 "" H 6950 2700 50  0000 C CNN
	1    6950 2700
	0    -1   -1   0   
$EndComp
$Comp
L Device:C C120
U 1 1 5DE29447
P 6100 2550
F 0 "C120" H 6215 2596 50  0000 L CNN
F 1 "100n" H 6215 2505 50  0000 L CNN
F 2 "Capacitor_SMD:C_0402_1005Metric" H 6138 2400 50  0001 C CNN
F 3 "" H 6100 2550 50  0000 C CNN
	1    6100 2550
	1    0    0    -1  
$EndComp
$Comp
L Device:C C121
U 1 1 5DE2944D
P 6650 2550
F 0 "C121" H 6765 2596 50  0000 L CNN
F 1 "1n" H 6765 2505 50  0000 L CNN
F 2 "Capacitor_SMD:C_0402_1005Metric" H 6688 2400 50  0001 C CNN
F 3 "" H 6650 2550 50  0000 C CNN
	1    6650 2550
	1    0    0    -1  
$EndComp
$Comp
L Device:C C119
U 1 1 5DE29453
P 5600 2550
F 0 "C119" H 5715 2596 50  0000 L CNN
F 1 "1u" H 5715 2505 50  0000 L CNN
F 2 "Capacitor_SMD:C_0402_1005Metric" H 5638 2400 50  0001 C CNN
F 3 "" H 5600 2550 50  0000 C CNN
	1    5600 2550
	1    0    0    -1  
$EndComp
Wire Wire Line
	5600 2700 6100 2700
Wire Wire Line
	5600 2400 6100 2400
$Comp
L power:GNDA #PWR0226
U 1 1 5DE29461
P 6950 2000
F 0 "#PWR0226" H 6950 1750 50  0001 C CNN
F 1 "GNDA" V 6955 1872 50  0000 R CNN
F 2 "" H 6950 2000 50  0000 C CNN
F 3 "" H 6950 2000 50  0000 C CNN
	1    6950 2000
	0    -1   -1   0   
$EndComp
$Comp
L Device:C C114
U 1 1 5DE29467
P 6100 1850
F 0 "C114" H 6215 1896 50  0000 L CNN
F 1 "100n" H 6215 1805 50  0000 L CNN
F 2 "Capacitor_SMD:C_0402_1005Metric" H 6138 1700 50  0001 C CNN
F 3 "" H 6100 1850 50  0000 C CNN
	1    6100 1850
	1    0    0    -1  
$EndComp
$Comp
L Device:C C115
U 1 1 5DE2946D
P 6650 1850
F 0 "C115" H 6765 1896 50  0000 L CNN
F 1 "1n" H 6765 1805 50  0000 L CNN
F 2 "Capacitor_SMD:C_0402_1005Metric" H 6688 1700 50  0001 C CNN
F 3 "" H 6650 1850 50  0000 C CNN
	1    6650 1850
	1    0    0    -1  
$EndComp
$Comp
L Device:C C113
U 1 1 5DE29473
P 5600 1850
F 0 "C113" H 5715 1896 50  0000 L CNN
F 1 "1u" H 5715 1805 50  0000 L CNN
F 2 "Capacitor_SMD:C_0402_1005Metric" H 5638 1700 50  0001 C CNN
F 3 "" H 5600 1850 50  0000 C CNN
	1    5600 1850
	1    0    0    -1  
$EndComp
Wire Wire Line
	5600 2000 6100 2000
Wire Wire Line
	5600 1700 6100 1700
Connection ~ 6100 1700
Wire Wire Line
	6100 1700 6650 1700
Connection ~ 6100 2000
Wire Wire Line
	6100 2000 6650 2000
Connection ~ 6650 1700
Wire Wire Line
	6650 1700 6950 1700
Connection ~ 6650 2000
Wire Wire Line
	6650 2000 6950 2000
Connection ~ 6100 2400
Wire Wire Line
	6100 2400 6650 2400
Connection ~ 6100 2700
Wire Wire Line
	6100 2700 6650 2700
Connection ~ 6650 2400
Wire Wire Line
	6650 2400 6950 2400
Connection ~ 6650 2700
Wire Wire Line
	6650 2700 6950 2700
$Comp
L power_special:VCCA18 #PWR0224
U 1 1 5DE29DD7
P 6950 1700
F 0 "#PWR0224" H 6950 1550 50  0001 C CNN
F 1 "VCCA18" V 6967 1828 50  0000 L CNN
F 2 "" H 6950 1700 50  0000 C CNN
F 3 "" H 6950 1700 50  0000 C CNN
	1    6950 1700
	0    1    1    0   
$EndComp
$Comp
L power_special:VCCA18 #PWR0228
U 1 1 5DE29E4C
P 6950 2400
F 0 "#PWR0228" H 6950 2250 50  0001 C CNN
F 1 "VCCA18" V 6967 2528 50  0000 L CNN
F 2 "" H 6950 2400 50  0000 C CNN
F 3 "" H 6950 2400 50  0000 C CNN
	1    6950 2400
	0    1    1    0   
$EndComp
Connection ~ 3700 2400
Wire Wire Line
	3700 2400 4250 2400
Connection ~ 3700 2700
Wire Wire Line
	3700 2700 4250 2700
Connection ~ 4250 2400
Wire Wire Line
	4250 2400 4550 2400
Connection ~ 4250 2700
Wire Wire Line
	4250 2700 4550 2700
$Comp
L Device:C C129
U 1 1 5DE2C25F
P 3700 5000
F 0 "C129" H 3815 5046 50  0000 L CNN
F 1 "100n" H 3815 4955 50  0000 L CNN
F 2 "Capacitor_SMD:C_0402_1005Metric" H 3738 4850 50  0001 C CNN
F 3 "" H 3700 5000 50  0000 C CNN
	1    3700 5000
	1    0    0    -1  
$EndComp
$Comp
L Device:C C130
U 1 1 5DE2C265
P 4250 5000
F 0 "C130" H 4365 5046 50  0000 L CNN
F 1 "1n" H 4365 4955 50  0000 L CNN
F 2 "Capacitor_SMD:C_0402_1005Metric" H 4288 4850 50  0001 C CNN
F 3 "" H 4250 5000 50  0000 C CNN
	1    4250 5000
	1    0    0    -1  
$EndComp
$Comp
L Device:C C128
U 1 1 5DE2C26B
P 3200 5000
F 0 "C128" H 3315 5046 50  0000 L CNN
F 1 "1u" H 3315 4955 50  0000 L CNN
F 2 "Capacitor_SMD:C_0402_1005Metric" H 3238 4850 50  0001 C CNN
F 3 "" H 3200 5000 50  0000 C CNN
	1    3200 5000
	1    0    0    -1  
$EndComp
Wire Wire Line
	3200 5150 3700 5150
Wire Wire Line
	3200 4850 3700 4850
$Comp
L Device:C C123
U 1 1 5DE2C27F
P 3700 4300
F 0 "C123" H 3815 4346 50  0000 L CNN
F 1 "100n" H 3815 4255 50  0000 L CNN
F 2 "Capacitor_SMD:C_0402_1005Metric" H 3738 4150 50  0001 C CNN
F 3 "" H 3700 4300 50  0000 C CNN
	1    3700 4300
	1    0    0    -1  
$EndComp
$Comp
L Device:C C124
U 1 1 5DE2C285
P 4250 4300
F 0 "C124" H 4365 4346 50  0000 L CNN
F 1 "1n" H 4365 4255 50  0000 L CNN
F 2 "Capacitor_SMD:C_0402_1005Metric" H 4288 4150 50  0001 C CNN
F 3 "" H 4250 4300 50  0000 C CNN
	1    4250 4300
	1    0    0    -1  
$EndComp
$Comp
L Device:C C122
U 1 1 5DE2C28B
P 3200 4300
F 0 "C122" H 3315 4346 50  0000 L CNN
F 1 "1u" H 3315 4255 50  0000 L CNN
F 2 "Capacitor_SMD:C_0402_1005Metric" H 3238 4150 50  0001 C CNN
F 3 "" H 3200 4300 50  0000 C CNN
	1    3200 4300
	1    0    0    -1  
$EndComp
Wire Wire Line
	3200 4450 3700 4450
Wire Wire Line
	3200 4150 3700 4150
Connection ~ 3700 4150
Wire Wire Line
	3700 4150 4250 4150
Connection ~ 3700 4450
Wire Wire Line
	3700 4450 4250 4450
Connection ~ 4250 4150
Wire Wire Line
	4250 4150 4550 4150
Connection ~ 4250 4450
Wire Wire Line
	4250 4450 4550 4450
$Comp
L Device:C C132
U 1 1 5DE2C2A7
P 6100 5000
F 0 "C132" H 6215 5046 50  0000 L CNN
F 1 "100n" H 6215 4955 50  0000 L CNN
F 2 "Capacitor_SMD:C_0402_1005Metric" H 6138 4850 50  0001 C CNN
F 3 "" H 6100 5000 50  0000 C CNN
	1    6100 5000
	1    0    0    -1  
$EndComp
$Comp
L Device:C C133
U 1 1 5DE2C2AD
P 6650 5000
F 0 "C133" H 6765 5046 50  0000 L CNN
F 1 "1n" H 6765 4955 50  0000 L CNN
F 2 "Capacitor_SMD:C_0402_1005Metric" H 6688 4850 50  0001 C CNN
F 3 "" H 6650 5000 50  0000 C CNN
	1    6650 5000
	1    0    0    -1  
$EndComp
$Comp
L Device:C C131
U 1 1 5DE2C2B3
P 5600 5000
F 0 "C131" H 5715 5046 50  0000 L CNN
F 1 "1u" H 5715 4955 50  0000 L CNN
F 2 "Capacitor_SMD:C_0402_1005Metric" H 5638 4850 50  0001 C CNN
F 3 "" H 5600 5000 50  0000 C CNN
	1    5600 5000
	1    0    0    -1  
$EndComp
Wire Wire Line
	5600 5150 6100 5150
Wire Wire Line
	5600 4850 6100 4850
$Comp
L Device:C C126
U 1 1 5DE2C2C1
P 6100 4300
F 0 "C126" H 6215 4346 50  0000 L CNN
F 1 "100n" H 6215 4255 50  0000 L CNN
F 2 "Capacitor_SMD:C_0402_1005Metric" H 6138 4150 50  0001 C CNN
F 3 "" H 6100 4300 50  0000 C CNN
	1    6100 4300
	1    0    0    -1  
$EndComp
$Comp
L Device:C C127
U 1 1 5DE2C2C7
P 6650 4300
F 0 "C127" H 6765 4346 50  0000 L CNN
F 1 "1n" H 6765 4255 50  0000 L CNN
F 2 "Capacitor_SMD:C_0402_1005Metric" H 6688 4150 50  0001 C CNN
F 3 "" H 6650 4300 50  0000 C CNN
	1    6650 4300
	1    0    0    -1  
$EndComp
$Comp
L Device:C C125
U 1 1 5DE2C2CD
P 5600 4300
F 0 "C125" H 5715 4346 50  0000 L CNN
F 1 "1u" H 5715 4255 50  0000 L CNN
F 2 "Capacitor_SMD:C_0402_1005Metric" H 5638 4150 50  0001 C CNN
F 3 "" H 5600 4300 50  0000 C CNN
	1    5600 4300
	1    0    0    -1  
$EndComp
Wire Wire Line
	5600 4450 6100 4450
Wire Wire Line
	5600 4150 6100 4150
Connection ~ 6100 4150
Wire Wire Line
	6100 4150 6650 4150
Connection ~ 6100 4450
Wire Wire Line
	6100 4450 6650 4450
Connection ~ 6650 4150
Wire Wire Line
	6650 4150 6950 4150
Connection ~ 6650 4450
Wire Wire Line
	6650 4450 6950 4450
Connection ~ 6100 4850
Wire Wire Line
	6100 4850 6650 4850
Connection ~ 6100 5150
Wire Wire Line
	6100 5150 6650 5150
Connection ~ 6650 4850
Wire Wire Line
	6650 4850 6950 4850
Connection ~ 6650 5150
Wire Wire Line
	6650 5150 6950 5150
Connection ~ 3700 4850
Wire Wire Line
	3700 4850 4250 4850
Connection ~ 3700 5150
Wire Wire Line
	3700 5150 4250 5150
Connection ~ 4250 4850
Wire Wire Line
	4250 4850 4550 4850
Connection ~ 4250 5150
Wire Wire Line
	4250 5150 4550 5150
$Comp
L power_special:VCCD18 #PWR0232
U 1 1 5DE2D574
P 6950 4150
F 0 "#PWR0232" H 6950 4000 50  0001 C CNN
F 1 "VCCD18" V 6967 4278 50  0000 L CNN
F 2 "" H 6950 4150 50  0000 C CNN
F 3 "" H 6950 4150 50  0000 C CNN
	1    6950 4150
	0    1    1    0   
$EndComp
$Comp
L power_special:VCCD33 #PWR0231
U 1 1 5DE2D63C
P 4550 4150
F 0 "#PWR0231" H 4550 4000 50  0001 C CNN
F 1 "VCCD33" V 4567 4278 50  0000 L CNN
F 2 "" H 4550 4150 50  0000 C CNN
F 3 "" H 4550 4150 50  0000 C CNN
	1    4550 4150
	0    1    1    0   
$EndComp
$Comp
L power_special:VCCD33 #PWR0235
U 1 1 5DE2D76E
P 4550 4850
F 0 "#PWR0235" H 4550 4700 50  0001 C CNN
F 1 "VCCD33" V 4567 4978 50  0000 L CNN
F 2 "" H 4550 4850 50  0000 C CNN
F 3 "" H 4550 4850 50  0000 C CNN
	1    4550 4850
	0    1    1    0   
$EndComp
$Comp
L power_special:VCCD18 #PWR0236
U 1 1 5DE2D7A9
P 6950 4850
F 0 "#PWR0236" H 6950 4700 50  0001 C CNN
F 1 "VCCD18" V 6967 4978 50  0000 L CNN
F 2 "" H 6950 4850 50  0000 C CNN
F 3 "" H 6950 4850 50  0000 C CNN
	1    6950 4850
	0    1    1    0   
$EndComp
$Comp
L power:GNDD #PWR0233
U 1 1 5DB00710
P 6950 5150
F 0 "#PWR0233" H 6950 4900 50  0001 C CNN
F 1 "GNDD" V 6955 5022 50  0000 R CNN
F 2 "" H 6950 5150 50  0000 C CNN
F 3 "" H 6950 5150 50  0000 C CNN
	1    6950 5150
	0    -1   -1   0   
$EndComp
$Comp
L power:GNDD #PWR0234
U 1 1 5DB0079A
P 6950 4450
F 0 "#PWR0234" H 6950 4200 50  0001 C CNN
F 1 "GNDD" V 6955 4322 50  0000 R CNN
F 2 "" H 6950 4450 50  0000 C CNN
F 3 "" H 6950 4450 50  0000 C CNN
	1    6950 4450
	0    -1   -1   0   
$EndComp
$Comp
L power:GNDD #PWR0237
U 1 1 5DB007D5
P 4550 4450
F 0 "#PWR0237" H 4550 4200 50  0001 C CNN
F 1 "GNDD" V 4555 4322 50  0000 R CNN
F 2 "" H 4550 4450 50  0000 C CNN
F 3 "" H 4550 4450 50  0000 C CNN
	1    4550 4450
	0    -1   -1   0   
$EndComp
$Comp
L power:GNDD #PWR0238
U 1 1 5DB00810
P 4550 5150
F 0 "#PWR0238" H 4550 4900 50  0001 C CNN
F 1 "GNDD" V 4555 5022 50  0000 R CNN
F 2 "" H 4550 5150 50  0000 C CNN
F 3 "" H 4550 5150 50  0000 C CNN
	1    4550 5150
	0    -1   -1   0   
$EndComp
$Comp
L Device:C C135
U 1 1 5DB03796
P 6100 5650
F 0 "C135" H 6215 5696 50  0000 L CNN
F 1 "100n" H 6215 5605 50  0000 L CNN
F 2 "Capacitor_SMD:C_0402_1005Metric" H 6138 5500 50  0001 C CNN
F 3 "" H 6100 5650 50  0000 C CNN
	1    6100 5650
	1    0    0    -1  
$EndComp
$Comp
L Device:C C136
U 1 1 5DB0379C
P 6650 5650
F 0 "C136" H 6765 5696 50  0000 L CNN
F 1 "1n" H 6765 5605 50  0000 L CNN
F 2 "Capacitor_SMD:C_0402_1005Metric" H 6688 5500 50  0001 C CNN
F 3 "" H 6650 5650 50  0000 C CNN
	1    6650 5650
	1    0    0    -1  
$EndComp
$Comp
L Device:C C134
U 1 1 5DB037A2
P 5600 5650
F 0 "C134" H 5715 5696 50  0000 L CNN
F 1 "1u" H 5715 5605 50  0000 L CNN
F 2 "Capacitor_SMD:C_0402_1005Metric" H 5638 5500 50  0001 C CNN
F 3 "" H 5600 5650 50  0000 C CNN
	1    5600 5650
	1    0    0    -1  
$EndComp
Wire Wire Line
	5600 5800 6100 5800
Wire Wire Line
	5600 5500 6100 5500
Connection ~ 6100 5500
Wire Wire Line
	6100 5500 6650 5500
Connection ~ 6100 5800
Wire Wire Line
	6100 5800 6650 5800
Connection ~ 6650 5500
Wire Wire Line
	6650 5500 6950 5500
Connection ~ 6650 5800
Wire Wire Line
	6650 5800 6950 5800
$Comp
L power_special:VCCD18 #PWR0245
U 1 1 5DB037B2
P 6950 5500
F 0 "#PWR0245" H 6950 5350 50  0001 C CNN
F 1 "VCCD18" V 6967 5628 50  0000 L CNN
F 2 "" H 6950 5500 50  0000 C CNN
F 3 "" H 6950 5500 50  0000 C CNN
	1    6950 5500
	0    1    1    0   
$EndComp
$Comp
L power:GNDD #PWR0246
U 1 1 5DB037B8
P 6950 5800
F 0 "#PWR0246" H 6950 5550 50  0001 C CNN
F 1 "GNDD" V 6955 5672 50  0000 R CNN
F 2 "" H 6950 5800 50  0000 C CNN
F 3 "" H 6950 5800 50  0000 C CNN
	1    6950 5800
	0    -1   -1   0   
$EndComp
$EndSCHEMATC
