(module Texas_R-PWSON-N10_ThermalVias (layer F.Cu) (tedit 5B0CFD72)
  (descr "10-Lead Plastic DFN, 3x3mm Body, 0.5mm Pitch, S-PVSON-N10, http://www.ti.com/lit/ds/symlink/lm5165.pdf")
  (tags "DFN 0.5 S-PVSON-N10")
  (attr smd)
  (fp_text reference REF** (at 0 -2.8) (layer F.SilkS)
    (effects (font (size 1 1) (thickness 0.15)))
  )
  (fp_text value Texas_R-PWSON-N10_ThermalVias (at 0 2.5) (layer F.Fab)
    (effects (font (size 1 1) (thickness 0.15)))
  )
  (fp_line (start -0.5 -1.3) (end -1.3 -0.5) (layer F.Fab) (width 0.1))
  (fp_line (start -1.3 1.3) (end -1.3 -0.3) (layer F.Fab) (width 0.1))
  (fp_line (start 1.3 1.3) (end -1.3 1.3) (layer F.Fab) (width 0.1))
  (fp_line (start 1.3 -1.3) (end 1.3 1.3) (layer F.Fab) (width 0.1))
  (fp_line (start -0.5 -1.3) (end 1.3 -1.3) (layer F.Fab) (width 0.1))
  (fp_line (start -2.1 -2.1) (end -2.1 2.1) (layer F.CrtYd) (width 0.05))
  (fp_line (start 2.1 -2.1) (end 2.1 2.1) (layer F.CrtYd) (width 0.05))
  (fp_line (start -2.1 -2.1) (end 2.1 -2.1) (layer F.CrtYd) (width 0.05))
  (fp_line (start -2.1 2.1) (end 2.1 2.1) (layer F.CrtYd) (width 0.05))
  (fp_line (start 0.55 1.5) (end 1.5 1.5) (layer F.SilkS) (width 0.12))
  (fp_line (start -1.6 -1.6) (end -0.5 -1.6) (layer F.SilkS) (width 0.12))
  (fp_line (start 0.55 -1.6) (end 1.5 -1.6) (layer F.SilkS) (width 0.12))
  (fp_line (start -1.5 1.5) (end -0.55 1.5) (layer F.SilkS) (width 0.12))
  (fp_line (start 1.5 -1.4) (end 1.5 -1.6) (layer F.SilkS) (width 0.12))
  (fp_line (start 1.5 1.3) (end 1.5 1.5) (layer F.SilkS) (width 0.12))
  (fp_line (start -1.5 1.5) (end -1.5 1.3) (layer F.SilkS) (width 0.12))
  (fp_text user %R (at 0 0) (layer F.Fab)
    (effects (font (size 0.7 0.7) (thickness 0.1)))
  )
  (pad 1 smd rect (at -1.5 -1) (size 0.3 0.28) (layers F.Cu F.Paste F.Mask)
    (solder_paste_margin -0.000))
  (pad 11 thru_hole circle (at 0 0) (size 0.6 0.6) (drill 0.3) (layers *.Cu *.Mask))
  (pad 11 smd rect (at 0.335 0.535) (size 0.45 0.85) (layers F.Cu F.Paste F.Mask))
  (pad 11 smd rect (at 0 0) (size 1.2 2) (layers F.Cu F.Mask))
  (pad 1 smd oval (at -1.175 -1) (size 0.65 0.28) (layers F.Cu F.Paste F.Mask)
    (solder_paste_margin -0.000))
  (pad 11 smd rect (at -0.001 0) (size 1.2 2) (layers B.Cu B.Mask))
  (pad 11 smd rect (at -0.335 0.535) (size 0.45 0.85) (layers F.Cu F.Paste F.Mask))
  (pad 11 smd rect (at 0.335 -0.535) (size 0.45 0.85) (layers F.Cu F.Paste F.Mask))
  (pad 11 smd rect (at -0.335 -0.535) (size 0.45 0.85) (layers F.Cu F.Paste F.Mask))
  (pad 11 thru_hole circle (at 0.35 0.75) (size 0.5 0.5) (drill 0.3) (layers *.Cu *.Mask))
  (pad 11 thru_hole circle (at -0.35 0.75) (size 0.5 0.5) (drill 0.3) (layers *.Cu *.Mask))
  (pad 11 thru_hole circle (at 0.35 -0.75) (size 0.5 0.5) (drill 0.3) (layers *.Cu *.Mask))
  (pad 11 thru_hole circle (at -0.35 -0.75) (size 0.5 0.5) (drill 0.3) (layers *.Cu *.Mask))
  (pad 2 smd oval (at -1.175 -0.5) (size 0.65 0.28) (layers F.Cu F.Paste F.Mask)
    (solder_paste_margin -0.000))
  (pad 3 smd oval (at -1.175 0) (size 0.65 0.28) (layers F.Cu F.Paste F.Mask)
    (solder_paste_margin -0.000))
  (pad 4 smd oval (at -1.175 0.5) (size 0.65 0.28) (layers F.Cu F.Paste F.Mask)
    (solder_paste_margin -0.000))
  (pad 5 smd oval (at -1.175 1) (size 0.65 0.28) (layers F.Cu F.Paste F.Mask)
    (solder_paste_margin -0.000))
  (pad 6 smd oval (at 1.175 1) (size 0.65 0.28) (layers F.Cu F.Paste F.Mask)
    (solder_paste_margin -0.000))
  (pad 7 smd oval (at 1.175 0.5) (size 0.65 0.28) (layers F.Cu F.Paste F.Mask)
    (solder_paste_margin -0.000))
  (pad 8 smd oval (at 1.175 0) (size 0.65 0.28) (layers F.Cu F.Paste F.Mask)
    (solder_paste_margin -0.000))
  (pad 9 smd oval (at 1.175 -0.5) (size 0.65 0.28) (layers F.Cu F.Paste F.Mask)
    (solder_paste_margin -0.000))
  (pad 10 smd oval (at 1.175 -1) (size 0.65 0.28) (layers F.Cu F.Paste F.Mask)
    (solder_paste_margin -0.000))
  (pad 2 smd rect (at -1.5 -0.5) (size 0.3 0.28) (layers F.Cu F.Paste F.Mask)
    (solder_paste_margin -0.000))
  (pad 3 smd rect (at -1.5 0) (size 0.3 0.28) (layers F.Cu F.Paste F.Mask)
    (solder_paste_margin -0.000))
  (pad 4 smd rect (at -1.5 0.5) (size 0.3 0.28) (layers F.Cu F.Paste F.Mask)
    (solder_paste_margin -0.000))
  (pad 5 smd rect (at -1.5 1) (size 0.3 0.28) (layers F.Cu F.Paste F.Mask)
    (solder_paste_margin -0.000))
  (pad 6 smd rect (at 1.5 1) (size 0.3 0.28) (layers F.Cu F.Paste F.Mask)
    (solder_paste_margin -0.000))
  (pad 7 smd rect (at 1.5 0.5) (size 0.3 0.28) (layers F.Cu F.Paste F.Mask)
    (solder_paste_margin -0.000))
  (pad 8 smd rect (at 1.5 0) (size 0.3 0.28) (layers F.Cu F.Paste F.Mask)
    (solder_paste_margin -0.000))
  (pad 9 smd rect (at 1.5 -0.5) (size 0.3 0.28) (layers F.Cu F.Paste F.Mask)
    (solder_paste_margin -0.000))
  (pad 10 smd rect (at 1.5 -1) (size 0.3 0.28) (layers F.Cu F.Paste F.Mask)
    (solder_paste_margin -0.000))
  (model ${KISYS3DMOD}/Housings_SON.3dshapes/Texas_S-PVSON-N10.wrl
    (at (xyz 0 0 0))
    (scale (xyz 1 1 1))
    (rotate (xyz 0 0 0))
  )
)
