(module CONN_02X07 (layer F.Cu) (tedit 5DA8C004)
  (descr "14 pins through hole IDC header")
  (tags "IDC header socket VASCH")
  (fp_text reference REF** (at 7.8 -4.6) (layer F.SilkS)
    (effects (font (size 1 1) (thickness 0.15)))
  )
  (fp_text value CONN_02X07 (at 8.5 2.2) (layer F.Fab)
    (effects (font (size 1 1) (thickness 0.15)))
  )
  (pad 14 thru_hole oval (at 15.24 -2.54) (size 1.7272 1.7272) (drill 1.016) (layers *.Cu *.Mask))
  (pad 13 thru_hole oval (at 15.24 0) (size 1.7272 1.7272) (drill 1.016) (layers *.Cu *.Mask))
  (pad 12 thru_hole oval (at 12.7 -2.54) (size 1.7272 1.7272) (drill 1.016) (layers *.Cu *.Mask))
  (pad 11 thru_hole oval (at 12.7 0) (size 1.7272 1.7272) (drill 1.016) (layers *.Cu *.Mask))
  (pad 10 thru_hole oval (at 10.16 -2.54) (size 1.7272 1.7272) (drill 1.016) (layers *.Cu *.Mask))
  (pad 9 thru_hole oval (at 10.16 0) (size 1.7272 1.7272) (drill 1.016) (layers *.Cu *.Mask))
  (pad 8 thru_hole oval (at 7.62 -2.54) (size 1.7272 1.7272) (drill 1.016) (layers *.Cu *.Mask))
  (pad 7 thru_hole oval (at 7.62 0) (size 1.7272 1.7272) (drill 1.016) (layers *.Cu *.Mask))
  (pad 6 thru_hole oval (at 5.08 -2.54) (size 1.7272 1.7272) (drill 1.016) (layers *.Cu *.Mask))
  (pad 5 thru_hole oval (at 5.08 0) (size 1.7272 1.7272) (drill 1.016) (layers *.Cu *.Mask))
  (pad 4 thru_hole oval (at 2.54 -2.54) (size 1.7272 1.7272) (drill 1.016) (layers *.Cu *.Mask))
  (pad 3 thru_hole oval (at 2.54 0) (size 1.7272 1.7272) (drill 1.016) (layers *.Cu *.Mask))
  (pad 2 thru_hole oval (at 0 -2.54) (size 1.7272 1.7272) (drill 1.016) (layers *.Cu *.Mask))
  (pad 1 thru_hole rect (at 0 0) (size 1.7272 1.7272) (drill 1.016) (layers *.Cu *.Mask))
)
