(module CONN_01X3 (layer F.Cu) (tedit 5DA8C109)
  (fp_text reference REF** (at 0 0.5) (layer F.SilkS)
    (effects (font (size 1 1) (thickness 0.05)))
  )
  (fp_text value CONN_01X3 (at 0 -0.5) (layer F.Fab)
    (effects (font (size 1 1) (thickness 0.05)))
  )
  (fp_line (start -1.016 8.128) (end -1.016 1.016) (layer F.SilkS) (width 0.1))
  (fp_line (start 0.9906 8.128) (end -1.016 8.128) (layer F.SilkS) (width 0.1))
  (fp_line (start 0.9906 1.016) (end 0.9906 8.128) (layer F.SilkS) (width 0.1))
  (fp_line (start -1.016 1.016) (end 0.9906 1.016) (layer F.SilkS) (width 0.1))
  (pad 3 thru_hole roundrect (at 0 7.08) (size 1.524 1.524) (drill 0.762) (layers *.Cu *.Mask) (roundrect_rratio 0.25))
  (pad 2 thru_hole roundrect (at 0 4.54) (size 1.524 1.524) (drill 0.762) (layers *.Cu *.Mask) (roundrect_rratio 0.25))
  (pad 1 thru_hole rect (at 0 2) (size 1.524 1.524) (drill 0.762) (layers *.Cu *.Mask))
)
