EESchema Schematic File Version 4
EELAYER 26 0
EELAYER END
$Descr A4 11693 8268
encoding utf-8
Sheet 1 1
Title ""
Date ""
Rev ""
Comp ""
Comment1 ""
Comment2 ""
Comment3 ""
Comment4 ""
$EndDescr
$Comp
L Connector_Generic:Conn_02x12_Odd_Even P1
U 1 1 5DCC6557
P 5150 6950
F 0 "P1" H 5150 7715 50  0000 C CNN
F 1 "CONN_02X12" H 5150 7624 50  0000 C CNN
F 2 "Connector-Custom:CONN_02X12" H 5150 5750 50  0001 C CNN
F 3 "" H 5150 5750 50  0000 C CNN
	1    5150 6950
	1    0    0    -1  
$EndComp
$Comp
L power:GNDA #PWR011
U 1 1 5DCC668F
P 5450 6450
F 0 "#PWR011" H 5450 6200 50  0001 C CNN
F 1 "GNDA" V 5455 6322 50  0000 R CNN
F 2 "" H 5450 6450 50  0000 C CNN
F 3 "" H 5450 6450 50  0000 C CNN
	1    5450 6450
	0    -1   -1   0   
$EndComp
$Comp
L power:GNDA #PWR012
U 1 1 5DCC66A6
P 5450 7450
F 0 "#PWR012" H 5450 7200 50  0001 C CNN
F 1 "GNDA" V 5455 7322 50  0000 R CNN
F 2 "" H 5450 7450 50  0000 C CNN
F 3 "" H 5450 7450 50  0000 C CNN
	1    5450 7450
	0    -1   -1   0   
$EndComp
$Comp
L power:GNDA #PWR010
U 1 1 5DCC66B3
P 4950 7450
F 0 "#PWR010" H 4950 7200 50  0001 C CNN
F 1 "GNDA" V 4955 7323 50  0000 R CNN
F 2 "" H 4950 7450 50  0000 C CNN
F 3 "" H 4950 7450 50  0000 C CNN
	1    4950 7450
	0    1    1    0   
$EndComp
Wire Wire Line
	5450 6550 5700 6550
Wire Wire Line
	5700 6650 5450 6650
Wire Wire Line
	5700 6750 5450 6750
Wire Wire Line
	5700 6850 5450 6850
Wire Wire Line
	5450 6950 5700 6950
Wire Wire Line
	5700 7050 5450 7050
Wire Wire Line
	5700 7150 5450 7150
Wire Wire Line
	5700 7250 5450 7250
Wire Wire Line
	5700 7350 5450 7350
Wire Wire Line
	5700 7550 5450 7550
Wire Wire Line
	4700 6550 4950 6550
Wire Wire Line
	4950 6650 4700 6650
Wire Wire Line
	4950 6750 4700 6750
Wire Wire Line
	4950 6850 4700 6850
Wire Wire Line
	4700 6950 4950 6950
Wire Wire Line
	4950 7050 4700 7050
Wire Wire Line
	4950 7150 4700 7150
Wire Wire Line
	4950 7250 4700 7250
Wire Wire Line
	4950 7350 4700 7350
Wire Wire Line
	4700 7550 4950 7550
Wire Wire Line
	4700 6450 4950 6450
Text Label 5700 6550 0    50   ~ 0
SiPM1
Text Label 5700 6650 0    50   ~ 0
SiPM2
Text Label 5700 6750 0    50   ~ 0
SiPM3
Text Label 5700 6850 0    50   ~ 0
SiPM4
Text Label 5700 6950 0    50   ~ 0
SiPM5
Text Label 5700 7050 0    50   ~ 0
SiPM6
Text Label 5700 7150 0    50   ~ 0
SiPM7
Text Label 5700 7250 0    50   ~ 0
SiPM8
Text Label 5700 7350 0    50   ~ 0
SiPM9
Text Label 4700 6450 0    50   ~ 0
HV
Text Label 4700 7550 0    50   ~ 0
TCALIB
Text Label 5700 7550 0    50   ~ 0
VCALIB
$Comp
L Device:LED D1
U 1 1 5DCC6B23
P 2950 1300
F 0 "D1" V 2800 1450 50  0000 R CNN
F 1 "SM0603UV-395" H 3150 1150 50  0000 R CNN
F 2 "KLauS-Custom:SM0603UV" H 2950 1300 50  0001 C CNN
F 3 "" H 2950 1300 50  0000 C CNN
	1    2950 1300
	0    -1   -1   0   
$EndComp
$Comp
L Device:R R10
U 1 1 5DCC6C81
P 2550 1300
F 0 "R10" H 2620 1346 50  0000 L CNN
F 1 "91" H 2620 1255 50  0000 L CNN
F 2 "Resistors_SMD:R_0603" V 2480 1300 50  0001 C CNN
F 3 "" H 2550 1300 50  0000 C CNN
	1    2550 1300
	1    0    0    -1  
$EndComp
$Comp
L Device:R R4
U 1 1 5DCC6CF4
P 2200 1300
F 0 "R4" H 2270 1346 50  0000 L CNN
F 1 "5k1" H 2270 1255 50  0000 L CNN
F 2 "Resistors_SMD:R_0603" V 2130 1300 50  0001 C CNN
F 3 "" H 2200 1300 50  0000 C CNN
	1    2200 1300
	1    0    0    -1  
$EndComp
$Comp
L Transistor_BJT:BFR92 Q1
U 1 1 5DCC6E5E
P 2850 1950
F 0 "Q1" H 3041 2041 50  0000 L CNN
F 1 "BFR193W" H 3041 1950 50  0000 L CNN
F 2 "KLauS-Custom:SOT-23" H 3041 1859 50  0000 L CIN
F 3 "" H 3041 1814 50  0000 L CNN
	1    2850 1950
	1    0    0    -1  
$EndComp
$Comp
L Device:R R7
U 1 1 5DCC6F2E
P 2350 1950
F 0 "R7" V 2250 1800 50  0000 C CNN
F 1 "1k1" V 2250 2100 50  0000 C CNN
F 2 "Resistors_SMD:R_0603" V 2280 1950 50  0001 C CNN
F 3 "" H 2350 1950 50  0000 C CNN
	1    2350 1950
	0    1    1    0   
$EndComp
$Comp
L Device:C C4
U 1 1 5DCC7064
P 2350 2150
F 0 "C4" V 2250 2300 50  0000 C CNN
F 1 "15p" V 2250 2000 50  0000 C CNN
F 2 "Capacitors_SMD:C_0603" H 2388 2000 50  0001 C CNN
F 3 "" H 2350 2150 50  0000 C CNN
	1    2350 2150
	0    -1   -1   0   
$EndComp
$Comp
L Device:C C7
U 1 1 5DCC7270
P 3450 1300
F 0 "C7" H 3565 1346 50  0000 L CNN
F 1 "150p" H 3565 1255 50  0000 L CNN
F 2 "Capacitors_SMD:C_0603" H 3488 1150 50  0001 C CNN
F 3 "" H 3450 1300 50  0000 C CNN
	1    3450 1300
	1    0    0    -1  
$EndComp
Wire Wire Line
	2000 1950 2100 1950
Wire Wire Line
	2100 1950 2100 2150
Wire Wire Line
	2100 2150 2200 2150
Connection ~ 2100 1950
Wire Wire Line
	2100 1950 2200 1950
Wire Wire Line
	2500 1950 2600 1950
Wire Wire Line
	2500 2150 2600 2150
Wire Wire Line
	2600 2150 2600 1950
Connection ~ 2600 1950
Wire Wire Line
	2600 1950 2650 1950
Wire Wire Line
	2950 1450 2950 1600
Wire Wire Line
	2550 1450 2550 1600
Wire Wire Line
	2550 1600 2950 1600
Connection ~ 2950 1600
Wire Wire Line
	2950 1600 2950 1750
Wire Wire Line
	2200 1450 2200 1600
Wire Wire Line
	2200 1600 2550 1600
Connection ~ 2550 1600
Wire Wire Line
	2050 1050 2200 1050
Wire Wire Line
	2200 1050 2200 1150
Wire Wire Line
	2550 1150 2550 1050
Wire Wire Line
	2550 1050 2950 1050
Wire Wire Line
	3450 1050 3450 1150
Wire Wire Line
	2950 1150 2950 1050
Connection ~ 2950 1050
Wire Wire Line
	2950 1050 3450 1050
Wire Wire Line
	3450 1450 3450 2300
Wire Wire Line
	3450 2300 2950 2300
Wire Wire Line
	2950 2300 2950 2150
$Comp
L power:GNDA #PWR04
U 1 1 5DCCC9A0
P 2950 2300
F 0 "#PWR04" H 2950 2050 50  0001 C CNN
F 1 "GNDA" H 2955 2127 50  0000 C CNN
F 2 "" H 2950 2300 50  0000 C CNN
F 3 "" H 2950 2300 50  0000 C CNN
	1    2950 2300
	1    0    0    -1  
$EndComp
Connection ~ 2950 2300
Text Label 2000 1950 0    50   ~ 0
TCALIB
Text Label 2050 1050 0    50   ~ 0
VCALIB
$Comp
L Device:R R1
U 1 1 5DCCCB6C
P 1650 1300
F 0 "R1" H 1720 1346 50  0000 L CNN
F 1 "1k" H 1720 1255 50  0000 L CNN
F 2 "Resistors_SMD:R_0603" V 1580 1300 50  0001 C CNN
F 3 "" H 1650 1300 50  0000 C CNN
	1    1650 1300
	1    0    0    -1  
$EndComp
Wire Wire Line
	1650 1050 1650 1150
$Comp
L Device:C C1
U 1 1 5DCCD7C4
P 1350 1550
F 0 "C1" V 1250 1700 50  0000 C CNN
F 1 "100n/100V" V 1250 1400 50  0000 C CNN
F 2 "Capacitors_SMD:C_0603" H 1388 1400 50  0001 C CNN
F 3 "" H 1350 1550 50  0000 C CNN
	1    1350 1550
	0    -1   -1   0   
$EndComp
$Comp
L KLauS-ASIC:MPPC U1
U 1 1 5DCC7F18
P 1900 2050
F 0 "U1" V 1750 1550 50  0000 L CNN
F 1 "MPPC" H 1850 1650 50  0000 L CNN
F 2 "KLauS-Custom:MPPC" H 1900 2050 50  0001 C CNN
F 3 "" H 1900 2050 50  0001 C CNN
	1    1900 2050
	0    1    1    0   
$EndComp
Wire Wire Line
	1650 1450 1650 1550
Wire Wire Line
	1500 1550 1650 1550
Connection ~ 1650 1550
Wire Wire Line
	1650 1550 1650 1650
$Comp
L power:GNDA #PWR01
U 1 1 5DCC9A4C
P 1200 1550
F 0 "#PWR01" H 1200 1300 50  0001 C CNN
F 1 "GNDA" H 1205 1377 50  0000 C CNN
F 2 "" H 1200 1550 50  0000 C CNN
F 3 "" H 1200 1550 50  0000 C CNN
	1    1200 1550
	0    1    1    0   
$EndComp
Text Label 1650 1050 0    50   ~ 0
HV
NoConn ~ 1750 1650
NoConn ~ 1750 2400
Wire Wire Line
	1750 1550 1650 1550
Text Label 1750 1550 0    50   ~ 0
HV1
Text Label 1350 2450 0    50   ~ 0
SiPM1
Wire Wire Line
	1350 2450 1650 2450
Wire Wire Line
	1650 2450 1650 2400
$Comp
L Device:LED D2
U 1 1 5DCCF767
P 2950 3000
F 0 "D2" V 2800 3150 50  0000 R CNN
F 1 "SM0603UV-395" H 3150 2850 50  0000 R CNN
F 2 "KLauS-Custom:SM0603UV" H 2950 3000 50  0001 C CNN
F 3 "" H 2950 3000 50  0000 C CNN
	1    2950 3000
	0    -1   -1   0   
$EndComp
$Comp
L Device:R R11
U 1 1 5DCCF76D
P 2550 3000
F 0 "R11" H 2620 3046 50  0000 L CNN
F 1 "91" H 2620 2955 50  0000 L CNN
F 2 "Resistors_SMD:R_0603" V 2480 3000 50  0001 C CNN
F 3 "" H 2550 3000 50  0000 C CNN
	1    2550 3000
	1    0    0    -1  
$EndComp
$Comp
L Device:R R5
U 1 1 5DCCF773
P 2200 3000
F 0 "R5" H 2270 3046 50  0000 L CNN
F 1 "5k1" H 2270 2955 50  0000 L CNN
F 2 "Resistors_SMD:R_0603" V 2130 3000 50  0001 C CNN
F 3 "" H 2200 3000 50  0000 C CNN
	1    2200 3000
	1    0    0    -1  
$EndComp
$Comp
L Transistor_BJT:BFR92 Q2
U 1 1 5DCCF779
P 2850 3650
F 0 "Q2" H 3041 3741 50  0000 L CNN
F 1 "BFR193W" H 3041 3650 50  0000 L CNN
F 2 "KLauS-Custom:SOT-23" H 3041 3559 50  0000 L CIN
F 3 "" H 3041 3514 50  0000 L CNN
	1    2850 3650
	1    0    0    -1  
$EndComp
$Comp
L Device:R R8
U 1 1 5DCCF77F
P 2350 3650
F 0 "R8" V 2250 3500 50  0000 C CNN
F 1 "1k1" V 2250 3800 50  0000 C CNN
F 2 "Resistors_SMD:R_0603" V 2280 3650 50  0001 C CNN
F 3 "" H 2350 3650 50  0000 C CNN
	1    2350 3650
	0    1    1    0   
$EndComp
$Comp
L Device:C C5
U 1 1 5DCCF785
P 2350 3850
F 0 "C5" V 2250 4000 50  0000 C CNN
F 1 "15p" V 2250 3700 50  0000 C CNN
F 2 "Capacitors_SMD:C_0603" H 2388 3700 50  0001 C CNN
F 3 "" H 2350 3850 50  0000 C CNN
	1    2350 3850
	0    -1   -1   0   
$EndComp
$Comp
L Device:C C8
U 1 1 5DCCF78B
P 3450 3000
F 0 "C8" H 3565 3046 50  0000 L CNN
F 1 "150p" H 3565 2955 50  0000 L CNN
F 2 "Capacitors_SMD:C_0603" H 3488 2850 50  0001 C CNN
F 3 "" H 3450 3000 50  0000 C CNN
	1    3450 3000
	1    0    0    -1  
$EndComp
Wire Wire Line
	2000 3650 2100 3650
Wire Wire Line
	2100 3650 2100 3850
Wire Wire Line
	2100 3850 2200 3850
Connection ~ 2100 3650
Wire Wire Line
	2100 3650 2200 3650
Wire Wire Line
	2500 3650 2600 3650
Wire Wire Line
	2500 3850 2600 3850
Wire Wire Line
	2600 3850 2600 3650
Connection ~ 2600 3650
Wire Wire Line
	2600 3650 2650 3650
Wire Wire Line
	2950 3150 2950 3300
Wire Wire Line
	2550 3150 2550 3300
Wire Wire Line
	2550 3300 2950 3300
Connection ~ 2950 3300
Wire Wire Line
	2950 3300 2950 3450
Wire Wire Line
	2200 3150 2200 3300
Wire Wire Line
	2200 3300 2550 3300
Connection ~ 2550 3300
Wire Wire Line
	2050 2750 2200 2750
Wire Wire Line
	2200 2750 2200 2850
Wire Wire Line
	2550 2850 2550 2750
Wire Wire Line
	2550 2750 2950 2750
Wire Wire Line
	3450 2750 3450 2850
Wire Wire Line
	2950 2850 2950 2750
Connection ~ 2950 2750
Wire Wire Line
	2950 2750 3450 2750
Wire Wire Line
	3450 3150 3450 4000
Wire Wire Line
	3450 4000 2950 4000
Wire Wire Line
	2950 4000 2950 3850
$Comp
L power:GNDA #PWR05
U 1 1 5DCCF7AE
P 2950 4000
F 0 "#PWR05" H 2950 3750 50  0001 C CNN
F 1 "GNDA" H 2955 3827 50  0000 C CNN
F 2 "" H 2950 4000 50  0000 C CNN
F 3 "" H 2950 4000 50  0000 C CNN
	1    2950 4000
	1    0    0    -1  
$EndComp
Connection ~ 2950 4000
Text Label 2000 3650 0    50   ~ 0
TCALIB
Text Label 2050 2750 0    50   ~ 0
VCALIB
$Comp
L Device:R R2
U 1 1 5DCCF7B7
P 1650 3000
F 0 "R2" H 1720 3046 50  0000 L CNN
F 1 "1k" H 1720 2955 50  0000 L CNN
F 2 "Resistors_SMD:R_0603" V 1580 3000 50  0001 C CNN
F 3 "" H 1650 3000 50  0000 C CNN
	1    1650 3000
	1    0    0    -1  
$EndComp
Wire Wire Line
	1650 2750 1650 2850
$Comp
L Device:C C2
U 1 1 5DCCF7BE
P 1350 3250
F 0 "C2" V 1250 3400 50  0000 C CNN
F 1 "100n/100V" V 1250 3100 50  0000 C CNN
F 2 "Capacitors_SMD:C_0603" H 1388 3100 50  0001 C CNN
F 3 "" H 1350 3250 50  0000 C CNN
	1    1350 3250
	0    -1   -1   0   
$EndComp
$Comp
L KLauS-ASIC:MPPC U2
U 1 1 5DCCF7C4
P 1900 3750
F 0 "U2" V 1750 3250 50  0000 L CNN
F 1 "MPPC" H 1850 3350 50  0000 L CNN
F 2 "KLauS-Custom:MPPC" H 1900 3750 50  0001 C CNN
F 3 "" H 1900 3750 50  0001 C CNN
	1    1900 3750
	0    1    1    0   
$EndComp
Wire Wire Line
	1650 3150 1650 3250
Wire Wire Line
	1500 3250 1650 3250
Connection ~ 1650 3250
Wire Wire Line
	1650 3250 1650 3350
$Comp
L power:GNDA #PWR02
U 1 1 5DCCF7CE
P 1200 3250
F 0 "#PWR02" H 1200 3000 50  0001 C CNN
F 1 "GNDA" H 1205 3077 50  0000 C CNN
F 2 "" H 1200 3250 50  0000 C CNN
F 3 "" H 1200 3250 50  0000 C CNN
	1    1200 3250
	0    1    1    0   
$EndComp
Text Label 1650 2750 0    50   ~ 0
HV
NoConn ~ 1750 3350
NoConn ~ 1750 4100
Wire Wire Line
	1750 3250 1650 3250
Text Label 1750 3250 0    50   ~ 0
HV2
Text Label 1350 4150 0    50   ~ 0
SiPM2
Wire Wire Line
	1350 4150 1650 4150
Wire Wire Line
	1650 4150 1650 4100
$Comp
L Device:LED D3
U 1 1 5DCD6BBA
P 2950 4700
F 0 "D3" V 2800 4850 50  0000 R CNN
F 1 "SM0603UV-395" H 3150 4550 50  0000 R CNN
F 2 "KLauS-Custom:SM0603UV" H 2950 4700 50  0001 C CNN
F 3 "" H 2950 4700 50  0000 C CNN
	1    2950 4700
	0    -1   -1   0   
$EndComp
$Comp
L Device:R R12
U 1 1 5DCD6BC0
P 2550 4700
F 0 "R12" H 2620 4746 50  0000 L CNN
F 1 "91" H 2620 4655 50  0000 L CNN
F 2 "Resistors_SMD:R_0603" V 2480 4700 50  0001 C CNN
F 3 "" H 2550 4700 50  0000 C CNN
	1    2550 4700
	1    0    0    -1  
$EndComp
$Comp
L Device:R R6
U 1 1 5DCD6BC6
P 2200 4700
F 0 "R6" H 2270 4746 50  0000 L CNN
F 1 "5k1" H 2270 4655 50  0000 L CNN
F 2 "Resistors_SMD:R_0603" V 2130 4700 50  0001 C CNN
F 3 "" H 2200 4700 50  0000 C CNN
	1    2200 4700
	1    0    0    -1  
$EndComp
$Comp
L Transistor_BJT:BFR92 Q3
U 1 1 5DCD6BCC
P 2850 5350
F 0 "Q3" H 3041 5441 50  0000 L CNN
F 1 "BFR193W" H 3041 5350 50  0000 L CNN
F 2 "KLauS-Custom:SOT-23" H 3041 5259 50  0000 L CIN
F 3 "" H 3041 5214 50  0000 L CNN
	1    2850 5350
	1    0    0    -1  
$EndComp
$Comp
L Device:R R9
U 1 1 5DCD6BD2
P 2350 5350
F 0 "R9" V 2250 5200 50  0000 C CNN
F 1 "1k1" V 2250 5500 50  0000 C CNN
F 2 "Resistors_SMD:R_0603" V 2280 5350 50  0001 C CNN
F 3 "" H 2350 5350 50  0000 C CNN
	1    2350 5350
	0    1    1    0   
$EndComp
$Comp
L Device:C C6
U 1 1 5DCD6BD8
P 2350 5550
F 0 "C6" V 2250 5700 50  0000 C CNN
F 1 "15p" V 2250 5400 50  0000 C CNN
F 2 "Capacitors_SMD:C_0603" H 2388 5400 50  0001 C CNN
F 3 "" H 2350 5550 50  0000 C CNN
	1    2350 5550
	0    -1   -1   0   
$EndComp
$Comp
L Device:C C9
U 1 1 5DCD6BDE
P 3450 4700
F 0 "C9" H 3565 4746 50  0000 L CNN
F 1 "150p" H 3565 4655 50  0000 L CNN
F 2 "Capacitors_SMD:C_0603" H 3488 4550 50  0001 C CNN
F 3 "" H 3450 4700 50  0000 C CNN
	1    3450 4700
	1    0    0    -1  
$EndComp
Wire Wire Line
	2000 5350 2100 5350
Wire Wire Line
	2100 5350 2100 5550
Wire Wire Line
	2100 5550 2200 5550
Connection ~ 2100 5350
Wire Wire Line
	2100 5350 2200 5350
Wire Wire Line
	2500 5350 2600 5350
Wire Wire Line
	2500 5550 2600 5550
Wire Wire Line
	2600 5550 2600 5350
Connection ~ 2600 5350
Wire Wire Line
	2600 5350 2650 5350
Wire Wire Line
	2950 4850 2950 5000
Wire Wire Line
	2550 4850 2550 5000
Wire Wire Line
	2550 5000 2950 5000
Connection ~ 2950 5000
Wire Wire Line
	2950 5000 2950 5150
Wire Wire Line
	2200 4850 2200 5000
Wire Wire Line
	2200 5000 2550 5000
Connection ~ 2550 5000
Wire Wire Line
	2050 4450 2200 4450
Wire Wire Line
	2200 4450 2200 4550
Wire Wire Line
	2550 4550 2550 4450
Wire Wire Line
	2550 4450 2950 4450
Wire Wire Line
	3450 4450 3450 4550
Wire Wire Line
	2950 4550 2950 4450
Connection ~ 2950 4450
Wire Wire Line
	2950 4450 3450 4450
Wire Wire Line
	3450 4850 3450 5700
Wire Wire Line
	3450 5700 2950 5700
Wire Wire Line
	2950 5700 2950 5550
$Comp
L power:GNDA #PWR06
U 1 1 5DCD6C01
P 2950 5700
F 0 "#PWR06" H 2950 5450 50  0001 C CNN
F 1 "GNDA" H 2955 5527 50  0000 C CNN
F 2 "" H 2950 5700 50  0000 C CNN
F 3 "" H 2950 5700 50  0000 C CNN
	1    2950 5700
	1    0    0    -1  
$EndComp
Connection ~ 2950 5700
Text Label 2000 5350 0    50   ~ 0
TCALIB
Text Label 2050 4450 0    50   ~ 0
VCALIB
$Comp
L Device:R R3
U 1 1 5DCD6C0A
P 1650 4700
F 0 "R3" H 1720 4746 50  0000 L CNN
F 1 "1k" H 1720 4655 50  0000 L CNN
F 2 "Resistors_SMD:R_0603" V 1580 4700 50  0001 C CNN
F 3 "" H 1650 4700 50  0000 C CNN
	1    1650 4700
	1    0    0    -1  
$EndComp
Wire Wire Line
	1650 4450 1650 4550
$Comp
L Device:C C3
U 1 1 5DCD6C11
P 1350 4950
F 0 "C3" V 1250 5100 50  0000 C CNN
F 1 "100n/100V" V 1250 4800 50  0000 C CNN
F 2 "Capacitors_SMD:C_0603" H 1388 4800 50  0001 C CNN
F 3 "" H 1350 4950 50  0000 C CNN
	1    1350 4950
	0    -1   -1   0   
$EndComp
$Comp
L KLauS-ASIC:MPPC U3
U 1 1 5DCD6C17
P 1900 5450
F 0 "U3" V 1750 4950 50  0000 L CNN
F 1 "MPPC" H 1850 5050 50  0000 L CNN
F 2 "KLauS-Custom:MPPC" H 1900 5450 50  0001 C CNN
F 3 "" H 1900 5450 50  0001 C CNN
	1    1900 5450
	0    1    1    0   
$EndComp
Wire Wire Line
	1650 4850 1650 4950
Wire Wire Line
	1500 4950 1650 4950
Connection ~ 1650 4950
Wire Wire Line
	1650 4950 1650 5050
$Comp
L power:GNDA #PWR03
U 1 1 5DCD6C21
P 1200 4950
F 0 "#PWR03" H 1200 4700 50  0001 C CNN
F 1 "GNDA" H 1205 4777 50  0000 C CNN
F 2 "" H 1200 4950 50  0000 C CNN
F 3 "" H 1200 4950 50  0000 C CNN
	1    1200 4950
	0    1    1    0   
$EndComp
Text Label 1650 4450 0    50   ~ 0
HV
NoConn ~ 1750 5050
NoConn ~ 1750 5800
Wire Wire Line
	1750 4950 1650 4950
Text Label 1750 4950 0    50   ~ 0
HV3
Text Label 1350 5850 0    50   ~ 0
SiPM3
Wire Wire Line
	1350 5850 1650 5850
Wire Wire Line
	1650 5850 1650 5800
Wire Notes Line
	850  850  850  5950
Wire Notes Line
	3800 850  3800 5950
$Comp
L Device:LED D7
U 1 1 5DCDB978
P 8850 1300
F 0 "D7" V 8700 1450 50  0000 R CNN
F 1 "SM0603UV-395" H 9050 1150 50  0000 R CNN
F 2 "KLauS-Custom:SM0603UV" H 8850 1300 50  0001 C CNN
F 3 "" H 8850 1300 50  0000 C CNN
	1    8850 1300
	0    -1   -1   0   
$EndComp
$Comp
L Device:R R34
U 1 1 5DCDB97E
P 8450 1300
F 0 "R34" H 8520 1346 50  0000 L CNN
F 1 "91" H 8520 1255 50  0000 L CNN
F 2 "Resistors_SMD:R_0603" V 8380 1300 50  0001 C CNN
F 3 "" H 8450 1300 50  0000 C CNN
	1    8450 1300
	1    0    0    -1  
$EndComp
$Comp
L Device:R R28
U 1 1 5DCDB984
P 8100 1300
F 0 "R28" H 8170 1346 50  0000 L CNN
F 1 "5k1" H 8170 1255 50  0000 L CNN
F 2 "Resistors_SMD:R_0603" V 8030 1300 50  0001 C CNN
F 3 "" H 8100 1300 50  0000 C CNN
	1    8100 1300
	1    0    0    -1  
$EndComp
$Comp
L Transistor_BJT:BFR92 Q7
U 1 1 5DCDB98A
P 8750 1950
F 0 "Q7" H 8941 2041 50  0000 L CNN
F 1 "BFR193W" H 8941 1950 50  0000 L CNN
F 2 "KLauS-Custom:SOT-23" H 8941 1859 50  0000 L CIN
F 3 "" H 8941 1814 50  0000 L CNN
	1    8750 1950
	1    0    0    -1  
$EndComp
$Comp
L Device:R R31
U 1 1 5DCDB990
P 8250 1950
F 0 "R31" V 8150 1800 50  0000 C CNN
F 1 "1k1" V 8150 2100 50  0000 C CNN
F 2 "Resistors_SMD:R_0603" V 8180 1950 50  0001 C CNN
F 3 "" H 8250 1950 50  0000 C CNN
	1    8250 1950
	0    1    1    0   
$EndComp
$Comp
L Device:C C22
U 1 1 5DCDB996
P 8250 2150
F 0 "C22" V 8150 2300 50  0000 C CNN
F 1 "15p" V 8150 2000 50  0000 C CNN
F 2 "Capacitors_SMD:C_0603" H 8288 2000 50  0001 C CNN
F 3 "" H 8250 2150 50  0000 C CNN
	1    8250 2150
	0    -1   -1   0   
$EndComp
$Comp
L Device:C C25
U 1 1 5DCDB99C
P 9350 1300
F 0 "C25" H 9465 1346 50  0000 L CNN
F 1 "150p" H 9465 1255 50  0000 L CNN
F 2 "Capacitors_SMD:C_0603" H 9388 1150 50  0001 C CNN
F 3 "" H 9350 1300 50  0000 C CNN
	1    9350 1300
	1    0    0    -1  
$EndComp
Wire Wire Line
	7900 1950 8000 1950
Wire Wire Line
	8000 1950 8000 2150
Wire Wire Line
	8000 2150 8100 2150
Connection ~ 8000 1950
Wire Wire Line
	8000 1950 8100 1950
Wire Wire Line
	8400 1950 8500 1950
Wire Wire Line
	8400 2150 8500 2150
Wire Wire Line
	8500 2150 8500 1950
Connection ~ 8500 1950
Wire Wire Line
	8500 1950 8550 1950
Wire Wire Line
	8850 1450 8850 1600
Wire Wire Line
	8450 1450 8450 1600
Wire Wire Line
	8450 1600 8850 1600
Connection ~ 8850 1600
Wire Wire Line
	8850 1600 8850 1750
Wire Wire Line
	8100 1450 8100 1600
Wire Wire Line
	8100 1600 8450 1600
Connection ~ 8450 1600
Wire Wire Line
	7950 1050 8100 1050
Wire Wire Line
	8100 1050 8100 1150
Wire Wire Line
	8450 1150 8450 1050
Wire Wire Line
	8450 1050 8850 1050
Wire Wire Line
	9350 1050 9350 1150
Wire Wire Line
	8850 1150 8850 1050
Connection ~ 8850 1050
Wire Wire Line
	8850 1050 9350 1050
Wire Wire Line
	9350 1450 9350 2300
Wire Wire Line
	9350 2300 8850 2300
Wire Wire Line
	8850 2300 8850 2150
$Comp
L power:GNDA #PWR019
U 1 1 5DCDB9BF
P 8850 2300
F 0 "#PWR019" H 8850 2050 50  0001 C CNN
F 1 "GNDA" H 8855 2127 50  0000 C CNN
F 2 "" H 8850 2300 50  0000 C CNN
F 3 "" H 8850 2300 50  0000 C CNN
	1    8850 2300
	1    0    0    -1  
$EndComp
Connection ~ 8850 2300
Text Label 7900 1950 0    50   ~ 0
TCALIB
Text Label 7950 1050 0    50   ~ 0
VCALIB
$Comp
L Device:R R25
U 1 1 5DCDB9C8
P 7550 1300
F 0 "R25" H 7620 1346 50  0000 L CNN
F 1 "1k" H 7620 1255 50  0000 L CNN
F 2 "Resistors_SMD:R_0603" V 7480 1300 50  0001 C CNN
F 3 "" H 7550 1300 50  0000 C CNN
	1    7550 1300
	1    0    0    -1  
$EndComp
Wire Wire Line
	7550 1050 7550 1150
$Comp
L Device:C C19
U 1 1 5DCDB9CF
P 7250 1550
F 0 "C19" V 7150 1700 50  0000 C CNN
F 1 "100n/100V" V 7150 1400 50  0000 C CNN
F 2 "Capacitors_SMD:C_0603" H 7288 1400 50  0001 C CNN
F 3 "" H 7250 1550 50  0000 C CNN
	1    7250 1550
	0    -1   -1   0   
$EndComp
$Comp
L KLauS-ASIC:MPPC U7
U 1 1 5DCDB9D5
P 7800 2050
F 0 "U7" V 7650 1550 50  0000 L CNN
F 1 "MPPC" H 7750 1650 50  0000 L CNN
F 2 "KLauS-Custom:MPPC" H 7800 2050 50  0001 C CNN
F 3 "" H 7800 2050 50  0001 C CNN
	1    7800 2050
	0    1    1    0   
$EndComp
Wire Wire Line
	7550 1450 7550 1550
Wire Wire Line
	7400 1550 7550 1550
Connection ~ 7550 1550
Wire Wire Line
	7550 1550 7550 1650
$Comp
L power:GNDA #PWR016
U 1 1 5DCDB9DF
P 7100 1550
F 0 "#PWR016" H 7100 1300 50  0001 C CNN
F 1 "GNDA" H 7105 1377 50  0000 C CNN
F 2 "" H 7100 1550 50  0000 C CNN
F 3 "" H 7100 1550 50  0000 C CNN
	1    7100 1550
	0    1    1    0   
$EndComp
Text Label 7550 1050 0    50   ~ 0
HV
NoConn ~ 7650 1650
NoConn ~ 7650 2400
Wire Wire Line
	7650 1550 7550 1550
Text Label 7650 1550 0    50   ~ 0
HV7
Text Label 7250 2450 0    50   ~ 0
SiPM7
Wire Wire Line
	7250 2450 7550 2450
Wire Wire Line
	7550 2450 7550 2400
$Comp
L Device:LED D8
U 1 1 5DCDB9EF
P 8850 3000
F 0 "D8" V 8700 3150 50  0000 R CNN
F 1 "SM0603UV-395" H 9050 2850 50  0000 R CNN
F 2 "KLauS-Custom:SM0603UV" H 8850 3000 50  0001 C CNN
F 3 "" H 8850 3000 50  0000 C CNN
	1    8850 3000
	0    -1   -1   0   
$EndComp
$Comp
L Device:R R35
U 1 1 5DCDB9F5
P 8450 3000
F 0 "R35" H 8520 3046 50  0000 L CNN
F 1 "91" H 8520 2955 50  0000 L CNN
F 2 "Resistors_SMD:R_0603" V 8380 3000 50  0001 C CNN
F 3 "" H 8450 3000 50  0000 C CNN
	1    8450 3000
	1    0    0    -1  
$EndComp
$Comp
L Device:R R29
U 1 1 5DCDB9FB
P 8100 3000
F 0 "R29" H 8170 3046 50  0000 L CNN
F 1 "5k1" H 8170 2955 50  0000 L CNN
F 2 "Resistors_SMD:R_0603" V 8030 3000 50  0001 C CNN
F 3 "" H 8100 3000 50  0000 C CNN
	1    8100 3000
	1    0    0    -1  
$EndComp
$Comp
L Transistor_BJT:BFR92 Q8
U 1 1 5DCDBA01
P 8750 3650
F 0 "Q8" H 8941 3741 50  0000 L CNN
F 1 "BFR193W" H 8941 3650 50  0000 L CNN
F 2 "KLauS-Custom:SOT-23" H 8941 3559 50  0000 L CIN
F 3 "" H 8941 3514 50  0000 L CNN
	1    8750 3650
	1    0    0    -1  
$EndComp
$Comp
L Device:R R32
U 1 1 5DCDBA07
P 8250 3650
F 0 "R32" V 8150 3500 50  0000 C CNN
F 1 "1k1" V 8150 3800 50  0000 C CNN
F 2 "Resistors_SMD:R_0603" V 8180 3650 50  0001 C CNN
F 3 "" H 8250 3650 50  0000 C CNN
	1    8250 3650
	0    1    1    0   
$EndComp
$Comp
L Device:C C23
U 1 1 5DCDBA0D
P 8250 3850
F 0 "C23" V 8150 4000 50  0000 C CNN
F 1 "15p" V 8150 3700 50  0000 C CNN
F 2 "Capacitors_SMD:C_0603" H 8288 3700 50  0001 C CNN
F 3 "" H 8250 3850 50  0000 C CNN
	1    8250 3850
	0    -1   -1   0   
$EndComp
$Comp
L Device:C C26
U 1 1 5DCDBA13
P 9350 3000
F 0 "C26" H 9465 3046 50  0000 L CNN
F 1 "150p" H 9465 2955 50  0000 L CNN
F 2 "Capacitors_SMD:C_0603" H 9388 2850 50  0001 C CNN
F 3 "" H 9350 3000 50  0000 C CNN
	1    9350 3000
	1    0    0    -1  
$EndComp
Wire Wire Line
	7900 3650 8000 3650
Wire Wire Line
	8000 3650 8000 3850
Wire Wire Line
	8000 3850 8100 3850
Connection ~ 8000 3650
Wire Wire Line
	8000 3650 8100 3650
Wire Wire Line
	8400 3650 8500 3650
Wire Wire Line
	8400 3850 8500 3850
Wire Wire Line
	8500 3850 8500 3650
Connection ~ 8500 3650
Wire Wire Line
	8500 3650 8550 3650
Wire Wire Line
	8850 3150 8850 3300
Wire Wire Line
	8450 3150 8450 3300
Wire Wire Line
	8450 3300 8850 3300
Connection ~ 8850 3300
Wire Wire Line
	8850 3300 8850 3450
Wire Wire Line
	8100 3150 8100 3300
Wire Wire Line
	8100 3300 8450 3300
Connection ~ 8450 3300
Wire Wire Line
	7950 2750 8100 2750
Wire Wire Line
	8100 2750 8100 2850
Wire Wire Line
	8450 2850 8450 2750
Wire Wire Line
	8450 2750 8850 2750
Wire Wire Line
	9350 2750 9350 2850
Wire Wire Line
	8850 2850 8850 2750
Connection ~ 8850 2750
Wire Wire Line
	8850 2750 9350 2750
Wire Wire Line
	9350 3150 9350 4000
Wire Wire Line
	9350 4000 8850 4000
Wire Wire Line
	8850 4000 8850 3850
$Comp
L power:GNDA #PWR020
U 1 1 5DCDBA36
P 8850 4000
F 0 "#PWR020" H 8850 3750 50  0001 C CNN
F 1 "GNDA" H 8855 3827 50  0000 C CNN
F 2 "" H 8850 4000 50  0000 C CNN
F 3 "" H 8850 4000 50  0000 C CNN
	1    8850 4000
	1    0    0    -1  
$EndComp
Connection ~ 8850 4000
Text Label 7900 3650 0    50   ~ 0
TCALIB
Text Label 7950 2750 0    50   ~ 0
VCALIB
$Comp
L Device:R R26
U 1 1 5DCDBA3F
P 7550 3000
F 0 "R26" H 7620 3046 50  0000 L CNN
F 1 "1k" H 7620 2955 50  0000 L CNN
F 2 "Resistors_SMD:R_0603" V 7480 3000 50  0001 C CNN
F 3 "" H 7550 3000 50  0000 C CNN
	1    7550 3000
	1    0    0    -1  
$EndComp
Wire Wire Line
	7550 2750 7550 2850
$Comp
L Device:C C20
U 1 1 5DCDBA46
P 7250 3250
F 0 "C20" V 7150 3400 50  0000 C CNN
F 1 "100n/100V" V 7150 3100 50  0000 C CNN
F 2 "Capacitors_SMD:C_0603" H 7288 3100 50  0001 C CNN
F 3 "" H 7250 3250 50  0000 C CNN
	1    7250 3250
	0    -1   -1   0   
$EndComp
$Comp
L KLauS-ASIC:MPPC U8
U 1 1 5DCDBA4C
P 7800 3750
F 0 "U8" V 7650 3250 50  0000 L CNN
F 1 "MPPC" H 7750 3350 50  0000 L CNN
F 2 "KLauS-Custom:MPPC" H 7800 3750 50  0001 C CNN
F 3 "" H 7800 3750 50  0001 C CNN
	1    7800 3750
	0    1    1    0   
$EndComp
Wire Wire Line
	7550 3150 7550 3250
Wire Wire Line
	7400 3250 7550 3250
Connection ~ 7550 3250
Wire Wire Line
	7550 3250 7550 3350
$Comp
L power:GNDA #PWR017
U 1 1 5DCDBA56
P 7100 3250
F 0 "#PWR017" H 7100 3000 50  0001 C CNN
F 1 "GNDA" H 7105 3077 50  0000 C CNN
F 2 "" H 7100 3250 50  0000 C CNN
F 3 "" H 7100 3250 50  0000 C CNN
	1    7100 3250
	0    1    1    0   
$EndComp
Text Label 7550 2750 0    50   ~ 0
HV
NoConn ~ 7650 3350
NoConn ~ 7650 4100
Wire Wire Line
	7650 3250 7550 3250
Text Label 7650 3250 0    50   ~ 0
HV8
Text Label 7250 4150 0    50   ~ 0
SiPM8
Wire Wire Line
	7250 4150 7550 4150
Wire Wire Line
	7550 4150 7550 4100
$Comp
L Device:LED D9
U 1 1 5DCDBA65
P 8850 4700
F 0 "D9" V 8700 4850 50  0000 R CNN
F 1 "SM0603UV-395" H 9050 4550 50  0000 R CNN
F 2 "KLauS-Custom:SM0603UV" H 8850 4700 50  0001 C CNN
F 3 "" H 8850 4700 50  0000 C CNN
	1    8850 4700
	0    -1   -1   0   
$EndComp
$Comp
L Device:R R36
U 1 1 5DCDBA6B
P 8450 4700
F 0 "R36" H 8520 4746 50  0000 L CNN
F 1 "91" H 8520 4655 50  0000 L CNN
F 2 "Resistors_SMD:R_0603" V 8380 4700 50  0001 C CNN
F 3 "" H 8450 4700 50  0000 C CNN
	1    8450 4700
	1    0    0    -1  
$EndComp
$Comp
L Device:R R30
U 1 1 5DCDBA71
P 8100 4700
F 0 "R30" H 8170 4746 50  0000 L CNN
F 1 "5k1" H 8170 4655 50  0000 L CNN
F 2 "Resistors_SMD:R_0603" V 8030 4700 50  0001 C CNN
F 3 "" H 8100 4700 50  0000 C CNN
	1    8100 4700
	1    0    0    -1  
$EndComp
$Comp
L Transistor_BJT:BFR92 Q9
U 1 1 5DCDBA77
P 8750 5350
F 0 "Q9" H 8941 5441 50  0000 L CNN
F 1 "BFR193W" H 8941 5350 50  0000 L CNN
F 2 "KLauS-Custom:SOT-23" H 8941 5259 50  0000 L CIN
F 3 "" H 8941 5214 50  0000 L CNN
	1    8750 5350
	1    0    0    -1  
$EndComp
$Comp
L Device:R R33
U 1 1 5DCDBA7D
P 8250 5350
F 0 "R33" V 8150 5200 50  0000 C CNN
F 1 "1k1" V 8150 5500 50  0000 C CNN
F 2 "Resistors_SMD:R_0603" V 8180 5350 50  0001 C CNN
F 3 "" H 8250 5350 50  0000 C CNN
	1    8250 5350
	0    1    1    0   
$EndComp
$Comp
L Device:C C24
U 1 1 5DCDBA83
P 8250 5550
F 0 "C24" V 8150 5700 50  0000 C CNN
F 1 "15p" V 8150 5400 50  0000 C CNN
F 2 "Capacitors_SMD:C_0603" H 8288 5400 50  0001 C CNN
F 3 "" H 8250 5550 50  0000 C CNN
	1    8250 5550
	0    -1   -1   0   
$EndComp
$Comp
L Device:C C27
U 1 1 5DCDBA89
P 9350 4700
F 0 "C27" H 9465 4746 50  0000 L CNN
F 1 "150p" H 9465 4655 50  0000 L CNN
F 2 "Capacitors_SMD:C_0603" H 9388 4550 50  0001 C CNN
F 3 "" H 9350 4700 50  0000 C CNN
	1    9350 4700
	1    0    0    -1  
$EndComp
Wire Wire Line
	7900 5350 8000 5350
Wire Wire Line
	8000 5350 8000 5550
Wire Wire Line
	8000 5550 8100 5550
Connection ~ 8000 5350
Wire Wire Line
	8000 5350 8100 5350
Wire Wire Line
	8400 5350 8500 5350
Wire Wire Line
	8400 5550 8500 5550
Wire Wire Line
	8500 5550 8500 5350
Connection ~ 8500 5350
Wire Wire Line
	8500 5350 8550 5350
Wire Wire Line
	8850 4850 8850 5000
Wire Wire Line
	8450 4850 8450 5000
Wire Wire Line
	8450 5000 8850 5000
Connection ~ 8850 5000
Wire Wire Line
	8850 5000 8850 5150
Wire Wire Line
	8100 4850 8100 5000
Wire Wire Line
	8100 5000 8450 5000
Connection ~ 8450 5000
Wire Wire Line
	7950 4450 8100 4450
Wire Wire Line
	8100 4450 8100 4550
Wire Wire Line
	8450 4550 8450 4450
Wire Wire Line
	8450 4450 8850 4450
Wire Wire Line
	9350 4450 9350 4550
Wire Wire Line
	8850 4550 8850 4450
Connection ~ 8850 4450
Wire Wire Line
	8850 4450 9350 4450
Wire Wire Line
	9350 4850 9350 5700
Wire Wire Line
	9350 5700 8850 5700
Wire Wire Line
	8850 5700 8850 5550
$Comp
L power:GNDA #PWR021
U 1 1 5DCDBAAC
P 8850 5700
F 0 "#PWR021" H 8850 5450 50  0001 C CNN
F 1 "GNDA" H 8855 5527 50  0000 C CNN
F 2 "" H 8850 5700 50  0000 C CNN
F 3 "" H 8850 5700 50  0000 C CNN
	1    8850 5700
	1    0    0    -1  
$EndComp
Connection ~ 8850 5700
Text Label 7900 5350 0    50   ~ 0
TCALIB
Text Label 7950 4450 0    50   ~ 0
VCALIB
$Comp
L Device:R R27
U 1 1 5DCDBAB5
P 7550 4700
F 0 "R27" H 7620 4746 50  0000 L CNN
F 1 "1k" H 7620 4655 50  0000 L CNN
F 2 "Resistors_SMD:R_0603" V 7480 4700 50  0001 C CNN
F 3 "" H 7550 4700 50  0000 C CNN
	1    7550 4700
	1    0    0    -1  
$EndComp
Wire Wire Line
	7550 4450 7550 4550
$Comp
L Device:C C21
U 1 1 5DCDBABC
P 7250 4950
F 0 "C21" V 7150 5100 50  0000 C CNN
F 1 "100n/100V" V 7150 4800 50  0000 C CNN
F 2 "Capacitors_SMD:C_0603" H 7288 4800 50  0001 C CNN
F 3 "" H 7250 4950 50  0000 C CNN
	1    7250 4950
	0    -1   -1   0   
$EndComp
$Comp
L KLauS-ASIC:MPPC U9
U 1 1 5DCDBAC2
P 7800 5450
F 0 "U9" V 7650 4950 50  0000 L CNN
F 1 "MPPC" H 7750 5050 50  0000 L CNN
F 2 "KLauS-Custom:MPPC" H 7800 5450 50  0001 C CNN
F 3 "" H 7800 5450 50  0001 C CNN
	1    7800 5450
	0    1    1    0   
$EndComp
Wire Wire Line
	7550 4850 7550 4950
Wire Wire Line
	7400 4950 7550 4950
Connection ~ 7550 4950
Wire Wire Line
	7550 4950 7550 5050
$Comp
L power:GNDA #PWR018
U 1 1 5DCDBACC
P 7100 4950
F 0 "#PWR018" H 7100 4700 50  0001 C CNN
F 1 "GNDA" H 7105 4777 50  0000 C CNN
F 2 "" H 7100 4950 50  0000 C CNN
F 3 "" H 7100 4950 50  0000 C CNN
	1    7100 4950
	0    1    1    0   
$EndComp
Text Label 7550 4450 0    50   ~ 0
HV
NoConn ~ 7650 5050
NoConn ~ 7650 5800
Wire Wire Line
	7650 4950 7550 4950
Text Label 7650 4950 0    50   ~ 0
HV9
Text Label 7250 5850 0    50   ~ 0
SiPM9
Wire Wire Line
	7250 5850 7550 5850
Wire Wire Line
	7550 5850 7550 5800
Wire Notes Line
	6750 850  6750 5950
Wire Notes Line
	9700 850  9700 5950
$Comp
L Device:LED D4
U 1 1 5DCF250C
P 5900 1300
F 0 "D4" V 5750 1450 50  0000 R CNN
F 1 "SM0603UV-395" H 6100 1150 50  0000 R CNN
F 2 "KLauS-Custom:SM0603UV" H 5900 1300 50  0001 C CNN
F 3 "" H 5900 1300 50  0000 C CNN
	1    5900 1300
	0    -1   -1   0   
$EndComp
$Comp
L Device:R R22
U 1 1 5DCF2512
P 5500 1300
F 0 "R22" H 5570 1346 50  0000 L CNN
F 1 "91" H 5570 1255 50  0000 L CNN
F 2 "Resistors_SMD:R_0603" V 5430 1300 50  0001 C CNN
F 3 "" H 5500 1300 50  0000 C CNN
	1    5500 1300
	1    0    0    -1  
$EndComp
$Comp
L Device:R R16
U 1 1 5DCF2518
P 5150 1300
F 0 "R16" H 5220 1346 50  0000 L CNN
F 1 "5k1" H 5220 1255 50  0000 L CNN
F 2 "Resistors_SMD:R_0603" V 5080 1300 50  0001 C CNN
F 3 "" H 5150 1300 50  0000 C CNN
	1    5150 1300
	1    0    0    -1  
$EndComp
$Comp
L Transistor_BJT:BFR92 Q4
U 1 1 5DCF251E
P 5800 1950
F 0 "Q4" H 5991 2041 50  0000 L CNN
F 1 "BFR193W" H 5991 1950 50  0000 L CNN
F 2 "KLauS-Custom:SOT-23" H 5991 1859 50  0000 L CIN
F 3 "" H 5991 1814 50  0000 L CNN
	1    5800 1950
	1    0    0    -1  
$EndComp
$Comp
L Device:R R19
U 1 1 5DCF2524
P 5300 1950
F 0 "R19" V 5200 1800 50  0000 C CNN
F 1 "1k1" V 5200 2100 50  0000 C CNN
F 2 "Resistors_SMD:R_0603" V 5230 1950 50  0001 C CNN
F 3 "" H 5300 1950 50  0000 C CNN
	1    5300 1950
	0    1    1    0   
$EndComp
$Comp
L Device:C C13
U 1 1 5DCF252A
P 5300 2150
F 0 "C13" V 5200 2300 50  0000 C CNN
F 1 "15p" V 5200 2000 50  0000 C CNN
F 2 "Capacitors_SMD:C_0603" H 5338 2000 50  0001 C CNN
F 3 "" H 5300 2150 50  0000 C CNN
	1    5300 2150
	0    -1   -1   0   
$EndComp
$Comp
L Device:C C16
U 1 1 5DCF2530
P 6400 1300
F 0 "C16" H 6515 1346 50  0000 L CNN
F 1 "150p" H 6515 1255 50  0000 L CNN
F 2 "Capacitors_SMD:C_0603" H 6438 1150 50  0001 C CNN
F 3 "" H 6400 1300 50  0000 C CNN
	1    6400 1300
	1    0    0    -1  
$EndComp
Wire Wire Line
	4950 1950 5050 1950
Wire Wire Line
	5050 1950 5050 2150
Wire Wire Line
	5050 2150 5150 2150
Connection ~ 5050 1950
Wire Wire Line
	5050 1950 5150 1950
Wire Wire Line
	5450 1950 5550 1950
Wire Wire Line
	5450 2150 5550 2150
Wire Wire Line
	5550 2150 5550 1950
Connection ~ 5550 1950
Wire Wire Line
	5550 1950 5600 1950
Wire Wire Line
	5900 1450 5900 1600
Wire Wire Line
	5500 1450 5500 1600
Wire Wire Line
	5500 1600 5900 1600
Connection ~ 5900 1600
Wire Wire Line
	5900 1600 5900 1750
Wire Wire Line
	5150 1450 5150 1600
Wire Wire Line
	5150 1600 5500 1600
Connection ~ 5500 1600
Wire Wire Line
	5000 1050 5150 1050
Wire Wire Line
	5150 1050 5150 1150
Wire Wire Line
	5500 1150 5500 1050
Wire Wire Line
	5500 1050 5900 1050
Wire Wire Line
	6400 1050 6400 1150
Wire Wire Line
	5900 1150 5900 1050
Connection ~ 5900 1050
Wire Wire Line
	5900 1050 6400 1050
Wire Wire Line
	6400 1450 6400 2300
Wire Wire Line
	6400 2300 5900 2300
Wire Wire Line
	5900 2300 5900 2150
$Comp
L power:GNDA #PWR013
U 1 1 5DCF2553
P 5900 2300
F 0 "#PWR013" H 5900 2050 50  0001 C CNN
F 1 "GNDA" H 5905 2127 50  0000 C CNN
F 2 "" H 5900 2300 50  0000 C CNN
F 3 "" H 5900 2300 50  0000 C CNN
	1    5900 2300
	1    0    0    -1  
$EndComp
Connection ~ 5900 2300
Text Label 4950 1950 0    50   ~ 0
TCALIB
Text Label 5000 1050 0    50   ~ 0
VCALIB
$Comp
L Device:R R13
U 1 1 5DCF255C
P 4600 1300
F 0 "R13" H 4670 1346 50  0000 L CNN
F 1 "1k" H 4670 1255 50  0000 L CNN
F 2 "Resistors_SMD:R_0603" V 4530 1300 50  0001 C CNN
F 3 "" H 4600 1300 50  0000 C CNN
	1    4600 1300
	1    0    0    -1  
$EndComp
Wire Wire Line
	4600 1050 4600 1150
$Comp
L Device:C C10
U 1 1 5DCF2563
P 4300 1550
F 0 "C10" V 4200 1700 50  0000 C CNN
F 1 "100n/100V" V 4200 1400 50  0000 C CNN
F 2 "Capacitors_SMD:C_0603" H 4338 1400 50  0001 C CNN
F 3 "" H 4300 1550 50  0000 C CNN
	1    4300 1550
	0    -1   -1   0   
$EndComp
$Comp
L KLauS-ASIC:MPPC U4
U 1 1 5DCF2569
P 4850 2050
F 0 "U4" V 4700 1550 50  0000 L CNN
F 1 "MPPC" H 4800 1650 50  0000 L CNN
F 2 "KLauS-Custom:MPPC" H 4850 2050 50  0001 C CNN
F 3 "" H 4850 2050 50  0001 C CNN
	1    4850 2050
	0    1    1    0   
$EndComp
Wire Wire Line
	4600 1450 4600 1550
Wire Wire Line
	4450 1550 4600 1550
Connection ~ 4600 1550
Wire Wire Line
	4600 1550 4600 1650
$Comp
L power:GNDA #PWR07
U 1 1 5DCF2573
P 4150 1550
F 0 "#PWR07" H 4150 1300 50  0001 C CNN
F 1 "GNDA" H 4155 1377 50  0000 C CNN
F 2 "" H 4150 1550 50  0000 C CNN
F 3 "" H 4150 1550 50  0000 C CNN
	1    4150 1550
	0    1    1    0   
$EndComp
Text Label 4600 1050 0    50   ~ 0
HV
NoConn ~ 4700 1650
NoConn ~ 4700 2400
Wire Wire Line
	4700 1550 4600 1550
Text Label 4700 1550 0    50   ~ 0
HV4
Text Label 4300 2450 0    50   ~ 0
SiPM4
Wire Wire Line
	4300 2450 4600 2450
Wire Wire Line
	4600 2450 4600 2400
$Comp
L Device:LED D5
U 1 1 5DCF2583
P 5900 3000
F 0 "D5" V 5750 3150 50  0000 R CNN
F 1 "SM0603UV-395" H 6100 2850 50  0000 R CNN
F 2 "KLauS-Custom:SM0603UV" H 5900 3000 50  0001 C CNN
F 3 "" H 5900 3000 50  0000 C CNN
	1    5900 3000
	0    -1   -1   0   
$EndComp
$Comp
L Device:R R23
U 1 1 5DCF2589
P 5500 3000
F 0 "R23" H 5570 3046 50  0000 L CNN
F 1 "91" H 5570 2955 50  0000 L CNN
F 2 "Resistors_SMD:R_0603" V 5430 3000 50  0001 C CNN
F 3 "" H 5500 3000 50  0000 C CNN
	1    5500 3000
	1    0    0    -1  
$EndComp
$Comp
L Device:R R17
U 1 1 5DCF258F
P 5150 3000
F 0 "R17" H 5220 3046 50  0000 L CNN
F 1 "5k1" H 5220 2955 50  0000 L CNN
F 2 "Resistors_SMD:R_0603" V 5080 3000 50  0001 C CNN
F 3 "" H 5150 3000 50  0000 C CNN
	1    5150 3000
	1    0    0    -1  
$EndComp
$Comp
L Transistor_BJT:BFR92 Q5
U 1 1 5DCF2595
P 5800 3650
F 0 "Q5" H 5991 3741 50  0000 L CNN
F 1 "BFR193W" H 5991 3650 50  0000 L CNN
F 2 "KLauS-Custom:SOT-23" H 5991 3559 50  0000 L CIN
F 3 "" H 5991 3514 50  0000 L CNN
	1    5800 3650
	1    0    0    -1  
$EndComp
$Comp
L Device:R R20
U 1 1 5DCF259B
P 5300 3650
F 0 "R20" V 5200 3500 50  0000 C CNN
F 1 "1k1" V 5200 3800 50  0000 C CNN
F 2 "Resistors_SMD:R_0603" V 5230 3650 50  0001 C CNN
F 3 "" H 5300 3650 50  0000 C CNN
	1    5300 3650
	0    1    1    0   
$EndComp
$Comp
L Device:C C14
U 1 1 5DCF25A1
P 5300 3850
F 0 "C14" V 5200 4000 50  0000 C CNN
F 1 "15p" V 5200 3700 50  0000 C CNN
F 2 "Capacitors_SMD:C_0603" H 5338 3700 50  0001 C CNN
F 3 "" H 5300 3850 50  0000 C CNN
	1    5300 3850
	0    -1   -1   0   
$EndComp
$Comp
L Device:C C17
U 1 1 5DCF25A7
P 6400 3000
F 0 "C17" H 6515 3046 50  0000 L CNN
F 1 "150p" H 6515 2955 50  0000 L CNN
F 2 "Capacitors_SMD:C_0603" H 6438 2850 50  0001 C CNN
F 3 "" H 6400 3000 50  0000 C CNN
	1    6400 3000
	1    0    0    -1  
$EndComp
Wire Wire Line
	4950 3650 5050 3650
Wire Wire Line
	5050 3650 5050 3850
Wire Wire Line
	5050 3850 5150 3850
Connection ~ 5050 3650
Wire Wire Line
	5050 3650 5150 3650
Wire Wire Line
	5450 3650 5550 3650
Wire Wire Line
	5450 3850 5550 3850
Wire Wire Line
	5550 3850 5550 3650
Connection ~ 5550 3650
Wire Wire Line
	5550 3650 5600 3650
Wire Wire Line
	5900 3150 5900 3300
Wire Wire Line
	5500 3150 5500 3300
Wire Wire Line
	5500 3300 5900 3300
Connection ~ 5900 3300
Wire Wire Line
	5900 3300 5900 3450
Wire Wire Line
	5150 3150 5150 3300
Wire Wire Line
	5150 3300 5500 3300
Connection ~ 5500 3300
Wire Wire Line
	5000 2750 5150 2750
Wire Wire Line
	5150 2750 5150 2850
Wire Wire Line
	5500 2850 5500 2750
Wire Wire Line
	5500 2750 5900 2750
Wire Wire Line
	6400 2750 6400 2850
Wire Wire Line
	5900 2850 5900 2750
Connection ~ 5900 2750
Wire Wire Line
	5900 2750 6400 2750
Wire Wire Line
	6400 3150 6400 4000
Wire Wire Line
	6400 4000 5900 4000
Wire Wire Line
	5900 4000 5900 3850
$Comp
L power:GNDA #PWR014
U 1 1 5DCF25CA
P 5900 4000
F 0 "#PWR014" H 5900 3750 50  0001 C CNN
F 1 "GNDA" H 5905 3827 50  0000 C CNN
F 2 "" H 5900 4000 50  0000 C CNN
F 3 "" H 5900 4000 50  0000 C CNN
	1    5900 4000
	1    0    0    -1  
$EndComp
Connection ~ 5900 4000
Text Label 4950 3650 0    50   ~ 0
TCALIB
Text Label 5000 2750 0    50   ~ 0
VCALIB
$Comp
L Device:R R14
U 1 1 5DCF25D3
P 4600 3000
F 0 "R14" H 4670 3046 50  0000 L CNN
F 1 "1k" H 4670 2955 50  0000 L CNN
F 2 "Resistors_SMD:R_0603" V 4530 3000 50  0001 C CNN
F 3 "" H 4600 3000 50  0000 C CNN
	1    4600 3000
	1    0    0    -1  
$EndComp
Wire Wire Line
	4600 2750 4600 2850
$Comp
L Device:C C11
U 1 1 5DCF25DA
P 4300 3250
F 0 "C11" V 4200 3400 50  0000 C CNN
F 1 "100n/100V" V 4200 3100 50  0000 C CNN
F 2 "Capacitors_SMD:C_0603" H 4338 3100 50  0001 C CNN
F 3 "" H 4300 3250 50  0000 C CNN
	1    4300 3250
	0    -1   -1   0   
$EndComp
$Comp
L KLauS-ASIC:MPPC U5
U 1 1 5DCF25E0
P 4850 3750
F 0 "U5" V 4700 3250 50  0000 L CNN
F 1 "MPPC" H 4800 3350 50  0000 L CNN
F 2 "KLauS-Custom:MPPC" H 4850 3750 50  0001 C CNN
F 3 "" H 4850 3750 50  0001 C CNN
	1    4850 3750
	0    1    1    0   
$EndComp
Wire Wire Line
	4600 3150 4600 3250
Wire Wire Line
	4450 3250 4600 3250
Connection ~ 4600 3250
Wire Wire Line
	4600 3250 4600 3350
$Comp
L power:GNDA #PWR08
U 1 1 5DCF25EA
P 4150 3250
F 0 "#PWR08" H 4150 3000 50  0001 C CNN
F 1 "GNDA" H 4155 3077 50  0000 C CNN
F 2 "" H 4150 3250 50  0000 C CNN
F 3 "" H 4150 3250 50  0000 C CNN
	1    4150 3250
	0    1    1    0   
$EndComp
Text Label 4600 2750 0    50   ~ 0
HV
NoConn ~ 4700 3350
NoConn ~ 4700 4100
Wire Wire Line
	4700 3250 4600 3250
Text Label 4700 3250 0    50   ~ 0
HV5
Text Label 4300 4150 0    50   ~ 0
SiPM5
Wire Wire Line
	4300 4150 4600 4150
Wire Wire Line
	4600 4150 4600 4100
$Comp
L Device:LED D6
U 1 1 5DCF25F9
P 5900 4700
F 0 "D6" V 5750 4850 50  0000 R CNN
F 1 "SM0603UV-395" H 6100 4550 50  0000 R CNN
F 2 "KLauS-Custom:SM0603UV" H 5900 4700 50  0001 C CNN
F 3 "" H 5900 4700 50  0000 C CNN
	1    5900 4700
	0    -1   -1   0   
$EndComp
$Comp
L Device:R R24
U 1 1 5DCF25FF
P 5500 4700
F 0 "R24" H 5570 4746 50  0000 L CNN
F 1 "91" H 5570 4655 50  0000 L CNN
F 2 "Resistors_SMD:R_0603" V 5430 4700 50  0001 C CNN
F 3 "" H 5500 4700 50  0000 C CNN
	1    5500 4700
	1    0    0    -1  
$EndComp
$Comp
L Device:R R18
U 1 1 5DCF2605
P 5150 4700
F 0 "R18" H 5220 4746 50  0000 L CNN
F 1 "5k1" H 5220 4655 50  0000 L CNN
F 2 "Resistors_SMD:R_0603" V 5080 4700 50  0001 C CNN
F 3 "" H 5150 4700 50  0000 C CNN
	1    5150 4700
	1    0    0    -1  
$EndComp
$Comp
L Transistor_BJT:BFR92 Q6
U 1 1 5DCF260B
P 5800 5350
F 0 "Q6" H 5991 5441 50  0000 L CNN
F 1 "BFR193W" H 5991 5350 50  0000 L CNN
F 2 "KLauS-Custom:SOT-23" H 5991 5259 50  0000 L CIN
F 3 "" H 5991 5214 50  0000 L CNN
	1    5800 5350
	1    0    0    -1  
$EndComp
$Comp
L Device:R R21
U 1 1 5DCF2611
P 5300 5350
F 0 "R21" V 5200 5200 50  0000 C CNN
F 1 "1k1" V 5200 5500 50  0000 C CNN
F 2 "Resistors_SMD:R_0603" V 5230 5350 50  0001 C CNN
F 3 "" H 5300 5350 50  0000 C CNN
	1    5300 5350
	0    1    1    0   
$EndComp
$Comp
L Device:C C15
U 1 1 5DCF2617
P 5300 5550
F 0 "C15" V 5200 5700 50  0000 C CNN
F 1 "15p" V 5200 5400 50  0000 C CNN
F 2 "Capacitors_SMD:C_0603" H 5338 5400 50  0001 C CNN
F 3 "" H 5300 5550 50  0000 C CNN
	1    5300 5550
	0    -1   -1   0   
$EndComp
$Comp
L Device:C C18
U 1 1 5DCF261D
P 6400 4700
F 0 "C18" H 6515 4746 50  0000 L CNN
F 1 "150p" H 6515 4655 50  0000 L CNN
F 2 "Capacitors_SMD:C_0603" H 6438 4550 50  0001 C CNN
F 3 "" H 6400 4700 50  0000 C CNN
	1    6400 4700
	1    0    0    -1  
$EndComp
Wire Wire Line
	4950 5350 5050 5350
Wire Wire Line
	5050 5350 5050 5550
Wire Wire Line
	5050 5550 5150 5550
Connection ~ 5050 5350
Wire Wire Line
	5050 5350 5150 5350
Wire Wire Line
	5450 5350 5550 5350
Wire Wire Line
	5450 5550 5550 5550
Wire Wire Line
	5550 5550 5550 5350
Connection ~ 5550 5350
Wire Wire Line
	5550 5350 5600 5350
Wire Wire Line
	5900 4850 5900 5000
Wire Wire Line
	5500 4850 5500 5000
Wire Wire Line
	5500 5000 5900 5000
Connection ~ 5900 5000
Wire Wire Line
	5900 5000 5900 5150
Wire Wire Line
	5150 4850 5150 5000
Wire Wire Line
	5150 5000 5500 5000
Connection ~ 5500 5000
Wire Wire Line
	5000 4450 5150 4450
Wire Wire Line
	5150 4450 5150 4550
Wire Wire Line
	5500 4550 5500 4450
Wire Wire Line
	5500 4450 5900 4450
Wire Wire Line
	6400 4450 6400 4550
Wire Wire Line
	5900 4550 5900 4450
Connection ~ 5900 4450
Wire Wire Line
	5900 4450 6400 4450
Wire Wire Line
	6400 4850 6400 5700
Wire Wire Line
	6400 5700 5900 5700
Wire Wire Line
	5900 5700 5900 5550
$Comp
L power:GNDA #PWR015
U 1 1 5DCF2640
P 5900 5700
F 0 "#PWR015" H 5900 5450 50  0001 C CNN
F 1 "GNDA" H 5905 5527 50  0000 C CNN
F 2 "" H 5900 5700 50  0000 C CNN
F 3 "" H 5900 5700 50  0000 C CNN
	1    5900 5700
	1    0    0    -1  
$EndComp
Connection ~ 5900 5700
Text Label 4950 5350 0    50   ~ 0
TCALIB
Text Label 5000 4450 0    50   ~ 0
VCALIB
$Comp
L Device:R R15
U 1 1 5DCF2649
P 4600 4700
F 0 "R15" H 4670 4746 50  0000 L CNN
F 1 "1k" H 4670 4655 50  0000 L CNN
F 2 "Resistors_SMD:R_0603" V 4530 4700 50  0001 C CNN
F 3 "" H 4600 4700 50  0000 C CNN
	1    4600 4700
	1    0    0    -1  
$EndComp
Wire Wire Line
	4600 4450 4600 4550
$Comp
L Device:C C12
U 1 1 5DCF2650
P 4300 4950
F 0 "C12" V 4200 5100 50  0000 C CNN
F 1 "100n/100V" V 4200 4800 50  0000 C CNN
F 2 "Capacitors_SMD:C_0603" H 4338 4800 50  0001 C CNN
F 3 "" H 4300 4950 50  0000 C CNN
	1    4300 4950
	0    -1   -1   0   
$EndComp
$Comp
L KLauS-ASIC:MPPC U6
U 1 1 5DCF2656
P 4850 5450
F 0 "U6" V 4700 4950 50  0000 L CNN
F 1 "MPPC" H 4800 5050 50  0000 L CNN
F 2 "KLauS-Custom:MPPC" H 4850 5450 50  0001 C CNN
F 3 "" H 4850 5450 50  0001 C CNN
	1    4850 5450
	0    1    1    0   
$EndComp
Wire Wire Line
	4600 4850 4600 4950
Wire Wire Line
	4450 4950 4600 4950
Connection ~ 4600 4950
Wire Wire Line
	4600 4950 4600 5050
$Comp
L power:GNDA #PWR09
U 1 1 5DCF2660
P 4150 4950
F 0 "#PWR09" H 4150 4700 50  0001 C CNN
F 1 "GNDA" H 4155 4777 50  0000 C CNN
F 2 "" H 4150 4950 50  0000 C CNN
F 3 "" H 4150 4950 50  0000 C CNN
	1    4150 4950
	0    1    1    0   
$EndComp
Text Label 4600 4450 0    50   ~ 0
HV
NoConn ~ 4700 5050
NoConn ~ 4700 5800
Wire Wire Line
	4700 4950 4600 4950
Text Label 4700 4950 0    50   ~ 0
HV6
Text Label 4300 5850 0    50   ~ 0
SiPM6
Wire Wire Line
	4300 5850 4600 5850
Wire Wire Line
	4600 5850 4600 5800
Wire Notes Line
	850  850  9700 850 
Wire Notes Line
	850  2550 9700 2550
Wire Notes Line
	850  4250 9700 4250
Wire Notes Line
	850  5950 9700 5950
NoConn ~ 4700 6550
NoConn ~ 4700 6650
NoConn ~ 4700 6750
NoConn ~ 4700 6850
NoConn ~ 4700 6950
NoConn ~ 4700 7050
NoConn ~ 4700 7150
NoConn ~ 4700 7250
NoConn ~ 4700 7350
$Comp
L Device:C C29
U 1 1 5DE7C706
P 1200 6950
F 0 "C29" V 1100 7100 50  0000 C CNN
F 1 "100p" V 1100 6800 50  0000 C CNN
F 2 "Capacitors_SMD:C_0603" H 1238 6800 50  0001 C CNN
F 3 "" H 1200 6950 50  0000 C CNN
	1    1200 6950
	1    0    0    -1  
$EndComp
$Comp
L Device:C C31
U 1 1 5DE7C860
P 1450 6950
F 0 "C31" V 1350 7100 50  0000 C CNN
F 1 "1u" V 1350 6800 50  0000 C CNN
F 2 "Capacitors_SMD:C_0603" H 1488 6800 50  0001 C CNN
F 3 "" H 1450 6950 50  0000 C CNN
	1    1450 6950
	1    0    0    -1  
$EndComp
$Comp
L Device:C C33
U 1 1 5DE7C930
P 1700 6950
F 0 "C33" V 1600 7100 50  0000 C CNN
F 1 "10u" V 1600 6800 50  0000 C CNN
F 2 "Capacitors_SMD:C_0805" H 1738 6800 50  0001 C CNN
F 3 "" H 1700 6950 50  0000 C CNN
	1    1700 6950
	1    0    0    -1  
$EndComp
Wire Wire Line
	1200 7100 1450 7100
Wire Wire Line
	1450 7100 1700 7100
Connection ~ 1450 7100
Wire Wire Line
	1200 6800 1450 6800
Wire Wire Line
	1450 6800 1700 6800
Connection ~ 1450 6800
$Comp
L power:GNDA #PWR0101
U 1 1 5DEDA8F6
P 1850 7100
F 0 "#PWR0101" H 1850 6850 50  0001 C CNN
F 1 "GNDA" V 1855 6972 50  0000 R CNN
F 2 "" H 1850 7100 50  0000 C CNN
F 3 "" H 1850 7100 50  0000 C CNN
	1    1850 7100
	0    -1   -1   0   
$EndComp
Wire Wire Line
	1850 6800 1700 6800
Connection ~ 1700 6800
Wire Wire Line
	1850 7100 1700 7100
Connection ~ 1700 7100
Text Label 1850 6800 0    50   ~ 0
HV
$Comp
L Device:C C28
U 1 1 5DF0B0B3
P 1200 6450
F 0 "C28" V 1100 6600 50  0000 C CNN
F 1 "100p" V 1100 6300 50  0000 C CNN
F 2 "Capacitors_SMD:C_0603" H 1238 6300 50  0001 C CNN
F 3 "" H 1200 6450 50  0000 C CNN
	1    1200 6450
	1    0    0    -1  
$EndComp
$Comp
L Device:C C30
U 1 1 5DF0B0B9
P 1450 6450
F 0 "C30" V 1350 6600 50  0000 C CNN
F 1 "1u" V 1350 6300 50  0000 C CNN
F 2 "Capacitors_SMD:C_0603" H 1488 6300 50  0001 C CNN
F 3 "" H 1450 6450 50  0000 C CNN
	1    1450 6450
	1    0    0    -1  
$EndComp
$Comp
L Device:C C32
U 1 1 5DF0B0BF
P 1700 6450
F 0 "C32" V 1600 6600 50  0000 C CNN
F 1 "10u" V 1600 6300 50  0000 C CNN
F 2 "Capacitors_SMD:C_0805" H 1738 6300 50  0001 C CNN
F 3 "" H 1700 6450 50  0000 C CNN
	1    1700 6450
	1    0    0    -1  
$EndComp
Wire Wire Line
	1200 6600 1450 6600
Wire Wire Line
	1450 6600 1700 6600
Connection ~ 1450 6600
Wire Wire Line
	1200 6300 1450 6300
Wire Wire Line
	1450 6300 1700 6300
Connection ~ 1450 6300
$Comp
L power:GNDA #PWR0102
U 1 1 5DF0B0CB
P 1850 6600
F 0 "#PWR0102" H 1850 6350 50  0001 C CNN
F 1 "GNDA" V 1855 6472 50  0000 R CNN
F 2 "" H 1850 6600 50  0000 C CNN
F 3 "" H 1850 6600 50  0000 C CNN
	1    1850 6600
	0    -1   -1   0   
$EndComp
Wire Wire Line
	1850 6300 1700 6300
Connection ~ 1700 6300
Wire Wire Line
	1850 6600 1700 6600
Connection ~ 1700 6600
Text Label 1850 6300 0    50   ~ 0
VCALIB
$Comp
L KLauS-ASIC:REFDES REF1
U 1 1 5DF2565F
P 10500 1100
F 0 "REF1" H 10640 1153 60  0000 L CNN
F 1 "REFDES" H 10640 1047 60  0000 L CNN
F 2 "MountingHoles-Custom:REF_marker" H 10500 1100 60  0001 C CNN
F 3 "" H 10500 1100 60  0001 C CNN
	1    10500 1100
	1    0    0    -1  
$EndComp
$Comp
L KLauS-ASIC:REFDES REF2
U 1 1 5DF25965
P 10500 1450
F 0 "REF2" H 10640 1503 60  0000 L CNN
F 1 "REFDES" H 10640 1397 60  0000 L CNN
F 2 "MountingHoles-Custom:REF_marker" H 10500 1450 60  0001 C CNN
F 3 "" H 10500 1450 60  0001 C CNN
	1    10500 1450
	1    0    0    -1  
$EndComp
$Comp
L KLauS-ASIC:REFDES REF3
U 1 1 5DF25AE6
P 10500 1800
F 0 "REF3" H 10640 1853 60  0000 L CNN
F 1 "REFDES" H 10640 1747 60  0000 L CNN
F 2 "MountingHoles-Custom:REF_marker" H 10500 1800 60  0001 C CNN
F 3 "" H 10500 1800 60  0001 C CNN
	1    10500 1800
	1    0    0    -1  
$EndComp
$Comp
L KLauS-ASIC:REFDES REF4
U 1 1 5DF25C64
P 10500 2150
F 0 "REF4" H 10640 2203 60  0000 L CNN
F 1 "REFDES" H 10640 2097 60  0000 L CNN
F 2 "MountingHoles-Custom:REF_marker" H 10500 2150 60  0001 C CNN
F 3 "" H 10500 2150 60  0001 C CNN
	1    10500 2150
	1    0    0    -1  
$EndComp
Text Notes 1950 750  0    50   ~ 0
Note: the RC network for the SiPM HV bias is wrong, 100pF should be 100nF!
$EndSCHEMATC
