"Id";"Designator";"Package";"Quantity";"Designation";"Supplier and ref";
1;"C33,C32";"C_0805";2;"10u";;;
2;"C31,C30";"C_0603";2;"1u";;;
3;"C29,C28";"C_0603";2;"100p";;;
4;"REF4,REF3,REF1,REF2";"REF_marker";4;"REFDES";;;
5;"R11,R22,R12,R23,R24,R35,R36,R10,R34";"R_0603";9;"91";;;
6;"D2,D3,D8,D1,D4,D6,D7,D9,D5";"SM0603UV";9;"SM0603UV-395";;;
7;"U8,U7,U6,U5,U4,U3,U2,U1,U9";"MPPC";9;"MPPC";;;
8;"Q9,Q1,Q2,Q4,Q5,Q6,Q7,Q8,Q3";"SOT-23";9;"BFR193W";;;
9;"C14,C4,C5,C6,C13,C15,C22,C23,C24";"C_0603";9;"15p";;;
10;"C1,C2,C3,C10,C11,C12,C19,C20,C21";"C_0603";9;"100n/100V";;;
11;"C7,C8,C9,C16,C17,C18,C25,C26,C27";"C_0603";9;"150p";;;
12;"P1";"CONN_02X12";1;"CONN_02X12";;;
13;"R18,R4,R5,R6,R30,R29,R28,R16,R17";"R_0603";9;"5k1";;;
14;"R1,R2,R3,R25,R26,R27,R13,R14,R15";"R_0603";9;"1k";;;
15;"R8,R9,R19,R20,R21,R7,R33,R32,R31";"R_0603";9;"1k1";;;
