Id;Designator;Package;Quantity;Designation
1;U8;TPS7A7001;1;TPS7A7001
2;P2,P3;FTS-120-02-L-G_ver;2;CONN_02X20
3;R33,R32,R35,R34,R31,R15,R30,R29,R28,R27,R26,R14,R23,R22,R21,R19,R18,R16,R24,R13,R12,R11,R10,R9,R8,R7,R6,R5,R4,R3,R2,R1;C_0402;32;4.7k
4;R36,R17;C_0402;2;0
5;R25;C_0402;1;30.1k
6;R20;C_0402;1;274k
7;C32,C56,C55,C54,C53,C52,C51,C50,C42,C48,C16,C17,C18,C19,C20,C22,C21,C49,C24,C25,C26,C27,C28,C29,C30,C31,C43,C33,C47,C46,C45,C44,C39,C40,C23,C41;C_0402;36;33p
8;C13,C15,C10,C11,C12,C57,C58,C59,C60,C61,C7,C8,C9;C_0603;13;100n
9;C14,C34,C36,C64,C65,C66,C62,C63,C1,C2,C3,C4,C5,C6;C_0603;14;1u
10;C35;C_0603;1;10n
11;C37;C_0603;1;10u
12;C38;C_0805;1;47u
13;P4;Multicomp_MC9A22-1634_2x08x2.54mm_Angled;1;CONN_02X08
14;U14,U12,U11,U13,U10;ADG708;5;ADG708
15;P1;CONN_01X04;1;CONN_01X04
16;U7,U9;MC33996EK;2;MC33996EK
17;U1,U2,U3,U4,U5,U6;OPA3355;6;OPA3355
18;J1,J2;SMA;2;SMA
