EESchema Schematic File Version 4
LIBS:AutoTestBoard_v1-cache
EELAYER 26 0
EELAYER END
$Descr A4 11693 8268
encoding utf-8
Sheet 1 1
Title ""
Date ""
Rev ""
Comp ""
Comment1 ""
Comment2 ""
Comment3 ""
Comment4 ""
$EndDescr
$Comp
L AutoTestBoardLib:OPA3355 U1
U 1 1 5C954D1A
P 1850 900
F 0 "U1" H 2325 987 60  0000 C CNN
F 1 "OPA3355" H 2325 881 60  0000 C CNN
F 2 "footprintLib:OPA3355" H 1850 900 60  0001 C CNN
F 3 "" H 1850 900 60  0001 C CNN
	1    1850 900 
	1    0    0    -1  
$EndComp
$Comp
L AutoTestBoard_v1-rescue:C_Small-device C7
U 1 1 5C954EB7
P 1100 1550
F 0 "C7" H 1192 1596 50  0000 L CNN
F 1 "100n" H 1192 1505 50  0000 L CNN
F 2 "Capacitors_SMD:C_0603" H 1100 1550 50  0001 C CNN
F 3 "" H 1100 1550 50  0000 C CNN
	1    1100 1550
	1    0    0    -1  
$EndComp
$Comp
L AutoTestBoard_v1-rescue:C_Small-device C1
U 1 1 5C954F35
P 700 1550
F 0 "C1" H 792 1596 50  0000 L CNN
F 1 "1u" H 792 1505 50  0000 L CNN
F 2 "Capacitors_SMD:C_0603" H 700 1550 50  0001 C CNN
F 3 "" H 700 1550 50  0000 C CNN
	1    700  1550
	1    0    0    -1  
$EndComp
$Comp
L power:GNDA #PWR01
U 1 1 5C9550F1
P 700 1650
F 0 "#PWR01" H 700 1400 50  0001 C CNN
F 1 "GNDA" H 705 1477 50  0000 C CNN
F 2 "" H 700 1650 50  0000 C CNN
F 3 "" H 700 1650 50  0000 C CNN
	1    700  1650
	1    0    0    -1  
$EndComp
$Comp
L power:GNDA #PWR07
U 1 1 5C95511C
P 1100 1650
F 0 "#PWR07" H 1100 1400 50  0001 C CNN
F 1 "GNDA" H 1105 1477 50  0000 C CNN
F 2 "" H 1100 1650 50  0000 C CNN
F 3 "" H 1100 1650 50  0000 C CNN
	1    1100 1650
	1    0    0    -1  
$EndComp
$Comp
L power:GNDA #PWR013
U 1 1 5C955147
P 2800 1400
F 0 "#PWR013" H 2800 1150 50  0001 C CNN
F 1 "GNDA" V 2800 1300 50  0000 R CNN
F 2 "" H 2800 1400 50  0000 C CNN
F 3 "" H 2800 1400 50  0000 C CNN
	1    2800 1400
	0    -1   -1   0   
$EndComp
Wire Wire Line
	1850 1400 1100 1400
Wire Wire Line
	700  1400 700  1450
Wire Wire Line
	1100 1450 1100 1400
Connection ~ 1100 1400
Wire Wire Line
	1100 1400 700  1400
Wire Wire Line
	1600 1700 1800 1700
Wire Wire Line
	1850 1600 1800 1600
Wire Wire Line
	1800 1600 1800 1700
Connection ~ 1800 1700
Wire Wire Line
	1800 1700 1850 1700
Wire Wire Line
	1600 1500 1850 1500
Wire Wire Line
	1600 1300 1850 1300
Wire Wire Line
	1600 1200 1850 1200
Wire Wire Line
	1600 1100 1850 1100
Wire Wire Line
	3100 1500 2800 1500
Wire Wire Line
	3100 1700 2850 1700
Wire Wire Line
	2800 1600 2850 1600
Wire Wire Line
	2850 1600 2850 1700
Connection ~ 2850 1700
Wire Wire Line
	2850 1700 2800 1700
Wire Wire Line
	3100 1300 2800 1300
Wire Wire Line
	3100 1100 2850 1100
Wire Wire Line
	2800 1200 2850 1200
Wire Wire Line
	2850 1200 2850 1100
Connection ~ 2850 1100
Wire Wire Line
	2850 1100 2800 1100
Text Label 1600 1100 0    50   ~ 0
ENCH2
Text Label 1600 1200 0    50   ~ 0
ENCH1
Text Label 1600 1300 0    50   ~ 0
ENCH0
Text Label 1600 1500 0    50   ~ 0
IN
Text Label 1600 1700 0    50   ~ 0
CH2
Text Label 3100 1700 0    50   ~ 0
CH1
Text Label 3100 1500 0    50   ~ 0
IN
Text Label 3100 1300 0    50   ~ 0
IN
Text Label 3100 1100 0    50   ~ 0
CH0
$Comp
L AutoTestBoardLib:OPA3355 U2
U 1 1 5C956173
P 1850 2000
F 0 "U2" H 2325 2087 60  0000 C CNN
F 1 "OPA3355" H 2325 1981 60  0000 C CNN
F 2 "footprintLib:OPA3355" H 1850 2000 60  0001 C CNN
F 3 "" H 1850 2000 60  0001 C CNN
	1    1850 2000
	1    0    0    -1  
$EndComp
$Comp
L AutoTestBoard_v1-rescue:C_Small-device C8
U 1 1 5C956179
P 1100 2650
F 0 "C8" H 1192 2696 50  0000 L CNN
F 1 "100n" H 1192 2605 50  0000 L CNN
F 2 "Capacitors_SMD:C_0603" H 1100 2650 50  0001 C CNN
F 3 "" H 1100 2650 50  0000 C CNN
	1    1100 2650
	1    0    0    -1  
$EndComp
$Comp
L AutoTestBoard_v1-rescue:C_Small-device C2
U 1 1 5C95617F
P 700 2650
F 0 "C2" H 792 2696 50  0000 L CNN
F 1 "1u" H 792 2605 50  0000 L CNN
F 2 "Capacitors_SMD:C_0603" H 700 2650 50  0001 C CNN
F 3 "" H 700 2650 50  0000 C CNN
	1    700  2650
	1    0    0    -1  
$EndComp
$Comp
L power:GNDA #PWR02
U 1 1 5C956185
P 700 2750
F 0 "#PWR02" H 700 2500 50  0001 C CNN
F 1 "GNDA" H 705 2577 50  0000 C CNN
F 2 "" H 700 2750 50  0000 C CNN
F 3 "" H 700 2750 50  0000 C CNN
	1    700  2750
	1    0    0    -1  
$EndComp
$Comp
L power:GNDA #PWR08
U 1 1 5C95618B
P 1100 2750
F 0 "#PWR08" H 1100 2500 50  0001 C CNN
F 1 "GNDA" H 1105 2577 50  0000 C CNN
F 2 "" H 1100 2750 50  0000 C CNN
F 3 "" H 1100 2750 50  0000 C CNN
	1    1100 2750
	1    0    0    -1  
$EndComp
$Comp
L power:GNDA #PWR014
U 1 1 5C956191
P 2800 2500
F 0 "#PWR014" H 2800 2250 50  0001 C CNN
F 1 "GNDA" V 2800 2400 50  0000 R CNN
F 2 "" H 2800 2500 50  0000 C CNN
F 3 "" H 2800 2500 50  0000 C CNN
	1    2800 2500
	0    -1   -1   0   
$EndComp
Wire Wire Line
	1850 2500 1100 2500
Wire Wire Line
	700  2500 700  2550
Wire Wire Line
	1100 2550 1100 2500
Connection ~ 1100 2500
Wire Wire Line
	1100 2500 700  2500
Wire Wire Line
	1600 2800 1800 2800
Wire Wire Line
	1850 2700 1800 2700
Wire Wire Line
	1800 2700 1800 2800
Connection ~ 1800 2800
Wire Wire Line
	1800 2800 1850 2800
Wire Wire Line
	1600 2600 1850 2600
Wire Wire Line
	1600 2400 1850 2400
Wire Wire Line
	1600 2300 1850 2300
Wire Wire Line
	1600 2200 1850 2200
Wire Wire Line
	3100 2600 2800 2600
Wire Wire Line
	3100 2800 2850 2800
Wire Wire Line
	2800 2700 2850 2700
Wire Wire Line
	2850 2700 2850 2800
Connection ~ 2850 2800
Wire Wire Line
	2850 2800 2800 2800
Wire Wire Line
	3100 2400 2800 2400
Wire Wire Line
	3100 2200 2850 2200
Wire Wire Line
	2800 2300 2850 2300
Wire Wire Line
	2850 2300 2850 2200
Connection ~ 2850 2200
Wire Wire Line
	2850 2200 2800 2200
Text Label 1600 2200 0    50   ~ 0
ENCH5
Text Label 1600 2300 0    50   ~ 0
ENCH4
Text Label 1600 2400 0    50   ~ 0
ENCH3
Text Label 1600 2600 0    50   ~ 0
IN
Text Label 1600 2800 0    50   ~ 0
CH5
Text Label 3100 2800 0    50   ~ 0
CH4
Text Label 3100 2600 0    50   ~ 0
IN
Text Label 3100 2400 0    50   ~ 0
IN
Text Label 3100 2200 0    50   ~ 0
CH3
$Comp
L AutoTestBoardLib:OPA3355 U3
U 1 1 5C9578B1
P 1850 3100
F 0 "U3" H 2325 3187 60  0000 C CNN
F 1 "OPA3355" H 2325 3081 60  0000 C CNN
F 2 "footprintLib:OPA3355" H 1850 3100 60  0001 C CNN
F 3 "" H 1850 3100 60  0001 C CNN
	1    1850 3100
	1    0    0    -1  
$EndComp
$Comp
L AutoTestBoard_v1-rescue:C_Small-device C9
U 1 1 5C9578B7
P 1100 3750
F 0 "C9" H 1192 3796 50  0000 L CNN
F 1 "100n" H 1192 3705 50  0000 L CNN
F 2 "Capacitors_SMD:C_0603" H 1100 3750 50  0001 C CNN
F 3 "" H 1100 3750 50  0000 C CNN
	1    1100 3750
	1    0    0    -1  
$EndComp
$Comp
L AutoTestBoard_v1-rescue:C_Small-device C3
U 1 1 5C9578BD
P 700 3750
F 0 "C3" H 792 3796 50  0000 L CNN
F 1 "1u" H 792 3705 50  0000 L CNN
F 2 "Capacitors_SMD:C_0603" H 700 3750 50  0001 C CNN
F 3 "" H 700 3750 50  0000 C CNN
	1    700  3750
	1    0    0    -1  
$EndComp
$Comp
L power:GNDA #PWR03
U 1 1 5C9578C3
P 700 3850
F 0 "#PWR03" H 700 3600 50  0001 C CNN
F 1 "GNDA" H 705 3677 50  0000 C CNN
F 2 "" H 700 3850 50  0000 C CNN
F 3 "" H 700 3850 50  0000 C CNN
	1    700  3850
	1    0    0    -1  
$EndComp
$Comp
L power:GNDA #PWR09
U 1 1 5C9578C9
P 1100 3850
F 0 "#PWR09" H 1100 3600 50  0001 C CNN
F 1 "GNDA" H 1105 3677 50  0000 C CNN
F 2 "" H 1100 3850 50  0000 C CNN
F 3 "" H 1100 3850 50  0000 C CNN
	1    1100 3850
	1    0    0    -1  
$EndComp
$Comp
L power:GNDA #PWR015
U 1 1 5C9578CF
P 2800 3600
F 0 "#PWR015" H 2800 3350 50  0001 C CNN
F 1 "GNDA" V 2800 3500 50  0000 R CNN
F 2 "" H 2800 3600 50  0000 C CNN
F 3 "" H 2800 3600 50  0000 C CNN
	1    2800 3600
	0    -1   -1   0   
$EndComp
Wire Wire Line
	1850 3600 1100 3600
Wire Wire Line
	700  3600 700  3650
Wire Wire Line
	1100 3650 1100 3600
Connection ~ 1100 3600
Wire Wire Line
	1100 3600 700  3600
Wire Wire Line
	1600 3900 1800 3900
Wire Wire Line
	1850 3800 1800 3800
Wire Wire Line
	1800 3800 1800 3900
Connection ~ 1800 3900
Wire Wire Line
	1800 3900 1850 3900
Wire Wire Line
	1600 3700 1850 3700
Wire Wire Line
	1600 3500 1850 3500
Wire Wire Line
	1600 3400 1850 3400
Wire Wire Line
	1600 3300 1850 3300
Wire Wire Line
	3100 3700 2800 3700
Wire Wire Line
	3100 3900 2850 3900
Wire Wire Line
	2800 3800 2850 3800
Wire Wire Line
	2850 3800 2850 3900
Connection ~ 2850 3900
Wire Wire Line
	2850 3900 2800 3900
Wire Wire Line
	3100 3500 2800 3500
Wire Wire Line
	3100 3300 2850 3300
Wire Wire Line
	2800 3400 2850 3400
Wire Wire Line
	2850 3400 2850 3300
Connection ~ 2850 3300
Wire Wire Line
	2850 3300 2800 3300
Text Label 1600 3300 0    50   ~ 0
ENCH8
Text Label 1600 3400 0    50   ~ 0
ENCH7
Text Label 1600 3500 0    50   ~ 0
ENCH6
Text Label 1600 3700 0    50   ~ 0
IN
Text Label 1600 3900 0    50   ~ 0
CH8
Text Label 3100 3900 0    50   ~ 0
CH7
Text Label 3100 3700 0    50   ~ 0
IN
Text Label 3100 3500 0    50   ~ 0
IN
Text Label 3100 3300 0    50   ~ 0
CH6
$Comp
L AutoTestBoardLib:OPA3355 U4
U 1 1 5C9578F8
P 1850 4200
F 0 "U4" H 2325 4287 60  0000 C CNN
F 1 "OPA3355" H 2325 4181 60  0000 C CNN
F 2 "footprintLib:OPA3355" H 1850 4200 60  0001 C CNN
F 3 "" H 1850 4200 60  0001 C CNN
	1    1850 4200
	1    0    0    -1  
$EndComp
$Comp
L AutoTestBoard_v1-rescue:C_Small-device C10
U 1 1 5C9578FE
P 1100 4850
F 0 "C10" H 1192 4896 50  0000 L CNN
F 1 "100n" H 1192 4805 50  0000 L CNN
F 2 "Capacitors_SMD:C_0603" H 1100 4850 50  0001 C CNN
F 3 "" H 1100 4850 50  0000 C CNN
	1    1100 4850
	1    0    0    -1  
$EndComp
$Comp
L AutoTestBoard_v1-rescue:C_Small-device C4
U 1 1 5C957904
P 700 4850
F 0 "C4" H 792 4896 50  0000 L CNN
F 1 "1u" H 792 4805 50  0000 L CNN
F 2 "Capacitors_SMD:C_0603" H 700 4850 50  0001 C CNN
F 3 "" H 700 4850 50  0000 C CNN
	1    700  4850
	1    0    0    -1  
$EndComp
$Comp
L power:GNDA #PWR04
U 1 1 5C95790A
P 700 4950
F 0 "#PWR04" H 700 4700 50  0001 C CNN
F 1 "GNDA" H 705 4777 50  0000 C CNN
F 2 "" H 700 4950 50  0000 C CNN
F 3 "" H 700 4950 50  0000 C CNN
	1    700  4950
	1    0    0    -1  
$EndComp
$Comp
L power:GNDA #PWR010
U 1 1 5C957910
P 1100 4950
F 0 "#PWR010" H 1100 4700 50  0001 C CNN
F 1 "GNDA" H 1105 4777 50  0000 C CNN
F 2 "" H 1100 4950 50  0000 C CNN
F 3 "" H 1100 4950 50  0000 C CNN
	1    1100 4950
	1    0    0    -1  
$EndComp
$Comp
L power:GNDA #PWR016
U 1 1 5C957916
P 2800 4700
F 0 "#PWR016" H 2800 4450 50  0001 C CNN
F 1 "GNDA" V 2800 4600 50  0000 R CNN
F 2 "" H 2800 4700 50  0000 C CNN
F 3 "" H 2800 4700 50  0000 C CNN
	1    2800 4700
	0    -1   -1   0   
$EndComp
Wire Wire Line
	1850 4700 1100 4700
Wire Wire Line
	700  4700 700  4750
Wire Wire Line
	1100 4750 1100 4700
Connection ~ 1100 4700
Wire Wire Line
	1100 4700 700  4700
Wire Wire Line
	1600 5000 1800 5000
Wire Wire Line
	1850 4900 1800 4900
Wire Wire Line
	1800 4900 1800 5000
Connection ~ 1800 5000
Wire Wire Line
	1800 5000 1850 5000
Wire Wire Line
	1600 4800 1850 4800
Wire Wire Line
	1600 4600 1850 4600
Wire Wire Line
	1600 4500 1850 4500
Wire Wire Line
	1600 4400 1850 4400
Wire Wire Line
	3100 4800 2800 4800
Wire Wire Line
	3100 5000 2850 5000
Wire Wire Line
	2800 4900 2850 4900
Wire Wire Line
	2850 4900 2850 5000
Connection ~ 2850 5000
Wire Wire Line
	2850 5000 2800 5000
Wire Wire Line
	3100 4600 2800 4600
Wire Wire Line
	3100 4400 2850 4400
Wire Wire Line
	2800 4500 2850 4500
Wire Wire Line
	2850 4500 2850 4400
Connection ~ 2850 4400
Wire Wire Line
	2850 4400 2800 4400
Text Label 1600 4400 0    50   ~ 0
ENCH11
Text Label 1600 4500 0    50   ~ 0
ENCH10
Text Label 1600 4600 0    50   ~ 0
ENCH9
Text Label 1600 4800 0    50   ~ 0
IN
Text Label 1600 5000 0    50   ~ 0
CH11
Text Label 3100 5000 0    50   ~ 0
CH10
Text Label 3100 4800 0    50   ~ 0
IN
Text Label 3100 4600 0    50   ~ 0
IN
Text Label 3100 4400 0    50   ~ 0
CH9
$Comp
L AutoTestBoardLib:OPA3355 U5
U 1 1 5C95A473
P 1850 5300
F 0 "U5" H 2325 5387 60  0000 C CNN
F 1 "OPA3355" H 2325 5281 60  0000 C CNN
F 2 "footprintLib:OPA3355" H 1850 5300 60  0001 C CNN
F 3 "" H 1850 5300 60  0001 C CNN
	1    1850 5300
	1    0    0    -1  
$EndComp
$Comp
L AutoTestBoard_v1-rescue:C_Small-device C11
U 1 1 5C95A479
P 1100 5950
F 0 "C11" H 1192 5996 50  0000 L CNN
F 1 "100n" H 1192 5905 50  0000 L CNN
F 2 "Capacitors_SMD:C_0603" H 1100 5950 50  0001 C CNN
F 3 "" H 1100 5950 50  0000 C CNN
	1    1100 5950
	1    0    0    -1  
$EndComp
$Comp
L AutoTestBoard_v1-rescue:C_Small-device C5
U 1 1 5C95A47F
P 700 5950
F 0 "C5" H 792 5996 50  0000 L CNN
F 1 "1u" H 792 5905 50  0000 L CNN
F 2 "Capacitors_SMD:C_0603" H 700 5950 50  0001 C CNN
F 3 "" H 700 5950 50  0000 C CNN
	1    700  5950
	1    0    0    -1  
$EndComp
$Comp
L power:GNDA #PWR05
U 1 1 5C95A485
P 700 6050
F 0 "#PWR05" H 700 5800 50  0001 C CNN
F 1 "GNDA" H 705 5877 50  0000 C CNN
F 2 "" H 700 6050 50  0000 C CNN
F 3 "" H 700 6050 50  0000 C CNN
	1    700  6050
	1    0    0    -1  
$EndComp
$Comp
L power:GNDA #PWR011
U 1 1 5C95A48B
P 1100 6050
F 0 "#PWR011" H 1100 5800 50  0001 C CNN
F 1 "GNDA" H 1105 5877 50  0000 C CNN
F 2 "" H 1100 6050 50  0000 C CNN
F 3 "" H 1100 6050 50  0000 C CNN
	1    1100 6050
	1    0    0    -1  
$EndComp
$Comp
L power:GNDA #PWR017
U 1 1 5C95A491
P 2800 5800
F 0 "#PWR017" H 2800 5550 50  0001 C CNN
F 1 "GNDA" V 2800 5700 50  0000 R CNN
F 2 "" H 2800 5800 50  0000 C CNN
F 3 "" H 2800 5800 50  0000 C CNN
	1    2800 5800
	0    -1   -1   0   
$EndComp
Wire Wire Line
	1850 5800 1100 5800
Wire Wire Line
	700  5800 700  5850
Wire Wire Line
	1100 5850 1100 5800
Connection ~ 1100 5800
Wire Wire Line
	1100 5800 700  5800
Wire Wire Line
	1600 6100 1800 6100
Wire Wire Line
	1850 6000 1800 6000
Wire Wire Line
	1800 6000 1800 6100
Connection ~ 1800 6100
Wire Wire Line
	1800 6100 1850 6100
Wire Wire Line
	1600 5900 1850 5900
Wire Wire Line
	1600 5700 1850 5700
Wire Wire Line
	1600 5600 1850 5600
Wire Wire Line
	1600 5500 1850 5500
Wire Wire Line
	3100 5900 2800 5900
Wire Wire Line
	3100 6100 2850 6100
Wire Wire Line
	2800 6000 2850 6000
Wire Wire Line
	2850 6000 2850 6100
Connection ~ 2850 6100
Wire Wire Line
	2850 6100 2800 6100
Wire Wire Line
	3100 5700 2800 5700
Wire Wire Line
	3100 5500 2850 5500
Wire Wire Line
	2800 5600 2850 5600
Wire Wire Line
	2850 5600 2850 5500
Connection ~ 2850 5500
Wire Wire Line
	2850 5500 2800 5500
Text Label 1600 5500 0    50   ~ 0
ENCH14
Text Label 1600 5600 0    50   ~ 0
ENCH13
Text Label 1600 5700 0    50   ~ 0
ENCH12
Text Label 1600 5900 0    50   ~ 0
IN
Text Label 1600 6100 0    50   ~ 0
CH14
Text Label 3100 6100 0    50   ~ 0
CH13
Text Label 3100 5900 0    50   ~ 0
IN
Text Label 3100 5700 0    50   ~ 0
IN
Text Label 3100 5500 0    50   ~ 0
CH12
$Comp
L AutoTestBoardLib:OPA3355 U6
U 1 1 5C95A4BA
P 1850 6400
F 0 "U6" H 2325 6487 60  0000 C CNN
F 1 "OPA3355" H 2325 6381 60  0000 C CNN
F 2 "footprintLib:OPA3355" H 1850 6400 60  0001 C CNN
F 3 "" H 1850 6400 60  0001 C CNN
	1    1850 6400
	1    0    0    -1  
$EndComp
$Comp
L AutoTestBoard_v1-rescue:C_Small-device C12
U 1 1 5C95A4C0
P 1100 7050
F 0 "C12" H 1192 7096 50  0000 L CNN
F 1 "100n" H 1192 7005 50  0000 L CNN
F 2 "Capacitors_SMD:C_0603" H 1100 7050 50  0001 C CNN
F 3 "" H 1100 7050 50  0000 C CNN
	1    1100 7050
	1    0    0    -1  
$EndComp
$Comp
L AutoTestBoard_v1-rescue:C_Small-device C6
U 1 1 5C95A4C6
P 700 7050
F 0 "C6" H 792 7096 50  0000 L CNN
F 1 "1u" H 792 7005 50  0000 L CNN
F 2 "Capacitors_SMD:C_0603" H 700 7050 50  0001 C CNN
F 3 "" H 700 7050 50  0000 C CNN
	1    700  7050
	1    0    0    -1  
$EndComp
$Comp
L power:GNDA #PWR06
U 1 1 5C95A4CC
P 700 7150
F 0 "#PWR06" H 700 6900 50  0001 C CNN
F 1 "GNDA" H 705 6977 50  0000 C CNN
F 2 "" H 700 7150 50  0000 C CNN
F 3 "" H 700 7150 50  0000 C CNN
	1    700  7150
	1    0    0    -1  
$EndComp
$Comp
L power:GNDA #PWR012
U 1 1 5C95A4D2
P 1100 7150
F 0 "#PWR012" H 1100 6900 50  0001 C CNN
F 1 "GNDA" H 1105 6977 50  0000 C CNN
F 2 "" H 1100 7150 50  0000 C CNN
F 3 "" H 1100 7150 50  0000 C CNN
	1    1100 7150
	1    0    0    -1  
$EndComp
$Comp
L power:GNDA #PWR018
U 1 1 5C95A4D8
P 2800 6900
F 0 "#PWR018" H 2800 6650 50  0001 C CNN
F 1 "GNDA" V 2800 6800 50  0000 R CNN
F 2 "" H 2800 6900 50  0000 C CNN
F 3 "" H 2800 6900 50  0000 C CNN
	1    2800 6900
	0    -1   -1   0   
$EndComp
Wire Wire Line
	1850 6900 1100 6900
Wire Wire Line
	700  6900 700  6950
Wire Wire Line
	1100 6950 1100 6900
Connection ~ 1100 6900
Wire Wire Line
	1100 6900 700  6900
Wire Wire Line
	1600 7200 1800 7200
Wire Wire Line
	1850 7100 1800 7100
Wire Wire Line
	1800 7100 1800 7200
Connection ~ 1800 7200
Wire Wire Line
	1800 7200 1850 7200
Wire Wire Line
	1600 7000 1850 7000
Wire Wire Line
	1600 6800 1850 6800
Wire Wire Line
	1600 6700 1850 6700
Wire Wire Line
	1600 6600 1850 6600
Wire Wire Line
	3100 7000 2800 7000
Wire Wire Line
	3100 7200 2850 7200
Wire Wire Line
	2800 7100 2850 7100
Wire Wire Line
	2850 7100 2850 7200
Connection ~ 2850 7200
Wire Wire Line
	2850 7200 2800 7200
Wire Wire Line
	3100 6800 2800 6800
Wire Wire Line
	3100 6600 2850 6600
Wire Wire Line
	2800 6700 2850 6700
Wire Wire Line
	2850 6700 2850 6600
Connection ~ 2850 6600
Wire Wire Line
	2850 6600 2800 6600
Text Label 1600 6600 0    50   ~ 0
ENCH17
Text Label 1600 6700 0    50   ~ 0
ENCH16
Text Label 1600 6800 0    50   ~ 0
ENCH15
Text Label 1600 7000 0    50   ~ 0
IN
Text Label 1600 7200 0    50   ~ 0
CH17
Text Label 3100 7200 0    50   ~ 0
CH16
Text Label 3100 7000 0    50   ~ 0
IN
Text Label 3100 6800 0    50   ~ 0
IN
Text Label 3100 6600 0    50   ~ 0
CH15
$Comp
L AutoTestBoardLib:MC33996EK U7
U 1 1 5C97D97A
P 4050 900
F 0 "U7" H 4550 987 60  0000 C CNN
F 1 "MC33996EK" H 4550 881 60  0000 C CNN
F 2 "footprintLib:MC33996EK" H 4050 900 60  0001 C CNN
F 3 "" H 4050 900 60  0001 C CNN
	1    4050 900 
	1    0    0    -1  
$EndComp
Wire Wire Line
	3700 1100 4050 1100
Wire Wire Line
	3700 1200 4050 1200
Wire Wire Line
	3700 1300 4050 1300
Wire Wire Line
	3700 1400 4050 1400
Wire Wire Line
	3700 1500 4050 1500
Wire Wire Line
	3700 1600 4050 1600
Wire Wire Line
	3700 1700 3950 1700
Wire Wire Line
	3700 2100 4050 2100
Wire Wire Line
	3700 2200 4050 2200
Wire Wire Line
	3700 2300 4050 2300
Wire Wire Line
	3700 2400 4050 2400
Wire Wire Line
	3700 2500 4050 2500
Wire Wire Line
	3700 2600 4050 2600
Wire Wire Line
	5050 1100 5400 1100
Wire Wire Line
	5050 1200 5400 1200
Wire Wire Line
	5050 1400 5400 1400
Wire Wire Line
	5050 1500 5400 1500
Wire Wire Line
	5050 1600 5400 1600
Wire Wire Line
	5050 1700 5150 1700
Wire Wire Line
	5050 2100 5400 2100
Wire Wire Line
	5050 2200 5400 2200
Wire Wire Line
	5050 2300 5400 2300
Wire Wire Line
	5050 2400 5400 2400
Wire Wire Line
	5050 2500 5400 2500
Wire Wire Line
	5050 2600 5400 2600
Text Label 3700 1300 0    50   ~ 0
+5V
Text Label 3700 1600 0    50   ~ 0
+5V
Text Label 5400 1600 0    50   ~ 0
+5V
Wire Wire Line
	4050 2000 3950 2000
Wire Wire Line
	3950 2000 3950 1900
Connection ~ 3950 1700
Wire Wire Line
	3950 1700 4050 1700
Wire Wire Line
	4050 1800 3950 1800
Connection ~ 3950 1800
Wire Wire Line
	3950 1800 3950 1700
Wire Wire Line
	4050 1900 3950 1900
Connection ~ 3950 1900
Wire Wire Line
	3950 1900 3950 1800
Wire Wire Line
	5050 2000 5150 2000
Wire Wire Line
	5150 2000 5150 1900
Connection ~ 5150 1700
Wire Wire Line
	5150 1700 5400 1700
Wire Wire Line
	5050 1800 5150 1800
Connection ~ 5150 1800
Wire Wire Line
	5150 1800 5150 1700
Wire Wire Line
	5050 1900 5150 1900
Connection ~ 5150 1900
Wire Wire Line
	5150 1900 5150 1800
Text Label 5400 1700 0    50   ~ 0
GNDA
Text Label 3700 1700 0    50   ~ 0
GNDA
Text Label 3700 2100 0    50   ~ 0
SCLK
Text Label 3700 2400 0    50   ~ 0
nCS
Text Label 5400 2400 0    50   ~ 0
MOSI
Text Label 5400 2100 0    50   ~ 0
mmm
$Comp
L power:GNDA #PWR021
U 1 1 5C9DD70C
P 4550 2900
F 0 "#PWR021" H 4550 2650 50  0001 C CNN
F 1 "GNDA" H 4555 2727 50  0000 C CNN
F 2 "" H 4550 2900 50  0000 C CNN
F 3 "" H 4550 2900 50  0000 C CNN
	1    4550 2900
	1    0    0    -1  
$EndComp
$Comp
L AutoTestBoardLib:MC33996EK U9
U 1 1 5C9EF416
P 6750 900
F 0 "U9" H 7250 987 60  0000 C CNN
F 1 "MC33996EK" H 7250 881 60  0000 C CNN
F 2 "footprintLib:MC33996EK" H 6750 900 60  0001 C CNN
F 3 "" H 6750 900 60  0001 C CNN
	1    6750 900 
	1    0    0    -1  
$EndComp
Wire Wire Line
	6400 1100 6750 1100
Wire Wire Line
	6400 1200 6750 1200
Wire Wire Line
	6400 1300 6750 1300
Wire Wire Line
	6400 1400 6750 1400
Wire Wire Line
	6400 1500 6750 1500
Wire Wire Line
	6400 1600 6750 1600
Wire Wire Line
	6400 1700 6650 1700
Wire Wire Line
	6400 2100 6750 2100
Wire Wire Line
	6400 2200 6750 2200
Wire Wire Line
	6400 2300 6750 2300
Wire Wire Line
	6400 2400 6750 2400
Wire Wire Line
	6400 2500 6750 2500
Wire Wire Line
	6400 2600 6750 2600
Wire Wire Line
	7750 1100 8100 1100
Wire Wire Line
	7750 1200 8100 1200
Wire Wire Line
	7750 1400 8100 1400
Wire Wire Line
	7750 1500 8100 1500
Wire Wire Line
	7750 1600 8100 1600
Wire Wire Line
	7750 1700 7850 1700
Wire Wire Line
	7750 2100 8100 2100
Wire Wire Line
	7750 2200 8100 2200
Wire Wire Line
	7750 2300 8100 2300
Wire Wire Line
	7750 2400 8100 2400
Wire Wire Line
	7750 2500 8100 2500
Wire Wire Line
	7750 2600 8100 2600
Text Label 6400 1300 0    50   ~ 0
+5V
Text Label 6400 1600 0    50   ~ 0
+5V
Text Label 8100 1600 0    50   ~ 0
+5V
Wire Wire Line
	6750 2000 6650 2000
Wire Wire Line
	6650 2000 6650 1900
Connection ~ 6650 1700
Wire Wire Line
	6650 1700 6750 1700
Wire Wire Line
	6750 1800 6650 1800
Connection ~ 6650 1800
Wire Wire Line
	6650 1800 6650 1700
Wire Wire Line
	6750 1900 6650 1900
Connection ~ 6650 1900
Wire Wire Line
	6650 1900 6650 1800
Wire Wire Line
	7750 2000 7850 2000
Wire Wire Line
	7850 2000 7850 1900
Connection ~ 7850 1700
Wire Wire Line
	7850 1700 8100 1700
Wire Wire Line
	7750 1800 7850 1800
Connection ~ 7850 1800
Wire Wire Line
	7850 1800 7850 1700
Wire Wire Line
	7750 1900 7850 1900
Connection ~ 7850 1900
Wire Wire Line
	7850 1900 7850 1800
Text Label 8100 1700 0    50   ~ 0
GNDA
Text Label 6400 1700 0    50   ~ 0
GNDA
Text Label 6400 2100 0    50   ~ 0
SCLK
Text Label 6400 2400 0    50   ~ 0
nCS
Text Label 8100 2400 0    50   ~ 0
mmm
Text Label 8100 2100 0    50   ~ 0
MISO
$Comp
L power:GNDA #PWR030
U 1 1 5C9EF453
P 7250 2900
F 0 "#PWR030" H 7250 2650 50  0001 C CNN
F 1 "GNDA" H 7255 2727 50  0000 C CNN
F 2 "" H 7250 2900 50  0000 C CNN
F 3 "" H 7250 2900 50  0000 C CNN
	1    7250 2900
	1    0    0    -1  
$EndComp
Text Label 3700 1100 0    50   ~ 0
ENCH2
Text Label 3700 1200 0    50   ~ 0
ENCH1
Text Label 3700 1400 0    50   ~ 0
ENCH0
Text Label 3700 1500 0    50   ~ 0
ENCH5
Text Label 3700 2300 0    50   ~ 0
ENCH3
Text Label 3700 2200 0    50   ~ 0
ENCH4
Text Label 3700 2600 0    50   ~ 0
ENCH15
Text Label 3700 2500 0    50   ~ 0
ENCH16
Text Label 5400 2600 0    50   ~ 0
ENCH17
Text Label 5400 2500 0    50   ~ 0
ENCH12
Text Label 5400 2300 0    50   ~ 0
ENCH13
Text Label 5400 2200 0    50   ~ 0
ENCH14
Text Label 5400 1500 0    50   ~ 0
ENCH9
Text Label 5400 1400 0    50   ~ 0
ENCH10
Text Label 5400 1200 0    50   ~ 0
ENCH11
Text Label 5400 1100 0    50   ~ 0
ENCH6
$Comp
L AutoTestBoard_v1-rescue:R_Small-device R36
U 1 1 5C9FC6E4
P 8550 1300
F 0 "R36" V 8354 1300 50  0000 C CNN
F 1 "0" V 8445 1300 50  0000 C CNN
F 2 "Capacitors_SMD:C_0402" H 8550 1300 50  0001 C CNN
F 3 "" H 8550 1300 50  0000 C CNN
	1    8550 1300
	0    1    1    0   
$EndComp
$Comp
L power:GNDA #PWR035
U 1 1 5CA09827
P 8650 1300
F 0 "#PWR035" H 8650 1050 50  0001 C CNN
F 1 "GNDA" V 8655 1172 50  0000 R CNN
F 2 "" H 8650 1300 50  0000 C CNN
F 3 "" H 8650 1300 50  0000 C CNN
	1    8650 1300
	0    -1   -1   0   
$EndComp
Wire Wire Line
	7750 1300 8450 1300
$Comp
L AutoTestBoard_v1-rescue:R_Small-device R17
U 1 1 5CA16E72
P 5850 1300
F 0 "R17" V 5654 1300 50  0000 C CNN
F 1 "0" V 5745 1300 50  0000 C CNN
F 2 "Capacitors_SMD:C_0402" H 5850 1300 50  0001 C CNN
F 3 "" H 5850 1300 50  0000 C CNN
	1    5850 1300
	0    1    1    0   
$EndComp
$Comp
L power:GNDA #PWR028
U 1 1 5CA16E78
P 5950 1300
F 0 "#PWR028" H 5950 1050 50  0001 C CNN
F 1 "GNDA" V 5955 1172 50  0000 R CNN
F 2 "" H 5950 1300 50  0000 C CNN
F 3 "" H 5950 1300 50  0000 C CNN
	1    5950 1300
	0    -1   -1   0   
$EndComp
Wire Wire Line
	5050 1300 5750 1300
Text Label 6400 1100 0    50   ~ 0
A0
Text Label 6400 1200 0    50   ~ 0
EN2
$Comp
L AutoTestBoardLib:ADG708 U10
U 1 1 5CA2491B
P 10150 950
F 0 "U10" H 10150 1065 50  0000 C CNN
F 1 "ADG708" H 10150 974 50  0000 C CNN
F 2 "footprintLib:ADG708" H 10150 950 50  0001 C CNN
F 3 "" H 10150 950 50  0001 C CNN
	1    10150 950 
	1    0    0    -1  
$EndComp
Wire Wire Line
	9500 1200 9700 1200
Wire Wire Line
	9500 1100 9700 1100
Wire Wire Line
	9500 1300 9700 1300
Wire Wire Line
	9500 1400 9700 1400
Wire Wire Line
	9500 1600 9700 1600
Wire Wire Line
	9500 1500 9700 1500
Wire Wire Line
	9500 1700 9700 1700
Wire Wire Line
	9500 1800 9700 1800
Wire Wire Line
	10600 1200 10800 1200
Wire Wire Line
	10600 1100 10800 1100
Wire Wire Line
	10600 1300 10800 1300
Wire Wire Line
	10600 1400 10800 1400
Wire Wire Line
	10600 1600 10800 1600
Wire Wire Line
	10600 1500 10800 1500
Wire Wire Line
	10600 1700 10800 1700
Wire Wire Line
	10600 1800 10800 1800
$Comp
L power:GNDA #PWR043
U 1 1 5CA781A8
P 10800 1300
F 0 "#PWR043" H 10800 1050 50  0001 C CNN
F 1 "GNDA" V 10805 1172 50  0000 R CNN
F 2 "" H 10800 1300 50  0000 C CNN
F 3 "" H 10800 1300 50  0000 C CNN
	1    10800 1300
	0    -1   -1   0   
$EndComp
$Comp
L power:GNDA #PWR038
U 1 1 5CA78254
P 9500 1300
F 0 "#PWR038" H 9500 1050 50  0001 C CNN
F 1 "GNDA" V 9505 1173 50  0000 R CNN
F 2 "" H 9500 1300 50  0000 C CNN
F 3 "" H 9500 1300 50  0000 C CNN
	1    9500 1300
	0    1    1    0   
$EndComp
Text Label 10800 1400 0    50   ~ 0
+5V
$Comp
L AutoTestBoardLib:ADG708 U11
U 1 1 5CA87F55
P 10150 2100
F 0 "U11" H 10150 2215 50  0000 C CNN
F 1 "ADG708" H 10150 2124 50  0000 C CNN
F 2 "footprintLib:ADG708" H 10150 2100 50  0001 C CNN
F 3 "" H 10150 2100 50  0001 C CNN
	1    10150 2100
	1    0    0    -1  
$EndComp
Wire Wire Line
	9500 2350 9700 2350
Wire Wire Line
	9500 2250 9700 2250
Wire Wire Line
	9500 2450 9700 2450
Wire Wire Line
	9500 2550 9700 2550
Wire Wire Line
	9500 2750 9700 2750
Wire Wire Line
	9500 2650 9700 2650
Wire Wire Line
	9500 2850 9700 2850
Wire Wire Line
	9500 2950 9700 2950
Wire Wire Line
	10600 2350 10800 2350
Wire Wire Line
	10600 2250 10800 2250
Wire Wire Line
	10600 2450 10800 2450
Wire Wire Line
	10600 2550 10800 2550
Wire Wire Line
	10600 2750 10800 2750
Wire Wire Line
	10600 2650 10800 2650
Wire Wire Line
	10600 2850 10800 2850
Wire Wire Line
	10600 2950 10800 2950
$Comp
L power:GNDA #PWR044
U 1 1 5CA87F6B
P 10800 2450
F 0 "#PWR044" H 10800 2200 50  0001 C CNN
F 1 "GNDA" V 10805 2322 50  0000 R CNN
F 2 "" H 10800 2450 50  0000 C CNN
F 3 "" H 10800 2450 50  0000 C CNN
	1    10800 2450
	0    -1   -1   0   
$EndComp
$Comp
L power:GNDA #PWR039
U 1 1 5CA87F71
P 9500 2450
F 0 "#PWR039" H 9500 2200 50  0001 C CNN
F 1 "GNDA" V 9505 2323 50  0000 R CNN
F 2 "" H 9500 2450 50  0000 C CNN
F 3 "" H 9500 2450 50  0000 C CNN
	1    9500 2450
	0    1    1    0   
$EndComp
Text Label 10800 2550 0    50   ~ 0
+5V
$Comp
L AutoTestBoardLib:ADG708 U12
U 1 1 5CA9A986
P 10150 3250
F 0 "U12" H 10150 3365 50  0000 C CNN
F 1 "ADG708" H 10150 3274 50  0000 C CNN
F 2 "footprintLib:ADG708" H 10150 3250 50  0001 C CNN
F 3 "" H 10150 3250 50  0001 C CNN
	1    10150 3250
	1    0    0    -1  
$EndComp
Wire Wire Line
	9500 3500 9700 3500
Wire Wire Line
	9500 3400 9700 3400
Wire Wire Line
	9500 3600 9700 3600
Wire Wire Line
	9500 3700 9700 3700
Wire Wire Line
	9500 3900 9700 3900
Wire Wire Line
	9500 3800 9700 3800
Wire Wire Line
	9500 4000 9700 4000
Wire Wire Line
	9500 4100 9700 4100
Wire Wire Line
	10600 3500 10800 3500
Wire Wire Line
	10600 3400 10800 3400
Wire Wire Line
	10600 3600 10800 3600
Wire Wire Line
	10600 3700 10800 3700
Wire Wire Line
	10600 3900 10800 3900
Wire Wire Line
	10600 3800 10800 3800
Wire Wire Line
	10600 4000 10800 4000
Wire Wire Line
	10600 4100 10800 4100
$Comp
L power:GNDA #PWR045
U 1 1 5CA9A99C
P 10800 3600
F 0 "#PWR045" H 10800 3350 50  0001 C CNN
F 1 "GNDA" V 10805 3472 50  0000 R CNN
F 2 "" H 10800 3600 50  0000 C CNN
F 3 "" H 10800 3600 50  0000 C CNN
	1    10800 3600
	0    -1   -1   0   
$EndComp
$Comp
L power:GNDA #PWR040
U 1 1 5CA9A9A2
P 9500 3600
F 0 "#PWR040" H 9500 3350 50  0001 C CNN
F 1 "GNDA" V 9505 3473 50  0000 R CNN
F 2 "" H 9500 3600 50  0000 C CNN
F 3 "" H 9500 3600 50  0000 C CNN
	1    9500 3600
	0    1    1    0   
$EndComp
Text Label 10800 3700 0    50   ~ 0
+5V
$Comp
L AutoTestBoardLib:ADG708 U13
U 1 1 5CA9A9A9
P 10150 4400
F 0 "U13" H 10150 4515 50  0000 C CNN
F 1 "ADG708" H 10150 4424 50  0000 C CNN
F 2 "footprintLib:ADG708" H 10150 4400 50  0001 C CNN
F 3 "" H 10150 4400 50  0001 C CNN
	1    10150 4400
	1    0    0    -1  
$EndComp
Wire Wire Line
	9500 4650 9700 4650
Wire Wire Line
	9500 4550 9700 4550
Wire Wire Line
	9500 4750 9700 4750
Wire Wire Line
	9500 4850 9700 4850
Wire Wire Line
	9500 5050 9700 5050
Wire Wire Line
	9500 4950 9700 4950
Wire Wire Line
	9500 5150 9700 5150
Wire Wire Line
	9500 5250 9700 5250
Wire Wire Line
	10600 4650 10800 4650
Wire Wire Line
	10600 4550 10800 4550
Wire Wire Line
	10600 4750 10800 4750
Wire Wire Line
	10600 4850 10800 4850
Wire Wire Line
	10600 5050 10800 5050
Wire Wire Line
	10600 4950 10800 4950
Wire Wire Line
	10600 5150 10800 5150
Wire Wire Line
	10600 5250 10800 5250
$Comp
L power:GNDA #PWR046
U 1 1 5CA9A9BF
P 10800 4750
F 0 "#PWR046" H 10800 4500 50  0001 C CNN
F 1 "GNDA" V 10805 4622 50  0000 R CNN
F 2 "" H 10800 4750 50  0000 C CNN
F 3 "" H 10800 4750 50  0000 C CNN
	1    10800 4750
	0    -1   -1   0   
$EndComp
$Comp
L power:GNDA #PWR041
U 1 1 5CA9A9C5
P 9500 4750
F 0 "#PWR041" H 9500 4500 50  0001 C CNN
F 1 "GNDA" V 9505 4623 50  0000 R CNN
F 2 "" H 9500 4750 50  0000 C CNN
F 3 "" H 9500 4750 50  0000 C CNN
	1    9500 4750
	0    1    1    0   
$EndComp
Text Label 10800 4850 0    50   ~ 0
+5V
$Comp
L AutoTestBoardLib:ADG708 U14
U 1 1 5CB15F78
P 10150 5550
F 0 "U14" H 10150 5665 50  0000 C CNN
F 1 "ADG708" H 10150 5574 50  0000 C CNN
F 2 "footprintLib:ADG708" H 10150 5550 50  0001 C CNN
F 3 "" H 10150 5550 50  0001 C CNN
	1    10150 5550
	1    0    0    -1  
$EndComp
Wire Wire Line
	9500 5800 9700 5800
Wire Wire Line
	9500 5700 9700 5700
Wire Wire Line
	9500 5900 9700 5900
Wire Wire Line
	9500 6000 9700 6000
Wire Wire Line
	9500 6200 9700 6200
Wire Wire Line
	9500 6100 9700 6100
Wire Wire Line
	9500 6300 9700 6300
Wire Wire Line
	9500 6400 9700 6400
Wire Wire Line
	10600 5700 10800 5700
Wire Wire Line
	10600 6000 10800 6000
Wire Wire Line
	10600 6200 10800 6200
Wire Wire Line
	10600 6100 10800 6100
Wire Wire Line
	10600 6300 10800 6300
Wire Wire Line
	10600 6400 10800 6400
$Comp
L power:GNDA #PWR047
U 1 1 5CB15F8E
P 10800 5900
F 0 "#PWR047" H 10800 5650 50  0001 C CNN
F 1 "GNDA" V 10805 5772 50  0000 R CNN
F 2 "" H 10800 5900 50  0000 C CNN
F 3 "" H 10800 5900 50  0000 C CNN
	1    10800 5900
	0    -1   -1   0   
$EndComp
$Comp
L power:GNDA #PWR042
U 1 1 5CB15F94
P 9500 5900
F 0 "#PWR042" H 9500 5650 50  0001 C CNN
F 1 "GNDA" V 9505 5773 50  0000 R CNN
F 2 "" H 9500 5900 50  0000 C CNN
F 3 "" H 9500 5900 50  0000 C CNN
	1    9500 5900
	0    1    1    0   
$EndComp
Text Label 10800 6000 0    50   ~ 0
+5V
$Comp
L AutoTestBoardLib:TPS7A7001 U8
U 1 1 5CB6356B
P 5150 6950
F 0 "U8" H 5150 7387 60  0000 C CNN
F 1 "TPS7A7001" H 5150 7281 60  0000 C CNN
F 2 "footprintLib:TPS7A7001" H 5150 6750 60  0001 C CNN
F 3 "" H 5150 6750 60  0000 C CNN
	1    5150 6950
	1    0    0    -1  
$EndComp
$Comp
L AutoTestBoard_v1-rescue:CONN_01X04-conn P1
U 1 1 5CB63744
P 4000 6850
F 0 "P1" V 3872 7078 50  0000 L CNN
F 1 "CONN_01X04" V 4100 6650 50  0000 L CNN
F 2 "footprintLib:CONN_01X04" H 4000 6850 50  0001 C CNN
F 3 "" H 4000 6850 50  0000 C CNN
	1    4000 6850
	-1   0    0    1   
$EndComp
Wire Wire Line
	4200 6900 4300 6900
Wire Wire Line
	4300 6900 4300 6850
Wire Wire Line
	4300 6800 4200 6800
Wire Wire Line
	4650 6900 4600 6900
Wire Wire Line
	4600 6900 4600 7000
Wire Wire Line
	4600 7000 4650 7000
$Comp
L power:GNDA #PWR020
U 1 1 5CBB2925
P 4300 6850
F 0 "#PWR020" H 4300 6600 50  0001 C CNN
F 1 "GNDA" H 4305 6677 50  0000 C CNN
F 2 "" H 4300 6850 50  0000 C CNN
F 3 "" H 4300 6850 50  0000 C CNN
	1    4300 6850
	0    -1   -1   0   
$EndComp
Connection ~ 4300 6850
Wire Wire Line
	4300 6850 4300 6800
$Comp
L power:GNDA #PWR026
U 1 1 5CBB2A31
P 5650 6800
F 0 "#PWR026" H 5650 6550 50  0001 C CNN
F 1 "GNDA" V 5655 6672 50  0000 R CNN
F 2 "" H 5650 6800 50  0000 C CNN
F 3 "" H 5650 6800 50  0000 C CNN
	1    5650 6800
	0    -1   -1   0   
$EndComp
$Comp
L AutoTestBoard_v1-rescue:R_Small-device R20
U 1 1 5CBB2B2B
P 6200 7000
F 0 "R20" V 6004 7000 50  0000 C CNN
F 1 "274k" V 6095 7000 50  0000 C CNN
F 2 "Capacitors_SMD:C_0402" H 6200 7000 50  0001 C CNN
F 3 "" H 6200 7000 50  0000 C CNN
	1    6200 7000
	0    -1   1    0   
$EndComp
$Comp
L AutoTestBoard_v1-rescue:R_Small-device R25
U 1 1 5CBB2C64
P 6550 7000
F 0 "R25" V 6746 7000 50  0000 C CNN
F 1 "30.1k" V 6655 7000 50  0000 C CNN
F 2 "Capacitors_SMD:C_0402" H 6550 7000 50  0001 C CNN
F 3 "" H 6550 7000 50  0000 C CNN
	1    6550 7000
	0    1    -1   0   
$EndComp
$Comp
L power:GNDA #PWR029
U 1 1 5CBE9524
P 6650 7000
F 0 "#PWR029" H 6650 6750 50  0001 C CNN
F 1 "GNDA" V 6655 6872 50  0000 R CNN
F 2 "" H 6650 7000 50  0000 C CNN
F 3 "" H 6650 7000 50  0000 C CNN
	1    6650 7000
	0    -1   -1   0   
$EndComp
Wire Wire Line
	6450 7000 6400 7000
Wire Wire Line
	5650 6900 6400 6900
Wire Wire Line
	6400 6900 6400 7000
Connection ~ 6400 7000
Wire Wire Line
	6400 7000 6300 7000
Text Label 5800 7000 0    50   ~ 0
+5V
$Comp
L AutoTestBoard_v1-rescue:C_Small-device C35
U 1 1 5CC3CCAF
P 5100 7500
F 0 "C35" H 5192 7546 50  0000 L CNN
F 1 "10n" H 5192 7455 50  0000 L CNN
F 2 "Capacitors_SMD:C_0603" H 5100 7500 50  0001 C CNN
F 3 "" H 5100 7500 50  0000 C CNN
	1    5100 7500
	1    0    0    -1  
$EndComp
$Comp
L AutoTestBoard_v1-rescue:C_Small-device C36
U 1 1 5CC3CD63
P 5550 7500
F 0 "C36" H 5642 7546 50  0000 L CNN
F 1 "1u" H 5642 7455 50  0000 L CNN
F 2 "Capacitors_SMD:C_0603" H 5550 7500 50  0001 C CNN
F 3 "" H 5550 7500 50  0000 C CNN
	1    5550 7500
	1    0    0    -1  
$EndComp
$Comp
L AutoTestBoard_v1-rescue:C_Small-device C37
U 1 1 5CC3CE0A
P 6000 7500
F 0 "C37" H 6092 7546 50  0000 L CNN
F 1 "10u" H 6092 7455 50  0000 L CNN
F 2 "Capacitors_SMD:C_0603" H 6000 7500 50  0001 C CNN
F 3 "" H 6000 7500 50  0000 C CNN
	1    6000 7500
	1    0    0    -1  
$EndComp
$Comp
L AutoTestBoard_v1-rescue:C_Small-device C38
U 1 1 5CC3CEA4
P 6450 7500
F 0 "C38" H 6542 7546 50  0000 L CNN
F 1 "47u" H 6542 7455 50  0000 L CNN
F 2 "Capacitors_SMD:C_0805" H 6450 7500 50  0001 C CNN
F 3 "" H 6450 7500 50  0000 C CNN
	1    6450 7500
	1    0    0    -1  
$EndComp
Wire Wire Line
	5100 7600 5100 7650
Wire Wire Line
	5100 7650 5550 7650
Wire Wire Line
	6450 7650 6450 7600
Wire Wire Line
	6000 7600 6000 7650
Connection ~ 6000 7650
Wire Wire Line
	6000 7650 6450 7650
Wire Wire Line
	5550 7600 5550 7650
Wire Wire Line
	5100 7400 5100 7350
Wire Wire Line
	5100 7350 5550 7350
Wire Wire Line
	6450 7350 6450 7400
Wire Wire Line
	6000 7400 6000 7350
Wire Wire Line
	6000 7350 6450 7350
Wire Wire Line
	5550 7400 5550 7350
$Comp
L power:GNDA #PWR027
U 1 1 5CD09A96
P 5800 7650
F 0 "#PWR027" H 5800 7400 50  0001 C CNN
F 1 "GNDA" H 5950 7550 50  0000 C CNN
F 2 "" H 5800 7650 50  0000 C CNN
F 3 "" H 5800 7650 50  0000 C CNN
	1    5800 7650
	1    0    0    -1  
$EndComp
Wire Wire Line
	5800 7650 6000 7650
$Comp
L AutoTestBoard_v1-rescue:CONN_02X20-conn P3
U 1 1 5CD28F9A
P 8050 5250
F 0 "P3" H 8050 6415 50  0000 C CNN
F 1 "CONN_02X20" H 8050 6324 50  0000 C CNN
F 2 "footprintLib:FTS-120-02-L-G_ver" H 8050 4300 50  0001 C CNN
F 3 "" H 8050 4300 50  0000 C CNN
	1    8050 5250
	1    0    0    -1  
$EndComp
$Comp
L power:GNDA #PWR033
U 1 1 5CD290BE
P 8300 4300
F 0 "#PWR033" H 8300 4050 50  0001 C CNN
F 1 "GNDA" V 8305 4172 50  0000 R CNN
F 2 "" H 8300 4300 50  0000 C CNN
F 3 "" H 8300 4300 50  0000 C CNN
	1    8300 4300
	0    -1   -1   0   
$EndComp
$Comp
L power:GNDA #PWR034
U 1 1 5CD486EC
P 8300 6200
F 0 "#PWR034" H 8300 5950 50  0001 C CNN
F 1 "GNDA" V 8305 6072 50  0000 R CNN
F 2 "" H 8300 6200 50  0000 C CNN
F 3 "" H 8300 6200 50  0000 C CNN
	1    8300 6200
	0    -1   -1   0   
$EndComp
$Comp
L power:GNDA #PWR032
U 1 1 5CD487E6
P 7800 6200
F 0 "#PWR032" H 7800 5950 50  0001 C CNN
F 1 "GNDA" V 7805 6073 50  0000 R CNN
F 2 "" H 7800 6200 50  0000 C CNN
F 3 "" H 7800 6200 50  0000 C CNN
	1    7800 6200
	0    1    1    0   
$EndComp
$Comp
L power:GNDA #PWR031
U 1 1 5CD48898
P 7800 4300
F 0 "#PWR031" H 7800 4050 50  0001 C CNN
F 1 "GNDA" V 7805 4173 50  0000 R CNN
F 2 "" H 7800 4300 50  0000 C CNN
F 3 "" H 7800 4300 50  0000 C CNN
	1    7800 4300
	0    1    1    0   
$EndComp
NoConn ~ 8300 4400
NoConn ~ 8300 4500
NoConn ~ 8300 4600
NoConn ~ 8300 4700
NoConn ~ 8300 4800
NoConn ~ 8300 4900
NoConn ~ 8300 5000
NoConn ~ 8300 5100
NoConn ~ 8300 5200
NoConn ~ 8300 5300
NoConn ~ 8300 5400
NoConn ~ 8300 5500
NoConn ~ 8300 5600
NoConn ~ 8300 5700
NoConn ~ 8300 5800
NoConn ~ 8300 5900
NoConn ~ 8300 6000
NoConn ~ 8300 6100
Text Label 7400 4500 0    50   ~ 0
C1
Text Label 7400 4400 0    50   ~ 0
C0
Text Label 7400 4600 0    50   ~ 0
C2
Text Label 7400 4700 0    50   ~ 0
C3
Text Label 7400 4800 0    50   ~ 0
C4
Text Label 7400 4900 0    50   ~ 0
C5
Text Label 7400 5000 0    50   ~ 0
C6
Text Label 7400 5100 0    50   ~ 0
C7
Text Label 7400 5200 0    50   ~ 0
C8
Text Label 7400 5300 0    50   ~ 0
C9
Text Label 7400 5400 0    50   ~ 0
C10
Text Label 7400 5500 0    50   ~ 0
C11
Text Label 7400 5600 0    50   ~ 0
C12
Text Label 7400 5700 0    50   ~ 0
C13
Text Label 7400 5800 0    50   ~ 0
C14
Text Label 7400 5900 0    50   ~ 0
C15
Text Label 7400 6000 0    50   ~ 0
C16
Text Label 7400 6100 0    50   ~ 0
C17
$Comp
L AutoTestBoard_v1-rescue:C_Small-device C39
U 1 1 5D06372D
P 7050 4400
F 0 "C39" V 7000 4500 50  0000 C CNN
F 1 "33p" V 7000 4300 50  0000 C CNN
F 2 "Capacitors_SMD:C_0402" H 7050 4400 50  0001 C CNN
F 3 "" H 7050 4400 50  0000 C CNN
	1    7050 4400
	0    1    1    0   
$EndComp
$Comp
L AutoTestBoard_v1-rescue:C_Small-device C40
U 1 1 5D063A15
P 7050 4500
F 0 "C40" V 7000 4600 50  0000 C CNN
F 1 "33p" V 7000 4400 50  0000 C CNN
F 2 "Capacitors_SMD:C_0402" H 7050 4500 50  0001 C CNN
F 3 "" H 7050 4500 50  0000 C CNN
	1    7050 4500
	0    1    1    0   
$EndComp
$Comp
L AutoTestBoard_v1-rescue:C_Small-device C41
U 1 1 5D063AE7
P 7050 4600
F 0 "C41" V 7000 4700 50  0000 C CNN
F 1 "33p" V 7000 4500 50  0000 C CNN
F 2 "Capacitors_SMD:C_0402" H 7050 4600 50  0001 C CNN
F 3 "" H 7050 4600 50  0000 C CNN
	1    7050 4600
	0    1    1    0   
$EndComp
$Comp
L AutoTestBoard_v1-rescue:C_Small-device C42
U 1 1 5D063AED
P 7050 4700
F 0 "C42" V 7000 4800 50  0000 C CNN
F 1 "33p" V 7000 4600 50  0000 C CNN
F 2 "Capacitors_SMD:C_0402" H 7050 4700 50  0001 C CNN
F 3 "" H 7050 4700 50  0000 C CNN
	1    7050 4700
	0    1    1    0   
$EndComp
$Comp
L AutoTestBoard_v1-rescue:C_Small-device C43
U 1 1 5D087F55
P 7050 4800
F 0 "C43" V 7000 4900 50  0000 C CNN
F 1 "33p" V 7000 4700 50  0000 C CNN
F 2 "Capacitors_SMD:C_0402" H 7050 4800 50  0001 C CNN
F 3 "" H 7050 4800 50  0000 C CNN
	1    7050 4800
	0    1    1    0   
$EndComp
$Comp
L AutoTestBoard_v1-rescue:C_Small-device C44
U 1 1 5D087F5B
P 7050 4900
F 0 "C44" V 7000 5000 50  0000 C CNN
F 1 "33p" V 7000 4800 50  0000 C CNN
F 2 "Capacitors_SMD:C_0402" H 7050 4900 50  0001 C CNN
F 3 "" H 7050 4900 50  0000 C CNN
	1    7050 4900
	0    1    1    0   
$EndComp
$Comp
L AutoTestBoard_v1-rescue:C_Small-device C45
U 1 1 5D087F61
P 7050 5000
F 0 "C45" V 7000 5100 50  0000 C CNN
F 1 "33p" V 7000 4900 50  0000 C CNN
F 2 "Capacitors_SMD:C_0402" H 7050 5000 50  0001 C CNN
F 3 "" H 7050 5000 50  0000 C CNN
	1    7050 5000
	0    1    1    0   
$EndComp
$Comp
L AutoTestBoard_v1-rescue:C_Small-device C46
U 1 1 5D087F67
P 7050 5100
F 0 "C46" V 7000 5200 50  0000 C CNN
F 1 "33p" V 7000 5000 50  0000 C CNN
F 2 "Capacitors_SMD:C_0402" H 7050 5100 50  0001 C CNN
F 3 "" H 7050 5100 50  0000 C CNN
	1    7050 5100
	0    1    1    0   
$EndComp
$Comp
L AutoTestBoard_v1-rescue:C_Small-device C47
U 1 1 5D0AC74B
P 7050 5200
F 0 "C47" V 7000 5300 50  0000 C CNN
F 1 "33p" V 7000 5100 50  0000 C CNN
F 2 "Capacitors_SMD:C_0402" H 7050 5200 50  0001 C CNN
F 3 "" H 7050 5200 50  0000 C CNN
	1    7050 5200
	0    1    1    0   
$EndComp
$Comp
L AutoTestBoard_v1-rescue:C_Small-device C48
U 1 1 5D0AC751
P 7050 5300
F 0 "C48" V 7000 5400 50  0000 C CNN
F 1 "33p" V 7000 5200 50  0000 C CNN
F 2 "Capacitors_SMD:C_0402" H 7050 5300 50  0001 C CNN
F 3 "" H 7050 5300 50  0000 C CNN
	1    7050 5300
	0    1    1    0   
$EndComp
$Comp
L AutoTestBoard_v1-rescue:C_Small-device C49
U 1 1 5D0AC757
P 7050 5400
F 0 "C49" V 7000 5500 50  0000 C CNN
F 1 "33p" V 7000 5300 50  0000 C CNN
F 2 "Capacitors_SMD:C_0402" H 7050 5400 50  0001 C CNN
F 3 "" H 7050 5400 50  0000 C CNN
	1    7050 5400
	0    1    1    0   
$EndComp
$Comp
L AutoTestBoard_v1-rescue:C_Small-device C50
U 1 1 5D0AC75D
P 7050 5500
F 0 "C50" V 7000 5600 50  0000 C CNN
F 1 "33p" V 7000 5400 50  0000 C CNN
F 2 "Capacitors_SMD:C_0402" H 7050 5500 50  0001 C CNN
F 3 "" H 7050 5500 50  0000 C CNN
	1    7050 5500
	0    1    1    0   
$EndComp
$Comp
L AutoTestBoard_v1-rescue:C_Small-device C51
U 1 1 5D0AC763
P 7050 5600
F 0 "C51" V 7000 5700 50  0000 C CNN
F 1 "33p" V 7000 5500 50  0000 C CNN
F 2 "Capacitors_SMD:C_0402" H 7050 5600 50  0001 C CNN
F 3 "" H 7050 5600 50  0000 C CNN
	1    7050 5600
	0    1    1    0   
$EndComp
$Comp
L AutoTestBoard_v1-rescue:C_Small-device C52
U 1 1 5D0AC769
P 7050 5700
F 0 "C52" V 7000 5800 50  0000 C CNN
F 1 "33p" V 7000 5600 50  0000 C CNN
F 2 "Capacitors_SMD:C_0402" H 7050 5700 50  0001 C CNN
F 3 "" H 7050 5700 50  0000 C CNN
	1    7050 5700
	0    1    1    0   
$EndComp
$Comp
L AutoTestBoard_v1-rescue:C_Small-device C53
U 1 1 5D0AC76F
P 7050 5800
F 0 "C53" V 7000 5900 50  0000 C CNN
F 1 "33p" V 7000 5700 50  0000 C CNN
F 2 "Capacitors_SMD:C_0402" H 7050 5800 50  0001 C CNN
F 3 "" H 7050 5800 50  0000 C CNN
	1    7050 5800
	0    1    1    0   
$EndComp
$Comp
L AutoTestBoard_v1-rescue:C_Small-device C54
U 1 1 5D0AC775
P 7050 5900
F 0 "C54" V 7000 6000 50  0000 C CNN
F 1 "33p" V 7000 5800 50  0000 C CNN
F 2 "Capacitors_SMD:C_0402" H 7050 5900 50  0001 C CNN
F 3 "" H 7050 5900 50  0000 C CNN
	1    7050 5900
	0    1    1    0   
$EndComp
$Comp
L AutoTestBoard_v1-rescue:C_Small-device C55
U 1 1 5D0D0CDF
P 7050 6000
F 0 "C55" V 7000 6100 50  0000 C CNN
F 1 "33p" V 7000 5900 50  0000 C CNN
F 2 "Capacitors_SMD:C_0402" H 7050 6000 50  0001 C CNN
F 3 "" H 7050 6000 50  0000 C CNN
	1    7050 6000
	0    1    1    0   
$EndComp
$Comp
L AutoTestBoard_v1-rescue:C_Small-device C56
U 1 1 5D0D0CE5
P 7050 6100
F 0 "C56" V 7000 6200 50  0000 C CNN
F 1 "33p" V 7000 6000 50  0000 C CNN
F 2 "Capacitors_SMD:C_0402" H 7050 6100 50  0001 C CNN
F 3 "" H 7050 6100 50  0000 C CNN
	1    7050 6100
	0    1    1    0   
$EndComp
Wire Wire Line
	7150 4400 7800 4400
Wire Wire Line
	7150 4500 7800 4500
Wire Wire Line
	7150 4600 7800 4600
Wire Wire Line
	7150 4700 7800 4700
Wire Wire Line
	7150 4800 7800 4800
Wire Wire Line
	7150 4900 7800 4900
Wire Wire Line
	7150 5000 7800 5000
Wire Wire Line
	7150 5100 7800 5100
Wire Wire Line
	7150 5200 7800 5200
Wire Wire Line
	7150 5300 7800 5300
Wire Wire Line
	7150 5400 7800 5400
Wire Wire Line
	7150 5500 7800 5500
Wire Wire Line
	7150 5600 7800 5600
Wire Wire Line
	7150 5700 7800 5700
Wire Wire Line
	7150 5800 7800 5800
Wire Wire Line
	7150 5900 7800 5900
Wire Wire Line
	7150 6000 7800 6000
Wire Wire Line
	7150 6100 7800 6100
Wire Wire Line
	6650 4400 6950 4400
Wire Wire Line
	6650 4500 6950 4500
Wire Wire Line
	6650 4600 6950 4600
Wire Wire Line
	6650 4700 6950 4700
Wire Wire Line
	6650 4800 6950 4800
Wire Wire Line
	6650 4900 6950 4900
Wire Wire Line
	6650 5000 6950 5000
Wire Wire Line
	6650 5100 6950 5100
Wire Wire Line
	6650 5200 6950 5200
Wire Wire Line
	6650 5300 6950 5300
Wire Wire Line
	6650 5400 6950 5400
Wire Wire Line
	6650 5500 6950 5500
Wire Wire Line
	6650 5600 6950 5600
Wire Wire Line
	6650 5700 6950 5700
Wire Wire Line
	6650 5800 6950 5800
Wire Wire Line
	6650 5900 6950 5900
Wire Wire Line
	6650 6000 6950 6000
Wire Wire Line
	6650 6100 6950 6100
Text Label 6650 4400 0    50   ~ 0
CH0
Text Label 6650 4500 0    50   ~ 0
CH1
Text Label 6650 4600 0    50   ~ 0
CH2
Text Label 6650 4700 0    50   ~ 0
CH3
Text Label 6650 4800 0    50   ~ 0
CH4
Text Label 6650 4900 0    50   ~ 0
CH5
Text Label 6650 5000 0    50   ~ 0
CH6
Text Label 6650 5100 0    50   ~ 0
CH7
Text Label 6650 5200 0    50   ~ 0
CH8
Text Label 6650 5300 0    50   ~ 0
CH9
Text Label 6650 5400 0    50   ~ 0
CH10
Text Label 6650 5500 0    50   ~ 0
CH11
Text Label 6650 5600 0    50   ~ 0
CH12
Text Label 6650 5700 0    50   ~ 0
CH13
Text Label 6650 5800 0    50   ~ 0
CH14
Text Label 6650 5900 0    50   ~ 0
CH15
Text Label 6650 6000 0    50   ~ 0
CH16
Text Label 6650 6100 0    50   ~ 0
CH17
Wire Wire Line
	5650 7000 6100 7000
$Comp
L AutoTestBoard_v1-rescue:CONN_02X20-conn P2
U 1 1 5D537B47
P 5400 5250
F 0 "P2" H 5400 6415 50  0000 C CNN
F 1 "CONN_02X20" H 5400 6324 50  0000 C CNN
F 2 "footprintLib:FTS-120-02-L-G_ver" H 5400 4300 50  0001 C CNN
F 3 "" H 5400 4300 50  0000 C CNN
	1    5400 5250
	1    0    0    -1  
$EndComp
$Comp
L power:GNDA #PWR024
U 1 1 5D537B4D
P 5650 4300
F 0 "#PWR024" H 5650 4050 50  0001 C CNN
F 1 "GNDA" V 5655 4172 50  0000 R CNN
F 2 "" H 5650 4300 50  0000 C CNN
F 3 "" H 5650 4300 50  0000 C CNN
	1    5650 4300
	0    -1   -1   0   
$EndComp
$Comp
L power:GNDA #PWR025
U 1 1 5D537B53
P 5650 6200
F 0 "#PWR025" H 5650 5950 50  0001 C CNN
F 1 "GNDA" V 5655 6072 50  0000 R CNN
F 2 "" H 5650 6200 50  0000 C CNN
F 3 "" H 5650 6200 50  0000 C CNN
	1    5650 6200
	0    -1   -1   0   
$EndComp
$Comp
L power:GNDA #PWR023
U 1 1 5D537B59
P 5150 6200
F 0 "#PWR023" H 5150 5950 50  0001 C CNN
F 1 "GNDA" V 5155 6073 50  0000 R CNN
F 2 "" H 5150 6200 50  0000 C CNN
F 3 "" H 5150 6200 50  0000 C CNN
	1    5150 6200
	0    1    1    0   
$EndComp
$Comp
L power:GNDA #PWR022
U 1 1 5D537B5F
P 5150 4300
F 0 "#PWR022" H 5150 4050 50  0001 C CNN
F 1 "GNDA" V 5155 4173 50  0000 R CNN
F 2 "" H 5150 4300 50  0000 C CNN
F 3 "" H 5150 4300 50  0000 C CNN
	1    5150 4300
	0    1    1    0   
$EndComp
NoConn ~ 5650 4400
NoConn ~ 5650 4500
NoConn ~ 5650 4600
NoConn ~ 5650 4700
NoConn ~ 5650 4800
NoConn ~ 5650 4900
NoConn ~ 5650 5000
NoConn ~ 5650 5100
NoConn ~ 5650 5200
NoConn ~ 5650 5300
NoConn ~ 5650 5400
NoConn ~ 5650 5500
NoConn ~ 5650 5600
NoConn ~ 5650 5700
NoConn ~ 5650 5800
NoConn ~ 5650 5900
NoConn ~ 5650 6000
NoConn ~ 5650 6100
Text Label 4750 4500 0    50   ~ 0
C19
Text Label 4750 4400 0    50   ~ 0
C18
Text Label 4750 4600 0    50   ~ 0
C20
Text Label 4750 4700 0    50   ~ 0
C21
Text Label 4750 4800 0    50   ~ 0
C22
Text Label 4750 4900 0    50   ~ 0
C23
Text Label 4750 5000 0    50   ~ 0
C24
Text Label 4750 5100 0    50   ~ 0
C25
Text Label 4750 5200 0    50   ~ 0
C26
Text Label 4750 5300 0    50   ~ 0
C27
Text Label 4750 5400 0    50   ~ 0
C28
Text Label 4750 5500 0    50   ~ 0
C29
Text Label 4750 5600 0    50   ~ 0
C30
Text Label 4750 5700 0    50   ~ 0
C31
Text Label 4750 5800 0    50   ~ 0
C32
Text Label 4750 5900 0    50   ~ 0
C33
Text Label 4750 6000 0    50   ~ 0
C34
Text Label 4750 6100 0    50   ~ 0
C35
$Comp
L AutoTestBoard_v1-rescue:C_Small-device C16
U 1 1 5D537B89
P 4400 4400
F 0 "C16" V 4350 4500 50  0000 C CNN
F 1 "33p" V 4350 4300 50  0000 C CNN
F 2 "Capacitors_SMD:C_0402" H 4400 4400 50  0001 C CNN
F 3 "" H 4400 4400 50  0000 C CNN
	1    4400 4400
	0    1    1    0   
$EndComp
$Comp
L AutoTestBoard_v1-rescue:C_Small-device C17
U 1 1 5D537B8F
P 4400 4500
F 0 "C17" V 4350 4600 50  0000 C CNN
F 1 "33p" V 4350 4400 50  0000 C CNN
F 2 "Capacitors_SMD:C_0402" H 4400 4500 50  0001 C CNN
F 3 "" H 4400 4500 50  0000 C CNN
	1    4400 4500
	0    1    1    0   
$EndComp
$Comp
L AutoTestBoard_v1-rescue:C_Small-device C18
U 1 1 5D537B95
P 4400 4600
F 0 "C18" V 4350 4700 50  0000 C CNN
F 1 "33p" V 4350 4500 50  0000 C CNN
F 2 "Capacitors_SMD:C_0402" H 4400 4600 50  0001 C CNN
F 3 "" H 4400 4600 50  0000 C CNN
	1    4400 4600
	0    1    1    0   
$EndComp
$Comp
L AutoTestBoard_v1-rescue:C_Small-device C19
U 1 1 5D537B9B
P 4400 4700
F 0 "C19" V 4350 4800 50  0000 C CNN
F 1 "33p" V 4350 4600 50  0000 C CNN
F 2 "Capacitors_SMD:C_0402" H 4400 4700 50  0001 C CNN
F 3 "" H 4400 4700 50  0000 C CNN
	1    4400 4700
	0    1    1    0   
$EndComp
$Comp
L AutoTestBoard_v1-rescue:C_Small-device C20
U 1 1 5D537BA1
P 4400 4800
F 0 "C20" V 4350 4900 50  0000 C CNN
F 1 "33p" V 4350 4700 50  0000 C CNN
F 2 "Capacitors_SMD:C_0402" H 4400 4800 50  0001 C CNN
F 3 "" H 4400 4800 50  0000 C CNN
	1    4400 4800
	0    1    1    0   
$EndComp
$Comp
L AutoTestBoard_v1-rescue:C_Small-device C21
U 1 1 5D537BA7
P 4400 4900
F 0 "C21" V 4350 5000 50  0000 C CNN
F 1 "33p" V 4350 4800 50  0000 C CNN
F 2 "Capacitors_SMD:C_0402" H 4400 4900 50  0001 C CNN
F 3 "" H 4400 4900 50  0000 C CNN
	1    4400 4900
	0    1    1    0   
$EndComp
$Comp
L AutoTestBoard_v1-rescue:C_Small-device C22
U 1 1 5D537BAD
P 4400 5000
F 0 "C22" V 4350 5100 50  0000 C CNN
F 1 "33p" V 4350 4900 50  0000 C CNN
F 2 "Capacitors_SMD:C_0402" H 4400 5000 50  0001 C CNN
F 3 "" H 4400 5000 50  0000 C CNN
	1    4400 5000
	0    1    1    0   
$EndComp
$Comp
L AutoTestBoard_v1-rescue:C_Small-device C23
U 1 1 5D537BB3
P 4400 5100
F 0 "C23" V 4350 5200 50  0000 C CNN
F 1 "33p" V 4350 5000 50  0000 C CNN
F 2 "Capacitors_SMD:C_0402" H 4400 5100 50  0001 C CNN
F 3 "" H 4400 5100 50  0000 C CNN
	1    4400 5100
	0    1    1    0   
$EndComp
$Comp
L AutoTestBoard_v1-rescue:C_Small-device C24
U 1 1 5D537BB9
P 4400 5200
F 0 "C24" V 4350 5300 50  0000 C CNN
F 1 "33p" V 4350 5100 50  0000 C CNN
F 2 "Capacitors_SMD:C_0402" H 4400 5200 50  0001 C CNN
F 3 "" H 4400 5200 50  0000 C CNN
	1    4400 5200
	0    1    1    0   
$EndComp
$Comp
L AutoTestBoard_v1-rescue:C_Small-device C25
U 1 1 5D537BBF
P 4400 5300
F 0 "C25" V 4350 5400 50  0000 C CNN
F 1 "33p" V 4350 5200 50  0000 C CNN
F 2 "Capacitors_SMD:C_0402" H 4400 5300 50  0001 C CNN
F 3 "" H 4400 5300 50  0000 C CNN
	1    4400 5300
	0    1    1    0   
$EndComp
$Comp
L AutoTestBoard_v1-rescue:C_Small-device C26
U 1 1 5D537BC5
P 4400 5400
F 0 "C26" V 4350 5500 50  0000 C CNN
F 1 "33p" V 4350 5300 50  0000 C CNN
F 2 "Capacitors_SMD:C_0402" H 4400 5400 50  0001 C CNN
F 3 "" H 4400 5400 50  0000 C CNN
	1    4400 5400
	0    1    1    0   
$EndComp
$Comp
L AutoTestBoard_v1-rescue:C_Small-device C27
U 1 1 5D537BCB
P 4400 5500
F 0 "C27" V 4350 5600 50  0000 C CNN
F 1 "33p" V 4350 5400 50  0000 C CNN
F 2 "Capacitors_SMD:C_0402" H 4400 5500 50  0001 C CNN
F 3 "" H 4400 5500 50  0000 C CNN
	1    4400 5500
	0    1    1    0   
$EndComp
$Comp
L AutoTestBoard_v1-rescue:C_Small-device C28
U 1 1 5D537BD1
P 4400 5600
F 0 "C28" V 4350 5700 50  0000 C CNN
F 1 "33p" V 4350 5500 50  0000 C CNN
F 2 "Capacitors_SMD:C_0402" H 4400 5600 50  0001 C CNN
F 3 "" H 4400 5600 50  0000 C CNN
	1    4400 5600
	0    1    1    0   
$EndComp
$Comp
L AutoTestBoard_v1-rescue:C_Small-device C29
U 1 1 5D537BD7
P 4400 5700
F 0 "C29" V 4350 5800 50  0000 C CNN
F 1 "33p" V 4350 5600 50  0000 C CNN
F 2 "Capacitors_SMD:C_0402" H 4400 5700 50  0001 C CNN
F 3 "" H 4400 5700 50  0000 C CNN
	1    4400 5700
	0    1    1    0   
$EndComp
$Comp
L AutoTestBoard_v1-rescue:C_Small-device C30
U 1 1 5D537BDD
P 4400 5800
F 0 "C30" V 4350 5900 50  0000 C CNN
F 1 "33p" V 4350 5700 50  0000 C CNN
F 2 "Capacitors_SMD:C_0402" H 4400 5800 50  0001 C CNN
F 3 "" H 4400 5800 50  0000 C CNN
	1    4400 5800
	0    1    1    0   
$EndComp
$Comp
L AutoTestBoard_v1-rescue:C_Small-device C31
U 1 1 5D537BE3
P 4400 5900
F 0 "C31" V 4350 6000 50  0000 C CNN
F 1 "33p" V 4350 5800 50  0000 C CNN
F 2 "Capacitors_SMD:C_0402" H 4400 5900 50  0001 C CNN
F 3 "" H 4400 5900 50  0000 C CNN
	1    4400 5900
	0    1    1    0   
$EndComp
$Comp
L AutoTestBoard_v1-rescue:C_Small-device C32
U 1 1 5D537BE9
P 4400 6000
F 0 "C32" V 4350 6100 50  0000 C CNN
F 1 "33p" V 4350 5900 50  0000 C CNN
F 2 "Capacitors_SMD:C_0402" H 4400 6000 50  0001 C CNN
F 3 "" H 4400 6000 50  0000 C CNN
	1    4400 6000
	0    1    1    0   
$EndComp
$Comp
L AutoTestBoard_v1-rescue:C_Small-device C33
U 1 1 5D537BEF
P 4400 6100
F 0 "C33" V 4350 6200 50  0000 C CNN
F 1 "33p" V 4350 6000 50  0000 C CNN
F 2 "Capacitors_SMD:C_0402" H 4400 6100 50  0001 C CNN
F 3 "" H 4400 6100 50  0000 C CNN
	1    4400 6100
	0    1    1    0   
$EndComp
Wire Wire Line
	4500 4400 5150 4400
Wire Wire Line
	4500 4500 5150 4500
Wire Wire Line
	4500 4600 5150 4600
Wire Wire Line
	4500 4700 5150 4700
Wire Wire Line
	4500 4800 5150 4800
Wire Wire Line
	4500 4900 5150 4900
Wire Wire Line
	4500 5000 5150 5000
Wire Wire Line
	4500 5100 5150 5100
Wire Wire Line
	4500 5200 5150 5200
Wire Wire Line
	4500 5300 5150 5300
Wire Wire Line
	4500 5400 5150 5400
Wire Wire Line
	4500 5500 5150 5500
Wire Wire Line
	4500 5600 5150 5600
Wire Wire Line
	4500 5700 5150 5700
Wire Wire Line
	4500 5800 5150 5800
Wire Wire Line
	4500 5900 5150 5900
Wire Wire Line
	4500 6000 5150 6000
Wire Wire Line
	4500 6100 5150 6100
Text Label 9500 1400 0    50   ~ 0
C4
Text Label 9500 1500 0    50   ~ 0
C5
Text Label 9500 1600 0    50   ~ 0
C6
Text Label 9500 1700 0    50   ~ 0
C7
Text Label 10800 1800 0    50   ~ 0
C3
Text Label 10800 1700 0    50   ~ 0
C2
Text Label 10800 1600 0    50   ~ 0
C1
Text Label 10800 1500 0    50   ~ 0
C0
Text Label 9500 2550 0    50   ~ 0
C12
Text Label 9500 2650 0    50   ~ 0
C13
Text Label 9500 2750 0    50   ~ 0
C14
Text Label 9500 2850 0    50   ~ 0
C15
Text Label 9500 2950 0    50   ~ 0
InDC
Text Label 10800 2950 0    50   ~ 0
C11
Text Label 10800 2850 0    50   ~ 0
C10
Text Label 10800 2750 0    50   ~ 0
C9
Text Label 10800 2650 0    50   ~ 0
C8
Text Label 9500 3700 0    50   ~ 0
C19
Text Label 9500 3800 0    50   ~ 0
C18
Text Label 9500 3900 0    50   ~ 0
C16
Text Label 9500 4000 0    50   ~ 0
C17
Text Label 9500 4100 0    50   ~ 0
InDC
Text Label 10800 4100 0    50   ~ 0
C23
Text Label 10800 4000 0    50   ~ 0
C22
Text Label 10800 3900 0    50   ~ 0
C21
Text Label 10800 3800 0    50   ~ 0
C20
Text Label 9500 4850 0    50   ~ 0
C27
Text Label 9500 4950 0    50   ~ 0
C26
Text Label 9500 5050 0    50   ~ 0
C25
Text Label 9500 5150 0    50   ~ 0
C24
Text Label 10800 5250 0    50   ~ 0
C31
Text Label 10800 5150 0    50   ~ 0
C30
Text Label 10800 5050 0    50   ~ 0
C29
Text Label 10800 4950 0    50   ~ 0
C28
Text Label 9500 5250 0    50   ~ 0
InDC
Text Label 9500 6000 0    50   ~ 0
C35
Text Label 9500 6100 0    50   ~ 0
C34
Text Label 9500 6200 0    50   ~ 0
C33
Text Label 9500 6300 0    50   ~ 0
C32
Text Label 9500 6400 0    50   ~ 0
InDC
NoConn ~ 10800 6100
NoConn ~ 10800 6200
NoConn ~ 10800 6300
NoConn ~ 10800 6400
Text Label 9500 5800 0    50   ~ 0
EN4
Text Label 9500 4650 0    50   ~ 0
EN3
Text Label 9500 3500 0    50   ~ 0
EN2
Text Label 9500 2350 0    50   ~ 0
EN1
Text Label 9500 1800 0    50   ~ 0
InDC
Text Label 9500 1200 0    50   ~ 0
EN0
Text Label 9500 1100 0    50   ~ 0
A0
Text Label 10800 1100 0    50   ~ 0
A1
Text Label 10800 1200 0    50   ~ 0
A2
Text Label 9500 2250 0    50   ~ 0
A0
Text Label 10800 2250 0    50   ~ 0
A1
Text Label 10800 2350 0    50   ~ 0
A2
Text Label 9500 3400 0    50   ~ 0
A0
Text Label 10800 3400 0    50   ~ 0
A1
Text Label 10800 3500 0    50   ~ 0
A2
Text Label 9500 4550 0    50   ~ 0
A0
Text Label 10800 4550 0    50   ~ 0
A1
Text Label 10800 4650 0    50   ~ 0
A2
Text Label 9500 5700 0    50   ~ 0
A0
Text Label 10800 5700 0    50   ~ 0
A1
Text Label 6400 1400 0    50   ~ 0
EN3
Text Label 6400 1500 0    50   ~ 0
EN4
Text Label 6400 2200 0    50   ~ 0
EN1
Text Label 6400 2300 0    50   ~ 0
EN0
Text Label 6400 2500 0    50   ~ 0
ENCH8
Text Label 6400 2600 0    50   ~ 0
ENCH7
Text Label 8100 2600 0    50   ~ 0
A11
Text Label 8100 2500 0    50   ~ 0
A21
Text Label 8100 2300 0    50   ~ 0
A22
Text Label 8100 2200 0    50   ~ 0
A30
Text Label 8100 1500 0    50   ~ 0
A31
Text Label 8100 1400 0    50   ~ 0
A32
Text Label 8100 1200 0    50   ~ 0
A2
Text Label 8100 1100 0    50   ~ 0
A1
$Comp
L AutoTestBoard_v1-rescue:R_Small-device R1
U 1 1 5D6BB8BE
P 4050 3400
F 0 "R1" H 4109 3446 50  0000 L CNN
F 1 "4.7k" H 4109 3355 50  0000 L CNN
F 2 "Capacitors_SMD:C_0402" H 4050 3400 50  0001 C CNN
F 3 "" H 4050 3400 50  0000 C CNN
	1    4050 3400
	1    0    0    -1  
$EndComp
$Comp
L AutoTestBoard_v1-rescue:R_Small-device R3
U 1 1 5D6BBD68
P 4300 3400
F 0 "R3" H 4359 3446 50  0000 L CNN
F 1 "4.7k" H 4359 3355 50  0000 L CNN
F 2 "Capacitors_SMD:C_0402" H 4300 3400 50  0001 C CNN
F 3 "" H 4300 3400 50  0000 C CNN
	1    4300 3400
	1    0    0    -1  
$EndComp
$Comp
L AutoTestBoard_v1-rescue:R_Small-device R5
U 1 1 5D6F3214
P 4550 3400
F 0 "R5" H 4609 3446 50  0000 L CNN
F 1 "4.7k" H 4609 3355 50  0000 L CNN
F 2 "Capacitors_SMD:C_0402" H 4550 3400 50  0001 C CNN
F 3 "" H 4550 3400 50  0000 C CNN
	1    4550 3400
	1    0    0    -1  
$EndComp
$Comp
L AutoTestBoard_v1-rescue:R_Small-device R7
U 1 1 5D6F321A
P 4800 3400
F 0 "R7" H 4859 3446 50  0000 L CNN
F 1 "4.7k" H 4859 3355 50  0000 L CNN
F 2 "Capacitors_SMD:C_0402" H 4800 3400 50  0001 C CNN
F 3 "" H 4800 3400 50  0000 C CNN
	1    4800 3400
	1    0    0    -1  
$EndComp
$Comp
L AutoTestBoard_v1-rescue:R_Small-device R9
U 1 1 5D729FA1
P 5050 3400
F 0 "R9" H 5109 3446 50  0000 L CNN
F 1 "4.7k" H 5109 3355 50  0000 L CNN
F 2 "Capacitors_SMD:C_0402" H 5050 3400 50  0001 C CNN
F 3 "" H 5050 3400 50  0000 C CNN
	1    5050 3400
	1    0    0    -1  
$EndComp
$Comp
L AutoTestBoard_v1-rescue:R_Small-device R11
U 1 1 5D729FA7
P 5300 3400
F 0 "R11" H 5359 3446 50  0000 L CNN
F 1 "4.7k" H 5359 3355 50  0000 L CNN
F 2 "Capacitors_SMD:C_0402" H 5300 3400 50  0001 C CNN
F 3 "" H 5300 3400 50  0000 C CNN
	1    5300 3400
	1    0    0    -1  
$EndComp
$Comp
L AutoTestBoard_v1-rescue:R_Small-device R13
U 1 1 5D729FAD
P 5550 3400
F 0 "R13" H 5609 3446 50  0000 L CNN
F 1 "4.7k" H 5609 3355 50  0000 L CNN
F 2 "Capacitors_SMD:C_0402" H 5550 3400 50  0001 C CNN
F 3 "" H 5550 3400 50  0000 C CNN
	1    5550 3400
	1    0    0    -1  
$EndComp
$Comp
L AutoTestBoard_v1-rescue:R_Small-device R15
U 1 1 5D729FB3
P 5800 3400
F 0 "R15" H 5859 3446 50  0000 L CNN
F 1 "4.7k" H 5859 3355 50  0000 L CNN
F 2 "Capacitors_SMD:C_0402" H 5800 3400 50  0001 C CNN
F 3 "" H 5800 3400 50  0000 C CNN
	1    5800 3400
	1    0    0    -1  
$EndComp
$Comp
L AutoTestBoard_v1-rescue:R_Small-device R18
U 1 1 5D760E5C
P 6050 3400
F 0 "R18" H 6109 3446 50  0000 L CNN
F 1 "4.7k" H 6109 3355 50  0000 L CNN
F 2 "Capacitors_SMD:C_0402" H 6050 3400 50  0001 C CNN
F 3 "" H 6050 3400 50  0000 C CNN
	1    6050 3400
	1    0    0    -1  
$EndComp
$Comp
L AutoTestBoard_v1-rescue:R_Small-device R21
U 1 1 5D760E62
P 6300 3400
F 0 "R21" H 6359 3446 50  0000 L CNN
F 1 "4.7k" H 6359 3355 50  0000 L CNN
F 2 "Capacitors_SMD:C_0402" H 6300 3400 50  0001 C CNN
F 3 "" H 6300 3400 50  0000 C CNN
	1    6300 3400
	1    0    0    -1  
$EndComp
$Comp
L AutoTestBoard_v1-rescue:R_Small-device R23
U 1 1 5D760E68
P 6550 3400
F 0 "R23" H 6609 3446 50  0000 L CNN
F 1 "4.7k" H 6609 3355 50  0000 L CNN
F 2 "Capacitors_SMD:C_0402" H 6550 3400 50  0001 C CNN
F 3 "" H 6550 3400 50  0000 C CNN
	1    6550 3400
	1    0    0    -1  
$EndComp
$Comp
L AutoTestBoard_v1-rescue:R_Small-device R26
U 1 1 5D760E6E
P 6800 3400
F 0 "R26" H 6859 3446 50  0000 L CNN
F 1 "4.7k" H 6859 3355 50  0000 L CNN
F 2 "Capacitors_SMD:C_0402" H 6800 3400 50  0001 C CNN
F 3 "" H 6800 3400 50  0000 C CNN
	1    6800 3400
	1    0    0    -1  
$EndComp
$Comp
L AutoTestBoard_v1-rescue:R_Small-device R28
U 1 1 5D760E74
P 7050 3400
F 0 "R28" H 7109 3446 50  0000 L CNN
F 1 "4.7k" H 7109 3355 50  0000 L CNN
F 2 "Capacitors_SMD:C_0402" H 7050 3400 50  0001 C CNN
F 3 "" H 7050 3400 50  0000 C CNN
	1    7050 3400
	1    0    0    -1  
$EndComp
$Comp
L AutoTestBoard_v1-rescue:R_Small-device R30
U 1 1 5D760E7A
P 7300 3400
F 0 "R30" H 7359 3446 50  0000 L CNN
F 1 "4.7k" H 7359 3355 50  0000 L CNN
F 2 "Capacitors_SMD:C_0402" H 7300 3400 50  0001 C CNN
F 3 "" H 7300 3400 50  0000 C CNN
	1    7300 3400
	1    0    0    -1  
$EndComp
$Comp
L AutoTestBoard_v1-rescue:R_Small-device R32
U 1 1 5D760E80
P 7550 3400
F 0 "R32" H 7609 3446 50  0000 L CNN
F 1 "4.7k" H 7609 3355 50  0000 L CNN
F 2 "Capacitors_SMD:C_0402" H 7550 3400 50  0001 C CNN
F 3 "" H 7550 3400 50  0000 C CNN
	1    7550 3400
	1    0    0    -1  
$EndComp
$Comp
L AutoTestBoard_v1-rescue:R_Small-device R34
U 1 1 5D760E86
P 7800 3400
F 0 "R34" H 7859 3446 50  0000 L CNN
F 1 "4.7k" H 7859 3355 50  0000 L CNN
F 2 "Capacitors_SMD:C_0402" H 7800 3400 50  0001 C CNN
F 3 "" H 7800 3400 50  0000 C CNN
	1    7800 3400
	1    0    0    -1  
$EndComp
$Comp
L AutoTestBoard_v1-rescue:R_Small-device R2
U 1 1 5D798585
P 4050 3700
F 0 "R2" H 4109 3746 50  0000 L CNN
F 1 "4.7k" H 4109 3655 50  0000 L CNN
F 2 "Capacitors_SMD:C_0402" H 4050 3700 50  0001 C CNN
F 3 "" H 4050 3700 50  0000 C CNN
	1    4050 3700
	1    0    0    -1  
$EndComp
$Comp
L AutoTestBoard_v1-rescue:R_Small-device R4
U 1 1 5D79858B
P 4300 3700
F 0 "R4" H 4359 3746 50  0000 L CNN
F 1 "4.7k" H 4359 3655 50  0000 L CNN
F 2 "Capacitors_SMD:C_0402" H 4300 3700 50  0001 C CNN
F 3 "" H 4300 3700 50  0000 C CNN
	1    4300 3700
	1    0    0    -1  
$EndComp
$Comp
L AutoTestBoard_v1-rescue:R_Small-device R6
U 1 1 5D798591
P 4550 3700
F 0 "R6" H 4609 3746 50  0000 L CNN
F 1 "4.7k" H 4609 3655 50  0000 L CNN
F 2 "Capacitors_SMD:C_0402" H 4550 3700 50  0001 C CNN
F 3 "" H 4550 3700 50  0000 C CNN
	1    4550 3700
	1    0    0    -1  
$EndComp
$Comp
L AutoTestBoard_v1-rescue:R_Small-device R8
U 1 1 5D798597
P 4800 3700
F 0 "R8" H 4859 3746 50  0000 L CNN
F 1 "4.7k" H 4859 3655 50  0000 L CNN
F 2 "Capacitors_SMD:C_0402" H 4800 3700 50  0001 C CNN
F 3 "" H 4800 3700 50  0000 C CNN
	1    4800 3700
	1    0    0    -1  
$EndComp
$Comp
L AutoTestBoard_v1-rescue:R_Small-device R10
U 1 1 5D79859D
P 5050 3700
F 0 "R10" H 5109 3746 50  0000 L CNN
F 1 "4.7k" H 5109 3655 50  0000 L CNN
F 2 "Capacitors_SMD:C_0402" H 5050 3700 50  0001 C CNN
F 3 "" H 5050 3700 50  0000 C CNN
	1    5050 3700
	1    0    0    -1  
$EndComp
$Comp
L AutoTestBoard_v1-rescue:R_Small-device R12
U 1 1 5D7985A3
P 5300 3700
F 0 "R12" H 5359 3746 50  0000 L CNN
F 1 "4.7k" H 5359 3655 50  0000 L CNN
F 2 "Capacitors_SMD:C_0402" H 5300 3700 50  0001 C CNN
F 3 "" H 5300 3700 50  0000 C CNN
	1    5300 3700
	1    0    0    -1  
$EndComp
$Comp
L AutoTestBoard_v1-rescue:R_Small-device R14
U 1 1 5D7985A9
P 5550 3700
F 0 "R14" H 5609 3746 50  0000 L CNN
F 1 "4.7k" H 5609 3655 50  0000 L CNN
F 2 "Capacitors_SMD:C_0402" H 5550 3700 50  0001 C CNN
F 3 "" H 5550 3700 50  0000 C CNN
	1    5550 3700
	1    0    0    -1  
$EndComp
$Comp
L AutoTestBoard_v1-rescue:R_Small-device R16
U 1 1 5D7985AF
P 5800 3700
F 0 "R16" H 5859 3746 50  0000 L CNN
F 1 "4.7k" H 5859 3655 50  0000 L CNN
F 2 "Capacitors_SMD:C_0402" H 5800 3700 50  0001 C CNN
F 3 "" H 5800 3700 50  0000 C CNN
	1    5800 3700
	1    0    0    -1  
$EndComp
$Comp
L AutoTestBoard_v1-rescue:R_Small-device R19
U 1 1 5D7985B5
P 6050 3700
F 0 "R19" H 6109 3746 50  0000 L CNN
F 1 "4.7k" H 6109 3655 50  0000 L CNN
F 2 "Capacitors_SMD:C_0402" H 6050 3700 50  0001 C CNN
F 3 "" H 6050 3700 50  0000 C CNN
	1    6050 3700
	1    0    0    -1  
$EndComp
$Comp
L AutoTestBoard_v1-rescue:R_Small-device R22
U 1 1 5D7985BB
P 6300 3700
F 0 "R22" H 6359 3746 50  0000 L CNN
F 1 "4.7k" H 6359 3655 50  0000 L CNN
F 2 "Capacitors_SMD:C_0402" H 6300 3700 50  0001 C CNN
F 3 "" H 6300 3700 50  0000 C CNN
	1    6300 3700
	1    0    0    -1  
$EndComp
$Comp
L AutoTestBoard_v1-rescue:R_Small-device R24
U 1 1 5D7985C1
P 6550 3700
F 0 "R24" H 6609 3746 50  0000 L CNN
F 1 "4.7k" H 6609 3655 50  0000 L CNN
F 2 "Capacitors_SMD:C_0402" H 6550 3700 50  0001 C CNN
F 3 "" H 6550 3700 50  0000 C CNN
	1    6550 3700
	1    0    0    -1  
$EndComp
$Comp
L AutoTestBoard_v1-rescue:R_Small-device R27
U 1 1 5D7985C7
P 6800 3700
F 0 "R27" H 6859 3746 50  0000 L CNN
F 1 "4.7k" H 6859 3655 50  0000 L CNN
F 2 "Capacitors_SMD:C_0402" H 6800 3700 50  0001 C CNN
F 3 "" H 6800 3700 50  0000 C CNN
	1    6800 3700
	1    0    0    -1  
$EndComp
$Comp
L AutoTestBoard_v1-rescue:R_Small-device R29
U 1 1 5D7985CD
P 7050 3700
F 0 "R29" H 7109 3746 50  0000 L CNN
F 1 "4.7k" H 7109 3655 50  0000 L CNN
F 2 "Capacitors_SMD:C_0402" H 7050 3700 50  0001 C CNN
F 3 "" H 7050 3700 50  0000 C CNN
	1    7050 3700
	1    0    0    -1  
$EndComp
$Comp
L AutoTestBoard_v1-rescue:R_Small-device R31
U 1 1 5D7985D3
P 7300 3700
F 0 "R31" H 7359 3746 50  0000 L CNN
F 1 "4.7k" H 7359 3655 50  0000 L CNN
F 2 "Capacitors_SMD:C_0402" H 7300 3700 50  0001 C CNN
F 3 "" H 7300 3700 50  0000 C CNN
	1    7300 3700
	1    0    0    -1  
$EndComp
$Comp
L AutoTestBoard_v1-rescue:R_Small-device R33
U 1 1 5D7985D9
P 7550 3700
F 0 "R33" H 7609 3746 50  0000 L CNN
F 1 "4.7k" H 7609 3655 50  0000 L CNN
F 2 "Capacitors_SMD:C_0402" H 7550 3700 50  0001 C CNN
F 3 "" H 7550 3700 50  0000 C CNN
	1    7550 3700
	1    0    0    -1  
$EndComp
$Comp
L AutoTestBoard_v1-rescue:R_Small-device R35
U 1 1 5D7985DF
P 7800 3700
F 0 "R35" H 7859 3746 50  0000 L CNN
F 1 "4.7k" H 7859 3655 50  0000 L CNN
F 2 "Capacitors_SMD:C_0402" H 7800 3700 50  0001 C CNN
F 3 "" H 7800 3700 50  0000 C CNN
	1    7800 3700
	1    0    0    -1  
$EndComp
Wire Wire Line
	4050 3500 4050 3550
Wire Wire Line
	4050 3550 4300 3550
Wire Wire Line
	7800 3550 7800 3600
Connection ~ 4050 3550
Wire Wire Line
	4050 3550 4050 3600
Wire Wire Line
	7800 3500 7800 3550
Connection ~ 7800 3550
Wire Wire Line
	7550 3500 7550 3550
Connection ~ 7550 3550
Wire Wire Line
	7550 3550 7800 3550
Wire Wire Line
	7550 3550 7550 3600
Wire Wire Line
	7300 3500 7300 3550
Connection ~ 7300 3550
Wire Wire Line
	7300 3550 7550 3550
Wire Wire Line
	7300 3550 7300 3600
Wire Wire Line
	7050 3500 7050 3550
Connection ~ 7050 3550
Wire Wire Line
	7050 3550 7300 3550
Wire Wire Line
	7050 3600 7050 3550
Wire Wire Line
	6800 3500 6800 3550
Connection ~ 6800 3550
Wire Wire Line
	6800 3550 7050 3550
Wire Wire Line
	6800 3600 6800 3550
Wire Wire Line
	6550 3600 6550 3550
Connection ~ 6550 3550
Wire Wire Line
	6550 3550 6800 3550
Wire Wire Line
	6550 3500 6550 3550
Wire Wire Line
	6300 3500 6300 3550
Connection ~ 6300 3550
Wire Wire Line
	6300 3550 6550 3550
Wire Wire Line
	6300 3600 6300 3550
Wire Wire Line
	6050 3600 6050 3550
Connection ~ 6050 3550
Wire Wire Line
	6050 3550 6300 3550
Wire Wire Line
	6050 3500 6050 3550
Wire Wire Line
	5800 3500 5800 3550
Connection ~ 5800 3550
Wire Wire Line
	5800 3550 6050 3550
Wire Wire Line
	5800 3600 5800 3550
Wire Wire Line
	5550 3500 5550 3550
Connection ~ 5550 3550
Wire Wire Line
	5550 3550 5800 3550
Wire Wire Line
	5550 3600 5550 3550
Wire Wire Line
	5300 3600 5300 3550
Connection ~ 5300 3550
Wire Wire Line
	5300 3550 5550 3550
Wire Wire Line
	5300 3500 5300 3550
Wire Wire Line
	5050 3500 5050 3550
Connection ~ 5050 3550
Wire Wire Line
	5050 3550 5300 3550
Wire Wire Line
	5050 3600 5050 3550
Wire Wire Line
	4800 3600 4800 3550
Connection ~ 4800 3550
Wire Wire Line
	4800 3550 5050 3550
Wire Wire Line
	4800 3500 4800 3550
Wire Wire Line
	4550 3500 4550 3550
Connection ~ 4550 3550
Wire Wire Line
	4550 3550 4800 3550
Wire Wire Line
	4550 3550 4550 3600
Wire Wire Line
	4300 3500 4300 3550
Connection ~ 4300 3550
Wire Wire Line
	4300 3550 4550 3550
Wire Wire Line
	4300 3550 4300 3600
Wire Wire Line
	4050 3200 4050 3300
Wire Wire Line
	4300 3200 4300 3300
Wire Wire Line
	4550 3200 4550 3300
Wire Wire Line
	4800 3200 4800 3300
Wire Wire Line
	5050 3200 5050 3300
Wire Wire Line
	5300 3200 5300 3300
Wire Wire Line
	5550 3200 5550 3300
Wire Wire Line
	5800 3200 5800 3300
Wire Wire Line
	6050 3200 6050 3300
Wire Wire Line
	6300 3200 6300 3300
Wire Wire Line
	6550 3200 6550 3300
Wire Wire Line
	6800 3200 6800 3300
Wire Wire Line
	7050 3200 7050 3300
Wire Wire Line
	7300 3200 7300 3300
Wire Wire Line
	7550 3200 7550 3300
Wire Wire Line
	7800 3200 7800 3300
Wire Wire Line
	4050 3800 4050 3900
Wire Wire Line
	4300 3800 4300 3900
Wire Wire Line
	4550 3800 4550 3900
Wire Wire Line
	4800 3800 4800 3900
Wire Wire Line
	5050 3800 5050 3900
Wire Wire Line
	5300 3800 5300 3900
Wire Wire Line
	5550 3800 5550 3900
Wire Wire Line
	5800 3800 5800 3900
Wire Wire Line
	6050 3800 6050 3900
Wire Wire Line
	6300 3800 6300 3900
Wire Wire Line
	6550 3800 6550 3900
Wire Wire Line
	6800 3800 6800 3900
Wire Wire Line
	7050 3800 7050 3900
Wire Wire Line
	7300 3800 7300 3900
Wire Wire Line
	7550 3800 7550 3900
Wire Wire Line
	7800 3800 7800 3900
Text Label 4050 3200 1    50   ~ 0
ENCH2
Text Label 4300 3200 0    50   ~ 0
ENCH1
Text Label 4550 3200 0    50   ~ 0
ENCH0
Text Label 4800 3200 0    50   ~ 0
ENCH5
Text Label 5050 3200 0    50   ~ 0
ENCH4
Text Label 5300 3200 0    50   ~ 0
ENCH3
Text Label 5550 3200 0    50   ~ 0
ENCH16
Text Label 5800 3200 0    50   ~ 0
ENCH15
Text Label 6050 3200 0    50   ~ 0
ENCH17
Text Label 6300 3200 0    50   ~ 0
ENCH12
Text Label 6550 3200 0    50   ~ 0
ENCH13
Text Label 6800 3200 0    50   ~ 0
ENCH14
Text Label 7050 3200 0    50   ~ 0
ENCH9
Text Label 7300 3200 0    50   ~ 0
ENCH10
Text Label 7550 3200 0    50   ~ 0
ENCH11
Text Label 7800 3200 0    50   ~ 0
ENCH6
Text Label 4150 3550 0    50   ~ 0
+5V
Text Label 4050 3900 0    50   ~ 0
A0
Text Label 4300 3900 0    50   ~ 0
EN2
Text Label 4550 3900 0    50   ~ 0
EN3
Text Label 4800 3900 0    50   ~ 0
EN4
Text Label 5050 3900 0    50   ~ 0
EN1
Text Label 5300 3900 0    50   ~ 0
EN0
Text Label 5550 3900 0    50   ~ 0
ENCH8
Text Label 5800 3900 0    50   ~ 0
ENCH7
Text Label 6050 3900 0    50   ~ 0
A11
Text Label 6300 3900 0    50   ~ 0
A21
Text Label 6550 3900 0    50   ~ 0
A22
Text Label 6800 3900 0    50   ~ 0
A30
Text Label 7050 3900 0    50   ~ 0
A31
Text Label 7300 3900 0    50   ~ 0
A32
Text Label 7550 3900 0    50   ~ 0
A2
Text Label 7800 3900 0    50   ~ 0
A1
Wire Wire Line
	4200 7000 4600 7000
Connection ~ 4600 7000
Connection ~ 5550 7650
Wire Wire Line
	5550 7650 5800 7650
Connection ~ 5550 7350
Wire Wire Line
	5550 7350 6000 7350
Connection ~ 5800 7650
Connection ~ 6000 7350
$Comp
L AutoTestBoard_v1-rescue:C_Small-device C15
U 1 1 5E2A9395
P 4350 7500
F 0 "C15" H 4442 7546 50  0000 L CNN
F 1 "100n" H 4442 7455 50  0000 L CNN
F 2 "Capacitors_SMD:C_0603" H 4350 7500 50  0001 C CNN
F 3 "" H 4350 7500 50  0000 C CNN
	1    4350 7500
	1    0    0    -1  
$EndComp
$Comp
L AutoTestBoard_v1-rescue:C_Small-device C34
U 1 1 5E2A9725
P 4700 7500
F 0 "C34" H 4792 7546 50  0000 L CNN
F 1 "1u" H 4792 7455 50  0000 L CNN
F 2 "Capacitors_SMD:C_0603" H 4700 7500 50  0001 C CNN
F 3 "" H 4700 7500 50  0000 C CNN
	1    4700 7500
	1    0    0    -1  
$EndComp
$Comp
L AutoTestBoard_v1-rescue:C_Small-device C13
U 1 1 5E2EB589
P 3600 7500
F 0 "C13" H 3692 7546 50  0000 L CNN
F 1 "100n" H 3692 7455 50  0000 L CNN
F 2 "Capacitors_SMD:C_0603" H 3600 7500 50  0001 C CNN
F 3 "" H 3600 7500 50  0000 C CNN
	1    3600 7500
	1    0    0    -1  
$EndComp
$Comp
L AutoTestBoard_v1-rescue:C_Small-device C14
U 1 1 5E2EB58F
P 3950 7500
F 0 "C14" H 4042 7546 50  0000 L CNN
F 1 "1u" H 4042 7455 50  0000 L CNN
F 2 "Capacitors_SMD:C_0603" H 3950 7500 50  0001 C CNN
F 3 "" H 3950 7500 50  0000 C CNN
	1    3950 7500
	1    0    0    -1  
$EndComp
Wire Wire Line
	3600 7600 3600 7650
Wire Wire Line
	3600 7650 3950 7650
Wire Wire Line
	4700 7650 4700 7600
Wire Wire Line
	4350 7600 4350 7650
Connection ~ 4350 7650
Wire Wire Line
	4350 7650 4700 7650
Wire Wire Line
	3950 7600 3950 7650
Connection ~ 3950 7650
Wire Wire Line
	3950 7650 4150 7650
Wire Wire Line
	3600 7400 3600 7350
Wire Wire Line
	3600 7350 3950 7350
Wire Wire Line
	4700 7350 4700 7400
Wire Wire Line
	4350 7400 4350 7350
Connection ~ 4350 7350
Wire Wire Line
	4350 7350 4700 7350
Wire Wire Line
	3950 7400 3950 7350
Connection ~ 3950 7350
Wire Wire Line
	3950 7350 4350 7350
$Comp
L power:GNDA #PWR019
U 1 1 5E4C2E2F
P 4150 7650
F 0 "#PWR019" H 4150 7400 50  0001 C CNN
F 1 "GNDA" H 4300 7550 50  0000 C CNN
F 2 "" H 4150 7650 50  0000 C CNN
F 3 "" H 4150 7650 50  0000 C CNN
	1    4150 7650
	1    0    0    -1  
$EndComp
Connection ~ 4150 7650
Wire Wire Line
	4150 7650 4350 7650
Text Label 4150 7350 0    50   ~ 0
+5V
Text Label 5750 7350 0    50   ~ 0
+5V
$Comp
L AutoTestBoardLib:SMA J1
U 1 1 5E4C368F
P 8850 4250
F 0 "J1" H 8941 4579 60  0000 L CNN
F 1 "SMA" H 8941 4473 60  0000 L CNN
F 2 "footprintLib:SMA" H 8941 4375 50  0000 L CNN
F 3 "" H 8850 4250 60  0001 C CNN
	1    8850 4250
	1    0    0    -1  
$EndComp
$Comp
L AutoTestBoardLib:SMA J2
U 1 1 5E4C37C1
P 8850 5050
F 0 "J2" H 8941 5379 60  0000 L CNN
F 1 "SMA" H 8941 5273 60  0000 L CNN
F 2 "footprintLib:SMA" H 8941 5175 50  0000 L CNN
F 3 "" H 8850 5050 60  0001 C CNN
	1    8850 5050
	1    0    0    -1  
$EndComp
$Comp
L power:GNDA #PWR037
U 1 1 5E4C3B16
P 8900 5050
F 0 "#PWR037" H 8900 4800 50  0001 C CNN
F 1 "GNDA" H 8905 4877 50  0000 C CNN
F 2 "" H 8900 5050 50  0000 C CNN
F 3 "" H 8900 5050 50  0000 C CNN
	1    8900 5050
	1    0    0    -1  
$EndComp
$Comp
L power:GNDA #PWR036
U 1 1 5E4C3C85
P 8900 4300
F 0 "#PWR036" H 8900 4050 50  0001 C CNN
F 1 "GNDA" H 8905 4127 50  0000 C CNN
F 2 "" H 8900 4300 50  0000 C CNN
F 3 "" H 8900 4300 50  0000 C CNN
	1    8900 4300
	1    0    0    -1  
$EndComp
Wire Wire Line
	8900 4150 8900 4250
Wire Wire Line
	8750 4150 8750 4250
Wire Wire Line
	8750 4250 8800 4250
Connection ~ 8900 4250
Wire Wire Line
	8900 4250 8900 4300
Wire Wire Line
	8850 4150 8850 4250
Connection ~ 8850 4250
Wire Wire Line
	8850 4250 8900 4250
Wire Wire Line
	8800 4150 8800 4250
Connection ~ 8800 4250
Wire Wire Line
	8800 4250 8850 4250
Wire Wire Line
	8900 4950 8900 5000
Wire Wire Line
	8850 4950 8850 5000
Wire Wire Line
	8850 5000 8900 5000
Connection ~ 8900 5000
Wire Wire Line
	8900 5000 8900 5050
Wire Wire Line
	8750 4950 8750 5000
Wire Wire Line
	8750 5000 8800 5000
Connection ~ 8850 5000
Wire Wire Line
	8800 4950 8800 5000
Connection ~ 8800 5000
Wire Wire Line
	8800 5000 8850 5000
Wire Wire Line
	8400 4750 8700 4750
Wire Wire Line
	8400 3950 8700 3950
Text Label 8400 3950 0    50   ~ 0
IN
Text Label 8400 4750 0    50   ~ 0
InDC
Wire Wire Line
	10600 5900 10800 5900
Wire Wire Line
	10600 5800 10800 5800
Text Label 10800 5800 0    50   ~ 0
A2
$Comp
L AutoTestBoard_v1-rescue:C_Small-device C61
U 1 1 5E82E402
P 8700 5650
F 0 "C61" H 8792 5696 50  0000 L CNN
F 1 "100n" H 8792 5605 50  0000 L CNN
F 2 "Capacitors_SMD:C_0603" H 8700 5650 50  0001 C CNN
F 3 "" H 8700 5650 50  0000 C CNN
	1    8700 5650
	1    0    0    -1  
$EndComp
$Comp
L AutoTestBoard_v1-rescue:C_Small-device C66
U 1 1 5E82E408
P 9050 5650
F 0 "C66" H 9142 5696 50  0000 L CNN
F 1 "1u" H 9142 5605 50  0000 L CNN
F 2 "Capacitors_SMD:C_0603" H 9050 5650 50  0001 C CNN
F 3 "" H 9050 5650 50  0000 C CNN
	1    9050 5650
	1    0    0    -1  
$EndComp
Wire Wire Line
	8700 5750 8700 5800
Wire Wire Line
	8700 5800 8850 5800
Wire Wire Line
	9050 5750 9050 5800
Wire Wire Line
	8700 5550 8700 5500
Wire Wire Line
	8700 5500 9050 5500
Wire Wire Line
	9050 5550 9050 5500
$Comp
L power:GNDA #PWR052
U 1 1 5E879A12
P 8850 5800
F 0 "#PWR052" H 8850 5550 50  0001 C CNN
F 1 "GNDA" H 8855 5627 50  0000 C CNN
F 2 "" H 8850 5800 50  0000 C CNN
F 3 "" H 8850 5800 50  0000 C CNN
	1    8850 5800
	1    0    0    -1  
$EndComp
Connection ~ 8850 5800
Wire Wire Line
	8850 5800 9050 5800
Text Label 8850 5500 0    50   ~ 0
+5V
$Comp
L AutoTestBoard_v1-rescue:C_Small-device C60
U 1 1 5E8C4D1C
P 8750 700
F 0 "C60" H 8842 746 50  0000 L CNN
F 1 "100n" H 8842 655 50  0000 L CNN
F 2 "Capacitors_SMD:C_0603" H 8750 700 50  0001 C CNN
F 3 "" H 8750 700 50  0000 C CNN
	1    8750 700 
	1    0    0    -1  
$EndComp
$Comp
L AutoTestBoard_v1-rescue:C_Small-device C65
U 1 1 5E8C4D22
P 9100 700
F 0 "C65" H 9192 746 50  0000 L CNN
F 1 "1u" H 9192 655 50  0000 L CNN
F 2 "Capacitors_SMD:C_0603" H 9100 700 50  0001 C CNN
F 3 "" H 9100 700 50  0000 C CNN
	1    9100 700 
	1    0    0    -1  
$EndComp
Wire Wire Line
	8750 800  8750 850 
Wire Wire Line
	8750 850  8900 850 
Wire Wire Line
	9100 800  9100 850 
Wire Wire Line
	8750 600  8750 550 
Wire Wire Line
	8750 550  9100 550 
Wire Wire Line
	9100 600  9100 550 
$Comp
L power:GNDA #PWR051
U 1 1 5E8C4D2E
P 8900 850
F 0 "#PWR051" H 8900 600 50  0001 C CNN
F 1 "GNDA" H 8905 677 50  0000 C CNN
F 2 "" H 8900 850 50  0000 C CNN
F 3 "" H 8900 850 50  0000 C CNN
	1    8900 850 
	1    0    0    -1  
$EndComp
Connection ~ 8900 850 
Wire Wire Line
	8900 850  9100 850 
Text Label 8900 550  0    50   ~ 0
+5V
$Comp
L AutoTestBoard_v1-rescue:C_Small-device C57
U 1 1 5E911D04
P 5000 700
F 0 "C57" H 5092 746 50  0000 L CNN
F 1 "100n" H 5092 655 50  0000 L CNN
F 2 "Capacitors_SMD:C_0603" H 5000 700 50  0001 C CNN
F 3 "" H 5000 700 50  0000 C CNN
	1    5000 700 
	1    0    0    -1  
$EndComp
$Comp
L AutoTestBoard_v1-rescue:C_Small-device C62
U 1 1 5E911D0A
P 5350 700
F 0 "C62" H 5442 746 50  0000 L CNN
F 1 "1u" H 5442 655 50  0000 L CNN
F 2 "Capacitors_SMD:C_0603" H 5350 700 50  0001 C CNN
F 3 "" H 5350 700 50  0000 C CNN
	1    5350 700 
	1    0    0    -1  
$EndComp
Wire Wire Line
	5000 800  5000 850 
Wire Wire Line
	5000 850  5150 850 
Wire Wire Line
	5350 800  5350 850 
Wire Wire Line
	5000 600  5000 550 
Wire Wire Line
	5000 550  5350 550 
Wire Wire Line
	5350 600  5350 550 
$Comp
L power:GNDA #PWR048
U 1 1 5E911D16
P 5150 850
F 0 "#PWR048" H 5150 600 50  0001 C CNN
F 1 "GNDA" H 5155 677 50  0000 C CNN
F 2 "" H 5150 850 50  0000 C CNN
F 3 "" H 5150 850 50  0000 C CNN
	1    5150 850 
	1    0    0    -1  
$EndComp
Connection ~ 5150 850 
Wire Wire Line
	5150 850  5350 850 
Text Label 5150 550  0    50   ~ 0
+5V
$Comp
L AutoTestBoard_v1-rescue:C_Small-device C58
U 1 1 5E95FB67
P 5700 700
F 0 "C58" H 5792 746 50  0000 L CNN
F 1 "100n" H 5792 655 50  0000 L CNN
F 2 "Capacitors_SMD:C_0603" H 5700 700 50  0001 C CNN
F 3 "" H 5700 700 50  0000 C CNN
	1    5700 700 
	1    0    0    -1  
$EndComp
$Comp
L AutoTestBoard_v1-rescue:C_Small-device C63
U 1 1 5E95FB6D
P 6050 700
F 0 "C63" H 6142 746 50  0000 L CNN
F 1 "1u" H 6142 655 50  0000 L CNN
F 2 "Capacitors_SMD:C_0603" H 6050 700 50  0001 C CNN
F 3 "" H 6050 700 50  0000 C CNN
	1    6050 700 
	1    0    0    -1  
$EndComp
Wire Wire Line
	5700 800  5700 850 
Wire Wire Line
	5700 850  5850 850 
Wire Wire Line
	6050 800  6050 850 
Wire Wire Line
	5700 600  5700 550 
Wire Wire Line
	5700 550  6050 550 
Wire Wire Line
	6050 600  6050 550 
$Comp
L power:GNDA #PWR049
U 1 1 5E95FB79
P 5850 850
F 0 "#PWR049" H 5850 600 50  0001 C CNN
F 1 "GNDA" H 5855 677 50  0000 C CNN
F 2 "" H 5850 850 50  0000 C CNN
F 3 "" H 5850 850 50  0000 C CNN
	1    5850 850 
	1    0    0    -1  
$EndComp
Connection ~ 5850 850 
Wire Wire Line
	5850 850  6050 850 
Text Label 5850 550  0    50   ~ 0
+5V
$Comp
L AutoTestBoard_v1-rescue:C_Small-device C59
U 1 1 5E9AF17A
P 6400 700
F 0 "C59" H 6492 746 50  0000 L CNN
F 1 "100n" H 6492 655 50  0000 L CNN
F 2 "Capacitors_SMD:C_0603" H 6400 700 50  0001 C CNN
F 3 "" H 6400 700 50  0000 C CNN
	1    6400 700 
	1    0    0    -1  
$EndComp
$Comp
L AutoTestBoard_v1-rescue:C_Small-device C64
U 1 1 5E9AF180
P 6750 700
F 0 "C64" H 6842 746 50  0000 L CNN
F 1 "1u" H 6842 655 50  0000 L CNN
F 2 "Capacitors_SMD:C_0603" H 6750 700 50  0001 C CNN
F 3 "" H 6750 700 50  0000 C CNN
	1    6750 700 
	1    0    0    -1  
$EndComp
Wire Wire Line
	6400 800  6400 850 
Wire Wire Line
	6400 850  6550 850 
Wire Wire Line
	6750 800  6750 850 
Wire Wire Line
	6400 600  6400 550 
Wire Wire Line
	6400 550  6750 550 
Wire Wire Line
	6750 600  6750 550 
$Comp
L power:GNDA #PWR050
U 1 1 5E9AF18C
P 6550 850
F 0 "#PWR050" H 6550 600 50  0001 C CNN
F 1 "GNDA" H 6555 677 50  0000 C CNN
F 2 "" H 6550 850 50  0000 C CNN
F 3 "" H 6550 850 50  0000 C CNN
	1    6550 850 
	1    0    0    -1  
$EndComp
Connection ~ 6550 850 
Wire Wire Line
	6550 850  6750 850 
Text Label 6550 550  0    50   ~ 0
+5V
$Comp
L AutoTestBoard_v1-rescue:CONN_02X08-conn P4
U 1 1 5EB48EDB
P 8700 3150
F 0 "P4" H 8700 3715 50  0000 C CNN
F 1 "CONN_02X08" H 8700 3624 50  0000 C CNN
F 2 "Connectors_Multicomp:Multicomp_MC9A22-1634_2x08x2.54mm_Angled" H 8700 1950 50  0001 C CNN
F 3 "" H 8700 1950 50  0000 C CNN
	1    8700 3150
	1    0    0    -1  
$EndComp
NoConn ~ 8950 2800
NoConn ~ 8450 2800
$Comp
L power:GNDA #PWR054
U 1 1 5EBECD77
P 8950 2900
F 0 "#PWR054" H 8950 2650 50  0001 C CNN
F 1 "GNDA" V 8955 2772 50  0000 R CNN
F 2 "" H 8950 2900 50  0000 C CNN
F 3 "" H 8950 2900 50  0000 C CNN
	1    8950 2900
	0    -1   -1   0   
$EndComp
$Comp
L power:GNDA #PWR053
U 1 1 5EBED075
P 8300 2900
F 0 "#PWR053" H 8300 2650 50  0001 C CNN
F 1 "GNDA" V 8305 2773 50  0000 R CNN
F 2 "" H 8300 2900 50  0000 C CNN
F 3 "" H 8300 2900 50  0000 C CNN
	1    8300 2900
	0    1    1    0   
$EndComp
Wire Wire Line
	8250 3100 8450 3100
Wire Wire Line
	8250 3200 8450 3200
Wire Wire Line
	8300 2900 8400 2900
Wire Wire Line
	8400 2900 8400 3000
Wire Wire Line
	8400 3000 8450 3000
Connection ~ 8400 2900
Wire Wire Line
	8400 2900 8450 2900
Wire Wire Line
	9050 3000 8950 3000
Wire Wire Line
	9050 3100 8950 3100
Wire Wire Line
	9050 3200 8950 3200
Wire Wire Line
	9050 3300 8950 3300
Wire Wire Line
	9050 3400 8950 3400
Wire Wire Line
	9050 3500 8950 3500
Wire Wire Line
	8250 3500 8450 3500
Wire Wire Line
	8250 3400 8450 3400
Wire Wire Line
	8250 3300 8450 3300
Text Label 9050 3000 0    50   ~ 0
SCLK
Text Label 9050 3100 0    50   ~ 0
MOSI
Text Label 9050 3300 0    50   ~ 0
MISO
Text Label 9050 3400 0    50   ~ 0
nCS
NoConn ~ 9050 3500
NoConn ~ 9050 3200
NoConn ~ 8250 3500
NoConn ~ 8250 3400
NoConn ~ 8250 3300
NoConn ~ 8250 3200
NoConn ~ 8250 3100
Text Label 1350 1400 0    50   ~ 0
+5V
Text Label 1350 2500 0    50   ~ 0
+5V
Text Label 1350 3600 0    50   ~ 0
+5V
Text Label 1350 4700 0    50   ~ 0
+5V
Text Label 1350 5800 0    50   ~ 0
+5V
Text Label 1350 6900 0    50   ~ 0
+5V
Wire Wire Line
	4300 6100 4000 6100
Wire Wire Line
	4300 6000 4000 6000
Wire Wire Line
	4300 5900 4000 5900
Wire Wire Line
	4300 5800 4000 5800
Wire Wire Line
	4300 5700 4000 5700
Wire Wire Line
	4300 5600 4000 5600
Wire Wire Line
	4300 5500 4000 5500
Wire Wire Line
	4300 5400 4000 5400
Wire Wire Line
	4300 5300 4000 5300
Wire Wire Line
	4300 5200 4000 5200
Wire Wire Line
	4300 5100 4000 5100
Wire Wire Line
	4300 5000 4000 5000
Wire Wire Line
	4300 4900 4000 4900
Wire Wire Line
	4300 4800 4000 4800
Wire Wire Line
	4300 4700 4000 4700
Wire Wire Line
	4300 4600 4000 4600
Wire Wire Line
	4300 4500 4000 4500
Wire Wire Line
	4300 4400 4000 4400
Text Label 4300 6100 2    50   ~ 0
CH0
Text Label 4300 6000 2    50   ~ 0
CH1
Text Label 4300 5900 2    50   ~ 0
CH2
Text Label 4300 5800 2    50   ~ 0
CH3
Text Label 4300 5700 2    50   ~ 0
CH4
Text Label 4300 5600 2    50   ~ 0
CH5
Text Label 4300 5500 2    50   ~ 0
CH6
Text Label 4300 5400 2    50   ~ 0
CH7
Text Label 4300 5300 2    50   ~ 0
CH8
Text Label 4300 5200 2    50   ~ 0
CH9
Text Label 4300 5100 2    50   ~ 0
CH10
Text Label 4300 5000 2    50   ~ 0
CH11
Text Label 4300 4900 2    50   ~ 0
CH12
Text Label 4300 4800 2    50   ~ 0
CH13
Text Label 4300 4700 2    50   ~ 0
CH14
Text Label 4300 4600 2    50   ~ 0
CH15
Text Label 4300 4500 2    50   ~ 0
CH16
Text Label 4300 4400 2    50   ~ 0
CH17
$EndSCHEMATC
