(module Mountinghole_3mm_P5mm (layer F.Cu) (tedit 5807365F)
  (fp_text reference REF** (at 0 2.54) (layer F.SilkS) hide
    (effects (font (size 1 1) (thickness 0.15)))
  )
  (fp_text value Mountinghole_3mm_P5mm (at 0 -0.5) (layer F.Fab) hide
    (effects (font (size 1 1) (thickness 0.15)))
  )
  (pad "" np_thru_hole circle (at 0 0) (size 5 5) (drill 3) (layers *.Cu *.Mask))
)
