(module Samtec_02X20_small (layer F.Cu) (tedit 5A79BCFD)
  (fp_text reference REF** (at -1.1684 1.3462 90) (layer F.SilkS)
    (effects (font (size 1 1) (thickness 0.1)))
  )
  (fp_text value Samtec_02X20_small (at 11.6332 -1.7526) (layer F.Fab)
    (effects (font (size 1 1) (thickness 0.1)))
  )
  (fp_circle (center 0 4.6482) (end 0.0254 4.8006) (layer F.SilkS) (width 0.05))
  (pad 40 smd rect (at 24.13 0) (size 0.7 2) (layers F.Cu F.Paste F.Mask))
  (pad 39 smd rect (at 24.13 3.4) (size 0.7 2) (layers F.Cu F.Paste F.Mask))
  (pad 38 smd rect (at 22.86 0) (size 0.7 2) (layers F.Cu F.Paste F.Mask))
  (pad 37 smd rect (at 22.86 3.4) (size 0.7 2) (layers F.Cu F.Paste F.Mask))
  (pad 36 smd rect (at 21.59 0) (size 0.7 2) (layers F.Cu F.Paste F.Mask))
  (pad 35 smd rect (at 21.59 3.4) (size 0.7 2) (layers F.Cu F.Paste F.Mask))
  (pad 34 smd rect (at 20.32 0) (size 0.7 2) (layers F.Cu F.Paste F.Mask))
  (pad 33 smd rect (at 20.32 3.4) (size 0.7 2) (layers F.Cu F.Paste F.Mask))
  (pad 32 smd rect (at 19.05 0) (size 0.7 2) (layers F.Cu F.Paste F.Mask))
  (pad 31 smd rect (at 19.05 3.4) (size 0.7 2) (layers F.Cu F.Paste F.Mask))
  (pad 30 smd rect (at 17.78 0) (size 0.7 2) (layers F.Cu F.Paste F.Mask))
  (pad 29 smd rect (at 17.78 3.4) (size 0.7 2) (layers F.Cu F.Paste F.Mask))
  (pad 28 smd rect (at 16.51 0) (size 0.7 2) (layers F.Cu F.Paste F.Mask))
  (pad 27 smd rect (at 16.51 3.4) (size 0.7 2) (layers F.Cu F.Paste F.Mask))
  (pad 26 smd rect (at 15.24 0) (size 0.7 2) (layers F.Cu F.Paste F.Mask))
  (pad 25 smd rect (at 15.24 3.4) (size 0.7 2) (layers F.Cu F.Paste F.Mask))
  (pad 24 smd rect (at 13.97 0) (size 0.7 2) (layers F.Cu F.Paste F.Mask))
  (pad 23 smd rect (at 13.97 3.4) (size 0.7 2) (layers F.Cu F.Paste F.Mask))
  (pad 22 smd rect (at 12.7 0) (size 0.7 2) (layers F.Cu F.Paste F.Mask))
  (pad 21 smd rect (at 12.7 3.4) (size 0.7 2) (layers F.Cu F.Paste F.Mask))
  (pad 20 smd rect (at 11.43 0) (size 0.7 2) (layers F.Cu F.Paste F.Mask))
  (pad 19 smd rect (at 11.43 3.4) (size 0.7 2) (layers F.Cu F.Paste F.Mask))
  (pad 18 smd rect (at 10.16 0) (size 0.7 2) (layers F.Cu F.Paste F.Mask))
  (pad 17 smd rect (at 10.16 3.4) (size 0.7 2) (layers F.Cu F.Paste F.Mask))
  (pad 16 smd rect (at 8.89 0) (size 0.7 2) (layers F.Cu F.Paste F.Mask))
  (pad 15 smd rect (at 8.89 3.4) (size 0.7 2) (layers F.Cu F.Paste F.Mask))
  (pad 14 smd rect (at 7.62 0) (size 0.7 2) (layers F.Cu F.Paste F.Mask))
  (pad 13 smd rect (at 7.62 3.4) (size 0.7 2) (layers F.Cu F.Paste F.Mask))
  (pad 12 smd rect (at 6.35 0) (size 0.7 2) (layers F.Cu F.Paste F.Mask))
  (pad 11 smd rect (at 6.35 3.4) (size 0.7 2) (layers F.Cu F.Paste F.Mask))
  (pad 10 smd rect (at 5.08 0) (size 0.7 2) (layers F.Cu F.Paste F.Mask))
  (pad 9 smd rect (at 5.08 3.4) (size 0.7 2) (layers F.Cu F.Paste F.Mask))
  (pad 8 smd rect (at 3.81 0) (size 0.7 2) (layers F.Cu F.Paste F.Mask))
  (pad 7 smd rect (at 3.81 3.4) (size 0.7 2) (layers F.Cu F.Paste F.Mask))
  (pad 6 smd rect (at 2.54 0) (size 0.7 2) (layers F.Cu F.Paste F.Mask))
  (pad 5 smd rect (at 2.54 3.4) (size 0.7 2) (layers F.Cu F.Paste F.Mask))
  (pad 4 smd rect (at 1.27 0) (size 0.7 2) (layers F.Cu F.Paste F.Mask))
  (pad 3 smd rect (at 1.27 3.4) (size 0.7 2) (layers F.Cu F.Paste F.Mask))
  (pad 2 smd rect (at 0 0) (size 0.7 2) (layers F.Cu F.Paste F.Mask))
  (pad 1 smd rect (at 0 3.4) (size 0.7 2) (layers F.Cu F.Paste F.Mask))
)
