(module SOIC-14 (layer F.Cu) (tedit 5C41E54F)
  (attr smd)
  (fp_text reference REF** (at -3.625 0 90) (layer F.SilkS)
    (effects (font (size 1 1) (thickness 0.15)))
  )
  (fp_text value SOIC-14 (at 3.4798 0 90) (layer F.Fab)
    (effects (font (size 1 1) (thickness 0.15)))
  )
  (fp_line (start -1.825 4.2) (end -2.625 3.4) (layer F.SilkS) (width 0.15))
  (fp_line (start -2.625 3.4) (end -2.625 -4.2) (layer F.SilkS) (width 0.15))
  (fp_line (start -2.625 -4.2) (end 2.625 -4.2) (layer F.SilkS) (width 0.15))
  (fp_line (start 2.625 -4.2) (end 2.625 4.2) (layer F.SilkS) (width 0.15))
  (fp_line (start 2.625 4.2) (end -1.825 4.2) (layer F.SilkS) (width 0.15))
  (fp_line (start -2.8 -4.35) (end 2.8 -4.35) (layer F.CrtYd) (width 0.05))
  (fp_line (start 2.8 -4.35) (end 2.8 4.35) (layer F.CrtYd) (width 0.05))
  (fp_line (start 2.8 4.35) (end -2.8 4.35) (layer F.CrtYd) (width 0.05))
  (fp_line (start -2.8 4.35) (end -2.8 -4.35) (layer F.CrtYd) (width 0.05))
  (pad 14 smd rect (at -1.95 -2.8) (size 0.35 1.8) (layers F.Cu F.Paste F.Mask))
  (pad 1 smd rect (at -1.95 2.8) (size 0.35 1.8) (layers F.Cu F.Paste F.Mask))
  (pad 13 smd rect (at -1.3 -2.8) (size 0.35 1.8) (layers F.Cu F.Paste F.Mask))
  (pad 2 smd rect (at -1.3 2.8) (size 0.35 1.8) (layers F.Cu F.Paste F.Mask))
  (pad 12 smd rect (at -0.65 -2.8) (size 0.35 1.8) (layers F.Cu F.Paste F.Mask))
  (pad 3 smd rect (at -0.65 2.8) (size 0.35 1.8) (layers F.Cu F.Paste F.Mask))
  (pad 11 smd rect (at 0 -2.8) (size 0.35 1.8) (layers F.Cu F.Paste F.Mask))
  (pad 4 smd rect (at 0 2.8) (size 0.35 1.8) (layers F.Cu F.Paste F.Mask))
  (pad 10 smd rect (at 0.65 -2.8) (size 0.35 1.8) (layers F.Cu F.Paste F.Mask))
  (pad 5 smd rect (at 0.65 2.8) (size 0.35 1.8) (layers F.Cu F.Paste F.Mask))
  (pad 9 smd rect (at 1.3 -2.8) (size 0.35 1.8) (layers F.Cu F.Paste F.Mask))
  (pad 6 smd rect (at 1.3 2.8) (size 0.35 1.8) (layers F.Cu F.Paste F.Mask))
  (pad 8 smd rect (at 1.95 -2.8) (size 0.35 1.8) (layers F.Cu F.Paste F.Mask))
  (pad 7 smd rect (at 1.95 2.8) (size 0.35 1.8) (layers F.Cu F.Paste F.Mask))
)
