EESchema Schematic File Version 2
LIBS:klaus
LIBS:power
LIBS:device
LIBS:transistors
LIBS:conn
LIBS:linear
LIBS:regul
LIBS:74xx
LIBS:cmos4000
LIBS:adc-dac
LIBS:memory
LIBS:xilinx
LIBS:microcontrollers
LIBS:dsp
LIBS:microchip
LIBS:analog_switches
LIBS:motorola
LIBS:texas
LIBS:intel
LIBS:audio
LIBS:interface
LIBS:digital-audio
LIBS:philips
LIBS:display
LIBS:cypress
LIBS:siliconi
LIBS:opto
LIBS:atmel
LIBS:contrib
LIBS:valves
LIBS:Si5340
LIBS:Si514
LIBS:SN65LVDS104
LIBS:TPS7A7001
LIBS:BSH-060-01-X-D-A
LIBS:power_special
LIBS:ADN4661
LIBS:Mechanical
LIBS:THS4541
LIBS:ISL21080-09
LIBS:ISL60002-11
LIBS:ISL60002-18
LIBS:LTC6248
LIBS:MAX6120
LIBS:OPA2354
LIBS:REFDES
LIBS:klaus5_tb-cache
EELAYER 26 0
EELAYER END
$Descr A4 11693 8268
encoding utf-8
Sheet 8 8
Title ""
Date ""
Rev ""
Comp ""
Comment1 ""
Comment2 ""
Comment3 ""
Comment4 ""
$EndDescr
$Comp
L ADN4661 U6
U 1 1 59970B3C
P 4450 2200
F 0 "U6" H 4450 2847 60  0000 C CNN
F 1 "ADN4661" H 4450 2741 60  0000 C CNN
F 2 "klaus:SOIC-8_3.9x4.9mm_Pitch1.27mm" H 4450 2200 60  0001 C CNN
F 3 "" H 4450 2200 60  0001 C CNN
	1    4450 2200
	1    0    0    -1  
$EndComp
Wire Wire Line
	3700 1900 3950 1900
Wire Wire Line
	5100 1800 4950 1800
Wire Wire Line
	5100 1900 4950 1900
$Comp
L VCCD33 #PWR0107
U 1 1 59970C13
P 3950 1800
F 0 "#PWR0107" H 3950 1650 50  0001 C CNN
F 1 "VCCD33" H 3967 1973 50  0000 C CNN
F 2 "" H 3950 1800 50  0000 C CNN
F 3 "" H 3950 1800 50  0000 C CNN
	1    3950 1800
	1    0    0    -1  
$EndComp
$Comp
L GNDD #PWR0108
U 1 1 59970C29
P 3950 2100
F 0 "#PWR0108" H 3950 1850 50  0001 C CNN
F 1 "GNDD" H 3955 1927 50  0000 C CNN
F 2 "" H 3950 2100 50  0000 C CNN
F 3 "" H 3950 2100 50  0000 C CNN
	1    3950 2100
	1    0    0    -1  
$EndComp
$Comp
L R R150
U 1 1 59970C47
P 5750 1850
F 0 "R150" H 5820 1896 50  0000 L CNN
F 1 "100" H 5820 1805 50  0000 L CNN
F 2 "Resistors_SMD:R_0603" V 5680 1850 50  0001 C CNN
F 3 "" H 5750 1850 50  0000 C CNN
	1    5750 1850
	1    0    0    -1  
$EndComp
Wire Wire Line
	5100 1800 5100 1700
Wire Wire Line
	5100 1700 6200 1700
Wire Wire Line
	5100 1900 5100 2000
Wire Wire Line
	5100 2000 6200 2000
$Comp
L ADN4661 U7
U 1 1 59970D7E
P 4450 3400
F 0 "U7" H 4450 4047 60  0000 C CNN
F 1 "ADN4661" H 4450 3941 60  0000 C CNN
F 2 "klaus:SOIC-8_3.9x4.9mm_Pitch1.27mm" H 4450 3400 60  0001 C CNN
F 3 "" H 4450 3400 60  0001 C CNN
	1    4450 3400
	1    0    0    -1  
$EndComp
Wire Wire Line
	3700 3100 3950 3100
Wire Wire Line
	5100 3000 4950 3000
Wire Wire Line
	5100 3100 4950 3100
$Comp
L VCCD33 #PWR0109
U 1 1 59970D87
P 3950 3000
F 0 "#PWR0109" H 3950 2850 50  0001 C CNN
F 1 "VCCD33" H 3967 3173 50  0000 C CNN
F 2 "" H 3950 3000 50  0000 C CNN
F 3 "" H 3950 3000 50  0000 C CNN
	1    3950 3000
	1    0    0    -1  
$EndComp
$Comp
L GNDD #PWR0110
U 1 1 59970D8D
P 3950 3300
F 0 "#PWR0110" H 3950 3050 50  0001 C CNN
F 1 "GNDD" H 3955 3127 50  0000 C CNN
F 2 "" H 3950 3300 50  0000 C CNN
F 3 "" H 3950 3300 50  0000 C CNN
	1    3950 3300
	1    0    0    -1  
$EndComp
$Comp
L R R151
U 1 1 59970D93
P 5750 3050
F 0 "R151" H 5820 3096 50  0000 L CNN
F 1 "100" H 5820 3005 50  0000 L CNN
F 2 "Resistors_SMD:R_0603" V 5680 3050 50  0001 C CNN
F 3 "" H 5750 3050 50  0000 C CNN
	1    5750 3050
	1    0    0    -1  
$EndComp
Wire Wire Line
	5100 3000 5100 2900
Wire Wire Line
	5100 2900 6200 2900
Wire Wire Line
	5100 3100 5100 3200
Wire Wire Line
	5100 3200 6200 3200
NoConn ~ 4950 2000
NoConn ~ 4950 2100
NoConn ~ 3950 2000
NoConn ~ 3950 3200
NoConn ~ 4950 3200
NoConn ~ 4950 3300
Text HLabel 3700 1900 0    60   Input ~ 0
di_fifo_etrig
Text HLabel 3700 3100 0    60   Input ~ 0
di_fe_etrig
Text HLabel 6200 1700 2    60   Output ~ 0
di_fifo_etrig_N
Text HLabel 6200 2000 2    60   Output ~ 0
di_fifo_etrig_P
Text HLabel 6200 2900 2    60   Output ~ 0
di_fe_etrig_N
Text HLabel 6200 3200 2    60   Output ~ 0
di_fe_etrig_P
Connection ~ 5750 1700
Connection ~ 5750 2000
Connection ~ 5750 2900
Connection ~ 5750 3200
$Comp
L C C137
U 1 1 599721D6
P 7950 1850
F 0 "C137" H 8065 1896 50  0000 L CNN
F 1 "100n" H 8065 1805 50  0000 L CNN
F 2 "Capacitors_SMD:C_0603" H 7988 1700 50  0001 C CNN
F 3 "" H 7950 1850 50  0000 C CNN
	1    7950 1850
	1    0    0    -1  
$EndComp
$Comp
L C C139
U 1 1 59972200
P 8350 1850
F 0 "C139" H 8465 1896 50  0000 L CNN
F 1 "10u" H 8465 1805 50  0000 L CNN
F 2 "Capacitors_SMD:C_0603" H 8388 1700 50  0001 C CNN
F 3 "" H 8350 1850 50  0000 C CNN
	1    8350 1850
	1    0    0    -1  
$EndComp
Wire Wire Line
	7950 1700 8350 1700
Wire Wire Line
	7950 2000 8350 2000
$Comp
L VCCD33 #PWR0111
U 1 1 599722F4
P 8150 1700
F 0 "#PWR0111" H 8150 1550 50  0001 C CNN
F 1 "VCCD33" H 8167 1873 50  0000 C CNN
F 2 "" H 8150 1700 50  0000 C CNN
F 3 "" H 8150 1700 50  0000 C CNN
	1    8150 1700
	1    0    0    -1  
$EndComp
$Comp
L GNDD #PWR0112
U 1 1 59972316
P 8150 2000
F 0 "#PWR0112" H 8150 1750 50  0001 C CNN
F 1 "GNDD" H 8155 1827 50  0000 C CNN
F 2 "" H 8150 2000 50  0000 C CNN
F 3 "" H 8150 2000 50  0000 C CNN
	1    8150 2000
	1    0    0    -1  
$EndComp
Connection ~ 8150 1700
Connection ~ 8150 2000
$Comp
L C C138
U 1 1 599723FF
P 7950 3050
F 0 "C138" H 8065 3096 50  0000 L CNN
F 1 "100n" H 8065 3005 50  0000 L CNN
F 2 "Capacitors_SMD:C_0603" H 7988 2900 50  0001 C CNN
F 3 "" H 7950 3050 50  0000 C CNN
	1    7950 3050
	1    0    0    -1  
$EndComp
$Comp
L C C140
U 1 1 59972405
P 8350 3050
F 0 "C140" H 8465 3096 50  0000 L CNN
F 1 "10u" H 8465 3005 50  0000 L CNN
F 2 "Capacitors_SMD:C_0603" H 8388 2900 50  0001 C CNN
F 3 "" H 8350 3050 50  0000 C CNN
	1    8350 3050
	1    0    0    -1  
$EndComp
Wire Wire Line
	7950 2900 8350 2900
Wire Wire Line
	7950 3200 8350 3200
$Comp
L VCCD33 #PWR0113
U 1 1 5997240D
P 8150 2900
F 0 "#PWR0113" H 8150 2750 50  0001 C CNN
F 1 "VCCD33" H 8167 3073 50  0000 C CNN
F 2 "" H 8150 2900 50  0000 C CNN
F 3 "" H 8150 2900 50  0000 C CNN
	1    8150 2900
	1    0    0    -1  
$EndComp
$Comp
L GNDD #PWR0114
U 1 1 59972413
P 8150 3200
F 0 "#PWR0114" H 8150 2950 50  0001 C CNN
F 1 "GNDD" H 8155 3027 50  0000 C CNN
F 2 "" H 8150 3200 50  0000 C CNN
F 3 "" H 8150 3200 50  0000 C CNN
	1    8150 3200
	1    0    0    -1  
$EndComp
Connection ~ 8150 2900
Connection ~ 8150 3200
$EndSCHEMATC
