EESchema Schematic File Version 2
LIBS:klaus
LIBS:power
LIBS:device
LIBS:transistors
LIBS:conn
LIBS:linear
LIBS:regul
LIBS:74xx
LIBS:cmos4000
LIBS:adc-dac
LIBS:memory
LIBS:xilinx
LIBS:microcontrollers
LIBS:dsp
LIBS:microchip
LIBS:analog_switches
LIBS:motorola
LIBS:texas
LIBS:intel
LIBS:audio
LIBS:interface
LIBS:digital-audio
LIBS:philips
LIBS:display
LIBS:cypress
LIBS:siliconi
LIBS:opto
LIBS:atmel
LIBS:contrib
LIBS:valves
LIBS:Si5340
LIBS:Si514
LIBS:SN65LVDS104
LIBS:TPS7A7001
LIBS:BSH-060-01-X-D-A
LIBS:power_special
LIBS:ADN4661
LIBS:Mechanical
LIBS:THS4541
LIBS:ISL21080-09
LIBS:ISL60002-11
LIBS:ISL60002-18
LIBS:LTC6248
LIBS:MAX6120
LIBS:OPA2354
LIBS:REFDES
LIBS:klaus5_tb-cache
EELAYER 26 0
EELAYER END
$Descr A4 11693 8268
encoding utf-8
Sheet 7 8
Title ""
Date "2017-08-11"
Rev ""
Comp ""
Comment1 ""
Comment2 ""
Comment3 ""
Comment4 ""
$EndDescr
$Comp
L OPA2354 U5
U 1 1 59954E63
P 3350 1950
F 0 "U5" H 3600 2087 60  0000 C CNN
F 1 "OPA2354" H 3600 1981 60  0000 C CNN
F 2 "klaus:OPA2354" H 3400 1950 60  0001 C CNN
F 3 "" H 3400 1950 60  0001 C CNN
	1    3350 1950
	1    0    0    -1  
$EndComp
$Comp
L GNDA #PWR0101
U 1 1 59954F13
P 4050 2400
F 0 "#PWR0101" H 4050 2150 50  0001 C CNN
F 1 "GNDA" H 4055 2227 50  0000 C CNN
F 2 "" H 4050 2400 50  0000 C CNN
F 3 "" H 4050 2400 50  0000 C CNN
	1    4050 2400
	1    0    0    -1  
$EndComp
$Comp
L VCCA33 #PWR0102
U 1 1 59954F29
P 4050 2100
F 0 "#PWR0102" H 4050 1950 50  0001 C CNN
F 1 "VCCA33" H 4067 2273 50  0000 C CNN
F 2 "" H 4050 2100 50  0000 C CNN
F 3 "" H 4050 2100 50  0000 C CNN
	1    4050 2100
	1    0    0    -1  
$EndComp
$Comp
L C C135
U 1 1 59955F6E
P 3200 3100
F 0 "C135" H 3315 3146 50  0000 L CNN
F 1 "1u" H 3315 3055 50  0000 L CNN
F 2 "Capacitors_SMD:C_0603" H 3238 2950 50  0001 C CNN
F 3 "" H 3200 3100 50  0000 C CNN
	1    3200 3100
	1    0    0    -1  
$EndComp
$Comp
L C C136
U 1 1 5995604E
P 3650 3100
F 0 "C136" H 3765 3146 50  0000 L CNN
F 1 "10n" H 3765 3055 50  0000 L CNN
F 2 "Capacitors_SMD:C_0603" H 3688 2950 50  0001 C CNN
F 3 "" H 3650 3100 50  0000 C CNN
	1    3650 3100
	1    0    0    -1  
$EndComp
Wire Wire Line
	2550 2400 3150 2400
Wire Wire Line
	2550 2200 3150 2200
Wire Wire Line
	3150 2100 3050 2100
Wire Wire Line
	3050 2100 3050 1750
Wire Wire Line
	3050 1750 4300 1750
Wire Wire Line
	4300 1750 4300 2200
Wire Wire Line
	4050 2200 4550 2200
Connection ~ 4300 2200
Wire Wire Line
	4050 2300 4550 2300
Wire Wire Line
	4300 2300 4300 2700
Wire Wire Line
	4300 2700 3050 2700
Wire Wire Line
	3050 2700 3050 2300
Wire Wire Line
	3050 2300 3150 2300
Connection ~ 4300 2300
Wire Wire Line
	3200 2950 4100 2950
Connection ~ 3650 2950
Wire Wire Line
	3200 3250 4100 3250
Connection ~ 3650 3250
$Comp
L VCCA33 #PWR0103
U 1 1 5995612A
P 4100 2950
F 0 "#PWR0103" H 4100 2800 50  0001 C CNN
F 1 "VCCA33" V 4117 3078 50  0000 L CNN
F 2 "" H 4100 2950 50  0000 C CNN
F 3 "" H 4100 2950 50  0000 C CNN
	1    4100 2950
	0    1    1    0   
$EndComp
$Comp
L GNDA #PWR0104
U 1 1 59956153
P 4100 3250
F 0 "#PWR0104" H 4100 3000 50  0001 C CNN
F 1 "GNDA" V 4105 3122 50  0000 R CNN
F 2 "" H 4100 3250 50  0000 C CNN
F 3 "" H 4100 3250 50  0000 C CNN
	1    4100 3250
	0    -1   -1   0   
$EndComp
Text HLabel 2550 2200 0    60   Input ~ 0
amon_1
Text HLabel 2550 2400 0    60   Input ~ 0
amon_2
Text HLabel 4550 2200 2    60   Output ~ 0
amon_1_conn
Text HLabel 4550 2300 2    60   Output ~ 0
amon_2_conn
$Comp
L BNC P11
U 1 1 59956207
P 8250 2200
F 0 "P11" H 8351 2176 50  0000 L CNN
F 1 "BNC" H 8351 2085 50  0000 L CNN
F 2 "SMA_Connectors:SMA-Straight" H 8250 2200 50  0001 C CNN
F 3 "" H 8250 2200 50  0000 C CNN
	1    8250 2200
	1    0    0    -1  
$EndComp
$Comp
L BNC P12
U 1 1 599562CD
P 9250 2200
F 0 "P12" H 9351 2176 50  0000 L CNN
F 1 "BNC" H 9351 2085 50  0000 L CNN
F 2 "SMA_Connectors:SMA-Straight" H 9250 2200 50  0001 C CNN
F 3 "" H 9250 2200 50  0000 C CNN
	1    9250 2200
	1    0    0    -1  
$EndComp
$Comp
L GNDA #PWR0105
U 1 1 599562FF
P 9250 2400
F 0 "#PWR0105" H 9250 2150 50  0001 C CNN
F 1 "GNDA" H 9255 2227 50  0000 C CNN
F 2 "" H 9250 2400 50  0000 C CNN
F 3 "" H 9250 2400 50  0000 C CNN
	1    9250 2400
	1    0    0    -1  
$EndComp
$Comp
L GNDA #PWR0106
U 1 1 5995632C
P 8250 2400
F 0 "#PWR0106" H 8250 2150 50  0001 C CNN
F 1 "GNDA" H 8255 2227 50  0000 C CNN
F 2 "" H 8250 2400 50  0000 C CNN
F 3 "" H 8250 2400 50  0000 C CNN
	1    8250 2400
	1    0    0    -1  
$EndComp
Wire Wire Line
	7750 2200 8100 2200
Wire Wire Line
	8750 2200 9100 2200
Text Label 9100 2200 2    60   ~ 0
amon_2_conn
Text Label 8100 2200 2    60   ~ 0
amon_1_conn
Connection ~ 4050 2100
$EndSCHEMATC
