EESchema Schematic File Version 2
LIBS:klaus
LIBS:power
LIBS:device
LIBS:transistors
LIBS:conn
LIBS:linear
LIBS:regul
LIBS:74xx
LIBS:cmos4000
LIBS:adc-dac
LIBS:memory
LIBS:xilinx
LIBS:microcontrollers
LIBS:dsp
LIBS:microchip
LIBS:analog_switches
LIBS:motorola
LIBS:texas
LIBS:intel
LIBS:audio
LIBS:interface
LIBS:digital-audio
LIBS:philips
LIBS:display
LIBS:cypress
LIBS:siliconi
LIBS:opto
LIBS:atmel
LIBS:contrib
LIBS:valves
LIBS:Si5340
LIBS:Si514
LIBS:SN65LVDS104
LIBS:TPS7A7001
LIBS:BSH-060-01-X-D-A
LIBS:power_special
LIBS:ADN4661
LIBS:Mechanical
LIBS:THS4541
LIBS:ISL21080-09
LIBS:ISL60002-11
LIBS:ISL60002-18
LIBS:LTC6248
LIBS:MAX6120
LIBS:OPA2354
LIBS:REFDES
LIBS:klaus5_tb-cache
EELAYER 26 0
EELAYER END
$Descr A4 11693 8268
encoding utf-8
Sheet 5 8
Title ""
Date "2017-08-11"
Rev ""
Comp ""
Comment1 ""
Comment2 ""
Comment3 ""
Comment4 ""
$EndDescr
$Comp
L C C29
U 1 1 598EFAF5
P 1900 6250
F 0 "C29" H 2015 6296 50  0000 L CNN
F 1 "100n" H 2015 6205 50  0000 L CNN
F 2 "Capacitors_SMD:C_0402" H 1938 6100 50  0001 C CNN
F 3 "" H 1900 6250 50  0000 C CNN
	1    1900 6250
	1    0    0    -1  
$EndComp
$Comp
L C C35
U 1 1 598EFB67
P 2450 6250
F 0 "C35" H 2565 6296 50  0000 L CNN
F 1 "1n" H 2565 6205 50  0000 L CNN
F 2 "Capacitors_SMD:C_0402" H 2488 6100 50  0001 C CNN
F 3 "" H 2450 6250 50  0000 C CNN
	1    2450 6250
	1    0    0    -1  
$EndComp
Wire Wire Line
	1400 6400 2750 6400
Wire Wire Line
	1400 6100 2750 6100
$Comp
L GNDA #PWR065
U 1 1 598EFBD8
P 2750 1700
F 0 "#PWR065" H 2750 1450 50  0001 C CNN
F 1 "GNDA" V 2755 1572 50  0000 R CNN
F 2 "" H 2750 1700 50  0000 C CNN
F 3 "" H 2750 1700 50  0000 C CNN
	1    2750 1700
	0    -1   -1   0   
$EndComp
$Comp
L VCCD33 #PWR066
U 1 1 598EFC09
P 2750 6100
F 0 "#PWR066" H 2750 5950 50  0001 C CNN
F 1 "VCCD33" V 2767 6228 50  0000 L CNN
F 2 "" H 2750 6100 50  0000 C CNN
F 3 "" H 2750 6100 50  0000 C CNN
	1    2750 6100
	0    1    1    0   
$EndComp
$Comp
L C C30
U 1 1 598EFC6F
P 1900 6700
F 0 "C30" H 2015 6746 50  0000 L CNN
F 1 "100n" H 2015 6655 50  0000 L CNN
F 2 "Capacitors_SMD:C_0402" H 1938 6550 50  0001 C CNN
F 3 "" H 1900 6700 50  0000 C CNN
	1    1900 6700
	1    0    0    -1  
$EndComp
$Comp
L C C36
U 1 1 598EFC75
P 2450 6700
F 0 "C36" H 2565 6746 50  0000 L CNN
F 1 "1n" H 2565 6655 50  0000 L CNN
F 2 "Capacitors_SMD:C_0402" H 2488 6550 50  0001 C CNN
F 3 "" H 2450 6700 50  0000 C CNN
	1    2450 6700
	1    0    0    -1  
$EndComp
Wire Wire Line
	1400 6850 2750 6850
Wire Wire Line
	1400 6550 2750 6550
$Comp
L GNDA #PWR067
U 1 1 598EFC7D
P 2750 2150
F 0 "#PWR067" H 2750 1900 50  0001 C CNN
F 1 "GNDA" V 2755 2022 50  0000 R CNN
F 2 "" H 2750 2150 50  0000 C CNN
F 3 "" H 2750 2150 50  0000 C CNN
	1    2750 2150
	0    -1   -1   0   
$EndComp
$Comp
L VCCD33 #PWR068
U 1 1 598EFC83
P 2750 6550
F 0 "#PWR068" H 2750 6400 50  0001 C CNN
F 1 "VCCD33" V 2767 6678 50  0000 L CNN
F 2 "" H 2750 6550 50  0000 C CNN
F 3 "" H 2750 6550 50  0000 C CNN
	1    2750 6550
	0    1    1    0   
$EndComp
$Comp
L GNDA #PWR069
U 1 1 598EFCFD
P 2750 2150
F 0 "#PWR069" H 2750 1900 50  0001 C CNN
F 1 "GNDA" V 2755 2022 50  0000 R CNN
F 2 "" H 2750 2150 50  0000 C CNN
F 3 "" H 2750 2150 50  0000 C CNN
	1    2750 2150
	0    -1   -1   0   
$EndComp
$Comp
L C C25
U 1 1 598F0090
P 1900 1550
F 0 "C25" H 2015 1596 50  0000 L CNN
F 1 "100n" H 2015 1505 50  0000 L CNN
F 2 "Capacitors_SMD:C_0402" H 1938 1400 50  0001 C CNN
F 3 "" H 1900 1550 50  0000 C CNN
	1    1900 1550
	1    0    0    -1  
$EndComp
$Comp
L C C31
U 1 1 598F0096
P 2450 1550
F 0 "C31" H 2565 1596 50  0000 L CNN
F 1 "1n" H 2565 1505 50  0000 L CNN
F 2 "Capacitors_SMD:C_0402" H 2488 1400 50  0001 C CNN
F 3 "" H 2450 1550 50  0000 C CNN
	1    2450 1550
	1    0    0    -1  
$EndComp
Wire Wire Line
	1400 1700 2750 1700
Wire Wire Line
	1400 1400 2750 1400
$Comp
L C C26
U 1 1 598F009E
P 1900 2000
F 0 "C26" H 2015 2046 50  0000 L CNN
F 1 "100n" H 2015 1955 50  0000 L CNN
F 2 "Capacitors_SMD:C_0402" H 1938 1850 50  0001 C CNN
F 3 "" H 1900 2000 50  0000 C CNN
	1    1900 2000
	1    0    0    -1  
$EndComp
$Comp
L C C32
U 1 1 598F00A4
P 2450 2000
F 0 "C32" H 2565 2046 50  0000 L CNN
F 1 "1n" H 2565 1955 50  0000 L CNN
F 2 "Capacitors_SMD:C_0402" H 2488 1850 50  0001 C CNN
F 3 "" H 2450 2000 50  0000 C CNN
	1    2450 2000
	1    0    0    -1  
$EndComp
Wire Wire Line
	1400 2150 2750 2150
Wire Wire Line
	1400 1850 2750 1850
$Comp
L C C27
U 1 1 598F00AC
P 1900 2450
F 0 "C27" H 2015 2496 50  0000 L CNN
F 1 "100n" H 2015 2405 50  0000 L CNN
F 2 "Capacitors_SMD:C_0402" H 1938 2300 50  0001 C CNN
F 3 "" H 1900 2450 50  0000 C CNN
	1    1900 2450
	1    0    0    -1  
$EndComp
$Comp
L C C33
U 1 1 598F00B2
P 2450 2450
F 0 "C33" H 2565 2496 50  0000 L CNN
F 1 "1n" H 2565 2405 50  0000 L CNN
F 2 "Capacitors_SMD:C_0402" H 2488 2300 50  0001 C CNN
F 3 "" H 2450 2450 50  0000 C CNN
	1    2450 2450
	1    0    0    -1  
$EndComp
Wire Wire Line
	1400 2600 2750 2600
Wire Wire Line
	1400 2300 2750 2300
$Comp
L GNDA #PWR070
U 1 1 598F0289
P 2750 2600
F 0 "#PWR070" H 2750 2350 50  0001 C CNN
F 1 "GNDA" V 2755 2472 50  0000 R CNN
F 2 "" H 2750 2600 50  0000 C CNN
F 3 "" H 2750 2600 50  0000 C CNN
	1    2750 2600
	0    -1   -1   0   
$EndComp
$Comp
L VCCA33 #PWR071
U 1 1 598F02D9
P 2750 2300
F 0 "#PWR071" H 2750 2150 50  0001 C CNN
F 1 "VCCA33" V 2767 2428 50  0000 L CNN
F 2 "" H 2750 2300 50  0000 C CNN
F 3 "" H 2750 2300 50  0000 C CNN
	1    2750 2300
	0    1    1    0   
$EndComp
$Comp
L VCCA33 #PWR072
U 1 1 598F0341
P 2750 1850
F 0 "#PWR072" H 2750 1700 50  0001 C CNN
F 1 "VCCA33" V 2767 1978 50  0000 L CNN
F 2 "" H 2750 1850 50  0000 C CNN
F 3 "" H 2750 1850 50  0000 C CNN
	1    2750 1850
	0    1    1    0   
$EndComp
$Comp
L VCCA33 #PWR073
U 1 1 598F0385
P 2750 1400
F 0 "#PWR073" H 2750 1250 50  0001 C CNN
F 1 "VCCA33" V 2767 1528 50  0000 L CNN
F 2 "" H 2750 1400 50  0000 C CNN
F 3 "" H 2750 1400 50  0000 C CNN
	1    2750 1400
	0    1    1    0   
$EndComp
$Comp
L GNDD #PWR074
U 1 1 598F0491
P 2750 6850
F 0 "#PWR074" H 2750 6600 50  0001 C CNN
F 1 "GNDD" V 2755 6722 50  0000 R CNN
F 2 "" H 2750 6850 50  0000 C CNN
F 3 "" H 2750 6850 50  0000 C CNN
	1    2750 6850
	0    -1   -1   0   
$EndComp
$Comp
L GNDD #PWR075
U 1 1 598F0505
P 2750 6400
F 0 "#PWR075" H 2750 6150 50  0001 C CNN
F 1 "GNDD" V 2755 6272 50  0000 R CNN
F 2 "" H 2750 6400 50  0000 C CNN
F 3 "" H 2750 6400 50  0000 C CNN
	1    2750 6400
	0    -1   -1   0   
$EndComp
$Comp
L C C37
U 1 1 598F08E5
P 3800 1600
F 0 "C37" H 3915 1646 50  0000 L CNN
F 1 "1n" H 3915 1555 50  0000 L CNN
F 2 "Capacitors_SMD:C_0402" H 3838 1450 50  0001 C CNN
F 3 "" H 3800 1600 50  0000 C CNN
	1    3800 1600
	1    0    0    -1  
$EndComp
$Comp
L C C43
U 1 1 598F0929
P 4300 1600
F 0 "C43" H 4415 1646 50  0000 L CNN
F 1 "100n" H 4415 1555 50  0000 L CNN
F 2 "Capacitors_SMD:C_0402" H 4338 1450 50  0001 C CNN
F 3 "" H 4300 1600 50  0000 C CNN
	1    4300 1600
	1    0    0    -1  
$EndComp
$Comp
L C C49
U 1 1 598F0979
P 4800 1600
F 0 "C49" H 4915 1646 50  0000 L CNN
F 1 "1u" H 4915 1555 50  0000 L CNN
F 2 "Capacitors_SMD:C_0402" H 4838 1450 50  0001 C CNN
F 3 "" H 4800 1600 50  0000 C CNN
	1    4800 1600
	1    0    0    -1  
$EndComp
Wire Wire Line
	3800 1750 5150 1750
Wire Wire Line
	3800 1450 5150 1450
$Comp
L VCCA18 #PWR076
U 1 1 598F0DBD
P 5150 1450
F 0 "#PWR076" H 5150 1300 50  0001 C CNN
F 1 "VCCA18" V 5167 1578 50  0000 L CNN
F 2 "" H 5150 1450 50  0000 C CNN
F 3 "" H 5150 1450 50  0000 C CNN
	1    5150 1450
	0    1    1    0   
$EndComp
$Comp
L GNDA #PWR077
U 1 1 598F0DFE
P 5150 1750
F 0 "#PWR077" H 5150 1500 50  0001 C CNN
F 1 "GNDA" V 5155 1622 50  0000 R CNN
F 2 "" H 5150 1750 50  0000 C CNN
F 3 "" H 5150 1750 50  0000 C CNN
	1    5150 1750
	0    -1   -1   0   
$EndComp
$Comp
L C C38
U 1 1 598F0EE5
P 3800 2050
F 0 "C38" H 3915 2096 50  0000 L CNN
F 1 "1n" H 3915 2005 50  0000 L CNN
F 2 "Capacitors_SMD:C_0402" H 3838 1900 50  0001 C CNN
F 3 "" H 3800 2050 50  0000 C CNN
	1    3800 2050
	1    0    0    -1  
$EndComp
$Comp
L C C44
U 1 1 598F0EEB
P 4300 2050
F 0 "C44" H 4415 2096 50  0000 L CNN
F 1 "100n" H 4415 2005 50  0000 L CNN
F 2 "Capacitors_SMD:C_0402" H 4338 1900 50  0001 C CNN
F 3 "" H 4300 2050 50  0000 C CNN
	1    4300 2050
	1    0    0    -1  
$EndComp
$Comp
L C C50
U 1 1 598F0EF1
P 4800 2050
F 0 "C50" H 4915 2096 50  0000 L CNN
F 1 "1u" H 4915 2005 50  0000 L CNN
F 2 "Capacitors_SMD:C_0402" H 4838 1900 50  0001 C CNN
F 3 "" H 4800 2050 50  0000 C CNN
	1    4800 2050
	1    0    0    -1  
$EndComp
Wire Wire Line
	3800 2200 5150 2200
Wire Wire Line
	3800 1900 5150 1900
$Comp
L VCCA18 #PWR078
U 1 1 598F0EF9
P 5150 1900
F 0 "#PWR078" H 5150 1750 50  0001 C CNN
F 1 "VCCA18" V 5167 2028 50  0000 L CNN
F 2 "" H 5150 1900 50  0000 C CNN
F 3 "" H 5150 1900 50  0000 C CNN
	1    5150 1900
	0    1    1    0   
$EndComp
$Comp
L GNDA #PWR079
U 1 1 598F0EFF
P 5150 2200
F 0 "#PWR079" H 5150 1950 50  0001 C CNN
F 1 "GNDA" V 5155 2072 50  0000 R CNN
F 2 "" H 5150 2200 50  0000 C CNN
F 3 "" H 5150 2200 50  0000 C CNN
	1    5150 2200
	0    -1   -1   0   
$EndComp
$Comp
L C C19
U 1 1 598F0FA9
P 1400 1550
F 0 "C19" H 1515 1596 50  0000 L CNN
F 1 "1u" H 1515 1505 50  0000 L CNN
F 2 "Capacitors_SMD:C_0402" H 1438 1400 50  0001 C CNN
F 3 "" H 1400 1550 50  0000 C CNN
	1    1400 1550
	1    0    0    -1  
$EndComp
$Comp
L C C20
U 1 1 598F0FF9
P 1400 2000
F 0 "C20" H 1515 2046 50  0000 L CNN
F 1 "1u" H 1515 1955 50  0000 L CNN
F 2 "Capacitors_SMD:C_0402" H 1438 1850 50  0001 C CNN
F 3 "" H 1400 2000 50  0000 C CNN
	1    1400 2000
	1    0    0    -1  
$EndComp
$Comp
L C C21
U 1 1 598F103B
P 1400 2450
F 0 "C21" H 1515 2496 50  0000 L CNN
F 1 "1u" H 1515 2405 50  0000 L CNN
F 2 "Capacitors_SMD:C_0402" H 1438 2300 50  0001 C CNN
F 3 "" H 1400 2450 50  0000 C CNN
	1    1400 2450
	1    0    0    -1  
$EndComp
Connection ~ 1900 1400
Connection ~ 1900 1700
Connection ~ 1900 1850
Connection ~ 1900 2600
Connection ~ 1900 2300
Connection ~ 1900 2150
Connection ~ 4800 1900
Connection ~ 4300 1900
Connection ~ 4800 2200
Connection ~ 4300 2200
Connection ~ 4300 1750
Connection ~ 4800 1750
Connection ~ 4800 1450
Connection ~ 4300 1450
Connection ~ 2450 2600
Connection ~ 2450 2300
Connection ~ 2450 2150
Connection ~ 2450 1850
Connection ~ 2450 1700
Connection ~ 2450 1400
$Comp
L C C23
U 1 1 598F165C
P 1400 6250
F 0 "C23" H 1515 6296 50  0000 L CNN
F 1 "1u" H 1515 6205 50  0000 L CNN
F 2 "Capacitors_SMD:C_0402" H 1438 6100 50  0001 C CNN
F 3 "" H 1400 6250 50  0000 C CNN
	1    1400 6250
	1    0    0    -1  
$EndComp
$Comp
L C C24
U 1 1 598F16AA
P 1400 6700
F 0 "C24" H 1515 6746 50  0000 L CNN
F 1 "1u" H 1515 6655 50  0000 L CNN
F 2 "Capacitors_SMD:C_0402" H 1438 6550 50  0001 C CNN
F 3 "" H 1400 6700 50  0000 C CNN
	1    1400 6700
	1    0    0    -1  
$EndComp
Connection ~ 1900 6100
Connection ~ 1900 6400
Connection ~ 1900 6850
Connection ~ 1900 6550
$Comp
L C C28
U 1 1 598F1E20
P 1900 4250
F 0 "C28" H 2015 4296 50  0000 L CNN
F 1 "100n" H 2015 4205 50  0000 L CNN
F 2 "Capacitors_SMD:C_0402" H 1938 4100 50  0001 C CNN
F 3 "" H 1900 4250 50  0000 C CNN
	1    1900 4250
	1    0    0    -1  
$EndComp
$Comp
L C C34
U 1 1 598F1E26
P 2450 4250
F 0 "C34" H 2565 4296 50  0000 L CNN
F 1 "1n" H 2565 4205 50  0000 L CNN
F 2 "Capacitors_SMD:C_0402" H 2488 4100 50  0001 C CNN
F 3 "" H 2450 4250 50  0000 C CNN
	1    2450 4250
	1    0    0    -1  
$EndComp
Wire Wire Line
	1400 4400 2750 4400
Wire Wire Line
	1400 4100 2750 4100
$Comp
L VCCD33 #PWR080
U 1 1 598F1E2E
P 2750 4100
F 0 "#PWR080" H 2750 3950 50  0001 C CNN
F 1 "VCCD33" V 2767 4228 50  0000 L CNN
F 2 "" H 2750 4100 50  0000 C CNN
F 3 "" H 2750 4100 50  0000 C CNN
	1    2750 4100
	0    1    1    0   
$EndComp
$Comp
L GNDD #PWR081
U 1 1 598F1E34
P 2750 4400
F 0 "#PWR081" H 2750 4150 50  0001 C CNN
F 1 "GNDD" V 2755 4272 50  0000 R CNN
F 2 "" H 2750 4400 50  0000 C CNN
F 3 "" H 2750 4400 50  0000 C CNN
	1    2750 4400
	0    -1   -1   0   
$EndComp
$Comp
L C C22
U 1 1 598F1E40
P 1400 4250
F 0 "C22" H 1515 4296 50  0000 L CNN
F 1 "1u" H 1515 4205 50  0000 L CNN
F 2 "Capacitors_SMD:C_0402" H 1438 4100 50  0001 C CNN
F 3 "" H 1400 4250 50  0000 C CNN
	1    1400 4250
	1    0    0    -1  
$EndComp
Connection ~ 1900 4400
Connection ~ 1900 4100
$Comp
L C C47
U 1 1 598F241E
P 4300 6250
F 0 "C47" H 4415 6296 50  0000 L CNN
F 1 "100n" H 4415 6205 50  0000 L CNN
F 2 "Capacitors_SMD:C_0402" H 4338 6100 50  0001 C CNN
F 3 "" H 4300 6250 50  0000 C CNN
	1    4300 6250
	1    0    0    -1  
$EndComp
$Comp
L C C53
U 1 1 598F2424
P 4850 6250
F 0 "C53" H 4965 6296 50  0000 L CNN
F 1 "1n" H 4965 6205 50  0000 L CNN
F 2 "Capacitors_SMD:C_0402" H 4888 6100 50  0001 C CNN
F 3 "" H 4850 6250 50  0000 C CNN
	1    4850 6250
	1    0    0    -1  
$EndComp
Wire Wire Line
	3800 6400 5150 6400
Wire Wire Line
	3800 6100 5150 6100
$Comp
L GNDD #PWR082
U 1 1 598F2432
P 5150 6400
F 0 "#PWR082" H 5150 6150 50  0001 C CNN
F 1 "GNDD" V 5155 6272 50  0000 R CNN
F 2 "" H 5150 6400 50  0000 C CNN
F 3 "" H 5150 6400 50  0000 C CNN
	1    5150 6400
	0    -1   -1   0   
$EndComp
$Comp
L C C41
U 1 1 598F2438
P 3800 6250
F 0 "C41" H 3915 6296 50  0000 L CNN
F 1 "1u" H 3915 6205 50  0000 L CNN
F 2 "Capacitors_SMD:C_0402" H 3838 6100 50  0001 C CNN
F 3 "" H 3800 6250 50  0000 C CNN
	1    3800 6250
	1    0    0    -1  
$EndComp
Connection ~ 4300 6400
Connection ~ 4300 6100
$Comp
L VCCD18 #PWR083
U 1 1 598F2514
P 5150 6100
F 0 "#PWR083" H 5150 5950 50  0001 C CNN
F 1 "VCCD18" V 5167 6228 50  0000 L CNN
F 2 "" H 5150 6100 50  0000 C CNN
F 3 "" H 5150 6100 50  0000 C CNN
	1    5150 6100
	0    1    1    0   
$EndComp
$Comp
L C C48
U 1 1 598F268E
P 4300 6700
F 0 "C48" H 4415 6746 50  0000 L CNN
F 1 "100n" H 4415 6655 50  0000 L CNN
F 2 "Capacitors_SMD:C_0402" H 4338 6550 50  0001 C CNN
F 3 "" H 4300 6700 50  0000 C CNN
	1    4300 6700
	1    0    0    -1  
$EndComp
$Comp
L C C54
U 1 1 598F2694
P 4850 6700
F 0 "C54" H 4965 6746 50  0000 L CNN
F 1 "1n" H 4965 6655 50  0000 L CNN
F 2 "Capacitors_SMD:C_0402" H 4888 6550 50  0001 C CNN
F 3 "" H 4850 6700 50  0000 C CNN
	1    4850 6700
	1    0    0    -1  
$EndComp
Wire Wire Line
	3800 6850 5150 6850
Wire Wire Line
	3800 6550 5150 6550
$Comp
L GNDD #PWR084
U 1 1 598F269C
P 5150 6850
F 0 "#PWR084" H 5150 6600 50  0001 C CNN
F 1 "GNDD" V 5155 6722 50  0000 R CNN
F 2 "" H 5150 6850 50  0000 C CNN
F 3 "" H 5150 6850 50  0000 C CNN
	1    5150 6850
	0    -1   -1   0   
$EndComp
$Comp
L C C42
U 1 1 598F26A2
P 3800 6700
F 0 "C42" H 3915 6746 50  0000 L CNN
F 1 "1u" H 3915 6655 50  0000 L CNN
F 2 "Capacitors_SMD:C_0402" H 3838 6550 50  0001 C CNN
F 3 "" H 3800 6700 50  0000 C CNN
	1    3800 6700
	1    0    0    -1  
$EndComp
Connection ~ 4300 6850
Connection ~ 4300 6550
$Comp
L VCCD18 #PWR085
U 1 1 598F26AA
P 5150 6550
F 0 "#PWR085" H 5150 6400 50  0001 C CNN
F 1 "VCCD18" V 5167 6678 50  0000 L CNN
F 2 "" H 5150 6550 50  0000 C CNN
F 3 "" H 5150 6550 50  0000 C CNN
	1    5150 6550
	0    1    1    0   
$EndComp
$Comp
L C C45
U 1 1 598F2AB2
P 4300 4250
F 0 "C45" H 4415 4296 50  0000 L CNN
F 1 "100n" H 4415 4205 50  0000 L CNN
F 2 "Capacitors_SMD:C_0402" H 4338 4100 50  0001 C CNN
F 3 "" H 4300 4250 50  0000 C CNN
	1    4300 4250
	1    0    0    -1  
$EndComp
$Comp
L C C51
U 1 1 598F2AB8
P 4850 4250
F 0 "C51" H 4965 4296 50  0000 L CNN
F 1 "1n" H 4965 4205 50  0000 L CNN
F 2 "Capacitors_SMD:C_0402" H 4888 4100 50  0001 C CNN
F 3 "" H 4850 4250 50  0000 C CNN
	1    4850 4250
	1    0    0    -1  
$EndComp
Wire Wire Line
	3800 4400 5150 4400
Wire Wire Line
	3800 4100 5150 4100
$Comp
L GNDD #PWR086
U 1 1 598F2AC0
P 5150 4400
F 0 "#PWR086" H 5150 4150 50  0001 C CNN
F 1 "GNDD" V 5155 4272 50  0000 R CNN
F 2 "" H 5150 4400 50  0000 C CNN
F 3 "" H 5150 4400 50  0000 C CNN
	1    5150 4400
	0    -1   -1   0   
$EndComp
$Comp
L C C39
U 1 1 598F2AC6
P 3800 4250
F 0 "C39" H 3915 4296 50  0000 L CNN
F 1 "1u" H 3915 4205 50  0000 L CNN
F 2 "Capacitors_SMD:C_0402" H 3838 4100 50  0001 C CNN
F 3 "" H 3800 4250 50  0000 C CNN
	1    3800 4250
	1    0    0    -1  
$EndComp
Connection ~ 4300 4400
Connection ~ 4300 4100
$Comp
L VCCD18 #PWR087
U 1 1 598F2ACE
P 5150 4100
F 0 "#PWR087" H 5150 3950 50  0001 C CNN
F 1 "VCCD18" V 5167 4228 50  0000 L CNN
F 2 "" H 5150 4100 50  0000 C CNN
F 3 "" H 5150 4100 50  0000 C CNN
	1    5150 4100
	0    1    1    0   
$EndComp
$Comp
L C C46
U 1 1 598F2AD4
P 4300 4700
F 0 "C46" H 4415 4746 50  0000 L CNN
F 1 "100n" H 4415 4655 50  0000 L CNN
F 2 "Capacitors_SMD:C_0402" H 4338 4550 50  0001 C CNN
F 3 "" H 4300 4700 50  0000 C CNN
	1    4300 4700
	1    0    0    -1  
$EndComp
$Comp
L C C52
U 1 1 598F2ADA
P 4850 4700
F 0 "C52" H 4965 4746 50  0000 L CNN
F 1 "1n" H 4965 4655 50  0000 L CNN
F 2 "Capacitors_SMD:C_0402" H 4888 4550 50  0001 C CNN
F 3 "" H 4850 4700 50  0000 C CNN
	1    4850 4700
	1    0    0    -1  
$EndComp
Wire Wire Line
	3800 4550 5150 4550
$Comp
L GNDD #PWR088
U 1 1 598F2AE2
P 5150 4850
F 0 "#PWR088" H 5150 4600 50  0001 C CNN
F 1 "GNDD" V 5155 4722 50  0000 R CNN
F 2 "" H 5150 4850 50  0000 C CNN
F 3 "" H 5150 4850 50  0000 C CNN
	1    5150 4850
	0    -1   -1   0   
$EndComp
$Comp
L C C40
U 1 1 598F2AE8
P 3800 4700
F 0 "C40" H 3915 4746 50  0000 L CNN
F 1 "1u" H 3915 4655 50  0000 L CNN
F 2 "Capacitors_SMD:C_0402" H 3838 4550 50  0001 C CNN
F 3 "" H 3800 4700 50  0000 C CNN
	1    3800 4700
	1    0    0    -1  
$EndComp
Connection ~ 4300 4850
Connection ~ 4300 4550
$Comp
L VCCD18 #PWR089
U 1 1 598F2AF0
P 5150 4550
F 0 "#PWR089" H 5150 4400 50  0001 C CNN
F 1 "VCCD18" V 5167 4678 50  0000 L CNN
F 2 "" H 5150 4550 50  0000 C CNN
F 3 "" H 5150 4550 50  0000 C CNN
	1    5150 4550
	0    1    1    0   
$EndComp
Text Notes 3750 2550 0    60   ~ 0
Analog: Filter capacitors close to the chip
Text Notes 1200 4800 0    60   ~ 0
ADC: Filter capacitors close to the chip
Text Notes 1400 5900 0    60   ~ 0
Digital: Filter capacitors close to the chip
$Comp
L C C55
U 1 1 598DA97B
P 6950 3100
F 0 "C55" H 7065 3146 50  0000 L CNN
F 1 "10u(DNP)" H 7065 3055 50  0000 L CNN
F 2 "Capacitors_SMD:C_0805_HandSoldering" H 6988 2950 50  0001 C CNN
F 3 "" H 6950 3100 50  0000 C CNN
	1    6950 3100
	1    0    0    -1  
$EndComp
$Comp
L C C59
U 1 1 598DAA6B
P 7500 3100
F 0 "C59" H 7615 3146 50  0000 L CNN
F 1 "10u(DNP)" H 7615 3055 50  0000 L CNN
F 2 "Capacitors_SMD:C_0805_HandSoldering" H 7538 2950 50  0001 C CNN
F 3 "" H 7500 3100 50  0000 C CNN
	1    7500 3100
	1    0    0    -1  
$EndComp
Wire Wire Line
	6950 3250 7800 3250
Wire Wire Line
	6950 2950 7800 2950
Connection ~ 7500 2950
Connection ~ 7500 3250
$Comp
L C C56
U 1 1 598DB2FB
P 6950 3600
F 0 "C56" H 7065 3646 50  0000 L CNN
F 1 "10u(DNP)" H 7065 3555 50  0000 L CNN
F 2 "Capacitors_SMD:C_0805_HandSoldering" H 6988 3450 50  0001 C CNN
F 3 "" H 6950 3600 50  0000 C CNN
	1    6950 3600
	1    0    0    -1  
$EndComp
$Comp
L C C60
U 1 1 598DB301
P 7500 3600
F 0 "C60" H 7615 3646 50  0000 L CNN
F 1 "10u(DNP)" H 7615 3555 50  0000 L CNN
F 2 "Capacitors_SMD:C_0805_HandSoldering" H 7538 3450 50  0001 C CNN
F 3 "" H 7500 3600 50  0000 C CNN
	1    7500 3600
	1    0    0    -1  
$EndComp
Wire Wire Line
	6950 3750 7800 3750
Wire Wire Line
	6950 3450 7800 3450
Connection ~ 7500 3450
Connection ~ 7500 3750
$Comp
L C C57
U 1 1 598DB831
P 6950 4250
F 0 "C57" H 7065 4296 50  0000 L CNN
F 1 "10u(DNP)" H 7065 4205 50  0000 L CNN
F 2 "Capacitors_SMD:C_0805_HandSoldering" H 6988 4100 50  0001 C CNN
F 3 "" H 6950 4250 50  0000 C CNN
	1    6950 4250
	1    0    0    -1  
$EndComp
$Comp
L C C61
U 1 1 598DB837
P 7500 4250
F 0 "C61" H 7615 4296 50  0000 L CNN
F 1 "10u(DNP)" H 7615 4205 50  0000 L CNN
F 2 "Capacitors_SMD:C_0805_HandSoldering" H 7538 4100 50  0001 C CNN
F 3 "" H 7500 4250 50  0000 C CNN
	1    7500 4250
	1    0    0    -1  
$EndComp
Wire Wire Line
	6950 4400 7800 4400
Wire Wire Line
	6950 4100 7800 4100
Connection ~ 7500 4100
Connection ~ 7500 4400
$Comp
L C C58
U 1 1 598DB841
P 6950 4750
F 0 "C58" H 7065 4796 50  0000 L CNN
F 1 "10u(DNP)" H 7065 4705 50  0000 L CNN
F 2 "Capacitors_SMD:C_0805_HandSoldering" H 6988 4600 50  0001 C CNN
F 3 "" H 6950 4750 50  0000 C CNN
	1    6950 4750
	1    0    0    -1  
$EndComp
$Comp
L C C62
U 1 1 598DB847
P 7500 4750
F 0 "C62" H 7615 4796 50  0000 L CNN
F 1 "10u(DNP)" H 7615 4705 50  0000 L CNN
F 2 "Capacitors_SMD:C_0805_HandSoldering" H 7538 4600 50  0001 C CNN
F 3 "" H 7500 4750 50  0000 C CNN
	1    7500 4750
	1    0    0    -1  
$EndComp
Wire Wire Line
	6950 4900 7800 4900
Wire Wire Line
	6950 4600 7800 4600
Connection ~ 7500 4600
Connection ~ 7500 4900
$Comp
L GNDD #PWR090
U 1 1 598DB885
P 7800 4900
F 0 "#PWR090" H 7800 4650 50  0001 C CNN
F 1 "GNDD" V 7805 4772 50  0000 R CNN
F 2 "" H 7800 4900 50  0000 C CNN
F 3 "" H 7800 4900 50  0000 C CNN
	1    7800 4900
	0    -1   -1   0   
$EndComp
$Comp
L GNDD #PWR091
U 1 1 598DBA5B
P 7800 4400
F 0 "#PWR091" H 7800 4150 50  0001 C CNN
F 1 "GNDD" V 7805 4272 50  0000 R CNN
F 2 "" H 7800 4400 50  0000 C CNN
F 3 "" H 7800 4400 50  0000 C CNN
	1    7800 4400
	0    -1   -1   0   
$EndComp
$Comp
L VCCD18 #PWR092
U 1 1 598DBC31
P 7800 4100
F 0 "#PWR092" H 7800 3950 50  0001 C CNN
F 1 "VCCD18" V 7817 4228 50  0000 L CNN
F 2 "" H 7800 4100 50  0000 C CNN
F 3 "" H 7800 4100 50  0000 C CNN
	1    7800 4100
	0    1    1    0   
$EndComp
$Comp
L VCCD33 #PWR093
U 1 1 598DBCDB
P 7800 4600
F 0 "#PWR093" H 7800 4450 50  0001 C CNN
F 1 "VCCD33" V 7817 4728 50  0000 L CNN
F 2 "" H 7800 4600 50  0000 C CNN
F 3 "" H 7800 4600 50  0000 C CNN
	1    7800 4600
	0    1    1    0   
$EndComp
$Comp
L GNDA #PWR094
U 1 1 598DBE7F
P 7800 3750
F 0 "#PWR094" H 7800 3500 50  0001 C CNN
F 1 "GNDA" V 7805 3622 50  0000 R CNN
F 2 "" H 7800 3750 50  0000 C CNN
F 3 "" H 7800 3750 50  0000 C CNN
	1    7800 3750
	0    -1   -1   0   
$EndComp
$Comp
L GNDA #PWR095
U 1 1 598DBF8D
P 7800 3250
F 0 "#PWR095" H 7800 3000 50  0001 C CNN
F 1 "GNDA" V 7805 3122 50  0000 R CNN
F 2 "" H 7800 3250 50  0000 C CNN
F 3 "" H 7800 3250 50  0000 C CNN
	1    7800 3250
	0    -1   -1   0   
$EndComp
$Comp
L VCCA18 #PWR096
U 1 1 598DC09B
P 7800 2950
F 0 "#PWR096" H 7800 2800 50  0001 C CNN
F 1 "VCCA18" V 7817 3078 50  0000 L CNN
F 2 "" H 7800 2950 50  0000 C CNN
F 3 "" H 7800 2950 50  0000 C CNN
	1    7800 2950
	0    1    1    0   
$EndComp
$Comp
L VCCA33 #PWR097
U 1 1 598DC145
P 7800 3450
F 0 "#PWR097" H 7800 3300 50  0001 C CNN
F 1 "VCCA33" V 7817 3578 50  0000 L CNN
F 2 "" H 7800 3450 50  0000 C CNN
F 3 "" H 7800 3450 50  0000 C CNN
	1    7800 3450
	0    1    1    0   
$EndComp
Text Notes 6950 2750 0    60   ~ 0
Near the power input caps
Connection ~ 2450 4100
Connection ~ 2450 4400
Connection ~ 4850 4100
Connection ~ 4850 4400
Connection ~ 4850 4550
Connection ~ 4850 4850
Connection ~ 2450 6100
Connection ~ 2450 6400
Connection ~ 2450 6550
Connection ~ 2450 6850
Connection ~ 4850 6850
Connection ~ 4850 6550
Connection ~ 4850 6400
Connection ~ 4850 6100
Wire Wire Line
	3800 4850 5150 4850
$EndSCHEMATC
