EESchema Schematic File Version 2
LIBS:klaus
LIBS:power
LIBS:device
LIBS:transistors
LIBS:conn
LIBS:linear
LIBS:regul
LIBS:74xx
LIBS:cmos4000
LIBS:adc-dac
LIBS:memory
LIBS:xilinx
LIBS:microcontrollers
LIBS:dsp
LIBS:microchip
LIBS:analog_switches
LIBS:motorola
LIBS:texas
LIBS:intel
LIBS:audio
LIBS:interface
LIBS:digital-audio
LIBS:philips
LIBS:display
LIBS:cypress
LIBS:siliconi
LIBS:opto
LIBS:atmel
LIBS:contrib
LIBS:valves
LIBS:Si5340
LIBS:Si514
LIBS:SN65LVDS104
LIBS:TPS7A7001
LIBS:BSH-060-01-X-D-A
LIBS:power_special
LIBS:ADN4661
LIBS:Mechanical
LIBS:THS4541
LIBS:ISL21080-09
LIBS:ISL60002-11
LIBS:ISL60002-18
LIBS:LTC6248
LIBS:MAX6120
LIBS:OPA2354
LIBS:REFDES
LIBS:klaus5_tb-cache
EELAYER 26 0
EELAYER END
$Descr A4 11693 8268
encoding utf-8
Sheet 4 8
Title ""
Date "2017-08-11"
Rev ""
Comp ""
Comment1 ""
Comment2 ""
Comment3 ""
Comment4 ""
$EndDescr
$Comp
L LTC6248 U4
U 1 1 598F7447
P 7050 2000
F 0 "U4" H 7300 2137 60  0000 C CNN
F 1 "LTC6248" H 7300 2031 60  0000 C CNN
F 2 "klaus:LTC6248" H 7050 2000 60  0001 C CNN
F 3 "" H 7050 2000 60  0001 C CNN
	1    7050 2000
	1    0    0    -1  
$EndComp
$Comp
L R R13
U 1 1 598F752C
P 4700 2150
F 0 "R13" V 4493 2150 50  0000 C CNN
F 1 "5k" V 4584 2150 50  0000 C CNN
F 2 "Resistors_SMD:R_0603" V 4630 2150 50  0001 C CNN
F 3 "" H 4700 2150 50  0000 C CNN
	1    4700 2150
	0    1    1    0   
$EndComp
$Comp
L C C5
U 1 1 598F756D
P 5100 2300
F 0 "C5" H 5215 2346 50  0000 L CNN
F 1 "330n" H 5215 2255 50  0000 L CNN
F 2 "Capacitors_SMD:C_0603" H 5138 2150 50  0001 C CNN
F 3 "" H 5100 2300 50  0000 C CNN
	1    5100 2300
	1    0    0    -1  
$EndComp
$Comp
L C C6
U 1 1 598F75C7
P 6350 2700
F 0 "C6" H 6465 2746 50  0000 L CNN
F 1 "10n" H 6465 2655 50  0000 L CNN
F 2 "Capacitors_SMD:C_0603" H 6388 2550 50  0001 C CNN
F 3 "" H 6350 2700 50  0000 C CNN
	1    6350 2700
	1    0    0    -1  
$EndComp
$Comp
L R R16
U 1 1 598F760B
P 6050 2450
F 0 "R16" V 5843 2450 50  0000 C CNN
F 1 "3.3k" V 5934 2450 50  0000 C CNN
F 2 "Resistors_SMD:R_0603" V 5980 2450 50  0001 C CNN
F 3 "" H 6050 2450 50  0000 C CNN
	1    6050 2450
	0    1    1    0   
$EndComp
$Comp
L C C2
U 1 1 598F7676
P 4250 2300
F 0 "C2" H 4365 2346 50  0000 L CNN
F 1 "100n" H 4365 2255 50  0000 L CNN
F 2 "Capacitors_SMD:C_0603" H 4288 2150 50  0001 C CNN
F 3 "" H 4250 2300 50  0000 C CNN
	1    4250 2300
	1    0    0    -1  
$EndComp
$Comp
L C C1
U 1 1 598F771B
P 2800 2400
F 0 "C1" H 2915 2446 50  0000 L CNN
F 1 "100n" H 2915 2355 50  0000 L CNN
F 2 "Capacitors_SMD:C_0603" H 2838 2250 50  0001 C CNN
F 3 "" H 2800 2400 50  0000 C CNN
	1    2800 2400
	1    0    0    -1  
$EndComp
$Comp
L GNDA #PWR040
U 1 1 598F7863
P 2800 2650
F 0 "#PWR040" H 2800 2400 50  0001 C CNN
F 1 "GNDA" H 2805 2477 50  0000 C CNN
F 2 "" H 2800 2650 50  0000 C CNN
F 3 "" H 2800 2650 50  0000 C CNN
	1    2800 2650
	1    0    0    -1  
$EndComp
$Comp
L GNDA #PWR041
U 1 1 598F7887
P 4250 2500
F 0 "#PWR041" H 4250 2250 50  0001 C CNN
F 1 "GNDA" H 4255 2327 50  0000 C CNN
F 2 "" H 4250 2500 50  0000 C CNN
F 3 "" H 4250 2500 50  0000 C CNN
	1    4250 2500
	1    0    0    -1  
$EndComp
$Comp
L GNDA #PWR042
U 1 1 598F78AB
P 5100 2500
F 0 "#PWR042" H 5100 2250 50  0001 C CNN
F 1 "GNDA" H 5105 2327 50  0000 C CNN
F 2 "" H 5100 2500 50  0000 C CNN
F 3 "" H 5100 2500 50  0000 C CNN
	1    5100 2500
	1    0    0    -1  
$EndComp
$Comp
L GNDA #PWR043
U 1 1 598F78CF
P 6350 2850
F 0 "#PWR043" H 6350 2600 50  0001 C CNN
F 1 "GNDA" H 6355 2677 50  0000 C CNN
F 2 "" H 6350 2850 50  0000 C CNN
F 3 "" H 6350 2850 50  0000 C CNN
	1    6350 2850
	1    0    0    -1  
$EndComp
$Comp
L VCCA33 #PWR044
U 1 1 598F78F3
P 2550 2150
F 0 "#PWR044" H 2550 2000 50  0001 C CNN
F 1 "VCCA33" H 2567 2323 50  0000 C CNN
F 2 "" H 2550 2150 50  0000 C CNN
F 3 "" H 2550 2150 50  0000 C CNN
	1    2550 2150
	1    0    0    -1  
$EndComp
$Comp
L C C13
U 1 1 598F7987
P 8200 2500
F 0 "C13" H 8315 2546 50  0000 L CNN
F 1 "6.8u" H 8315 2455 50  0000 L CNN
F 2 "Capacitors_SMD:C_0603" H 8238 2350 50  0001 C CNN
F 3 "" H 8200 2500 50  0000 C CNN
	1    8200 2500
	1    0    0    -1  
$EndComp
$Comp
L C C15
U 1 1 598F79C5
P 9050 2350
F 0 "C15" V 8798 2350 50  0000 C CNN
F 1 "440p" V 8889 2350 50  0000 C CNN
F 2 "Capacitors_SMD:C_0603" H 9088 2200 50  0001 C CNN
F 3 "" H 9050 2350 50  0000 C CNN
	1    9050 2350
	0    1    1    0   
$EndComp
$Comp
L R R25
U 1 1 598F7A14
P 9050 2700
F 0 "R25" V 8843 2700 50  0000 C CNN
F 1 "2k" V 8934 2700 50  0000 C CNN
F 2 "Resistors_SMD:R_0603" V 8980 2700 50  0001 C CNN
F 3 "" H 9050 2700 50  0000 C CNN
	1    9050 2700
	0    1    1    0   
$EndComp
$Comp
L R R24
U 1 1 598F7A5A
P 9050 1450
F 0 "R24" V 8843 1450 50  0000 C CNN
F 1 "4k" V 8934 1450 50  0000 C CNN
F 2 "Resistors_SMD:R_0603" V 8980 1450 50  0001 C CNN
F 3 "" H 9050 1450 50  0000 C CNN
	1    9050 1450
	0    1    1    0   
$EndComp
$Comp
L C C12
U 1 1 598F7B29
P 8200 1650
F 0 "C12" H 8315 1696 50  0000 L CNN
F 1 "12u" H 8315 1605 50  0000 L CNN
F 2 "Capacitors_SMD:C_0603" H 8238 1500 50  0001 C CNN
F 3 "" H 8200 1650 50  0000 C CNN
	1    8200 1650
	1    0    0    -1  
$EndComp
$Comp
L C C9
U 1 1 598F7BBC
P 7300 1450
F 0 "C9" V 7048 1450 50  0000 C CNN
F 1 "820p" V 7139 1450 50  0000 C CNN
F 2 "Capacitors_SMD:C_0603" H 7338 1300 50  0001 C CNN
F 3 "" H 7300 1450 50  0000 C CNN
	1    7300 1450
	0    1    1    0   
$EndComp
$Comp
L R R20
U 1 1 598F7C23
P 7300 1100
F 0 "R20" V 7093 1100 50  0000 C CNN
F 1 "1k" V 7184 1100 50  0000 C CNN
F 2 "Resistors_SMD:R_0603" V 7230 1100 50  0001 C CNN
F 3 "" H 7300 1100 50  0000 C CNN
	1    7300 1100
	0    1    1    0   
$EndComp
$Comp
L R R17
U 1 1 598F7C7B
P 6300 1450
F 0 "R17" V 6250 1300 50  0000 C CNN
F 1 "2k" V 6250 1600 50  0000 C CNN
F 2 "Resistors_SMD:R_0603" V 6230 1450 50  0001 C CNN
F 3 "" H 6300 1450 50  0000 C CNN
	1    6300 1450
	0    1    1    0   
$EndComp
Wire Wire Line
	3800 2150 4550 2150
Wire Wire Line
	2550 2150 2950 2150
Wire Wire Line
	2800 2250 2800 2150
Connection ~ 2800 2150
Wire Wire Line
	2800 2550 2800 2650
Wire Wire Line
	2800 2650 3350 2650
Wire Wire Line
	3350 2650 3350 2600
Wire Wire Line
	5900 2450 5650 2450
Wire Wire Line
	5650 2450 5650 2150
Connection ~ 5650 2150
Wire Wire Line
	6200 2450 6850 2450
Wire Wire Line
	6350 2550 6350 2450
Connection ~ 6350 2450
Wire Wire Line
	6250 2250 6850 2250
Wire Wire Line
	6450 1450 7150 1450
Connection ~ 6750 1450
Wire Wire Line
	7150 1100 6750 1100
Wire Wire Line
	7450 1450 8900 1450
Connection ~ 8200 1450
Connection ~ 7900 1450
Wire Wire Line
	7450 1100 7900 1100
Wire Wire Line
	7750 2350 8900 2350
Connection ~ 8200 2350
Wire Wire Line
	7900 1100 7900 2250
Wire Wire Line
	7900 2250 7750 2250
Wire Wire Line
	9200 1450 9350 1450
Wire Wire Line
	9350 1450 9350 2900
Wire Wire Line
	9350 2700 9200 2700
Wire Wire Line
	9200 2350 9350 2350
Connection ~ 9350 2350
Wire Wire Line
	8650 2350 8650 2700
Wire Wire Line
	8650 2700 8900 2700
Connection ~ 8650 2350
Wire Wire Line
	6850 2350 6750 2350
Wire Wire Line
	6750 2350 6750 2900
Wire Wire Line
	6750 2900 9350 2900
Connection ~ 9350 2700
$Comp
L GNDA #PWR045
U 1 1 598F8079
P 5950 1450
F 0 "#PWR045" H 5950 1200 50  0001 C CNN
F 1 "GNDA" V 5955 1323 50  0000 R CNN
F 2 "" H 5950 1450 50  0000 C CNN
F 3 "" H 5950 1450 50  0000 C CNN
	1    5950 1450
	0    1    1    0   
$EndComp
$Comp
L GNDA #PWR046
U 1 1 598F812D
P 8200 2650
F 0 "#PWR046" H 8200 2400 50  0001 C CNN
F 1 "GNDA" H 8205 2477 50  0000 C CNN
F 2 "" H 8200 2650 50  0000 C CNN
F 3 "" H 8200 2650 50  0000 C CNN
	1    8200 2650
	1    0    0    -1  
$EndComp
$Comp
L GNDA #PWR047
U 1 1 598F81C1
P 8200 1800
F 0 "#PWR047" H 8200 1550 50  0001 C CNN
F 1 "GNDA" H 8205 1627 50  0000 C CNN
F 2 "" H 8200 1800 50  0000 C CNN
F 3 "" H 8200 1800 50  0000 C CNN
	1    8200 1800
	1    0    0    -1  
$EndComp
Wire Wire Line
	6150 1450 5950 1450
$Comp
L GNDA #PWR048
U 1 1 598F82CF
P 7750 2450
F 0 "#PWR048" H 7750 2200 50  0001 C CNN
F 1 "GNDA" H 7755 2277 50  0000 C CNN
F 2 "" H 7750 2450 50  0000 C CNN
F 3 "" H 7750 2450 50  0000 C CNN
	1    7750 2450
	1    0    0    -1  
$EndComp
$Comp
L VCCA33 #PWR049
U 1 1 598F8303
P 7750 2150
F 0 "#PWR049" H 7750 2000 50  0001 C CNN
F 1 "VCCA33" H 7767 2323 50  0000 C CNN
F 2 "" H 7750 2150 50  0000 C CNN
F 3 "" H 7750 2150 50  0000 C CNN
	1    7750 2150
	1    0    0    -1  
$EndComp
Text HLabel 4100 1800 2    60   Output ~ 0
refv_fe
Text HLabel 8900 3350 2    60   Output ~ 0
refv_v
Text HLabel 8900 3450 2    60   Output ~ 0
refv_cm
Wire Wire Line
	4100 1800 4000 1800
Wire Wire Line
	4000 1800 4000 2150
Connection ~ 4000 2150
Wire Wire Line
	8900 3350 8700 3350
Wire Wire Line
	8900 3450 8700 3450
Wire Wire Line
	7950 3350 8200 3350
Wire Wire Line
	7950 3450 8200 3450
Text Label 8100 3350 2    60   ~ 0
ref_1p8
Text Label 8100 3450 2    60   ~ 0
ref_0p9
Wire Wire Line
	8200 1500 8200 1450
Text Label 8650 1450 2    60   ~ 0
ref_1p8
Text Label 8650 2350 2    60   ~ 0
ref_0p9
Connection ~ 5100 2150
Text Notes 6700 3450 2    60   ~ 0
Generate all the reference voltage needed for the Front-end and ADC.\nIf ADC enable the internal ref_buf, then disconnect this.
$Comp
L THS4541 U3
U 1 1 598FC292
P 5250 4350
F 0 "U3" H 5550 4437 60  0000 C CNN
F 1 "THS4541" H 5550 4331 60  0000 C CNN
F 2 "klaus:THS4541" H 5250 4350 60  0001 C CNN
F 3 "" H 5250 4350 60  0001 C CNN
	1    5250 4350
	1    0    0    -1  
$EndComp
$Comp
L R R18
U 1 1 598FC3A4
P 6700 4450
F 0 "R18" V 6650 4300 50  0000 C CNN
F 1 "35.7" V 6650 4650 50  0000 C CNN
F 2 "Resistors_SMD:R_0603" V 6630 4450 50  0001 C CNN
F 3 "" H 6700 4450 50  0000 C CNN
	1    6700 4450
	0    1    1    0   
$EndComp
$Comp
L R R19
U 1 1 598FC692
P 6700 4750
F 0 "R19" V 6750 4600 50  0000 C CNN
F 1 "35.7" V 6750 4950 50  0000 C CNN
F 2 "Resistors_SMD:R_0603" V 6630 4750 50  0001 C CNN
F 3 "" H 6700 4750 50  0000 C CNN
	1    6700 4750
	0    1    1    0   
$EndComp
$Comp
L C C10
U 1 1 598FC7AA
P 7200 4600
F 0 "C10" H 7315 4646 50  0000 L CNN
F 1 "33p" H 7315 4555 50  0000 L CNN
F 2 "Capacitors_SMD:C_0603" H 7238 4450 50  0001 C CNN
F 3 "" H 7200 4600 50  0000 C CNN
	1    7200 4600
	1    0    0    -1  
$EndComp
$Comp
L L L1
U 1 1 598FC873
P 7650 4450
F 0 "L1" V 7700 4600 50  0000 C CNN
F 1 "250nH" V 7700 4300 50  0000 C CNN
F 2 "Capacitors_SMD:C_0603" H 7650 4450 50  0001 C CNN
F 3 "" H 7650 4450 50  0000 C CNN
	1    7650 4450
	0    -1   -1   0   
$EndComp
$Comp
L L L2
U 1 1 598FC974
P 7650 4750
F 0 "L2" V 7700 4900 50  0000 C CNN
F 1 "250nH" V 7700 4600 50  0000 C CNN
F 2 "Capacitors_SMD:C_0603" H 7650 4750 50  0001 C CNN
F 3 "" H 7650 4750 50  0000 C CNN
	1    7650 4750
	0    -1   -1   0   
$EndComp
$Comp
L R R21
U 1 1 598FCA84
P 8400 4600
F 0 "R21" H 8470 4646 50  0000 L CNN
F 1 "442" H 8470 4555 50  0000 L CNN
F 2 "Resistors_SMD:R_0603" V 8330 4600 50  0001 C CNN
F 3 "" H 8400 4600 50  0000 C CNN
	1    8400 4600
	1    0    0    -1  
$EndComp
$Comp
L C C14
U 1 1 598FCAE0
P 8050 4600
F 0 "C14" H 8165 4646 50  0000 L CNN
F 1 "180p" H 8165 4555 50  0000 L CNN
F 2 "Capacitors_SMD:C_0603" H 8088 4450 50  0001 C CNN
F 3 "" H 8050 4600 50  0000 C CNN
	1    8050 4600
	1    0    0    -1  
$EndComp
$Comp
L R R22
U 1 1 598FCC27
P 8850 4450
F 0 "R22" V 8800 4300 50  0000 C CNN
F 1 "6.2(DNP)" V 8800 4700 50  0000 C CNN
F 2 "Resistors_SMD:R_0603" V 8780 4450 50  0001 C CNN
F 3 "" H 8850 4450 50  0000 C CNN
	1    8850 4450
	0    1    1    0   
$EndComp
$Comp
L R R23
U 1 1 598FCC2D
P 8850 4750
F 0 "R23" V 8900 4600 50  0000 C CNN
F 1 "6.2(DNP)" V 8900 5000 50  0000 C CNN
F 2 "Resistors_SMD:R_0603" V 8780 4750 50  0001 C CNN
F 3 "" H 8850 4750 50  0000 C CNN
	1    8850 4750
	0    1    1    0   
$EndComp
Wire Wire Line
	7800 4450 8700 4450
Connection ~ 8400 4450
Connection ~ 8050 4450
Wire Wire Line
	7800 4750 8700 4750
Connection ~ 8050 4750
Connection ~ 8400 4750
Wire Wire Line
	6850 4750 7500 4750
Connection ~ 7200 4750
Wire Wire Line
	6550 4750 6450 4750
Wire Wire Line
	6450 4750 6450 4650
Wire Wire Line
	6450 4650 6050 4650
Wire Wire Line
	6050 4550 6450 4550
Wire Wire Line
	6450 4550 6450 4450
Wire Wire Line
	6450 4450 6550 4450
Wire Wire Line
	6850 4450 7500 4450
Connection ~ 7200 4450
Wire Wire Line
	9000 4450 10050 4450
Wire Wire Line
	9000 4750 9650 4750
$Comp
L R R15
U 1 1 598FDE6C
P 5500 4050
F 0 "R15" V 5450 3900 50  0000 C CNN
F 1 "499" V 5450 4250 50  0000 C CNN
F 2 "Resistors_SMD:R_0603" V 5430 4050 50  0001 C CNN
F 3 "" H 5500 4050 50  0000 C CNN
	1    5500 4050
	0    1    1    0   
$EndComp
$Comp
L R R14
U 1 1 598FDF94
P 5500 3900
F 0 "R14" V 5450 3750 50  0000 C CNN
F 1 "499" V 5450 4100 50  0000 C CNN
F 2 "Resistors_SMD:R_0603" V 5430 3900 50  0001 C CNN
F 3 "" H 5500 3900 50  0000 C CNN
	1    5500 3900
	0    1    1    0   
$EndComp
Wire Wire Line
	6150 4550 6150 4050
Wire Wire Line
	6150 4050 5650 4050
Connection ~ 6150 4550
Wire Wire Line
	5350 4050 4950 4050
Wire Wire Line
	4950 4050 4950 4550
Wire Wire Line
	3350 4550 5050 4550
Wire Wire Line
	6250 4650 6250 3900
Wire Wire Line
	6250 3900 5650 3900
Connection ~ 6250 4650
Wire Wire Line
	5350 3900 4850 3900
Wire Wire Line
	4850 3900 4850 4650
Wire Wire Line
	3350 4650 5050 4650
$Comp
L C C7
U 1 1 598FE365
P 6500 5100
F 0 "C7" H 6615 5146 50  0000 L CNN
F 1 "1n" H 6615 5055 50  0000 L CNN
F 2 "Capacitors_SMD:C_0603" H 6538 4950 50  0001 C CNN
F 3 "" H 6500 5100 50  0000 C CNN
	1    6500 5100
	1    0    0    -1  
$EndComp
$Comp
L C C8
U 1 1 598FE3D1
P 6850 5100
F 0 "C8" H 6965 5146 50  0000 L CNN
F 1 "100n" H 6965 5055 50  0000 L CNN
F 2 "Capacitors_SMD:C_0603" H 6888 4950 50  0001 C CNN
F 3 "" H 6850 5100 50  0000 C CNN
	1    6850 5100
	1    0    0    -1  
$EndComp
Wire Wire Line
	6050 5150 6200 5150
Wire Wire Line
	6200 5150 6200 5250
Wire Wire Line
	6200 5250 7250 5250
Connection ~ 6500 5250
Wire Wire Line
	6200 4950 7250 4950
Wire Wire Line
	6200 4950 6200 5050
Wire Wire Line
	6200 5050 6050 5050
Connection ~ 6500 4950
$Comp
L VCCA33 #PWR050
U 1 1 598FE7D6
P 6200 4950
F 0 "#PWR050" H 6200 4800 50  0001 C CNN
F 1 "VCCA33" H 6050 5050 50  0000 C CNN
F 2 "" H 6200 4950 50  0000 C CNN
F 3 "" H 6200 4950 50  0000 C CNN
	1    6200 4950
	1    0    0    -1  
$EndComp
$Comp
L GNDA #PWR051
U 1 1 598FE828
P 6200 5250
F 0 "#PWR051" H 6200 5000 50  0001 C CNN
F 1 "GNDA" H 6050 5150 50  0000 C CNN
F 2 "" H 6200 5250 50  0000 C CNN
F 3 "" H 6200 5250 50  0000 C CNN
	1    6200 5250
	1    0    0    -1  
$EndComp
$Comp
L R R8
U 1 1 598FECC8
P 3200 4550
F 0 "R8" V 3150 4400 50  0000 C CNN
F 1 "205" V 3150 4750 50  0000 C CNN
F 2 "Resistors_SMD:R_0603" V 3130 4550 50  0001 C CNN
F 3 "" H 3200 4550 50  0000 C CNN
	1    3200 4550
	0    1    1    0   
$EndComp
Wire Wire Line
	1900 4550 3050 4550
$Comp
L R R9
U 1 1 598FEF74
P 3200 4650
F 0 "R9" V 3150 4500 50  0000 C CNN
F 1 "205" V 3150 4850 50  0000 C CNN
F 2 "Resistors_SMD:R_0603" V 3130 4650 50  0001 C CNN
F 3 "" H 3200 4650 50  0000 C CNN
	1    3200 4650
	0    1    1    0   
$EndComp
$Comp
L R R7
U 1 1 598FF063
P 2850 4900
F 0 "R7" H 2920 4946 50  0000 L CNN
F 1 "R" H 2920 4855 50  0000 L CNN
F 2 "Resistors_SMD:R_0603" V 2780 4900 50  0001 C CNN
F 3 "" H 2850 4900 50  0000 C CNN
	1    2850 4900
	1    0    0    -1  
$EndComp
$Comp
L R R6
U 1 1 598FF0F3
P 2450 4900
F 0 "R6" H 2520 4946 50  0000 L CNN
F 1 "R" H 2520 4855 50  0000 L CNN
F 2 "Resistors_SMD:R_0603" V 2380 4900 50  0001 C CNN
F 3 "" H 2450 4900 50  0000 C CNN
	1    2450 4900
	1    0    0    -1  
$EndComp
Wire Wire Line
	2850 4750 2850 4650
Wire Wire Line
	2850 4650 3050 4650
Wire Wire Line
	2450 4750 2450 4550
$Comp
L GNDA #PWR052
U 1 1 598FF277
P 2850 5050
F 0 "#PWR052" H 2850 4800 50  0001 C CNN
F 1 "GNDA" H 2855 4877 50  0000 C CNN
F 2 "" H 2850 5050 50  0000 C CNN
F 3 "" H 2850 5050 50  0000 C CNN
	1    2850 5050
	1    0    0    -1  
$EndComp
$Comp
L GNDA #PWR053
U 1 1 598FF2D1
P 2450 5050
F 0 "#PWR053" H 2450 4800 50  0001 C CNN
F 1 "GNDA" H 2455 4877 50  0000 C CNN
F 2 "" H 2450 5050 50  0000 C CNN
F 3 "" H 2450 5050 50  0000 C CNN
	1    2450 5050
	1    0    0    -1  
$EndComp
$Comp
L R R10
U 1 1 598FF3B7
P 4050 4800
F 0 "R10" V 3950 4650 50  0000 C CNN
F 1 "499" V 3950 4950 50  0000 C CNN
F 2 "Resistors_SMD:R_0603" V 3980 4800 50  0001 C CNN
F 3 "" H 4050 4800 50  0000 C CNN
	1    4050 4800
	0    1    1    0   
$EndComp
$Comp
L C C3
U 1 1 598FF48E
P 4300 4950
F 0 "C3" H 4415 4996 50  0000 L CNN
F 1 "100n" H 4415 4905 50  0000 L CNN
F 2 "Capacitors_SMD:C_0603" H 4338 4800 50  0001 C CNN
F 3 "" H 4300 4950 50  0000 C CNN
	1    4300 4950
	1    0    0    -1  
$EndComp
Wire Wire Line
	4200 4800 5050 4800
Connection ~ 4300 4800
$Comp
L GNDA #PWR054
U 1 1 598FF837
P 4300 5100
F 0 "#PWR054" H 4300 4850 50  0001 C CNN
F 1 "GNDA" H 4305 4927 50  0000 C CNN
F 2 "" H 4300 5100 50  0000 C CNN
F 3 "" H 4300 5100 50  0000 C CNN
	1    4300 5100
	1    0    0    -1  
$EndComp
Connection ~ 4950 4550
Connection ~ 4850 4650
$Comp
L C C11
U 1 1 598FFE4A
P 7250 5100
F 0 "C11" H 7365 5146 50  0000 L CNN
F 1 "1u" H 7365 5055 50  0000 L CNN
F 2 "Capacitors_SMD:C_0603" H 7288 4950 50  0001 C CNN
F 3 "" H 7250 5100 50  0000 C CNN
	1    7250 5100
	1    0    0    -1  
$EndComp
Connection ~ 6850 4950
Connection ~ 6850 5250
$Comp
L R R11
U 1 1 59900094
P 4050 5600
F 0 "R11" V 3843 5600 50  0000 C CNN
F 1 "1k" V 3934 5600 50  0000 C CNN
F 2 "Resistors_SMD:R_0603" V 3980 5600 50  0001 C CNN
F 3 "" H 4050 5600 50  0000 C CNN
	1    4050 5600
	0    1    1    0   
$EndComp
$Comp
L R R12
U 1 1 5990012C
P 4500 5750
F 0 "R12" H 4570 5796 50  0000 L CNN
F 1 "47k" H 4570 5705 50  0000 L CNN
F 2 "Resistors_SMD:R_0603" V 4430 5750 50  0001 C CNN
F 3 "" H 4500 5750 50  0000 C CNN
	1    4500 5750
	1    0    0    -1  
$EndComp
$Comp
L C C4
U 1 1 599001B0
P 4900 5750
F 0 "C4" H 5015 5796 50  0000 L CNN
F 1 "100n" H 5015 5705 50  0000 L CNN
F 2 "Capacitors_SMD:C_0603" H 4938 5600 50  0001 C CNN
F 3 "" H 4900 5750 50  0000 C CNN
	1    4900 5750
	1    0    0    -1  
$EndComp
$Comp
L CONN_02X01 P4
U 1 1 59900319
P 3550 5600
F 0 "P4" H 3550 5815 50  0000 C CNN
F 1 "CONN_02X01" H 3550 5724 50  0000 C CNN
F 2 "klaus:Conn_1X2" H 3550 4400 50  0001 C CNN
F 3 "" H 3550 4400 50  0000 C CNN
	1    3550 5600
	1    0    0    -1  
$EndComp
Wire Wire Line
	3800 5600 3900 5600
Wire Wire Line
	4200 5600 4900 5600
Connection ~ 4500 5600
Wire Wire Line
	4900 5600 4900 4900
Wire Wire Line
	4900 4900 5050 4900
Connection ~ 4900 5600
Wire Wire Line
	3100 5600 3300 5600
$Comp
L GNDA #PWR055
U 1 1 599008A7
P 4900 5900
F 0 "#PWR055" H 4900 5650 50  0001 C CNN
F 1 "GNDA" H 4905 5727 50  0000 C CNN
F 2 "" H 4900 5900 50  0000 C CNN
F 3 "" H 4900 5900 50  0000 C CNN
	1    4900 5900
	1    0    0    -1  
$EndComp
$Comp
L GNDA #PWR056
U 1 1 5990090F
P 4500 5900
F 0 "#PWR056" H 4500 5650 50  0001 C CNN
F 1 "GNDA" H 4505 5727 50  0000 C CNN
F 2 "" H 4500 5900 50  0000 C CNN
F 3 "" H 4500 5900 50  0000 C CNN
	1    4500 5900
	1    0    0    -1  
$EndComp
$Comp
L VCCA33 #PWR057
U 1 1 59900A09
P 3100 5600
F 0 "#PWR057" H 3100 5450 50  0001 C CNN
F 1 "VCCA33" H 3117 5773 50  0000 C CNN
F 2 "" H 3100 5600 50  0000 C CNN
F 3 "" H 3100 5600 50  0000 C CNN
	1    3100 5600
	0    -1   -1   0   
$EndComp
$Comp
L BNC P3
U 1 1 599018C4
P 1750 4550
F 0 "P3" H 1851 4526 50  0000 L CNN
F 1 "BNC" H 1851 4435 50  0000 L CNN
F 2 "SMA_Connectors:SMA-Straight" H 1750 4550 50  0001 C CNN
F 3 "" H 1750 4550 50  0000 C CNN
	1    1750 4550
	-1   0    0    -1  
$EndComp
Connection ~ 2450 4550
$Comp
L GNDA #PWR058
U 1 1 599021F1
P 1750 4750
F 0 "#PWR058" H 1750 4500 50  0001 C CNN
F 1 "GNDA" H 1755 4577 50  0000 C CNN
F 2 "" H 1750 4750 50  0000 C CNN
F 3 "" H 1750 4750 50  0000 C CNN
	1    1750 4750
	1    0    0    -1  
$EndComp
Text Label 2350 4550 2    60   ~ 0
ADC_test
$Comp
L BNC P7
U 1 1 5990248B
P 10200 4450
F 0 "P7" H 10301 4426 50  0000 L CNN
F 1 "BNC" H 10301 4335 50  0000 L CNN
F 2 "SMA_Connectors:SMA-Straight" H 10200 4450 50  0001 C CNN
F 3 "" H 10200 4450 50  0000 C CNN
	1    10200 4450
	1    0    0    -1  
$EndComp
$Comp
L BNC P6
U 1 1 5990251D
P 9800 4750
F 0 "P6" H 9901 4726 50  0000 L CNN
F 1 "BNC" H 9901 4635 50  0000 L CNN
F 2 "SMA_Connectors:SMA-Straight" H 9800 4750 50  0001 C CNN
F 3 "" H 9800 4750 50  0000 C CNN
	1    9800 4750
	1    0    0    -1  
$EndComp
$Comp
L GNDA #PWR059
U 1 1 59902676
P 10200 4650
F 0 "#PWR059" H 10200 4400 50  0001 C CNN
F 1 "GNDA" H 10205 4477 50  0000 C CNN
F 2 "" H 10200 4650 50  0000 C CNN
F 3 "" H 10200 4650 50  0000 C CNN
	1    10200 4650
	1    0    0    -1  
$EndComp
$Comp
L GNDA #PWR060
U 1 1 599026E4
P 9800 4950
F 0 "#PWR060" H 9800 4700 50  0001 C CNN
F 1 "GNDA" H 9805 4777 50  0000 C CNN
F 2 "" H 9800 4950 50  0000 C CNN
F 3 "" H 9800 4950 50  0000 C CNN
	1    9800 4950
	1    0    0    -1  
$EndComp
Text Label 9750 4450 2    60   ~ 0
ADC_test_n
Text Label 9600 4750 2    60   ~ 0
ADC_test_p
Text Notes 8450 5700 2    60   ~ 0
Single-ended to differential-ended FDA solution.\nTHS4541 circuit implentation with @0M Bessel LPF
Text HLabel 9650 4300 2    60   Output ~ 0
ADC_test_n
Text HLabel 9500 4600 2    60   Output ~ 0
ADC_test_p
Wire Wire Line
	9500 4600 9350 4600
Wire Wire Line
	9350 4600 9350 4750
Connection ~ 9350 4750
Wire Wire Line
	9650 4300 9500 4300
Wire Wire Line
	9500 4300 9500 4450
Connection ~ 9500 4450
$Comp
L CONN_02X03 P5
U 1 1 59995D80
P 8450 3350
F 0 "P5" H 8450 3665 50  0000 C CNN
F 1 "CONN_02X03" H 8450 3574 50  0000 C CNN
F 2 "klaus:Conn_2X3" H 8450 2150 50  0001 C CNN
F 3 "" H 8450 2150 50  0000 C CNN
	1    8450 3350
	1    0    0    -1  
$EndComp
Wire Wire Line
	8200 3250 8150 3250
Wire Wire Line
	8150 3250 8150 3350
Connection ~ 8150 3350
Wire Wire Line
	8900 3250 8700 3250
Text HLabel 8900 3250 2    60   Output ~ 0
refv_1p8
Text Notes 7600 3650 0    60   ~ 0
refv_1p8: connect only when using the ADC internal reference buffer
Text Notes 7600 3750 0    60   ~ 0
refv_v: Connect ONLY when disabled the ADC internal reference buffer
Text Notes 7600 3850 0    60   ~ 0
refv_cm: Connect ONLY when disabled the ADC internal reference buffer
NoConn ~ 5050 5050
NoConn ~ 5050 5150
Wire Wire Line
	5100 2450 5100 2500
Wire Wire Line
	4250 2450 4250 2500
Connection ~ 4250 2150
Connection ~ 7750 2450
Connection ~ 7750 2150
Wire Wire Line
	3650 4800 3900 4800
Text Label 3650 4800 0    60   ~ 0
refv_cm
$Comp
L MAX6120 U2
U 1 1 598EE7AC
P 3150 2050
F 0 "U2" H 3375 2192 39  0000 C CNN
F 1 "MAX6120" H 3375 2117 39  0000 C CNN
F 2 "klaus:MAX6120" H 3150 2050 60  0001 C CNN
F 3 "" H 3150 2050 60  0001 C CNN
	1    3150 2050
	1    0    0    -1  
$EndComp
Wire Wire Line
	4850 2150 6250 2150
Wire Wire Line
	6250 2150 6250 2250
Wire Wire Line
	6850 2150 6750 2150
Wire Wire Line
	6750 2150 6750 1100
$Comp
L C C16
U 1 1 59941C94
P 9900 3000
F 0 "C16" H 10015 3046 50  0000 L CNN
F 1 "1n" H 10015 2955 50  0000 L CNN
F 2 "Capacitors_SMD:C_0402" H 9938 2850 50  0001 C CNN
F 3 "" H 9900 3000 50  0000 C CNN
	1    9900 3000
	1    0    0    -1  
$EndComp
$Comp
L C C17
U 1 1 59941FF4
P 10300 3000
F 0 "C17" H 10415 3046 50  0000 L CNN
F 1 "1n" H 10415 2955 50  0000 L CNN
F 2 "Capacitors_SMD:C_0402" H 10338 2850 50  0001 C CNN
F 3 "" H 10300 3000 50  0000 C CNN
	1    10300 3000
	1    0    0    -1  
$EndComp
$Comp
L C C18
U 1 1 59942076
P 10700 3000
F 0 "C18" H 10815 3046 50  0000 L CNN
F 1 "1n" H 10815 2955 50  0000 L CNN
F 2 "Capacitors_SMD:C_0402" H 10738 2850 50  0001 C CNN
F 3 "" H 10700 3000 50  0000 C CNN
	1    10700 3000
	1    0    0    -1  
$EndComp
Wire Wire Line
	9900 3150 9900 3250
Wire Wire Line
	9900 3250 10700 3250
Wire Wire Line
	10700 3250 10700 3150
Wire Wire Line
	10300 3150 10300 3250
Connection ~ 10300 3250
Wire Wire Line
	9900 2600 9900 2850
Wire Wire Line
	10300 2600 10300 2850
Wire Wire Line
	10700 2600 10700 2850
$Comp
L GNDA #PWR061
U 1 1 5994270D
P 10300 3250
F 0 "#PWR061" H 10300 3000 50  0001 C CNN
F 1 "GNDA" H 10305 3077 50  0000 C CNN
F 2 "" H 10300 3250 50  0000 C CNN
F 3 "" H 10300 3250 50  0000 C CNN
	1    10300 3250
	1    0    0    -1  
$EndComp
Text Label 9900 2800 1    60   ~ 0
refv_1p8
Text Label 10300 2800 1    60   ~ 0
refv_v
Text Label 10700 2750 1    60   ~ 0
refv_cm
$Comp
L ISL60002-18 U10
U 1 1 59B951B1
P 5700 6450
F 0 "U10" H 5900 6587 60  0000 C CNN
F 1 "ISL60002-18(DNP)" H 5900 6481 60  0000 C CNN
F 2 "klaus:MAX6120" H 5700 6450 60  0001 C CNN
F 3 "" H 5700 6450 60  0001 C CNN
	1    5700 6450
	1    0    0    -1  
$EndComp
$Comp
L C C151
U 1 1 59B953E6
P 6300 6950
F 0 "C151" H 6415 6996 50  0000 L CNN
F 1 "0.01u" H 6415 6905 50  0000 L CNN
F 2 "Capacitors_SMD:C_0603" H 6338 6800 50  0001 C CNN
F 3 "" H 6300 6950 50  0000 C CNN
	1    6300 6950
	1    0    0    -1  
$EndComp
$Comp
L C C152
U 1 1 59B95490
P 6650 7200
F 0 "C152" H 6765 7246 50  0000 L CNN
F 1 "10u" H 6765 7155 50  0000 L CNN
F 2 "Capacitors_SMD:C_0603" H 6688 7050 50  0001 C CNN
F 3 "" H 6650 7200 50  0000 C CNN
	1    6650 7200
	1    0    0    -1  
$EndComp
$Comp
L R R64
U 1 1 59B9552C
P 6650 6850
F 0 "R64" H 6720 6896 50  0000 L CNN
F 1 "2k" H 6720 6805 50  0000 L CNN
F 2 "Resistors_SMD:R_0603" V 6580 6850 50  0001 C CNN
F 3 "" H 6650 6850 50  0000 C CNN
	1    6650 6850
	1    0    0    -1  
$EndComp
Wire Wire Line
	6300 6800 6300 6700
Connection ~ 6300 6700
Wire Wire Line
	6650 7000 6650 7050
Wire Wire Line
	6300 7100 6300 7400
Wire Wire Line
	6300 7400 6650 7400
Wire Wire Line
	6650 7400 6650 7350
$Comp
L GNDA #PWR062
U 1 1 59B959B2
P 6450 7400
F 0 "#PWR062" H 6450 7150 50  0001 C CNN
F 1 "GNDA" H 6455 7227 50  0000 C CNN
F 2 "" H 6450 7400 50  0000 C CNN
F 3 "" H 6450 7400 50  0000 C CNN
	1    6450 7400
	1    0    0    -1  
$EndComp
Connection ~ 6450 7400
$Comp
L C C150
U 1 1 59B95E09
P 5300 6750
F 0 "C150" H 5415 6796 50  0000 L CNN
F 1 "10u" H 5415 6705 50  0000 L CNN
F 2 "Capacitors_SMD:C_0603" H 5338 6600 50  0001 C CNN
F 3 "" H 5300 6750 50  0000 C CNN
	1    5300 6750
	1    0    0    -1  
$EndComp
$Comp
L C C149
U 1 1 59B95F96
P 5000 6750
F 0 "C149" H 5115 6796 50  0000 L CNN
F 1 "0.1u" H 5115 6705 50  0000 L CNN
F 2 "Capacitors_SMD:C_0603" H 5038 6600 50  0001 C CNN
F 3 "" H 5000 6750 50  0000 C CNN
	1    5000 6750
	1    0    0    -1  
$EndComp
Connection ~ 5300 6600
Wire Wire Line
	5500 6900 5500 6800
Connection ~ 5300 6900
$Comp
L GNDA #PWR063
U 1 1 59B966B7
P 5500 6900
F 0 "#PWR063" H 5500 6650 50  0001 C CNN
F 1 "GNDA" H 5505 6727 50  0000 C CNN
F 2 "" H 5500 6900 50  0000 C CNN
F 3 "" H 5500 6900 50  0000 C CNN
	1    5500 6900
	1    0    0    -1  
$EndComp
Connection ~ 5500 6900
Wire Wire Line
	5000 6600 5500 6600
Wire Wire Line
	5000 6900 5500 6900
Wire Wire Line
	6300 6700 6650 6700
Text Label 6350 6700 0    60   ~ 0
ref_1p8
$Comp
L VCCA33 #PWR064
U 1 1 59B9F62D
P 5150 6600
F 0 "#PWR064" H 5150 6450 50  0001 C CNN
F 1 "VCCA33" H 5167 6773 50  0000 C CNN
F 2 "" H 5150 6600 50  0000 C CNN
F 3 "" H 5150 6600 50  0000 C CNN
	1    5150 6600
	1    0    0    -1  
$EndComp
Connection ~ 5150 6600
$EndSCHEMATC
