EESchema Schematic File Version 2
LIBS:klaus
LIBS:power
LIBS:device
LIBS:transistors
LIBS:conn
LIBS:linear
LIBS:regul
LIBS:74xx
LIBS:cmos4000
LIBS:adc-dac
LIBS:memory
LIBS:xilinx
LIBS:microcontrollers
LIBS:dsp
LIBS:microchip
LIBS:analog_switches
LIBS:motorola
LIBS:texas
LIBS:intel
LIBS:audio
LIBS:interface
LIBS:digital-audio
LIBS:philips
LIBS:display
LIBS:cypress
LIBS:siliconi
LIBS:opto
LIBS:atmel
LIBS:contrib
LIBS:valves
LIBS:Si5340
LIBS:Si514
LIBS:SN65LVDS104
LIBS:TPS7A7001
LIBS:BSH-060-01-X-D-A
LIBS:power_special
LIBS:ADN4661
LIBS:Mechanical
LIBS:THS4541
LIBS:ISL21080-09
LIBS:ISL60002-11
LIBS:ISL60002-18
LIBS:LTC6248
LIBS:MAX6120
LIBS:OPA2354
LIBS:REFDES
LIBS:klaus5_tb-cache
EELAYER 26 0
EELAYER END
$Descr A4 11693 8268
encoding utf-8
Sheet 6 8
Title ""
Date "2017-08-11"
Rev ""
Comp ""
Comment1 ""
Comment2 ""
Comment3 ""
Comment4 ""
$EndDescr
$Comp
L R R26
U 1 1 5991D1FB
P 2250 1450
F 0 "R26" V 2200 1300 50  0000 C CNN
F 1 "10k" V 2250 1450 50  0000 C CNN
F 2 "Resistors_SMD:R_0603" V 2180 1450 50  0001 C CNN
F 3 "" H 2250 1450 50  0000 C CNN
	1    2250 1450
	0    1    1    0   
$EndComp
$Comp
L C C63
U 1 1 5991D229
P 2700 1550
F 0 "C63" V 2750 1400 50  0000 C CNN
F 1 "100n/100V" V 2750 1800 50  0000 C CNN
F 2 "Capacitors_SMD:C_0603" H 2738 1400 50  0001 C CNN
F 3 "" H 2700 1550 50  0000 C CNN
	1    2700 1550
	0    1    1    0   
$EndComp
Wire Wire Line
	1950 1450 2100 1450
Wire Wire Line
	2400 1450 3350 1450
Wire Wire Line
	2450 1450 2450 1550
Wire Wire Line
	2450 1550 2550 1550
Connection ~ 2450 1450
Wire Wire Line
	2950 1550 2850 1550
Text Label 3350 1450 2    60   ~ 0
SiPM_HV[0]
$Comp
L R R27
U 1 1 5991D3FA
P 2250 1750
F 0 "R27" V 2200 1600 50  0000 C CNN
F 1 "10k" V 2250 1750 50  0000 C CNN
F 2 "Resistors_SMD:R_0603" V 2180 1750 50  0001 C CNN
F 3 "" H 2250 1750 50  0000 C CNN
	1    2250 1750
	0    1    1    0   
$EndComp
$Comp
L C C64
U 1 1 5991D400
P 2700 1850
F 0 "C64" V 2750 1700 50  0000 C CNN
F 1 "100n/100V" V 2750 2100 50  0000 C CNN
F 2 "Capacitors_SMD:C_0603" H 2738 1700 50  0001 C CNN
F 3 "" H 2700 1850 50  0000 C CNN
	1    2700 1850
	0    1    1    0   
$EndComp
Wire Wire Line
	1950 1750 2100 1750
Wire Wire Line
	2400 1750 3350 1750
Wire Wire Line
	2450 1750 2450 1850
Wire Wire Line
	2450 1850 2550 1850
Connection ~ 2450 1750
Wire Wire Line
	2950 1850 2850 1850
Text Label 3350 1750 2    60   ~ 0
SiPM_HV[1]
$Comp
L R R28
U 1 1 5991D4B5
P 2250 2050
F 0 "R28" V 2200 1900 50  0000 C CNN
F 1 "10k" V 2250 2050 50  0000 C CNN
F 2 "Resistors_SMD:R_0603" V 2180 2050 50  0001 C CNN
F 3 "" H 2250 2050 50  0000 C CNN
	1    2250 2050
	0    1    1    0   
$EndComp
$Comp
L C C65
U 1 1 5991D4BB
P 2700 2150
F 0 "C65" V 2750 2000 50  0000 C CNN
F 1 "100n/100V" V 2750 2400 50  0000 C CNN
F 2 "Capacitors_SMD:C_0603" H 2738 2000 50  0001 C CNN
F 3 "" H 2700 2150 50  0000 C CNN
	1    2700 2150
	0    1    1    0   
$EndComp
Wire Wire Line
	1950 2050 2100 2050
Wire Wire Line
	2400 2050 3350 2050
Wire Wire Line
	2450 2050 2450 2150
Wire Wire Line
	2450 2150 2550 2150
Connection ~ 2450 2050
Wire Wire Line
	2950 2150 2850 2150
Text Label 3350 2050 2    60   ~ 0
SiPM_HV[2]
$Comp
L R R29
U 1 1 5991D4C8
P 2250 2350
F 0 "R29" V 2200 2200 50  0000 C CNN
F 1 "10k" V 2250 2350 50  0000 C CNN
F 2 "Resistors_SMD:R_0603" V 2180 2350 50  0001 C CNN
F 3 "" H 2250 2350 50  0000 C CNN
	1    2250 2350
	0    1    1    0   
$EndComp
$Comp
L C C66
U 1 1 5991D4CE
P 2700 2450
F 0 "C66" V 2750 2300 50  0000 C CNN
F 1 "100n/100V" V 2750 2700 50  0000 C CNN
F 2 "Capacitors_SMD:C_0603" H 2738 2300 50  0001 C CNN
F 3 "" H 2700 2450 50  0000 C CNN
	1    2700 2450
	0    1    1    0   
$EndComp
Wire Wire Line
	1950 2350 2100 2350
Wire Wire Line
	2400 2350 3350 2350
Wire Wire Line
	2450 2350 2450 2450
Wire Wire Line
	2450 2450 2550 2450
Connection ~ 2450 2350
Wire Wire Line
	2950 2450 2850 2450
Text Label 3350 2350 2    60   ~ 0
SiPM_HV[3]
$Comp
L R R30
U 1 1 5991D6DB
P 2250 2650
F 0 "R30" V 2200 2500 50  0000 C CNN
F 1 "10k" V 2250 2650 50  0000 C CNN
F 2 "Resistors_SMD:R_0603" V 2180 2650 50  0001 C CNN
F 3 "" H 2250 2650 50  0000 C CNN
	1    2250 2650
	0    1    1    0   
$EndComp
$Comp
L C C67
U 1 1 5991D6E1
P 2700 2750
F 0 "C67" V 2750 2600 50  0000 C CNN
F 1 "100n/100V" V 2750 3000 50  0000 C CNN
F 2 "Capacitors_SMD:C_0603" H 2738 2600 50  0001 C CNN
F 3 "" H 2700 2750 50  0000 C CNN
	1    2700 2750
	0    1    1    0   
$EndComp
Wire Wire Line
	1950 2650 2100 2650
Wire Wire Line
	2400 2650 3350 2650
Wire Wire Line
	2450 2650 2450 2750
Wire Wire Line
	2450 2750 2550 2750
Connection ~ 2450 2650
Wire Wire Line
	2950 2750 2850 2750
Text Label 3350 2650 2    60   ~ 0
SiPM_HV[4]
$Comp
L R R31
U 1 1 5991D6EE
P 2250 2950
F 0 "R31" V 2200 2800 50  0000 C CNN
F 1 "10k" V 2250 2950 50  0000 C CNN
F 2 "Resistors_SMD:R_0603" V 2180 2950 50  0001 C CNN
F 3 "" H 2250 2950 50  0000 C CNN
	1    2250 2950
	0    1    1    0   
$EndComp
$Comp
L C C68
U 1 1 5991D6F4
P 2700 3050
F 0 "C68" V 2750 2900 50  0000 C CNN
F 1 "100n/100V" V 2750 3300 50  0000 C CNN
F 2 "Capacitors_SMD:C_0603" H 2738 2900 50  0001 C CNN
F 3 "" H 2700 3050 50  0000 C CNN
	1    2700 3050
	0    1    1    0   
$EndComp
Wire Wire Line
	1950 2950 2100 2950
Wire Wire Line
	2400 2950 3350 2950
Wire Wire Line
	2450 2950 2450 3050
Wire Wire Line
	2450 3050 2550 3050
Connection ~ 2450 2950
Wire Wire Line
	2950 3050 2850 3050
Text Label 3350 2950 2    60   ~ 0
SiPM_HV[5]
$Comp
L R R32
U 1 1 5991D701
P 2250 3250
F 0 "R32" V 2200 3100 50  0000 C CNN
F 1 "10k" V 2250 3250 50  0000 C CNN
F 2 "Resistors_SMD:R_0603" V 2180 3250 50  0001 C CNN
F 3 "" H 2250 3250 50  0000 C CNN
	1    2250 3250
	0    1    1    0   
$EndComp
$Comp
L C C69
U 1 1 5991D707
P 2700 3350
F 0 "C69" V 2750 3200 50  0000 C CNN
F 1 "100n/100V" V 2750 3600 50  0000 C CNN
F 2 "Capacitors_SMD:C_0603" H 2738 3200 50  0001 C CNN
F 3 "" H 2700 3350 50  0000 C CNN
	1    2700 3350
	0    1    1    0   
$EndComp
Wire Wire Line
	1950 3250 2100 3250
Wire Wire Line
	2400 3250 3350 3250
Wire Wire Line
	2450 3250 2450 3350
Wire Wire Line
	2450 3350 2550 3350
Connection ~ 2450 3250
Wire Wire Line
	2950 3350 2850 3350
Text Label 3350 3250 2    60   ~ 0
SiPM_HV[6]
$Comp
L R R33
U 1 1 5991D714
P 2250 3550
F 0 "R33" V 2200 3400 50  0000 C CNN
F 1 "10k" V 2250 3550 50  0000 C CNN
F 2 "Resistors_SMD:R_0603" V 2180 3550 50  0001 C CNN
F 3 "" H 2250 3550 50  0000 C CNN
	1    2250 3550
	0    1    1    0   
$EndComp
$Comp
L C C70
U 1 1 5991D71A
P 2700 3650
F 0 "C70" V 2750 3500 50  0000 C CNN
F 1 "100n/100V" V 2750 3900 50  0000 C CNN
F 2 "Capacitors_SMD:C_0603" H 2738 3500 50  0001 C CNN
F 3 "" H 2700 3650 50  0000 C CNN
	1    2700 3650
	0    1    1    0   
$EndComp
Wire Wire Line
	1950 3550 2100 3550
Wire Wire Line
	2400 3550 3350 3550
Wire Wire Line
	2450 3550 2450 3650
Wire Wire Line
	2450 3650 2550 3650
Connection ~ 2450 3550
Wire Wire Line
	2950 3650 2850 3650
Text Label 3350 3550 2    60   ~ 0
SiPM_HV[7]
$Comp
L R R34
U 1 1 5991DBD7
P 2250 3850
F 0 "R34" V 2200 3700 50  0000 C CNN
F 1 "10k" V 2250 3850 50  0000 C CNN
F 2 "Resistors_SMD:R_0603" V 2180 3850 50  0001 C CNN
F 3 "" H 2250 3850 50  0000 C CNN
	1    2250 3850
	0    1    1    0   
$EndComp
$Comp
L C C71
U 1 1 5991DBDD
P 2700 3950
F 0 "C71" V 2750 3800 50  0000 C CNN
F 1 "100n/100V" V 2750 4200 50  0000 C CNN
F 2 "Capacitors_SMD:C_0603" H 2738 3800 50  0001 C CNN
F 3 "" H 2700 3950 50  0000 C CNN
	1    2700 3950
	0    1    1    0   
$EndComp
Wire Wire Line
	1950 3850 2100 3850
Wire Wire Line
	2400 3850 3350 3850
Wire Wire Line
	2450 3850 2450 3950
Wire Wire Line
	2450 3950 2550 3950
Connection ~ 2450 3850
Wire Wire Line
	2950 3950 2850 3950
Text Label 3350 3850 2    60   ~ 0
SiPM_HV[8]
$Comp
L R R35
U 1 1 5991DBEA
P 2250 4150
F 0 "R35" V 2200 4000 50  0000 C CNN
F 1 "10k" V 2250 4150 50  0000 C CNN
F 2 "Resistors_SMD:R_0603" V 2180 4150 50  0001 C CNN
F 3 "" H 2250 4150 50  0000 C CNN
	1    2250 4150
	0    1    1    0   
$EndComp
$Comp
L C C72
U 1 1 5991DBF0
P 2700 4250
F 0 "C72" V 2750 4100 50  0000 C CNN
F 1 "100n/100V" V 2750 4500 50  0000 C CNN
F 2 "Capacitors_SMD:C_0603" H 2738 4100 50  0001 C CNN
F 3 "" H 2700 4250 50  0000 C CNN
	1    2700 4250
	0    1    1    0   
$EndComp
Wire Wire Line
	1950 4150 2100 4150
Wire Wire Line
	2400 4150 3350 4150
Wire Wire Line
	2450 4150 2450 4250
Wire Wire Line
	2450 4250 2550 4250
Connection ~ 2450 4150
Wire Wire Line
	2950 4250 2850 4250
Text Label 3350 4150 2    60   ~ 0
SiPM_HV[9]
$Comp
L R R36
U 1 1 5991DBFD
P 2250 4450
F 0 "R36" V 2200 4300 50  0000 C CNN
F 1 "10k" V 2250 4450 50  0000 C CNN
F 2 "Resistors_SMD:R_0603" V 2180 4450 50  0001 C CNN
F 3 "" H 2250 4450 50  0000 C CNN
	1    2250 4450
	0    1    1    0   
$EndComp
$Comp
L C C73
U 1 1 5991DC03
P 2700 4550
F 0 "C73" V 2750 4400 50  0000 C CNN
F 1 "100n/100V" V 2750 4800 50  0000 C CNN
F 2 "Capacitors_SMD:C_0603" H 2738 4400 50  0001 C CNN
F 3 "" H 2700 4550 50  0000 C CNN
	1    2700 4550
	0    1    1    0   
$EndComp
Wire Wire Line
	1950 4450 2100 4450
Wire Wire Line
	2400 4450 3350 4450
Wire Wire Line
	2450 4450 2450 4550
Wire Wire Line
	2450 4550 2550 4550
Connection ~ 2450 4450
Wire Wire Line
	2950 4550 2850 4550
Text Label 3350 4450 2    60   ~ 0
SiPM_HV[10]
$Comp
L R R37
U 1 1 5991DC10
P 2250 4750
F 0 "R37" V 2200 4600 50  0000 C CNN
F 1 "10k" V 2250 4750 50  0000 C CNN
F 2 "Resistors_SMD:R_0603" V 2180 4750 50  0001 C CNN
F 3 "" H 2250 4750 50  0000 C CNN
	1    2250 4750
	0    1    1    0   
$EndComp
$Comp
L C C74
U 1 1 5991DC16
P 2700 4850
F 0 "C74" V 2750 4700 50  0000 C CNN
F 1 "100n/100V" V 2750 5100 50  0000 C CNN
F 2 "Capacitors_SMD:C_0603" H 2738 4700 50  0001 C CNN
F 3 "" H 2700 4850 50  0000 C CNN
	1    2700 4850
	0    1    1    0   
$EndComp
Wire Wire Line
	1950 4750 2100 4750
Wire Wire Line
	2400 4750 3350 4750
Wire Wire Line
	2450 4750 2450 4850
Wire Wire Line
	2450 4850 2550 4850
Connection ~ 2450 4750
Wire Wire Line
	2950 4850 2850 4850
Text Label 3350 4750 2    60   ~ 0
SiPM_HV[11]
$Comp
L R R38
U 1 1 5991DC23
P 2250 5050
F 0 "R38" V 2200 4900 50  0000 C CNN
F 1 "10k" V 2250 5050 50  0000 C CNN
F 2 "Resistors_SMD:R_0603" V 2180 5050 50  0001 C CNN
F 3 "" H 2250 5050 50  0000 C CNN
	1    2250 5050
	0    1    1    0   
$EndComp
$Comp
L C C75
U 1 1 5991DC29
P 2700 5150
F 0 "C75" V 2750 5000 50  0000 C CNN
F 1 "100n/100V" V 2750 5400 50  0000 C CNN
F 2 "Capacitors_SMD:C_0603" H 2738 5000 50  0001 C CNN
F 3 "" H 2700 5150 50  0000 C CNN
	1    2700 5150
	0    1    1    0   
$EndComp
Wire Wire Line
	1950 5050 2100 5050
Wire Wire Line
	2400 5050 3350 5050
Wire Wire Line
	2450 5050 2450 5150
Wire Wire Line
	2450 5150 2550 5150
Connection ~ 2450 5050
Wire Wire Line
	2950 5150 2850 5150
Text Label 3350 5050 2    60   ~ 0
SiPM_HV[12]
$Comp
L R R39
U 1 1 5991DC36
P 2250 5350
F 0 "R39" V 2200 5200 50  0000 C CNN
F 1 "10k" V 2250 5350 50  0000 C CNN
F 2 "Resistors_SMD:R_0603" V 2180 5350 50  0001 C CNN
F 3 "" H 2250 5350 50  0000 C CNN
	1    2250 5350
	0    1    1    0   
$EndComp
$Comp
L C C76
U 1 1 5991DC3C
P 2700 5450
F 0 "C76" V 2750 5300 50  0000 C CNN
F 1 "100n/100V" V 2750 5700 50  0000 C CNN
F 2 "Capacitors_SMD:C_0603" H 2738 5300 50  0001 C CNN
F 3 "" H 2700 5450 50  0000 C CNN
	1    2700 5450
	0    1    1    0   
$EndComp
Wire Wire Line
	1950 5350 2100 5350
Wire Wire Line
	2400 5350 3350 5350
Wire Wire Line
	2450 5350 2450 5450
Wire Wire Line
	2450 5450 2550 5450
Connection ~ 2450 5350
Wire Wire Line
	2950 5450 2850 5450
Text Label 3350 5350 2    60   ~ 0
SiPM_HV[13]
$Comp
L R R40
U 1 1 5991DC49
P 2250 5650
F 0 "R40" V 2200 5500 50  0000 C CNN
F 1 "10k" V 2250 5650 50  0000 C CNN
F 2 "Resistors_SMD:R_0603" V 2180 5650 50  0001 C CNN
F 3 "" H 2250 5650 50  0000 C CNN
	1    2250 5650
	0    1    1    0   
$EndComp
$Comp
L C C77
U 1 1 5991DC4F
P 2700 5750
F 0 "C77" V 2750 5600 50  0000 C CNN
F 1 "100n/100V" V 2750 6000 50  0000 C CNN
F 2 "Capacitors_SMD:C_0603" H 2738 5600 50  0001 C CNN
F 3 "" H 2700 5750 50  0000 C CNN
	1    2700 5750
	0    1    1    0   
$EndComp
Wire Wire Line
	1950 5650 2100 5650
Wire Wire Line
	2400 5650 3350 5650
Wire Wire Line
	2450 5650 2450 5750
Wire Wire Line
	2450 5750 2550 5750
Connection ~ 2450 5650
Wire Wire Line
	2950 5750 2850 5750
Text Label 3350 5650 2    60   ~ 0
SiPM_HV[14]
$Comp
L R R41
U 1 1 5991DC5C
P 2250 5950
F 0 "R41" V 2200 5800 50  0000 C CNN
F 1 "10k" V 2250 5950 50  0000 C CNN
F 2 "Resistors_SMD:R_0603" V 2180 5950 50  0001 C CNN
F 3 "" H 2250 5950 50  0000 C CNN
	1    2250 5950
	0    1    1    0   
$EndComp
$Comp
L C C78
U 1 1 5991DC62
P 2700 6050
F 0 "C78" V 2750 5900 50  0000 C CNN
F 1 "100n/100V" V 2750 6300 50  0000 C CNN
F 2 "Capacitors_SMD:C_0603" H 2738 5900 50  0001 C CNN
F 3 "" H 2700 6050 50  0000 C CNN
	1    2700 6050
	0    1    1    0   
$EndComp
Wire Wire Line
	1950 5950 2100 5950
Wire Wire Line
	2400 5950 3350 5950
Wire Wire Line
	2450 5950 2450 6050
Wire Wire Line
	2450 6050 2550 6050
Connection ~ 2450 5950
Wire Wire Line
	2950 6050 2850 6050
Text Label 3350 5950 2    60   ~ 0
SiPM_HV[15]
$Comp
L R R42
U 1 1 5991DFAF
P 2250 6250
F 0 "R42" V 2200 6100 50  0000 C CNN
F 1 "10k" V 2250 6250 50  0000 C CNN
F 2 "Resistors_SMD:R_0603" V 2180 6250 50  0001 C CNN
F 3 "" H 2250 6250 50  0000 C CNN
	1    2250 6250
	0    1    1    0   
$EndComp
$Comp
L C C79
U 1 1 5991DFB5
P 2700 6350
F 0 "C79" V 2750 6200 50  0000 C CNN
F 1 "100n/100V" V 2750 6600 50  0000 C CNN
F 2 "Capacitors_SMD:C_0603" H 2738 6200 50  0001 C CNN
F 3 "" H 2700 6350 50  0000 C CNN
	1    2700 6350
	0    1    1    0   
$EndComp
Wire Wire Line
	1950 6250 2100 6250
Wire Wire Line
	2400 6250 3350 6250
Wire Wire Line
	2450 6250 2450 6350
Wire Wire Line
	2450 6350 2550 6350
Connection ~ 2450 6250
Wire Wire Line
	2950 6350 2850 6350
Text Label 3350 6250 2    60   ~ 0
SiPM_HV[16]
$Comp
L R R43
U 1 1 5991DFC2
P 2250 6550
F 0 "R43" V 2200 6400 50  0000 C CNN
F 1 "10k" V 2250 6550 50  0000 C CNN
F 2 "Resistors_SMD:R_0603" V 2180 6550 50  0001 C CNN
F 3 "" H 2250 6550 50  0000 C CNN
	1    2250 6550
	0    1    1    0   
$EndComp
$Comp
L C C80
U 1 1 5991DFC8
P 2700 6650
F 0 "C80" V 2750 6500 50  0000 C CNN
F 1 "100n/100V" V 2750 6900 50  0000 C CNN
F 2 "Capacitors_SMD:C_0603" H 2738 6500 50  0001 C CNN
F 3 "" H 2700 6650 50  0000 C CNN
	1    2700 6650
	0    1    1    0   
$EndComp
Wire Wire Line
	1950 6550 2100 6550
Wire Wire Line
	2400 6550 3350 6550
Wire Wire Line
	2450 6550 2450 6650
Wire Wire Line
	2450 6650 2550 6650
Connection ~ 2450 6550
Wire Wire Line
	2950 6650 2850 6650
Text Label 3350 6550 2    60   ~ 0
SiPM_HV[17]
$Comp
L R R44
U 1 1 5991E7B5
P 4050 1450
F 0 "R44" V 4000 1300 50  0000 C CNN
F 1 "10k" V 4050 1450 50  0000 C CNN
F 2 "Resistors_SMD:R_0603" V 3980 1450 50  0001 C CNN
F 3 "" H 4050 1450 50  0000 C CNN
	1    4050 1450
	0    1    1    0   
$EndComp
$Comp
L C C81
U 1 1 5991E7BB
P 4500 1550
F 0 "C81" V 4550 1400 50  0000 C CNN
F 1 "100n/100V" V 4550 1800 50  0000 C CNN
F 2 "Capacitors_SMD:C_0603" H 4538 1400 50  0001 C CNN
F 3 "" H 4500 1550 50  0000 C CNN
	1    4500 1550
	0    1    1    0   
$EndComp
Wire Wire Line
	3750 1450 3900 1450
Wire Wire Line
	4200 1450 5150 1450
Wire Wire Line
	4250 1450 4250 1550
Wire Wire Line
	4250 1550 4350 1550
Connection ~ 4250 1450
Wire Wire Line
	4750 1550 4650 1550
Text Label 5150 1450 2    60   ~ 0
SiPM_HV[18]
$Comp
L R R45
U 1 1 5991E7C8
P 4050 1750
F 0 "R45" V 4000 1600 50  0000 C CNN
F 1 "10k" V 4050 1750 50  0000 C CNN
F 2 "Resistors_SMD:R_0603" V 3980 1750 50  0001 C CNN
F 3 "" H 4050 1750 50  0000 C CNN
	1    4050 1750
	0    1    1    0   
$EndComp
$Comp
L C C82
U 1 1 5991E7CE
P 4500 1850
F 0 "C82" V 4550 1700 50  0000 C CNN
F 1 "100n/100V" V 4550 2100 50  0000 C CNN
F 2 "Capacitors_SMD:C_0603" H 4538 1700 50  0001 C CNN
F 3 "" H 4500 1850 50  0000 C CNN
	1    4500 1850
	0    1    1    0   
$EndComp
Wire Wire Line
	3750 1750 3900 1750
Wire Wire Line
	4200 1750 5150 1750
Wire Wire Line
	4250 1750 4250 1850
Wire Wire Line
	4250 1850 4350 1850
Connection ~ 4250 1750
Wire Wire Line
	4750 1850 4650 1850
Text Label 5150 1750 2    60   ~ 0
SiPM_HV[19]
$Comp
L R R46
U 1 1 5991E7DB
P 4050 2050
F 0 "R46" V 4000 1900 50  0000 C CNN
F 1 "10k" V 4050 2050 50  0000 C CNN
F 2 "Resistors_SMD:R_0603" V 3980 2050 50  0001 C CNN
F 3 "" H 4050 2050 50  0000 C CNN
	1    4050 2050
	0    1    1    0   
$EndComp
$Comp
L C C83
U 1 1 5991E7E1
P 4500 2150
F 0 "C83" V 4550 2000 50  0000 C CNN
F 1 "100n/100V" V 4550 2400 50  0000 C CNN
F 2 "Capacitors_SMD:C_0603" H 4538 2000 50  0001 C CNN
F 3 "" H 4500 2150 50  0000 C CNN
	1    4500 2150
	0    1    1    0   
$EndComp
Wire Wire Line
	3750 2050 3900 2050
Wire Wire Line
	4200 2050 5150 2050
Wire Wire Line
	4250 2050 4250 2150
Wire Wire Line
	4250 2150 4350 2150
Connection ~ 4250 2050
Wire Wire Line
	4750 2150 4650 2150
Text Label 5150 2050 2    60   ~ 0
SiPM_HV[20]
$Comp
L R R47
U 1 1 5991E7EE
P 4050 2350
F 0 "R47" V 4000 2200 50  0000 C CNN
F 1 "10k" V 4050 2350 50  0000 C CNN
F 2 "Resistors_SMD:R_0603" V 3980 2350 50  0001 C CNN
F 3 "" H 4050 2350 50  0000 C CNN
	1    4050 2350
	0    1    1    0   
$EndComp
$Comp
L C C84
U 1 1 5991E7F4
P 4500 2450
F 0 "C84" V 4550 2300 50  0000 C CNN
F 1 "100n/100V" V 4550 2700 50  0000 C CNN
F 2 "Capacitors_SMD:C_0603" H 4538 2300 50  0001 C CNN
F 3 "" H 4500 2450 50  0000 C CNN
	1    4500 2450
	0    1    1    0   
$EndComp
Wire Wire Line
	3750 2350 3900 2350
Wire Wire Line
	4200 2350 5150 2350
Wire Wire Line
	4250 2350 4250 2450
Wire Wire Line
	4250 2450 4350 2450
Connection ~ 4250 2350
Wire Wire Line
	4750 2450 4650 2450
Text Label 5150 2350 2    60   ~ 0
SiPM_HV[21]
$Comp
L R R48
U 1 1 5991E801
P 4050 2650
F 0 "R48" V 4000 2500 50  0000 C CNN
F 1 "10k" V 4050 2650 50  0000 C CNN
F 2 "Resistors_SMD:R_0603" V 3980 2650 50  0001 C CNN
F 3 "" H 4050 2650 50  0000 C CNN
	1    4050 2650
	0    1    1    0   
$EndComp
$Comp
L C C85
U 1 1 5991E807
P 4500 2750
F 0 "C85" V 4550 2600 50  0000 C CNN
F 1 "100n/100V" V 4550 3000 50  0000 C CNN
F 2 "Capacitors_SMD:C_0603" H 4538 2600 50  0001 C CNN
F 3 "" H 4500 2750 50  0000 C CNN
	1    4500 2750
	0    1    1    0   
$EndComp
Wire Wire Line
	3750 2650 3900 2650
Wire Wire Line
	4200 2650 5150 2650
Wire Wire Line
	4250 2650 4250 2750
Wire Wire Line
	4250 2750 4350 2750
Connection ~ 4250 2650
Wire Wire Line
	4750 2750 4650 2750
Text Label 5150 2650 2    60   ~ 0
SiPM_HV[22]
$Comp
L R R49
U 1 1 5991E814
P 4050 2950
F 0 "R49" V 4000 2800 50  0000 C CNN
F 1 "10k" V 4050 2950 50  0000 C CNN
F 2 "Resistors_SMD:R_0603" V 3980 2950 50  0001 C CNN
F 3 "" H 4050 2950 50  0000 C CNN
	1    4050 2950
	0    1    1    0   
$EndComp
$Comp
L C C86
U 1 1 5991E81A
P 4500 3050
F 0 "C86" V 4550 2900 50  0000 C CNN
F 1 "100n/100V" V 4550 3300 50  0000 C CNN
F 2 "Capacitors_SMD:C_0603" H 4538 2900 50  0001 C CNN
F 3 "" H 4500 3050 50  0000 C CNN
	1    4500 3050
	0    1    1    0   
$EndComp
Wire Wire Line
	3750 2950 3900 2950
Wire Wire Line
	4200 2950 5150 2950
Wire Wire Line
	4250 2950 4250 3050
Wire Wire Line
	4250 3050 4350 3050
Connection ~ 4250 2950
Wire Wire Line
	4750 3050 4650 3050
Text Label 5150 2950 2    60   ~ 0
SiPM_HV[23]
$Comp
L R R50
U 1 1 5991E827
P 4050 3250
F 0 "R50" V 4000 3100 50  0000 C CNN
F 1 "10k" V 4050 3250 50  0000 C CNN
F 2 "Resistors_SMD:R_0603" V 3980 3250 50  0001 C CNN
F 3 "" H 4050 3250 50  0000 C CNN
	1    4050 3250
	0    1    1    0   
$EndComp
$Comp
L C C87
U 1 1 5991E82D
P 4500 3350
F 0 "C87" V 4550 3200 50  0000 C CNN
F 1 "100n/100V" V 4550 3600 50  0000 C CNN
F 2 "Capacitors_SMD:C_0603" H 4538 3200 50  0001 C CNN
F 3 "" H 4500 3350 50  0000 C CNN
	1    4500 3350
	0    1    1    0   
$EndComp
Wire Wire Line
	3750 3250 3900 3250
Wire Wire Line
	4200 3250 5150 3250
Wire Wire Line
	4250 3250 4250 3350
Wire Wire Line
	4250 3350 4350 3350
Connection ~ 4250 3250
Wire Wire Line
	4750 3350 4650 3350
Text Label 5150 3250 2    60   ~ 0
SiPM_HV[24]
$Comp
L R R51
U 1 1 5991E83A
P 4050 3550
F 0 "R51" V 4000 3400 50  0000 C CNN
F 1 "10k" V 4050 3550 50  0000 C CNN
F 2 "Resistors_SMD:R_0603" V 3980 3550 50  0001 C CNN
F 3 "" H 4050 3550 50  0000 C CNN
	1    4050 3550
	0    1    1    0   
$EndComp
$Comp
L C C88
U 1 1 5991E840
P 4500 3650
F 0 "C88" V 4550 3500 50  0000 C CNN
F 1 "100n/100V" V 4550 3900 50  0000 C CNN
F 2 "Capacitors_SMD:C_0603" H 4538 3500 50  0001 C CNN
F 3 "" H 4500 3650 50  0000 C CNN
	1    4500 3650
	0    1    1    0   
$EndComp
Wire Wire Line
	3750 3550 3900 3550
Wire Wire Line
	4200 3550 5150 3550
Wire Wire Line
	4250 3550 4250 3650
Wire Wire Line
	4250 3650 4350 3650
Connection ~ 4250 3550
Wire Wire Line
	4750 3650 4650 3650
Text Label 5150 3550 2    60   ~ 0
SiPM_HV[25]
$Comp
L R R52
U 1 1 5991E84D
P 4050 3850
F 0 "R52" V 4000 3700 50  0000 C CNN
F 1 "10k" V 4050 3850 50  0000 C CNN
F 2 "Resistors_SMD:R_0603" V 3980 3850 50  0001 C CNN
F 3 "" H 4050 3850 50  0000 C CNN
	1    4050 3850
	0    1    1    0   
$EndComp
$Comp
L C C89
U 1 1 5991E853
P 4500 3950
F 0 "C89" V 4550 3800 50  0000 C CNN
F 1 "100n/100V" V 4550 4200 50  0000 C CNN
F 2 "Capacitors_SMD:C_0603" H 4538 3800 50  0001 C CNN
F 3 "" H 4500 3950 50  0000 C CNN
	1    4500 3950
	0    1    1    0   
$EndComp
Wire Wire Line
	3750 3850 3900 3850
Wire Wire Line
	4200 3850 5150 3850
Wire Wire Line
	4250 3850 4250 3950
Wire Wire Line
	4250 3950 4350 3950
Connection ~ 4250 3850
Wire Wire Line
	4750 3950 4650 3950
Text Label 5150 3850 2    60   ~ 0
SiPM_HV[26]
$Comp
L R R53
U 1 1 5991E860
P 4050 4150
F 0 "R53" V 4000 4000 50  0000 C CNN
F 1 "10k" V 4050 4150 50  0000 C CNN
F 2 "Resistors_SMD:R_0603" V 3980 4150 50  0001 C CNN
F 3 "" H 4050 4150 50  0000 C CNN
	1    4050 4150
	0    1    1    0   
$EndComp
$Comp
L C C90
U 1 1 5991E866
P 4500 4250
F 0 "C90" V 4550 4100 50  0000 C CNN
F 1 "100n/100V" V 4550 4500 50  0000 C CNN
F 2 "Capacitors_SMD:C_0603" H 4538 4100 50  0001 C CNN
F 3 "" H 4500 4250 50  0000 C CNN
	1    4500 4250
	0    1    1    0   
$EndComp
Wire Wire Line
	3750 4150 3900 4150
Wire Wire Line
	4200 4150 5150 4150
Wire Wire Line
	4250 4150 4250 4250
Wire Wire Line
	4250 4250 4350 4250
Connection ~ 4250 4150
Wire Wire Line
	4750 4250 4650 4250
Text Label 5150 4150 2    60   ~ 0
SiPM_HV[27]
$Comp
L R R54
U 1 1 5991E873
P 4050 4450
F 0 "R54" V 4000 4300 50  0000 C CNN
F 1 "10k" V 4050 4450 50  0000 C CNN
F 2 "Resistors_SMD:R_0603" V 3980 4450 50  0001 C CNN
F 3 "" H 4050 4450 50  0000 C CNN
	1    4050 4450
	0    1    1    0   
$EndComp
$Comp
L C C91
U 1 1 5991E879
P 4500 4550
F 0 "C91" V 4550 4400 50  0000 C CNN
F 1 "100n/100V" V 4550 4800 50  0000 C CNN
F 2 "Capacitors_SMD:C_0603" H 4538 4400 50  0001 C CNN
F 3 "" H 4500 4550 50  0000 C CNN
	1    4500 4550
	0    1    1    0   
$EndComp
Wire Wire Line
	3750 4450 3900 4450
Wire Wire Line
	4200 4450 5150 4450
Wire Wire Line
	4250 4450 4250 4550
Wire Wire Line
	4250 4550 4350 4550
Connection ~ 4250 4450
Wire Wire Line
	4750 4550 4650 4550
Text Label 5150 4450 2    60   ~ 0
SiPM_HV[28]
$Comp
L R R55
U 1 1 5991E886
P 4050 4750
F 0 "R55" V 4000 4600 50  0000 C CNN
F 1 "10k" V 4050 4750 50  0000 C CNN
F 2 "Resistors_SMD:R_0603" V 3980 4750 50  0001 C CNN
F 3 "" H 4050 4750 50  0000 C CNN
	1    4050 4750
	0    1    1    0   
$EndComp
$Comp
L C C92
U 1 1 5991E88C
P 4500 4850
F 0 "C92" V 4550 4700 50  0000 C CNN
F 1 "100n/100V" V 4550 5100 50  0000 C CNN
F 2 "Capacitors_SMD:C_0603" H 4538 4700 50  0001 C CNN
F 3 "" H 4500 4850 50  0000 C CNN
	1    4500 4850
	0    1    1    0   
$EndComp
Wire Wire Line
	3750 4750 3900 4750
Wire Wire Line
	4200 4750 5150 4750
Wire Wire Line
	4250 4750 4250 4850
Wire Wire Line
	4250 4850 4350 4850
Connection ~ 4250 4750
Wire Wire Line
	4750 4850 4650 4850
Text Label 5150 4750 2    60   ~ 0
SiPM_HV[29]
$Comp
L R R56
U 1 1 5991E899
P 4050 5050
F 0 "R56" V 4000 4900 50  0000 C CNN
F 1 "10k" V 4050 5050 50  0000 C CNN
F 2 "Resistors_SMD:R_0603" V 3980 5050 50  0001 C CNN
F 3 "" H 4050 5050 50  0000 C CNN
	1    4050 5050
	0    1    1    0   
$EndComp
$Comp
L C C93
U 1 1 5991E89F
P 4500 5150
F 0 "C93" V 4550 5000 50  0000 C CNN
F 1 "100n/100V" V 4550 5400 50  0000 C CNN
F 2 "Capacitors_SMD:C_0603" H 4538 5000 50  0001 C CNN
F 3 "" H 4500 5150 50  0000 C CNN
	1    4500 5150
	0    1    1    0   
$EndComp
Wire Wire Line
	3750 5050 3900 5050
Wire Wire Line
	4200 5050 5150 5050
Wire Wire Line
	4250 5050 4250 5150
Wire Wire Line
	4250 5150 4350 5150
Connection ~ 4250 5050
Wire Wire Line
	4750 5150 4650 5150
Text Label 5150 5050 2    60   ~ 0
SiPM_HV[30]
$Comp
L R R57
U 1 1 5991E8AC
P 4050 5350
F 0 "R57" V 4000 5200 50  0000 C CNN
F 1 "10k" V 4050 5350 50  0000 C CNN
F 2 "Resistors_SMD:R_0603" V 3980 5350 50  0001 C CNN
F 3 "" H 4050 5350 50  0000 C CNN
	1    4050 5350
	0    1    1    0   
$EndComp
$Comp
L C C94
U 1 1 5991E8B2
P 4500 5450
F 0 "C94" V 4550 5300 50  0000 C CNN
F 1 "100n/100V" V 4550 5700 50  0000 C CNN
F 2 "Capacitors_SMD:C_0603" H 4538 5300 50  0001 C CNN
F 3 "" H 4500 5450 50  0000 C CNN
	1    4500 5450
	0    1    1    0   
$EndComp
Wire Wire Line
	3750 5350 3900 5350
Wire Wire Line
	4200 5350 5150 5350
Wire Wire Line
	4250 5350 4250 5450
Wire Wire Line
	4250 5450 4350 5450
Connection ~ 4250 5350
Wire Wire Line
	4750 5450 4650 5450
Text Label 5150 5350 2    60   ~ 0
SiPM_HV[31]
$Comp
L R R58
U 1 1 5991E8BF
P 4050 5650
F 0 "R58" V 4000 5500 50  0000 C CNN
F 1 "10k" V 4050 5650 50  0000 C CNN
F 2 "Resistors_SMD:R_0603" V 3980 5650 50  0001 C CNN
F 3 "" H 4050 5650 50  0000 C CNN
	1    4050 5650
	0    1    1    0   
$EndComp
$Comp
L C C95
U 1 1 5991E8C5
P 4500 5750
F 0 "C95" V 4550 5600 50  0000 C CNN
F 1 "100n/100V" V 4550 6000 50  0000 C CNN
F 2 "Capacitors_SMD:C_0603" H 4538 5600 50  0001 C CNN
F 3 "" H 4500 5750 50  0000 C CNN
	1    4500 5750
	0    1    1    0   
$EndComp
Wire Wire Line
	3750 5650 3900 5650
Wire Wire Line
	4200 5650 5150 5650
Wire Wire Line
	4250 5650 4250 5750
Wire Wire Line
	4250 5750 4350 5750
Connection ~ 4250 5650
Wire Wire Line
	4750 5750 4650 5750
Text Label 5150 5650 2    60   ~ 0
SiPM_HV[32]
$Comp
L R R59
U 1 1 5991E8D2
P 4050 5950
F 0 "R59" V 4000 5800 50  0000 C CNN
F 1 "10k" V 4050 5950 50  0000 C CNN
F 2 "Resistors_SMD:R_0603" V 3980 5950 50  0001 C CNN
F 3 "" H 4050 5950 50  0000 C CNN
	1    4050 5950
	0    1    1    0   
$EndComp
$Comp
L C C96
U 1 1 5991E8D8
P 4500 6050
F 0 "C96" V 4550 5900 50  0000 C CNN
F 1 "100n/100V" V 4550 6300 50  0000 C CNN
F 2 "Capacitors_SMD:C_0603" H 4538 5900 50  0001 C CNN
F 3 "" H 4500 6050 50  0000 C CNN
	1    4500 6050
	0    1    1    0   
$EndComp
Wire Wire Line
	3750 5950 3900 5950
Wire Wire Line
	4200 5950 5150 5950
Wire Wire Line
	4250 5950 4250 6050
Wire Wire Line
	4250 6050 4350 6050
Connection ~ 4250 5950
Wire Wire Line
	4750 6050 4650 6050
Text Label 5150 5950 2    60   ~ 0
SiPM_HV[33]
$Comp
L R R60
U 1 1 5991E8E5
P 4050 6250
F 0 "R60" V 4000 6100 50  0000 C CNN
F 1 "10k" V 4050 6250 50  0000 C CNN
F 2 "Resistors_SMD:R_0603" V 3980 6250 50  0001 C CNN
F 3 "" H 4050 6250 50  0000 C CNN
	1    4050 6250
	0    1    1    0   
$EndComp
$Comp
L C C97
U 1 1 5991E8EB
P 4500 6350
F 0 "C97" V 4550 6200 50  0000 C CNN
F 1 "100n/100V" V 4550 6600 50  0000 C CNN
F 2 "Capacitors_SMD:C_0603" H 4538 6200 50  0001 C CNN
F 3 "" H 4500 6350 50  0000 C CNN
	1    4500 6350
	0    1    1    0   
$EndComp
Wire Wire Line
	3750 6250 3900 6250
Wire Wire Line
	4200 6250 5150 6250
Wire Wire Line
	4250 6250 4250 6350
Wire Wire Line
	4250 6350 4350 6350
Connection ~ 4250 6250
Wire Wire Line
	4750 6350 4650 6350
Text Label 5150 6250 2    60   ~ 0
SiPM_HV[34]
$Comp
L R R61
U 1 1 5991E8F8
P 4050 6550
F 0 "R61" V 4000 6400 50  0000 C CNN
F 1 "10k" V 4050 6550 50  0000 C CNN
F 2 "Resistors_SMD:R_0603" V 3980 6550 50  0001 C CNN
F 3 "" H 4050 6550 50  0000 C CNN
	1    4050 6550
	0    1    1    0   
$EndComp
$Comp
L C C98
U 1 1 5991E8FE
P 4500 6650
F 0 "C98" V 4550 6500 50  0000 C CNN
F 1 "100n/100V" V 4550 6900 50  0000 C CNN
F 2 "Capacitors_SMD:C_0603" H 4538 6500 50  0001 C CNN
F 3 "" H 4500 6650 50  0000 C CNN
	1    4500 6650
	0    1    1    0   
$EndComp
Wire Wire Line
	3750 6550 3900 6550
Wire Wire Line
	4200 6550 5150 6550
Wire Wire Line
	4250 6550 4250 6650
Wire Wire Line
	4250 6650 4350 6650
Connection ~ 4250 6550
Wire Wire Line
	4750 6650 4650 6650
Text Label 5150 6550 2    60   ~ 0
SiPM_HV[35]
Wire Wire Line
	2950 1550 2950 6850
$Comp
L GNDA #PWR098
U 1 1 59922567
P 4750 6800
F 0 "#PWR098" H 4750 6550 50  0001 C CNN
F 1 "GNDA" H 4755 6627 50  0000 C CNN
F 2 "" H 4750 6800 50  0000 C CNN
F 3 "" H 4750 6800 50  0000 C CNN
	1    4750 6800
	1    0    0    -1  
$EndComp
$Comp
L GNDA #PWR099
U 1 1 5992260B
P 2950 6850
F 0 "#PWR099" H 2950 6600 50  0001 C CNN
F 1 "GNDA" H 2955 6677 50  0000 C CNN
F 2 "" H 2950 6850 50  0000 C CNN
F 3 "" H 2950 6850 50  0000 C CNN
	1    2950 6850
	1    0    0    -1  
$EndComp
Connection ~ 4750 6650
Connection ~ 4750 6350
Connection ~ 4750 6050
Connection ~ 4750 5750
Connection ~ 4750 5450
Connection ~ 4750 5150
Connection ~ 4750 4850
Connection ~ 4750 4550
Connection ~ 4750 4250
Connection ~ 4750 3950
Connection ~ 3750 3850
Connection ~ 3750 4150
Connection ~ 3750 4450
Connection ~ 3750 4750
Connection ~ 3750 5050
Connection ~ 3750 5350
Connection ~ 3750 5650
Connection ~ 3750 5950
Connection ~ 4750 3650
Connection ~ 3750 3550
Connection ~ 4750 1850
Connection ~ 3750 1750
Connection ~ 3750 2050
Connection ~ 3750 2350
Connection ~ 3750 2650
Connection ~ 3750 2950
Connection ~ 3750 3250
Connection ~ 4750 3350
Connection ~ 4750 3050
Connection ~ 4750 2750
Connection ~ 4750 2450
Connection ~ 4750 2150
Connection ~ 2950 1850
Connection ~ 1950 1750
Connection ~ 2950 2150
Connection ~ 2950 2450
Connection ~ 2950 2750
Connection ~ 2950 3050
Connection ~ 1950 2050
Connection ~ 1950 2350
Connection ~ 1950 2650
Connection ~ 1950 2950
Connection ~ 1950 3250
Connection ~ 2950 3350
Connection ~ 2950 3650
Connection ~ 1950 3550
Connection ~ 2950 3950
Connection ~ 1950 3850
Connection ~ 1950 4150
Connection ~ 1950 4450
Connection ~ 1950 4750
Connection ~ 1950 5050
Connection ~ 1950 5350
Connection ~ 1950 5650
Connection ~ 1950 5950
Connection ~ 2950 6050
Connection ~ 2950 5750
Connection ~ 2950 5450
Connection ~ 2950 5150
Connection ~ 2950 4850
Connection ~ 2950 4550
Connection ~ 2950 4250
Connection ~ 2950 6650
Connection ~ 2950 6350
Connection ~ 1950 6250
Connection ~ 1950 6550
Connection ~ 3750 6550
Connection ~ 3750 6250
Wire Wire Line
	3750 6550 3750 1250
Wire Wire Line
	3750 1250 1950 1250
Wire Wire Line
	1950 1250 1950 6550
Connection ~ 1950 1450
Text HLabel 3750 1250 2    60   Input ~ 0
HV
$Comp
L CONN_02X36 P8
U 1 1 59924483
P 7300 3400
F 0 "P8" H 7300 5365 50  0000 C CNN
F 1 "CONN_02X36" H 7300 5274 50  0000 C CNN
F 2 "klaus:Conn_2X36_smd_small" H 7300 3200 50  0001 C CNN
F 3 "" H 7300 3200 50  0000 C CNN
	1    7300 3400
	-1   0    0    -1  
$EndComp
Wire Wire Line
	6750 1650 7050 1650
Wire Wire Line
	6750 1750 7050 1750
Wire Wire Line
	6750 1850 7050 1850
Wire Wire Line
	6750 1950 7050 1950
Wire Wire Line
	6750 2050 7050 2050
Wire Wire Line
	6750 2150 7050 2150
Wire Wire Line
	6750 2250 7050 2250
Wire Wire Line
	6750 2350 7050 2350
Wire Wire Line
	6750 2450 7050 2450
Wire Wire Line
	6750 2550 7050 2550
Wire Wire Line
	6750 2650 7050 2650
Wire Wire Line
	6750 2750 7050 2750
Wire Wire Line
	6750 2850 7050 2850
Wire Wire Line
	6750 2950 7050 2950
Wire Wire Line
	6750 3050 7050 3050
Wire Wire Line
	6750 3150 7050 3150
Wire Wire Line
	6750 3250 7050 3250
Wire Wire Line
	6750 3350 7050 3350
Wire Wire Line
	6750 3450 7050 3450
Wire Wire Line
	6750 3550 7050 3550
Wire Wire Line
	6750 3650 7050 3650
Wire Wire Line
	6750 3750 7050 3750
Wire Wire Line
	6750 3850 7050 3850
Wire Wire Line
	6750 3950 7050 3950
Wire Wire Line
	6750 4050 7050 4050
Wire Wire Line
	6750 4150 7050 4150
Wire Wire Line
	6750 4250 7050 4250
Wire Wire Line
	6750 4350 7050 4350
Wire Wire Line
	6750 4450 7050 4450
Wire Wire Line
	6750 4550 7050 4550
Wire Wire Line
	6750 4650 7050 4650
Wire Wire Line
	6750 4750 7050 4750
Wire Wire Line
	6750 4850 7050 4850
Wire Wire Line
	6750 4950 7050 4950
Wire Wire Line
	6750 5050 7050 5050
Wire Wire Line
	6750 5150 7050 5150
Wire Wire Line
	7550 1650 9850 1650
Wire Wire Line
	7550 1750 9550 1750
Wire Wire Line
	7550 1850 9250 1850
Wire Wire Line
	7550 1950 9850 1950
Wire Wire Line
	7550 2050 9550 2050
Wire Wire Line
	7550 2150 9250 2150
Wire Wire Line
	7550 2250 9850 2250
Wire Wire Line
	7550 2350 9550 2350
Wire Wire Line
	7550 2450 9250 2450
Wire Wire Line
	7550 2550 9850 2550
Wire Wire Line
	7550 2650 9550 2650
Wire Wire Line
	7550 2750 9250 2750
Wire Wire Line
	7550 2850 9850 2850
Wire Wire Line
	7550 2950 9550 2950
Wire Wire Line
	7550 3050 9250 3050
Wire Wire Line
	7550 3150 9850 3150
Wire Wire Line
	7550 3250 9550 3250
Wire Wire Line
	7550 3350 9250 3350
Wire Wire Line
	7550 3450 9850 3450
Wire Wire Line
	7550 3550 9550 3550
Wire Wire Line
	7550 3650 9250 3650
Wire Wire Line
	7550 3750 9850 3750
Wire Wire Line
	7550 3850 9550 3850
Wire Wire Line
	7550 3950 9250 3950
Wire Wire Line
	7550 4050 9850 4050
Wire Wire Line
	7550 4150 9550 4150
Wire Wire Line
	7550 4250 9250 4250
Wire Wire Line
	7550 4350 9850 4350
Wire Wire Line
	7550 4450 9550 4450
Wire Wire Line
	7550 4550 9250 4550
Wire Wire Line
	7550 4650 9850 4650
Wire Wire Line
	7550 4750 9550 4750
Wire Wire Line
	7550 4850 9250 4850
Wire Wire Line
	7550 4950 9850 4950
Wire Wire Line
	7550 5050 9550 5050
Wire Wire Line
	7550 5150 9250 5150
Text Label 7050 1650 2    60   ~ 0
SiPM_HV[0]
Text Label 7050 1750 2    60   ~ 0
SiPM_HV[1]
Text Label 7050 1850 2    60   ~ 0
SiPM_HV[2]
Text Label 7050 1950 2    60   ~ 0
SiPM_HV[3]
Text Label 7050 2050 2    60   ~ 0
SiPM_HV[4]
Text Label 7050 2150 2    60   ~ 0
SiPM_HV[5]
Text Label 7050 2250 2    60   ~ 0
SiPM_HV[6]
Text Label 7050 2350 2    60   ~ 0
SiPM_HV[7]
Text Label 7050 2450 2    60   ~ 0
SiPM_HV[8]
Text Label 7050 2550 2    60   ~ 0
SiPM_HV[9]
Text Label 7050 2650 2    60   ~ 0
SiPM_HV[10]
Text Label 7050 2750 2    60   ~ 0
SiPM_HV[11]
Text Label 7050 2850 2    60   ~ 0
SiPM_HV[12]
Text Label 7050 2950 2    60   ~ 0
SiPM_HV[13]
Text Label 7050 3050 2    60   ~ 0
SiPM_HV[14]
Text Label 7050 3150 2    60   ~ 0
SiPM_HV[15]
Text Label 7050 3250 2    60   ~ 0
SiPM_HV[16]
Text Label 7050 3350 2    60   ~ 0
SiPM_HV[17]
Text Label 7050 3450 2    60   ~ 0
SiPM_HV[18]
Text Label 7050 3550 2    60   ~ 0
SiPM_HV[19]
Text Label 7050 3650 2    60   ~ 0
SiPM_HV[20]
Text Label 7050 3750 2    60   ~ 0
SiPM_HV[21]
Text Label 7050 3850 2    60   ~ 0
SiPM_HV[22]
Text Label 7050 3950 2    60   ~ 0
SiPM_HV[23]
Text Label 7050 4050 2    60   ~ 0
SiPM_HV[24]
Text Label 7050 4150 2    60   ~ 0
SiPM_HV[25]
Text Label 7050 4250 2    60   ~ 0
SiPM_HV[26]
Text Label 7050 4350 2    60   ~ 0
SiPM_HV[27]
Text Label 7050 4450 2    60   ~ 0
SiPM_HV[28]
Text Label 7050 4550 2    60   ~ 0
SiPM_HV[29]
Text Label 7050 4650 2    60   ~ 0
SiPM_HV[30]
Text Label 7050 4750 2    60   ~ 0
SiPM_HV[31]
Text Label 7050 4850 2    60   ~ 0
SiPM_HV[32]
Text Label 7050 4950 2    60   ~ 0
SiPM_HV[33]
Text Label 7050 5050 2    60   ~ 0
SiPM_HV[34]
Text Label 7050 5150 2    60   ~ 0
SiPM_HV[35]
Text HLabel 8450 1650 2    60   Output ~ 0
SiPM_in[0]
Text HLabel 8450 1750 2    60   Output ~ 0
SiPM_in[1]
Text HLabel 8450 1850 2    60   Output ~ 0
SiPM_in[2]
Text HLabel 8450 1950 2    60   Output ~ 0
SiPM_in[3]
Text HLabel 8450 2050 2    60   Output ~ 0
SiPM_in[4]
Text HLabel 8450 2150 2    60   Output ~ 0
SiPM_in[5]
Text HLabel 8450 2250 2    60   Output ~ 0
SiPM_in[6]
Text HLabel 8450 2350 2    60   Output ~ 0
SiPM_in[7]
Text HLabel 8450 2450 2    60   Output ~ 0
SiPM_in[8]
Text HLabel 8450 2550 2    60   Output ~ 0
SiPM_in[9]
Text HLabel 8450 2650 2    60   Output ~ 0
SiPM_in[10]
Text HLabel 8450 2750 2    60   Output ~ 0
SiPM_in[11]
Text HLabel 8450 2850 2    60   Output ~ 0
SiPM_in[12]
Text HLabel 8450 2950 2    60   Output ~ 0
SiPM_in[13]
Text HLabel 8450 3050 2    60   Output ~ 0
SiPM_in[14]
Text HLabel 8450 3150 2    60   Output ~ 0
SiPM_in[15]
Text HLabel 8450 3250 2    60   Output ~ 0
SiPM_in[16]
Text HLabel 8450 3350 2    60   Output ~ 0
SiPM_in[17]
Text HLabel 8450 3450 2    60   Output ~ 0
SiPM_in[18]
Text HLabel 8450 3550 2    60   Output ~ 0
SiPM_in[19]
Text HLabel 8450 3650 2    60   Output ~ 0
SiPM_in[20]
Text HLabel 8450 3750 2    60   Output ~ 0
SiPM_in[21]
Text HLabel 8450 3850 2    60   Output ~ 0
SiPM_in[22]
Text HLabel 8450 3950 2    60   Output ~ 0
SiPM_in[23]
Text HLabel 8450 4050 2    60   Output ~ 0
SiPM_in[24]
Text HLabel 8450 4150 2    60   Output ~ 0
SiPM_in[25]
Text HLabel 8450 4250 2    60   Output ~ 0
SiPM_in[26]
Text HLabel 8450 4350 2    60   Output ~ 0
SiPM_in[27]
Text HLabel 8450 4450 2    60   Output ~ 0
SiPM_in[28]
Text HLabel 8450 4550 2    60   Output ~ 0
SiPM_in[29]
Text HLabel 8450 4650 2    60   Output ~ 0
SiPM_in[30]
Text HLabel 8450 4750 2    60   Output ~ 0
SiPM_in[31]
Text HLabel 8450 4850 2    60   Output ~ 0
SiPM_in[32]
Text HLabel 8450 4950 2    60   Output ~ 0
SiPM_in[33]
Text HLabel 8450 5050 2    60   Output ~ 0
SiPM_in[34]
Text HLabel 8450 5150 2    60   Output ~ 0
SiPM_in[35]
$Comp
L CONN_02X36 P10
U 1 1 5992BAEE
P 10550 3400
F 0 "P10" H 10550 5365 50  0000 C CNN
F 1 "CONN_02X36" H 10550 5274 50  0000 C CNN
F 2 "klaus:Conn_2X36_smd_small" H 10550 3200 50  0001 C CNN
F 3 "" H 10550 3200 50  0000 C CNN
	1    10550 3400
	1    0    0    -1  
$EndComp
Wire Wire Line
	10800 1750 11000 1750
Connection ~ 11000 1750
Wire Wire Line
	10800 1850 11000 1850
Connection ~ 11000 1850
Wire Wire Line
	10800 1950 11000 1950
Connection ~ 11000 1950
Wire Wire Line
	10800 2050 11000 2050
Connection ~ 11000 2050
Wire Wire Line
	10800 2150 11000 2150
Connection ~ 11000 2150
Wire Wire Line
	10800 2250 11000 2250
Connection ~ 11000 2250
Wire Wire Line
	10800 2350 11000 2350
Connection ~ 11000 2350
Wire Wire Line
	10800 2450 11000 2450
Connection ~ 11000 2450
Wire Wire Line
	10800 2550 11000 2550
Connection ~ 11000 2550
Wire Wire Line
	10800 2650 11000 2650
Connection ~ 11000 2650
Wire Wire Line
	10800 2750 11000 2750
Connection ~ 11000 2750
Wire Wire Line
	10800 2850 11000 2850
Connection ~ 11000 2850
Wire Wire Line
	10800 2950 11000 2950
Connection ~ 11000 2950
Wire Wire Line
	10800 3050 11000 3050
Connection ~ 11000 3050
Wire Wire Line
	10800 3150 11000 3150
Connection ~ 11000 3150
Wire Wire Line
	10800 3250 11000 3250
Connection ~ 11000 3250
Wire Wire Line
	10800 3350 11000 3350
Connection ~ 11000 3350
Wire Wire Line
	10800 3450 11000 3450
Connection ~ 11000 3450
Wire Wire Line
	10800 3550 11000 3550
Connection ~ 11000 3550
Wire Wire Line
	10800 3650 11000 3650
Connection ~ 11000 3650
Wire Wire Line
	10800 3750 11000 3750
Connection ~ 11000 3750
Wire Wire Line
	10800 3850 11000 3850
Connection ~ 11000 3850
Wire Wire Line
	10800 3950 11000 3950
Connection ~ 11000 3950
Wire Wire Line
	10800 4050 11000 4050
Connection ~ 11000 4050
Wire Wire Line
	10800 4150 11000 4150
Connection ~ 11000 4150
Wire Wire Line
	10800 4250 11000 4250
Connection ~ 11000 4250
Wire Wire Line
	10800 4350 11000 4350
Connection ~ 11000 4350
Wire Wire Line
	10800 4450 11000 4450
Connection ~ 11000 4450
Wire Wire Line
	10800 4550 11000 4550
Connection ~ 11000 4550
Wire Wire Line
	10800 4650 11000 4650
Connection ~ 11000 4650
Wire Wire Line
	10800 4750 11000 4750
Connection ~ 11000 4750
Wire Wire Line
	10800 4850 11000 4850
Connection ~ 11000 4850
Wire Wire Line
	10800 4950 11000 4950
Connection ~ 11000 4950
Wire Wire Line
	10800 5050 11000 5050
Connection ~ 11000 5050
Wire Wire Line
	10800 5150 11000 5150
Connection ~ 11000 5150
Wire Wire Line
	10800 1650 11000 1650
Wire Wire Line
	11000 1650 11000 5300
Text Notes 6750 1300 0    60   ~ 0
For connection of SiPM
Text Notes 10100 1300 0    60   ~ 0
For Charge injection
Text Notes 3050 1100 0    60   ~ 0
High voltage of the SiPM
$Comp
L C C123
U 1 1 598CE1BD
P 10000 1650
F 0 "C123" V 10050 1550 50  0000 C CNN
F 1 "33p" V 10050 1750 50  0000 C CNN
F 2 "Capacitors_SMD:C_0603" H 10038 1500 50  0001 C CNN
F 3 "" H 10000 1650 50  0000 C CNN
	1    10000 1650
	0    1    1    0   
$EndComp
$Comp
L C C111
U 1 1 598CE36F
P 9700 1750
F 0 "C111" V 9750 1650 50  0000 C CNN
F 1 "33p" V 9750 1850 50  0000 C CNN
F 2 "Capacitors_SMD:C_0603" H 9738 1600 50  0001 C CNN
F 3 "" H 9700 1750 50  0000 C CNN
	1    9700 1750
	0    1    1    0   
$EndComp
$Comp
L C C99
U 1 1 598CE530
P 9400 1850
F 0 "C99" V 9450 1750 50  0000 C CNN
F 1 "33p" V 9450 1950 50  0000 C CNN
F 2 "Capacitors_SMD:C_0603" H 9438 1700 50  0001 C CNN
F 3 "" H 9400 1850 50  0000 C CNN
	1    9400 1850
	0    1    1    0   
$EndComp
$Comp
L C C124
U 1 1 598CF3D8
P 10000 1950
F 0 "C124" V 10050 1850 50  0000 C CNN
F 1 "33p" V 10050 2050 50  0000 C CNN
F 2 "Capacitors_SMD:C_0603" H 10038 1800 50  0001 C CNN
F 3 "" H 10000 1950 50  0000 C CNN
	1    10000 1950
	0    1    1    0   
$EndComp
$Comp
L C C112
U 1 1 598CF3DE
P 9700 2050
F 0 "C112" V 9750 1950 50  0000 C CNN
F 1 "33p" V 9750 2150 50  0000 C CNN
F 2 "Capacitors_SMD:C_0603" H 9738 1900 50  0001 C CNN
F 3 "" H 9700 2050 50  0000 C CNN
	1    9700 2050
	0    1    1    0   
$EndComp
$Comp
L C C100
U 1 1 598CF3E4
P 9400 2150
F 0 "C100" V 9450 2050 50  0000 C CNN
F 1 "33p" V 9450 2250 50  0000 C CNN
F 2 "Capacitors_SMD:C_0603" H 9438 2000 50  0001 C CNN
F 3 "" H 9400 2150 50  0000 C CNN
	1    9400 2150
	0    1    1    0   
$EndComp
$Comp
L C C125
U 1 1 598CF766
P 10000 2250
F 0 "C125" V 10050 2150 50  0000 C CNN
F 1 "33p" V 10050 2350 50  0000 C CNN
F 2 "Capacitors_SMD:C_0603" H 10038 2100 50  0001 C CNN
F 3 "" H 10000 2250 50  0000 C CNN
	1    10000 2250
	0    1    1    0   
$EndComp
$Comp
L C C113
U 1 1 598CF76C
P 9700 2350
F 0 "C113" V 9750 2250 50  0000 C CNN
F 1 "33p" V 9750 2450 50  0000 C CNN
F 2 "Capacitors_SMD:C_0603" H 9738 2200 50  0001 C CNN
F 3 "" H 9700 2350 50  0000 C CNN
	1    9700 2350
	0    1    1    0   
$EndComp
$Comp
L C C101
U 1 1 598CF772
P 9400 2450
F 0 "C101" V 9450 2350 50  0000 C CNN
F 1 "33p" V 9450 2550 50  0000 C CNN
F 2 "Capacitors_SMD:C_0603" H 9438 2300 50  0001 C CNN
F 3 "" H 9400 2450 50  0000 C CNN
	1    9400 2450
	0    1    1    0   
$EndComp
$Comp
L C C126
U 1 1 598CF778
P 10000 2550
F 0 "C126" V 10050 2450 50  0000 C CNN
F 1 "33p" V 10050 2650 50  0000 C CNN
F 2 "Capacitors_SMD:C_0603" H 10038 2400 50  0001 C CNN
F 3 "" H 10000 2550 50  0000 C CNN
	1    10000 2550
	0    1    1    0   
$EndComp
$Comp
L C C114
U 1 1 598CF77E
P 9700 2650
F 0 "C114" V 9750 2550 50  0000 C CNN
F 1 "33p" V 9750 2750 50  0000 C CNN
F 2 "Capacitors_SMD:C_0603" H 9738 2500 50  0001 C CNN
F 3 "" H 9700 2650 50  0000 C CNN
	1    9700 2650
	0    1    1    0   
$EndComp
$Comp
L C C102
U 1 1 598CF784
P 9400 2750
F 0 "C102" V 9450 2650 50  0000 C CNN
F 1 "33p" V 9450 2850 50  0000 C CNN
F 2 "Capacitors_SMD:C_0603" H 9438 2600 50  0001 C CNN
F 3 "" H 9400 2750 50  0000 C CNN
	1    9400 2750
	0    1    1    0   
$EndComp
$Comp
L C C127
U 1 1 598CFB6E
P 10000 2850
F 0 "C127" V 10050 2750 50  0000 C CNN
F 1 "33p" V 10050 2950 50  0000 C CNN
F 2 "Capacitors_SMD:C_0603" H 10038 2700 50  0001 C CNN
F 3 "" H 10000 2850 50  0000 C CNN
	1    10000 2850
	0    1    1    0   
$EndComp
$Comp
L C C115
U 1 1 598CFB74
P 9700 2950
F 0 "C115" V 9750 2850 50  0000 C CNN
F 1 "33p" V 9750 3050 50  0000 C CNN
F 2 "Capacitors_SMD:C_0603" H 9738 2800 50  0001 C CNN
F 3 "" H 9700 2950 50  0000 C CNN
	1    9700 2950
	0    1    1    0   
$EndComp
$Comp
L C C103
U 1 1 598CFB7A
P 9400 3050
F 0 "C103" V 9450 2950 50  0000 C CNN
F 1 "33p" V 9450 3150 50  0000 C CNN
F 2 "Capacitors_SMD:C_0603" H 9438 2900 50  0001 C CNN
F 3 "" H 9400 3050 50  0000 C CNN
	1    9400 3050
	0    1    1    0   
$EndComp
$Comp
L C C128
U 1 1 598CFB80
P 10000 3150
F 0 "C128" V 10050 3050 50  0000 C CNN
F 1 "33p" V 10050 3250 50  0000 C CNN
F 2 "Capacitors_SMD:C_0603" H 10038 3000 50  0001 C CNN
F 3 "" H 10000 3150 50  0000 C CNN
	1    10000 3150
	0    1    1    0   
$EndComp
$Comp
L C C116
U 1 1 598CFB86
P 9700 3250
F 0 "C116" V 9750 3150 50  0000 C CNN
F 1 "33p" V 9750 3350 50  0000 C CNN
F 2 "Capacitors_SMD:C_0603" H 9738 3100 50  0001 C CNN
F 3 "" H 9700 3250 50  0000 C CNN
	1    9700 3250
	0    1    1    0   
$EndComp
$Comp
L C C104
U 1 1 598CFB8C
P 9400 3350
F 0 "C104" V 9450 3250 50  0000 C CNN
F 1 "33p" V 9450 3450 50  0000 C CNN
F 2 "Capacitors_SMD:C_0603" H 9438 3200 50  0001 C CNN
F 3 "" H 9400 3350 50  0000 C CNN
	1    9400 3350
	0    1    1    0   
$EndComp
$Comp
L C C129
U 1 1 598CFB92
P 10000 3450
F 0 "C129" V 10050 3350 50  0000 C CNN
F 1 "33p" V 10050 3550 50  0000 C CNN
F 2 "Capacitors_SMD:C_0603" H 10038 3300 50  0001 C CNN
F 3 "" H 10000 3450 50  0000 C CNN
	1    10000 3450
	0    1    1    0   
$EndComp
$Comp
L C C117
U 1 1 598CFB98
P 9700 3550
F 0 "C117" V 9750 3450 50  0000 C CNN
F 1 "33p" V 9750 3650 50  0000 C CNN
F 2 "Capacitors_SMD:C_0603" H 9738 3400 50  0001 C CNN
F 3 "" H 9700 3550 50  0000 C CNN
	1    9700 3550
	0    1    1    0   
$EndComp
$Comp
L C C105
U 1 1 598CFB9E
P 9400 3650
F 0 "C105" V 9450 3550 50  0000 C CNN
F 1 "33p" V 9450 3750 50  0000 C CNN
F 2 "Capacitors_SMD:C_0603" H 9438 3500 50  0001 C CNN
F 3 "" H 9400 3650 50  0000 C CNN
	1    9400 3650
	0    1    1    0   
$EndComp
$Comp
L C C130
U 1 1 598CFBA4
P 10000 3750
F 0 "C130" V 10050 3650 50  0000 C CNN
F 1 "33p" V 10050 3850 50  0000 C CNN
F 2 "Capacitors_SMD:C_0603" H 10038 3600 50  0001 C CNN
F 3 "" H 10000 3750 50  0000 C CNN
	1    10000 3750
	0    1    1    0   
$EndComp
$Comp
L C C118
U 1 1 598CFBAA
P 9700 3850
F 0 "C118" V 9750 3750 50  0000 C CNN
F 1 "33p" V 9750 3950 50  0000 C CNN
F 2 "Capacitors_SMD:C_0603" H 9738 3700 50  0001 C CNN
F 3 "" H 9700 3850 50  0000 C CNN
	1    9700 3850
	0    1    1    0   
$EndComp
$Comp
L C C106
U 1 1 598CFBB0
P 9400 3950
F 0 "C106" V 9450 3850 50  0000 C CNN
F 1 "33p" V 9450 4050 50  0000 C CNN
F 2 "Capacitors_SMD:C_0603" H 9438 3800 50  0001 C CNN
F 3 "" H 9400 3950 50  0000 C CNN
	1    9400 3950
	0    1    1    0   
$EndComp
$Comp
L C C131
U 1 1 598D2D12
P 10000 4050
F 0 "C131" V 10050 3950 50  0000 C CNN
F 1 "33p" V 10050 4150 50  0000 C CNN
F 2 "Capacitors_SMD:C_0603" H 10038 3900 50  0001 C CNN
F 3 "" H 10000 4050 50  0000 C CNN
	1    10000 4050
	0    1    1    0   
$EndComp
$Comp
L C C119
U 1 1 598D2D18
P 9700 4150
F 0 "C119" V 9750 4050 50  0000 C CNN
F 1 "33p" V 9750 4250 50  0000 C CNN
F 2 "Capacitors_SMD:C_0603" H 9738 4000 50  0001 C CNN
F 3 "" H 9700 4150 50  0000 C CNN
	1    9700 4150
	0    1    1    0   
$EndComp
$Comp
L C C107
U 1 1 598D2D1E
P 9400 4250
F 0 "C107" V 9450 4150 50  0000 C CNN
F 1 "33p" V 9450 4350 50  0000 C CNN
F 2 "Capacitors_SMD:C_0603" H 9438 4100 50  0001 C CNN
F 3 "" H 9400 4250 50  0000 C CNN
	1    9400 4250
	0    1    1    0   
$EndComp
$Comp
L C C132
U 1 1 598D2D24
P 10000 4350
F 0 "C132" V 10050 4250 50  0000 C CNN
F 1 "33p" V 10050 4450 50  0000 C CNN
F 2 "Capacitors_SMD:C_0603" H 10038 4200 50  0001 C CNN
F 3 "" H 10000 4350 50  0000 C CNN
	1    10000 4350
	0    1    1    0   
$EndComp
$Comp
L C C120
U 1 1 598D2D2A
P 9700 4450
F 0 "C120" V 9750 4350 50  0000 C CNN
F 1 "33p" V 9750 4550 50  0000 C CNN
F 2 "Capacitors_SMD:C_0603" H 9738 4300 50  0001 C CNN
F 3 "" H 9700 4450 50  0000 C CNN
	1    9700 4450
	0    1    1    0   
$EndComp
$Comp
L C C108
U 1 1 598D2D30
P 9400 4550
F 0 "C108" V 9450 4450 50  0000 C CNN
F 1 "33p" V 9450 4650 50  0000 C CNN
F 2 "Capacitors_SMD:C_0603" H 9438 4400 50  0001 C CNN
F 3 "" H 9400 4550 50  0000 C CNN
	1    9400 4550
	0    1    1    0   
$EndComp
$Comp
L C C133
U 1 1 598D2D36
P 10000 4650
F 0 "C133" V 10050 4550 50  0000 C CNN
F 1 "33p" V 10050 4750 50  0000 C CNN
F 2 "Capacitors_SMD:C_0603" H 10038 4500 50  0001 C CNN
F 3 "" H 10000 4650 50  0000 C CNN
	1    10000 4650
	0    1    1    0   
$EndComp
$Comp
L C C121
U 1 1 598D2D3C
P 9700 4750
F 0 "C121" V 9750 4650 50  0000 C CNN
F 1 "33p" V 9750 4850 50  0000 C CNN
F 2 "Capacitors_SMD:C_0603" H 9738 4600 50  0001 C CNN
F 3 "" H 9700 4750 50  0000 C CNN
	1    9700 4750
	0    1    1    0   
$EndComp
$Comp
L C C109
U 1 1 598D2D42
P 9400 4850
F 0 "C109" V 9450 4750 50  0000 C CNN
F 1 "33p" V 9450 4950 50  0000 C CNN
F 2 "Capacitors_SMD:C_0603" H 9438 4700 50  0001 C CNN
F 3 "" H 9400 4850 50  0000 C CNN
	1    9400 4850
	0    1    1    0   
$EndComp
$Comp
L C C134
U 1 1 598D2D48
P 10000 4950
F 0 "C134" V 10050 4850 50  0000 C CNN
F 1 "33p" V 10050 5050 50  0000 C CNN
F 2 "Capacitors_SMD:C_0603" H 10038 4800 50  0001 C CNN
F 3 "" H 10000 4950 50  0000 C CNN
	1    10000 4950
	0    1    1    0   
$EndComp
$Comp
L C C122
U 1 1 598D2D4E
P 9700 5050
F 0 "C122" V 9750 4950 50  0000 C CNN
F 1 "33p" V 9750 5150 50  0000 C CNN
F 2 "Capacitors_SMD:C_0603" H 9738 4900 50  0001 C CNN
F 3 "" H 9700 5050 50  0000 C CNN
	1    9700 5050
	0    1    1    0   
$EndComp
$Comp
L C C110
U 1 1 598D2D54
P 9400 5150
F 0 "C110" V 9450 5050 50  0000 C CNN
F 1 "33p" V 9450 5250 50  0000 C CNN
F 2 "Capacitors_SMD:C_0603" H 9438 5000 50  0001 C CNN
F 3 "" H 9400 5150 50  0000 C CNN
	1    9400 5150
	0    1    1    0   
$EndComp
Wire Wire Line
	10300 1650 10150 1650
Wire Wire Line
	10300 1750 9850 1750
Wire Wire Line
	10300 1850 9550 1850
Wire Wire Line
	10300 1950 10150 1950
Wire Wire Line
	10300 2050 9850 2050
Wire Wire Line
	10300 2150 9550 2150
Wire Wire Line
	10300 2250 10150 2250
Wire Wire Line
	10300 2350 9850 2350
Wire Wire Line
	10300 2450 9550 2450
Wire Wire Line
	10300 2550 10150 2550
Wire Wire Line
	10300 2650 9850 2650
Wire Wire Line
	10300 2750 9550 2750
Wire Wire Line
	10300 2850 10150 2850
Wire Wire Line
	10300 2950 9850 2950
Wire Wire Line
	10300 3050 9550 3050
Wire Wire Line
	10300 3150 10150 3150
Wire Wire Line
	10300 3250 9850 3250
Wire Wire Line
	10300 3350 9550 3350
Wire Wire Line
	10300 3450 10150 3450
Wire Wire Line
	10300 3550 9850 3550
Wire Wire Line
	10300 3650 9550 3650
Wire Wire Line
	10300 3750 10150 3750
Wire Wire Line
	10300 3850 9850 3850
Wire Wire Line
	10300 3950 9550 3950
Wire Wire Line
	10300 4050 10150 4050
Wire Wire Line
	10300 4150 9850 4150
Wire Wire Line
	10300 4250 9550 4250
Wire Wire Line
	10300 4350 10150 4350
Wire Wire Line
	10300 4450 9850 4450
Wire Wire Line
	10300 4550 9550 4550
Wire Wire Line
	10300 4650 10150 4650
Wire Wire Line
	10300 4750 9850 4750
Wire Wire Line
	10300 4850 9550 4850
Wire Wire Line
	10300 4950 10150 4950
Wire Wire Line
	10300 5050 9850 5050
Wire Wire Line
	10300 5150 9550 5150
Connection ~ 3750 1450
Wire Wire Line
	4750 6800 4750 1550
$Comp
L GNDA #PWR0100
U 1 1 59B83BBF
P 11000 5300
F 0 "#PWR0100" H 11000 5050 50  0001 C CNN
F 1 "GNDA" H 11005 5127 50  0000 C CNN
F 2 "" H 11000 5300 50  0000 C CNN
F 3 "" H 11000 5300 50  0000 C CNN
	1    11000 5300
	1    0    0    -1  
$EndComp
$EndSCHEMATC
